DataAnalysis/Johnson_noise/2017_johnson_noise/data_MUIC_nop_anan/NewFile40.csv

X,CH1,Start,Increment,
Sequence,Volt,-3.60000e-03,1.00000e-05
0,2.92000e+00,
1,2.04000e+00,
2,2.08000e+00,
3,1.00000e+00,
4,1.08000e+00,
5,-8.00000e-02,
6,-4.00000e-02,
7,-1.20000e+00,
8,-1.16000e+00,
9,-2.16000e+00,
10,-2.16000e+00,
11,-3.00000e+00,
12,-2.92000e+00,
13,-3.52000e+00,
14,-3.48000e+00,
15,-3.76000e+00,
16,-3.76000e+00,
17,-3.56000e+00,
18,-3.60000e+00,
19,-3.12000e+00,
20,-3.16000e+00,
21,-2.36000e+00,
22,-2.40000e+00,
23,-1.40000e+00,
24,-1.40000e+00,
25,-2.80000e-01,
26,-3.60000e-01,
27,8.40000e-01,
28,7.60000e-01,
29,1.88000e+00,
30,1.88000e+00,
31,2.76000e+00,
32,2.72000e+00,
33,3.40000e+00,
34,3.32000e+00,
35,3.72000e+00,
36,3.76000e+00,
37,3.64000e+00,
38,3.72000e+00,
39,3.36000e+00,
40,3.40000e+00,
41,2.72000e+00,
42,2.80000e+00,
43,1.88000e+00,
44,1.92000e+00,
45,8.00000e-01,
46,8.80000e-01,
47,-3.20000e-01,
48,-2.40000e-01,
49,-1.36000e+00,
50,-1.32000e+00,
51,-2.36000e+00,
52,-2.32000e+00,
53,-3.08000e+00,
54,-3.08000e+00,
55,-3.56000e+00,
56,-3.52000e+00,
57,-3.80000e+00,
58,-3.80000e+00,
59,-3.48000e+00,
60,-3.52000e+00,
61,-3.00000e+00,
62,-3.04000e+00,
63,-2.24000e+00,
64,-2.24000e+00,
65,-1.20000e+00,
66,-1.20000e+00,
67,-1.60000e-01,
68,-1.60000e-01,
69,1.00000e+00,
70,9.60000e-01,
71,2.04000e+00,
72,2.00000e+00,
73,2.88000e+00,
74,2.80000e+00,
75,3.48000e+00,
76,3.44000e+00,
77,3.76000e+00,
78,3.80000e+00,
79,3.64000e+00,
80,3.68000e+00,
81,3.28000e+00,
82,3.36000e+00,
83,2.64000e+00,
84,2.68000e+00,
85,1.72000e+00,
86,1.76000e+00,
87,6.80000e-01,
88,7.20000e-01,
89,-4.40000e-01,
90,-4.40000e-01,
91,-1.56000e+00,
92,-1.48000e+00,
93,-2.48000e+00,
94,-2.44000e+00,
95,-3.20000e+00,
96,-3.16000e+00,
97,-3.68000e+00,
98,-3.60000e+00,
99,-3.76000e+00,
100,-3.76000e+00,
101,-3.44000e+00,
102,-3.52000e+00,
103,-2.88000e+00,
104,-2.96000e+00,
105,-2.08000e+00,
106,-2.08000e+00,
107,-1.04000e+00,
108,-1.08000e+00,
109,0.00000e+00,
110,-4.00000e-02,
111,1.20000e+00,
112,1.12000e+00,
113,2.20000e+00,
114,2.12000e+00,
115,2.96000e+00,
116,2.92000e+00,
117,3.56000e+00,
118,3.52000e+00,
119,3.80000e+00,
120,3.80000e+00,
121,3.56000e+00,
122,3.64000e+00,
123,3.20000e+00,
124,3.24000e+00,
125,2.48000e+00,
126,2.56000e+00,
127,1.52000e+00,
128,1.56000e+00,
129,4.80000e-01,
130,5.20000e-01,
131,-6.40000e-01,
132,-6.00000e-01,
133,-1.72000e+00,
134,-1.68000e+00,
135,-2.60000e+00,
136,-2.56000e+00,
137,-3.28000e+00,
138,-3.24000e+00,
139,-3.72000e+00,
140,-3.64000e+00,
141,-3.80000e+00,
142,-3.72000e+00,
143,-3.36000e+00,
144,-3.40000e+00,
145,-2.76000e+00,
146,-2.80000e+00,
147,-1.92000e+00,
148,-1.96000e+00,
149,-8.80000e-01,
150,-9.20000e-01,
151,2.40000e-01,
152,2.40000e-01,
153,1.32000e+00,
154,1.36000e+00,
155,2.32000e+00,
156,2.32000e+00,
157,3.12000e+00,
158,3.04000e+00,
159,3.60000e+00,
160,3.52000e+00,
161,3.80000e+00,
162,3.84000e+00,
163,3.56000e+00,
164,3.60000e+00,
165,3.12000e+00,
166,3.16000e+00,
167,2.32000e+00,
168,2.40000e+00,
169,1.36000e+00,
170,1.40000e+00,
171,2.80000e-01,
172,3.20000e-01,
173,-8.00000e-01,
174,-8.00000e-01,
175,-1.88000e+00,
176,-1.80000e+00,
177,-2.76000e+00,
178,-2.72000e+00,
179,-3.40000e+00,
180,-3.36000e+00,
181,-3.68000e+00,
182,-3.76000e+00,
183,-3.60000e+00,
184,-3.64000e+00,
185,-3.32000e+00,
186,-3.36000e+00,
187,-2.64000e+00,
188,-2.68000e+00,
189,-1.68000e+00,
190,-1.72000e+00,
191,-6.80000e-01,
192,-6.80000e-01,
193,4.00000e-01,
194,4.00000e-01,
195,1.52000e+00,
196,1.48000e+00,
197,2.48000e+00,
198,2.44000e+00,
199,3.24000e+00,
200,3.16000e+00,
201,3.64000e+00,
202,3.60000e+00,
203,3.80000e+00,
204,3.80000e+00,
205,3.48000e+00,
206,3.56000e+00,
207,3.00000e+00,
208,3.04000e+00,
209,2.24000e+00,
210,2.28000e+00,
211,1.16000e+00,
212,1.20000e+00,
213,1.20000e-01,
214,1.20000e-01,
215,-1.00000e+00,
216,-9.60000e-01,
217,-2.04000e+00,
218,-2.00000e+00,
219,-2.88000e+00,
220,-2.80000e+00,
221,-3.48000e+00,
222,-3.40000e+00,
223,-3.76000e+00,
224,-3.80000e+00,
225,-3.60000e+00,
226,-3.64000e+00,
227,-3.20000e+00,
228,-3.24000e+00,
229,-2.48000e+00,
230,-2.56000e+00,
231,-1.56000e+00,
232,-1.56000e+00,
233,-5.20000e-01,
234,-5.20000e-01,
235,6.40000e-01,
236,6.00000e-01,
237,1.68000e+00,
238,1.64000e+00,
239,2.60000e+00,
240,2.56000e+00,
241,3.32000e+00,
242,3.24000e+00,
243,3.72000e+00,
244,3.64000e+00,
245,3.80000e+00,
246,3.76000e+00,
247,3.44000e+00,
248,3.52000e+00,
249,2.88000e+00,
250,2.96000e+00,
251,2.04000e+00,
252,2.12000e+00,
253,1.08000e+00,
254,1.08000e+00,
255,-1.20000e-01,
256,-8.00000e-02,
257,-1.16000e+00,
258,-1.12000e+00,
259,-2.16000e+00,
260,-2.16000e+00,
261,-3.00000e+00,
262,-2.92000e+00,
263,-3.56000e+00,
264,-3.48000e+00,
265,-3.76000e+00,
266,-3.76000e+00,
267,-3.56000e+00,
268,-3.60000e+00,
269,-3.12000e+00,
270,-3.16000e+00,
271,-2.36000e+00,
272,-2.40000e+00,
273,-1.40000e+00,
274,-1.44000e+00,
275,-3.20000e-01,
276,-3.60000e-01,
277,8.00000e-01,
278,7.60000e-01,
279,1.88000e+00,
280,1.84000e+00,
281,2.72000e+00,
282,2.76000e+00,
283,3.40000e+00,
284,3.36000e+00,
285,3.72000e+00,
286,3.64000e+00,
287,3.80000e+00,
288,3.72000e+00,
289,3.36000e+00,
290,3.40000e+00,
291,2.76000e+00,
292,2.84000e+00,
293,1.88000e+00,
294,1.92000e+00,
295,8.40000e-01,
296,9.20000e-01,
297,-2.80000e-01,
298,-2.40000e-01,
299,-1.40000e+00,
300,-1.36000e+00,
301,-2.36000e+00,
302,-2.32000e+00,
303,-3.08000e+00,
304,-3.04000e+00,
305,-3.56000e+00,
306,-3.56000e+00,
307,-3.76000e+00,
308,-3.76000e+00,
309,-3.52000e+00,
310,-3.60000e+00,
311,-3.00000e+00,
312,-3.04000e+00,
313,-2.24000e+00,
314,-2.28000e+00,
315,-1.24000e+00,
316,-1.20000e+00,
317,-1.20000e-01,
318,-2.00000e-01,
319,1.00000e+00,
320,9.20000e-01,
321,2.04000e+00,
322,1.96000e+00,
323,2.84000e+00,
324,2.80000e+00,
325,3.48000e+00,
326,3.40000e+00,
327,3.76000e+00,
328,3.68000e+00,
329,3.80000e+00,
330,3.72000e+00,
331,3.24000e+00,
332,3.32000e+00,
333,2.64000e+00,
334,2.64000e+00,
335,1.72000e+00,
336,1.76000e+00,
337,6.40000e-01,
338,7.20000e-01,
339,-4.80000e-01,
340,-4.00000e-01,
341,-1.56000e+00,
342,-1.48000e+00,
343,-2.48000e+00,
344,-2.44000e+00,
345,-3.20000e+00,
346,-3.12000e+00,
347,-3.64000e+00,
348,-3.60000e+00,
349,-3.76000e+00,
350,-3.76000e+00,
351,-3.44000e+00,
352,-3.48000e+00,
353,-2.88000e+00,
354,-2.92000e+00,
355,-2.08000e+00,
356,-2.08000e+00,
357,-1.04000e+00,
358,-1.08000e+00,
359,4.00000e-02,
360,0.00000e+00,
361,1.16000e+00,
362,1.16000e+00,
363,2.20000e+00,
364,2.16000e+00,
365,3.00000e+00,
366,2.92000e+00,
367,3.56000e+00,
368,3.48000e+00,
369,3.76000e+00,
370,3.80000e+00,
371,3.64000e+00,
372,3.68000e+00,
373,3.20000e+00,
374,3.24000e+00,
375,2.48000e+00,
376,2.48000e+00,
377,1.56000e+00,
378,1.56000e+00,
379,4.80000e-01,
380,4.80000e-01,
381,-6.40000e-01,
382,-6.00000e-01,
383,-1.72000e+00,
384,-1.64000e+00,
385,-2.64000e+00,
386,-2.60000e+00,
387,-3.28000e+00,
388,-3.24000e+00,
389,-3.68000e+00,
390,-3.60000e+00,
391,-3.76000e+00,
392,-3.76000e+00,
393,-3.36000e+00,
394,-3.40000e+00,
395,-2.76000e+00,
396,-2.76000e+00,
397,-1.92000e+00,
398,-1.92000e+00,
399,-8.80000e-01,
400,-9.20000e-01,
401,2.40000e-01,
402,2.00000e-01,
403,1.32000e+00,
404,1.36000e+00,
405,2.32000e+00,
406,2.24000e+00,
407,3.12000e+00,
408,3.04000e+00,
409,3.60000e+00,
410,3.56000e+00,
411,3.80000e+00,
412,3.80000e+00,
413,3.56000e+00,
414,3.64000e+00,
415,3.08000e+00,
416,3.12000e+00,
417,2.32000e+00,
418,2.40000e+00,
419,1.40000e+00,
420,1.40000e+00,
421,2.80000e-01,
422,3.20000e-01,
423,-8.40000e-01,
424,-8.00000e-01,
425,-1.88000e+00,
426,-1.84000e+00,
427,-2.76000e+00,
428,-2.72000e+00,
429,-3.40000e+00,
430,-3.32000e+00,
431,-3.76000e+00,
432,-3.64000e+00,
433,-3.76000e+00,
434,-3.72000e+00,
435,-3.32000e+00,
436,-3.32000e+00,
437,-2.64000e+00,
438,-2.64000e+00,
439,-1.76000e+00,
440,-1.76000e+00,
441,-7.20000e-01,
442,-7.20000e-01,
443,4.00000e-01,
444,4.40000e-01,
445,1.56000e+00,
446,1.48000e+00,
447,2.48000e+00,
448,2.40000e+00,
449,3.20000e+00,
450,3.20000e+00,
451,3.64000e+00,
452,3.56000e+00,
453,3.80000e+00,
454,3.80000e+00,
455,3.48000e+00,
456,3.56000e+00,
457,3.00000e+00,
458,3.04000e+00,
459,2.16000e+00,
460,2.20000e+00,
461,1.20000e+00,
462,1.24000e+00,
463,1.20000e-01,
464,1.20000e-01,
465,-1.00000e+00,
466,-9.60000e-01,
467,-2.04000e+00,
468,-2.00000e+00,
469,-2.88000e+00,
470,-2.88000e+00,
471,-3.44000e+00,
472,-3.40000e+00,
473,-3.76000e+00,
474,-3.76000e+00,
475,-3.60000e+00,
476,-3.64000e+00,
477,-3.20000e+00,
478,-3.24000e+00,
479,-2.48000e+00,
480,-2.52000e+00,
481,-1.60000e+00,
482,-1.60000e+00,
483,-5.20000e-01,
484,-5.60000e-01,
485,6.40000e-01,
486,6.40000e-01,
487,1.72000e+00,
488,1.64000e+00,
489,2.60000e+00,
490,2.52000e+00,
491,3.32000e+00,
492,3.24000e+00,
493,3.68000e+00,
494,3.64000e+00,
495,3.84000e+00,
496,3.76000e+00,
497,3.40000e+00,
498,3.48000e+00,
499,2.88000e+00,
500,2.88000e+00,
501,2.04000e+00,
502,2.08000e+00,
503,1.00000e+00,
504,1.08000e+00,
505,-8.00000e-02,
506,-4.00000e-02,
507,-1.20000e+00,
508,-1.16000e+00,
509,-2.16000e+00,
510,-2.16000e+00,
511,-3.00000e+00,
512,-2.92000e+00,
513,-3.56000e+00,
514,-3.48000e+00,
515,-3.76000e+00,
516,-3.76000e+00,
517,-3.56000e+00,
518,-3.64000e+00,
519,-3.08000e+00,
520,-3.16000e+00,
521,-2.36000e+00,
522,-2.40000e+00,
523,-1.40000e+00,
524,-1.48000e+00,
525,-3.20000e-01,
526,-3.20000e-01,
527,8.00000e-01,
528,7.60000e-01,
529,1.84000e+00,
530,1.80000e+00,
531,2.76000e+00,
532,2.68000e+00,
533,3.40000e+00,
534,3.32000e+00,
535,3.72000e+00,
536,3.64000e+00,
537,3.84000e+00,
538,3.72000e+00,
539,3.36000e+00,
540,3.44000e+00,
541,2.76000e+00,
542,2.84000e+00,
543,1.88000e+00,
544,1.92000e+00,
545,8.40000e-01,
546,8.80000e-01,
547,-2.80000e-01,
548,-2.40000e-01,
549,-1.36000e+00,
550,-1.32000e+00,
551,-2.36000e+00,
552,-2.28000e+00,
553,-3.08000e+00,
554,-3.04000e+00,
555,-3.60000e+00,
556,-3.52000e+00,
557,-3.76000e+00,
558,-3.76000e+00,
559,-3.52000e+00,
560,-3.52000e+00,
561,-2.96000e+00,
562,-3.04000e+00,
563,-2.24000e+00,
564,-2.24000e+00,
565,-1.24000e+00,
566,-1.24000e+00,
567,-1.20000e-01,
568,-1.60000e-01,
569,1.00000e+00,
570,9.60000e-01,
571,2.04000e+00,
572,1.96000e+00,
573,2.84000e+00,
574,2.84000e+00,
575,3.48000e+00,
576,3.40000e+00,
577,3.76000e+00,
578,3.84000e+00,
579,3.64000e+00,
580,3.72000e+00,
581,3.28000e+00,
582,3.36000e+00,
583,2.64000e+00,
584,2.64000e+00,
585,1.72000e+00,
586,1.76000e+00,
587,6.40000e-01,
588,6.80000e-01,
589,-4.40000e-01,
590,-4.00000e-01,
591,-1.56000e+00,
592,-1.52000e+00,
593,-2.44000e+00,
594,-2.44000e+00,
595,-3.20000e+00,
596,-3.16000e+00,
597,-3.64000e+00,
598,-3.56000e+00,
599,-3.76000e+00,
600,-3.76000e+00,
601,-3.44000e+00,
602,-3.52000e+00,
603,-2.88000e+00,
604,-2.92000e+00,
605,-2.08000e+00,
606,-2.12000e+00,
607,-1.08000e+00,
608,-1.08000e+00,
609,8.00000e-02,
610,8.00000e-02,
611,1.16000e+00,
612,1.12000e+00,
613,2.20000e+00,
614,2.12000e+00,
615,3.00000e+00,
616,2.92000e+00,
617,3.56000e+00,
618,3.48000e+00,
619,3.76000e+00,
620,3.80000e+00,
621,3.60000e+00,
622,3.68000e+00,
623,3.20000e+00,
624,3.28000e+00,
625,2.44000e+00,
626,2.52000e+00,
627,1.56000e+00,
628,1.56000e+00,
629,4.80000e-01,
630,5.20000e-01,
631,-6.40000e-01,
632,-5.60000e-01,
633,-1.72000e+00,
634,-1.68000e+00,
635,-2.64000e+00,
636,-2.56000e+00,
637,-3.28000e+00,
638,-3.28000e+00,
639,-3.68000e+00,
640,-3.60000e+00,
641,-3.76000e+00,
642,-3.72000e+00,
643,-3.40000e+00,
644,-3.44000e+00,
645,-2.76000e+00,
646,-2.76000e+00,
647,-1.88000e+00,
648,-1.92000e+00,
649,-8.80000e-01,
650,-8.80000e-01,
651,2.40000e-01,
652,2.40000e-01,
653,1.36000e+00,
654,1.32000e+00,
655,2.32000e+00,
656,2.32000e+00,
657,3.12000e+00,
658,3.04000e+00,
659,3.60000e+00,
660,3.52000e+00,
661,3.80000e+00,
662,3.80000e+00,
663,3.56000e+00,
664,3.64000e+00,
665,3.12000e+00,
666,3.16000e+00,
667,2.32000e+00,
668,2.40000e+00,
669,1.40000e+00,
670,1.40000e+00,
671,2.80000e-01,
672,3.20000e-01,
673,-8.40000e-01,
674,-8.00000e-01,
675,-1.88000e+00,
676,-1.84000e+00,
677,-2.76000e+00,
678,-2.72000e+00,
679,-3.36000e+00,
680,-3.32000e+00,
681,-3.72000e+00,
682,-3.64000e+00,
683,-3.76000e+00,
684,-3.72000e+00,
685,-3.28000e+00,
686,-3.28000e+00,
687,-2.64000e+00,
688,-2.68000e+00,
689,-1.72000e+00,
690,-1.80000e+00,
691,-7.20000e-01,
692,-7.60000e-01,
693,4.00000e-01,
694,4.00000e-01,
695,1.52000e+00,
696,1.48000e+00,
697,2.48000e+00,
698,2.44000e+00,
699,3.24000e+00,
700,3.16000e+00,
701,3.68000e+00,
702,3.60000e+00,
703,3.84000e+00,
704,3.80000e+00,
705,3.48000e+00,
706,3.56000e+00,
707,3.00000e+00,
708,3.04000e+00,
709,2.16000e+00,
710,2.24000e+00,
711,1.20000e+00,
712,1.24000e+00,
713,1.20000e-01,
714,1.20000e-01,
715,-1.00000e+00,
716,-9.60000e-01,
717,-2.00000e+00,
718,-2.00000e+00,
719,-2.88000e+00,
720,-2.80000e+00,
721,-3.48000e+00,
722,-3.40000e+00,
723,-3.76000e+00,
724,-3.76000e+00,
725,-3.60000e+00,
726,-3.68000e+00,
727,-3.20000e+00,
728,-3.24000e+00,
729,-2.48000e+00,
730,-2.52000e+00,
731,-1.56000e+00,
732,-1.56000e+00,
733,-5.20000e-01,
734,-5.60000e-01,
735,6.40000e-01,
736,6.00000e-01,
737,1.72000e+00,
738,1.64000e+00,
739,2.60000e+00,
740,2.60000e+00,
741,3.32000e+00,
742,3.24000e+00,
743,3.68000e+00,
744,3.60000e+00,
745,3.84000e+00,
746,3.80000e+00,
747,3.48000e+00,
748,3.52000e+00,
749,2.84000e+00,
750,2.92000e+00,
751,2.04000e+00,
752,2.04000e+00,
753,1.04000e+00,
754,1.08000e+00,
755,-1.20000e-01,
756,-4.00000e-02,
757,-1.16000e+00,
758,-1.16000e+00,
759,-2.16000e+00,
760,-2.16000e+00,
761,-2.96000e+00,
762,-2.92000e+00,
763,-3.48000e+00,
764,-3.44000e+00,
765,-3.76000e+00,
766,-3.76000e+00,
767,-3.56000e+00,
768,-3.60000e+00,
769,-3.12000e+00,
770,-3.16000e+00,
771,-2.36000e+00,
772,-2.40000e+00,
773,-1.44000e+00,
774,-1.44000e+00,
775,-3.20000e-01,
776,-3.20000e-01,
777,8.00000e-01,
778,7.60000e-01,
779,1.84000e+00,
780,1.80000e+00,
781,2.72000e+00,
782,2.72000e+00,
783,3.40000e+00,
784,3.32000e+00,
785,3.72000e+00,
786,3.64000e+00,
787,3.84000e+00,
788,3.76000e+00,
789,3.36000e+00,
790,3.44000e+00,
791,2.76000e+00,
792,2.80000e+00,
793,1.88000e+00,
794,1.92000e+00,
795,8.40000e-01,
796,8.80000e-01,
797,-2.80000e-01,
798,-2.40000e-01,
799,-1.40000e+00,
800,-1.32000e+00,
801,-2.32000e+00,
802,-2.32000e+00,
803,-3.12000e+00,
804,-3.04000e+00,
805,-3.60000e+00,
806,-3.52000e+00,
807,-3.76000e+00,
808,-3.76000e+00,
809,-3.52000e+00,
810,-3.60000e+00,
811,-2.96000e+00,
812,-3.04000e+00,
813,-2.20000e+00,
814,-2.24000e+00,
815,-1.20000e+00,
816,-1.20000e+00,
817,-1.20000e-01,
818,-1.60000e-01,
819,1.00000e+00,
820,9.60000e-01,
821,2.04000e+00,
822,1.96000e+00,
823,2.88000e+00,
824,2.84000e+00,
825,3.48000e+00,
826,3.40000e+00,
827,3.76000e+00,
828,3.80000e+00,
829,3.64000e+00,
830,3.72000e+00,
831,3.28000e+00,
832,3.36000e+00,
833,2.64000e+00,
834,2.68000e+00,
835,1.72000e+00,
836,1.76000e+00,
837,6.80000e-01,
838,6.80000e-01,
839,-4.40000e-01,
840,-4.40000e-01,
841,-1.56000e+00,
842,-1.52000e+00,
843,-2.44000e+00,
844,-2.44000e+00,
845,-3.20000e+00,
846,-3.16000e+00,
847,-3.64000e+00,
848,-3.60000e+00,
849,-3.76000e+00,
850,-3.76000e+00,
851,-3.44000e+00,
852,-3.48000e+00,
853,-2.88000e+00,
854,-2.88000e+00,
855,-2.08000e+00,
856,-2.12000e+00,
857,-1.04000e+00,
858,-1.12000e+00,
859,8.00000e-02,
860,4.00000e-02,
861,1.16000e+00,
862,1.16000e+00,
863,2.20000e+00,
864,2.16000e+00,
865,2.96000e+00,
866,2.92000e+00,
867,3.56000e+00,
868,3.48000e+00,
869,3.76000e+00,
870,3.80000e+00,
871,3.60000e+00,
872,3.68000e+00,
873,3.16000e+00,
874,3.28000e+00,
875,2.48000e+00,
876,2.52000e+00,
877,1.56000e+00,
878,1.60000e+00,
879,4.80000e-01,
880,5.20000e-01,
881,-6.40000e-01,
882,-6.00000e-01,
883,-1.72000e+00,
884,-1.64000e+00,
885,-2.64000e+00,
886,-2.56000e+00,
887,-3.28000e+00,
888,-3.24000e+00,
889,-3.68000e+00,
890,-3.64000e+00,
891,-3.76000e+00,
892,-3.68000e+00,
893,-3.36000e+00,
894,-3.44000e+00,
895,-2.76000e+00,
896,-2.80000e+00,
897,-1.88000e+00,
898,-1.96000e+00,
899,-8.80000e-01,
900,-9.20000e-01,
901,2.40000e-01,
902,2.40000e-01,
903,1.36000e+00,
904,1.32000e+00,
905,2.32000e+00,
906,2.28000e+00,
907,3.12000e+00,
908,3.04000e+00,
909,3.60000e+00,
910,3.52000e+00,
911,3.80000e+00,
912,3.84000e+00,
913,3.56000e+00,
914,3.60000e+00,
915,3.08000e+00,
916,3.16000e+00,
917,2.32000e+00,
918,2.40000e+00,
919,1.40000e+00,
920,1.40000e+00,
921,2.80000e-01,
922,3.20000e-01,
923,-8.40000e-01,
924,-7.60000e-01,
925,-1.88000e+00,
926,-1.84000e+00,
927,-2.76000e+00,
928,-2.68000e+00,
929,-3.36000e+00,
930,-3.36000e+00,
931,-3.68000e+00,
932,-3.64000e+00,
933,-3.76000e+00,
934,-3.72000e+00,
935,-3.32000e+00,
936,-3.32000e+00,
937,-2.64000e+00,
938,-2.64000e+00,
939,-1.72000e+00,
940,-1.80000e+00,
941,-6.80000e-01,
942,-6.80000e-01,
943,4.40000e-01,
944,4.40000e-01,
945,1.52000e+00,
946,1.52000e+00,
947,2.48000e+00,
948,2.40000e+00,
949,3.24000e+00,
950,3.16000e+00,
951,3.68000e+00,
952,3.60000e+00,
953,3.84000e+00,
954,3.80000e+00,
955,3.48000e+00,
956,3.56000e+00,
957,3.00000e+00,
958,3.04000e+00,
959,2.16000e+00,
960,2.24000e+00,
961,1.20000e+00,
962,1.24000e+00,
963,8.00000e-02,
964,1.20000e-01,
965,-1.00000e+00,
966,-9.60000e-01,
967,-2.04000e+00,
968,-2.00000e+00,
969,-2.88000e+00,
970,-2.80000e+00,
971,-3.48000e+00,
972,-3.40000e+00,
973,-3.76000e+00,
974,-3.76000e+00,
975,-3.60000e+00,
976,-3.68000e+00,
977,-3.16000e+00,
978,-3.20000e+00,
979,-2.48000e+00,
980,-2.52000e+00,
981,-1.56000e+00,
982,-1.56000e+00,
983,-5.20000e-01,
984,-5.60000e-01,
985,6.00000e-01,
986,5.60000e-01,
987,1.72000e+00,
988,1.64000e+00,
989,2.60000e+00,
990,2.60000e+00,
991,3.32000e+00,
992,3.24000e+00,
993,3.68000e+00,
994,3.60000e+00,
995,3.80000e+00,
996,3.76000e+00,
997,3.48000e+00,
998,3.48000e+00,
999,2.88000e+00,
1000,2.92000e+00,
1001,2.00000e+00,
1002,2.08000e+00,
1003,1.04000e+00,
1004,1.08000e+00,
1005,-4.00000e-02,
1006,-4.00000e-02,
1007,-1.16000e+00,
1008,-1.16000e+00,
1009,-2.20000e+00,
1010,-2.16000e+00,
1011,-3.00000e+00,
1012,-2.92000e+00,
1013,-3.52000e+00,
1014,-3.48000e+00,
1015,-3.76000e+00,
1016,-3.76000e+00,
1017,-3.56000e+00,
1018,-3.64000e+00,
1019,-3.08000e+00,
1020,-3.16000e+00,
1021,-2.36000e+00,
1022,-2.44000e+00,
1023,-1.40000e+00,
1024,-1.40000e+00,
1025,-3.20000e-01,
1026,-3.60000e-01,
1027,8.00000e-01,
1028,8.00000e-01,
1029,1.88000e+00,
1030,1.80000e+00,
1031,2.80000e+00,
1032,2.72000e+00,
1033,3.40000e+00,
1034,3.36000e+00,
1035,3.72000e+00,
1036,3.64000e+00,
1037,3.80000e+00,
1038,3.76000e+00,
1039,3.36000e+00,
1040,3.44000e+00,
1041,2.76000e+00,
1042,2.80000e+00,
1043,1.88000e+00,
1044,1.96000e+00,
1045,8.00000e-01,
1046,8.40000e-01,
1047,-2.40000e-01,
1048,-2.40000e-01,
1049,-1.36000e+00,
1050,-1.28000e+00,
1051,-2.32000e+00,
1052,-2.32000e+00,
1053,-3.08000e+00,
1054,-3.00000e+00,
1055,-3.60000e+00,
1056,-3.52000e+00,
1057,-3.80000e+00,
1058,-3.76000e+00,
1059,-3.44000e+00,
1060,-3.48000e+00,
1061,-3.00000e+00,
1062,-3.08000e+00,
1063,-2.24000e+00,
1064,-2.24000e+00,
1065,-1.20000e+00,
1066,-1.24000e+00,
1067,-1.20000e-01,
1068,-2.00000e-01,
1069,1.00000e+00,
1070,1.00000e+00,
1071,2.04000e+00,
1072,2.00000e+00,
1073,2.84000e+00,
1074,2.80000e+00,
1075,3.48000e+00,
1076,3.40000e+00,
1077,3.76000e+00,
1078,3.76000e+00,
1079,3.60000e+00,
1080,3.68000e+00,
1081,3.28000e+00,
1082,3.36000e+00,
1083,2.60000e+00,
1084,2.64000e+00,
1085,1.72000e+00,
1086,1.76000e+00,
1087,7.20000e-01,
1088,7.20000e-01,
1089,-4.80000e-01,
1090,-4.40000e-01,
1091,-1.52000e+00,
1092,-1.48000e+00,
1093,-2.44000e+00,
1094,-2.40000e+00,
1095,-3.20000e+00,
1096,-3.12000e+00,
1097,-3.64000e+00,
1098,-3.60000e+00,
1099,-3.76000e+00,
1100,-3.72000e+00,
1101,-3.48000e+00,
1102,-3.56000e+00,
1103,-2.88000e+00,
1104,-2.92000e+00,
1105,-2.00000e+00,
1106,-2.08000e+00,
1107,-1.04000e+00,
1108,-1.08000e+00,
1109,4.00000e-02,
1110,4.00000e-02,
1111,1.20000e+00,
1112,1.16000e+00,
1113,2.24000e+00,
1114,2.16000e+00,
1115,3.00000e+00,
1116,2.92000e+00,
1117,3.56000e+00,
1118,3.52000e+00,
1119,3.84000e+00,
1120,3.80000e+00,
1121,3.60000e+00,
1122,3.68000e+00,
1123,3.16000e+00,
1124,3.24000e+00,
1125,2.48000e+00,
1126,2.52000e+00,
1127,1.56000e+00,
1128,1.60000e+00,
1129,4.80000e-01,
1130,4.80000e-01,
1131,-6.40000e-01,
1132,-6.40000e-01,
1133,-1.72000e+00,
1134,-1.68000e+00,
1135,-2.64000e+00,
1136,-2.56000e+00,
