DataAnalysis/Johnson_noise/2017_johnson_noise/data_MUIC_nop_anan/NewFile47.csv

X,CH1,Start,Increment,
Sequence,Volt,1.80000e-03,1.00000e-06
0,0.00000e+00,
1,2.80000e-01,
2,2.80000e-01,
3,5.60000e-01,
4,4.80000e-01,
5,7.60000e-01,
6,7.20000e-01,
7,1.00000e+00,
8,9.20000e-01,
9,1.20000e+00,
10,1.16000e+00,
11,1.40000e+00,
12,1.32000e+00,
13,1.64000e+00,
14,1.56000e+00,
15,1.84000e+00,
16,1.76000e+00,
17,2.04000e+00,
18,1.96000e+00,
19,2.24000e+00,
20,2.12000e+00,
21,2.40000e+00,
22,2.32000e+00,
23,2.56000e+00,
24,2.48000e+00,
25,2.68000e+00,
26,2.64000e+00,
27,2.88000e+00,
28,2.80000e+00,
29,3.00000e+00,
30,2.92000e+00,
31,3.12000e+00,
32,3.04000e+00,
33,3.24000e+00,
34,3.16000e+00,
35,3.36000e+00,
36,3.28000e+00,
37,3.44000e+00,
38,3.36000e+00,
39,3.52000e+00,
40,3.44000e+00,
41,3.60000e+00,
42,3.48000e+00,
43,3.64000e+00,
44,3.52000e+00,
45,3.68000e+00,
46,3.56000e+00,
47,3.68000e+00,
48,3.68000e+00,
49,3.60000e+00,
50,3.68000e+00,
51,3.60000e+00,
52,3.68000e+00,
53,3.56000e+00,
54,3.68000e+00,
55,3.52000e+00,
56,3.60000e+00,
57,3.48000e+00,
58,3.56000e+00,
59,3.44000e+00,
60,3.52000e+00,
61,3.36000e+00,
62,3.44000e+00,
63,3.28000e+00,
64,3.36000e+00,
65,3.16000e+00,
66,3.24000e+00,
67,3.04000e+00,
68,3.16000e+00,
69,2.92000e+00,
70,3.00000e+00,
71,2.80000e+00,
72,2.88000e+00,
73,2.64000e+00,
74,2.72000e+00,
75,2.48000e+00,
76,2.52000e+00,
77,2.28000e+00,
78,2.36000e+00,
79,2.12000e+00,
80,2.20000e+00,
81,1.92000e+00,
82,2.00000e+00,
83,1.76000e+00,
84,1.84000e+00,
85,1.56000e+00,
86,1.64000e+00,
87,1.32000e+00,
88,1.40000e+00,
89,1.12000e+00,
90,1.16000e+00,
91,8.80000e-01,
92,9.60000e-01,
93,6.80000e-01,
94,7.60000e-01,
95,4.80000e-01,
96,5.20000e-01,
97,2.40000e-01,
98,2.80000e-01,
99,4.00000e-02,
100,4.00000e-02,
101,-2.40000e-01,
102,-1.60000e-01,
103,-4.40000e-01,
104,-4.00000e-01,
105,-6.80000e-01,
106,-6.40000e-01,
107,-8.80000e-01,
108,-8.80000e-01,
109,-1.12000e+00,
110,-1.08000e+00,
111,-1.36000e+00,
112,-1.28000e+00,
113,-1.56000e+00,
114,-1.48000e+00,
115,-1.76000e+00,
116,-1.68000e+00,
117,-1.92000e+00,
118,-1.88000e+00,
119,-2.12000e+00,
120,-2.08000e+00,
121,-2.32000e+00,
122,-2.28000e+00,
123,-2.52000e+00,
124,-2.44000e+00,
125,-2.64000e+00,
126,-2.60000e+00,
127,-2.80000e+00,
128,-2.72000e+00,
129,-2.96000e+00,
130,-2.88000e+00,
131,-3.08000e+00,
132,-3.00000e+00,
133,-3.20000e+00,
134,-3.16000e+00,
135,-3.28000e+00,
136,-3.24000e+00,
137,-3.40000e+00,
138,-3.32000e+00,
139,-3.48000e+00,
140,-3.40000e+00,
141,-3.56000e+00,
142,-3.48000e+00,
143,-3.60000e+00,
144,-3.52000e+00,
145,-3.64000e+00,
146,-3.64000e+00,
147,-3.56000e+00,
148,-3.56000e+00,
149,-3.68000e+00,
150,-3.68000e+00,
151,-3.56000e+00,
152,-3.56000e+00,
153,-3.64000e+00,
154,-3.64000e+00,
155,-3.52000e+00,
156,-3.60000e+00,
157,-3.44000e+00,
158,-3.56000e+00,
159,-3.40000e+00,
160,-3.48000e+00,
161,-3.32000e+00,
162,-3.40000e+00,
163,-3.20000e+00,
164,-3.28000e+00,
165,-3.12000e+00,
166,-3.16000e+00,
167,-3.00000e+00,
168,-3.08000e+00,
169,-2.84000e+00,
170,-2.96000e+00,
171,-2.72000e+00,
172,-2.80000e+00,
173,-2.56000e+00,
174,-2.64000e+00,
175,-2.40000e+00,
176,-2.48000e+00,
177,-2.24000e+00,
178,-2.32000e+00,
179,-2.08000e+00,
180,-2.12000e+00,
181,-1.88000e+00,
182,-1.92000e+00,
183,-1.68000e+00,
184,-1.72000e+00,
185,-1.48000e+00,
186,-1.52000e+00,
187,-1.28000e+00,
188,-1.32000e+00,
189,-1.04000e+00,
190,-1.12000e+00,
191,-8.00000e-01,
192,-8.80000e-01,
193,-6.00000e-01,
194,-6.80000e-01,
195,-4.00000e-01,
196,-4.40000e-01,
197,-1.60000e-01,
198,-2.00000e-01,
199,8.00000e-02,
200,4.00000e-02,
201,2.80000e-01,
202,2.80000e-01,
203,5.60000e-01,
204,4.80000e-01,
205,7.60000e-01,
206,7.20000e-01,
207,1.00000e+00,
208,9.20000e-01,
209,1.20000e+00,
210,1.12000e+00,
211,1.40000e+00,
212,1.36000e+00,
213,1.64000e+00,
214,1.56000e+00,
215,1.84000e+00,
216,1.76000e+00,
217,2.04000e+00,
218,1.96000e+00,
219,2.20000e+00,
220,2.12000e+00,
221,2.40000e+00,
222,2.32000e+00,
223,2.56000e+00,
224,2.48000e+00,
225,2.72000e+00,
226,2.64000e+00,
227,2.88000e+00,
228,2.80000e+00,
229,3.04000e+00,
230,2.92000e+00,
231,3.16000e+00,
232,3.04000e+00,
233,3.24000e+00,
234,3.16000e+00,
235,3.36000e+00,
236,3.28000e+00,
237,3.44000e+00,
238,3.36000e+00,
239,3.52000e+00,
240,3.44000e+00,
241,3.60000e+00,
242,3.48000e+00,
243,3.64000e+00,
244,3.52000e+00,
245,3.68000e+00,
246,3.68000e+00,
247,3.56000e+00,
248,3.68000e+00,
249,3.60000e+00,
250,3.68000e+00,
251,3.60000e+00,
252,3.68000e+00,
253,3.56000e+00,
254,3.68000e+00,
255,3.52000e+00,
256,3.64000e+00,
257,3.48000e+00,
258,3.56000e+00,
259,3.44000e+00,
260,3.52000e+00,
261,3.36000e+00,
262,3.44000e+00,
263,3.28000e+00,
264,3.36000e+00,
265,3.16000e+00,
266,3.24000e+00,
267,3.04000e+00,
268,3.16000e+00,
269,2.92000e+00,
270,3.00000e+00,
271,2.80000e+00,
272,2.88000e+00,
273,2.64000e+00,
274,2.68000e+00,
275,2.48000e+00,
276,2.52000e+00,
277,2.28000e+00,
278,2.36000e+00,
279,2.12000e+00,
280,2.20000e+00,
281,1.92000e+00,
282,2.00000e+00,
283,1.76000e+00,
284,1.84000e+00,
285,1.56000e+00,
286,1.64000e+00,
287,1.36000e+00,
288,1.36000e+00,
289,1.12000e+00,
290,1.16000e+00,
291,8.80000e-01,
292,9.60000e-01,
293,6.80000e-01,
294,7.20000e-01,
295,4.80000e-01,
296,5.20000e-01,
297,2.40000e-01,
298,2.80000e-01,
299,0.00000e+00,
300,4.00000e-02,
301,-2.40000e-01,
302,-1.60000e-01,
303,-4.40000e-01,
304,-4.00000e-01,
305,-6.80000e-01,
306,-6.00000e-01,
307,-8.80000e-01,
308,-8.80000e-01,
309,-1.12000e+00,
310,-1.08000e+00,
311,-1.36000e+00,
312,-1.28000e+00,
313,-1.52000e+00,
314,-1.48000e+00,
315,-1.72000e+00,
316,-1.68000e+00,
317,-1.92000e+00,
318,-1.88000e+00,
319,-2.12000e+00,
320,-2.08000e+00,
321,-2.32000e+00,
322,-2.24000e+00,
323,-2.48000e+00,
324,-2.44000e+00,
325,-2.64000e+00,
326,-2.60000e+00,
327,-2.80000e+00,
328,-2.72000e+00,
329,-2.96000e+00,
330,-2.84000e+00,
331,-3.08000e+00,
332,-3.00000e+00,
333,-3.16000e+00,
334,-3.12000e+00,
335,-3.28000e+00,
336,-3.24000e+00,
337,-3.40000e+00,
338,-3.32000e+00,
339,-3.48000e+00,
340,-3.40000e+00,
341,-3.56000e+00,
342,-3.48000e+00,
343,-3.60000e+00,
344,-3.52000e+00,
345,-3.64000e+00,
346,-3.56000e+00,
347,-3.68000e+00,
348,-3.56000e+00,
349,-3.68000e+00,
350,-3.56000e+00,
351,-3.68000e+00,
352,-3.56000e+00,
353,-3.68000e+00,
354,-3.64000e+00,
355,-3.52000e+00,
356,-3.60000e+00,
357,-3.48000e+00,
358,-3.56000e+00,
359,-3.40000e+00,
360,-3.48000e+00,
361,-3.32000e+00,
362,-3.40000e+00,
363,-3.24000e+00,
364,-3.28000e+00,
365,-3.12000e+00,
366,-3.16000e+00,
367,-3.00000e+00,
368,-3.08000e+00,
369,-2.88000e+00,
370,-2.96000e+00,
371,-2.72000e+00,
372,-2.80000e+00,
373,-2.60000e+00,
374,-2.64000e+00,
375,-2.44000e+00,
376,-2.48000e+00,
377,-2.24000e+00,
378,-2.28000e+00,
379,-2.08000e+00,
380,-2.12000e+00,
381,-1.88000e+00,
382,-1.92000e+00,
383,-1.68000e+00,
384,-1.72000e+00,
385,-1.48000e+00,
386,-1.52000e+00,
387,-1.28000e+00,
388,-1.32000e+00,
389,-1.04000e+00,
390,-1.12000e+00,
391,-8.40000e-01,
392,-8.80000e-01,
393,-6.40000e-01,
394,-6.40000e-01,
395,-3.60000e-01,
396,-4.40000e-01,
397,-1.60000e-01,
398,-2.00000e-01,
399,8.00000e-02,
400,4.00000e-02,
401,2.80000e-01,
402,2.80000e-01,
403,5.60000e-01,
404,4.80000e-01,
405,7.60000e-01,
406,7.20000e-01,
407,1.00000e+00,
408,9.20000e-01,
409,1.20000e+00,
410,1.12000e+00,
411,1.40000e+00,
412,1.36000e+00,
413,1.64000e+00,
414,1.56000e+00,
415,1.84000e+00,
416,1.76000e+00,
417,2.04000e+00,
418,1.96000e+00,
419,2.24000e+00,
420,2.16000e+00,
421,2.40000e+00,
422,2.32000e+00,
423,2.56000e+00,
424,2.52000e+00,
425,2.72000e+00,
426,2.68000e+00,
427,2.88000e+00,
428,2.80000e+00,
429,3.04000e+00,
430,2.96000e+00,
431,3.16000e+00,
432,3.08000e+00,
433,3.28000e+00,
434,3.16000e+00,
435,3.36000e+00,
436,3.28000e+00,
437,3.44000e+00,
438,3.36000e+00,
439,3.52000e+00,
440,3.44000e+00,
441,3.60000e+00,
442,3.52000e+00,
443,3.64000e+00,
444,3.56000e+00,
445,3.68000e+00,
446,3.68000e+00,
447,3.56000e+00,
448,3.60000e+00,
449,3.72000e+00,
450,3.60000e+00,
451,3.68000e+00,
452,3.60000e+00,
453,3.68000e+00,
454,3.68000e+00,
455,3.56000e+00,
456,3.64000e+00,
457,3.48000e+00,
458,3.60000e+00,
459,3.44000e+00,
460,3.52000e+00,
461,3.36000e+00,
462,3.44000e+00,
463,3.28000e+00,
464,3.36000e+00,
465,3.16000e+00,
466,3.24000e+00,
467,3.08000e+00,
468,3.16000e+00,
469,2.96000e+00,
470,3.04000e+00,
471,2.80000e+00,
472,2.88000e+00,
473,2.64000e+00,
474,2.72000e+00,
475,2.48000e+00,
476,2.56000e+00,
477,2.32000e+00,
478,2.36000e+00,
479,2.12000e+00,
480,2.20000e+00,
481,1.96000e+00,
482,2.04000e+00,
483,1.76000e+00,
484,1.84000e+00,
485,1.56000e+00,
486,1.60000e+00,
487,1.32000e+00,
488,1.40000e+00,
489,1.12000e+00,
490,1.20000e+00,
491,8.80000e-01,
492,9.60000e-01,
493,6.80000e-01,
494,7.60000e-01,
495,4.80000e-01,
496,4.80000e-01,
497,2.40000e-01,
498,2.80000e-01,
499,0.00000e+00,
500,8.00000e-02,
501,-2.40000e-01,
502,-1.60000e-01,
503,-4.40000e-01,
504,-4.00000e-01,
505,-6.80000e-01,
506,-6.00000e-01,
507,-8.80000e-01,
508,-8.80000e-01,
509,-1.12000e+00,
510,-1.08000e+00,
511,-1.36000e+00,
512,-1.28000e+00,
513,-1.56000e+00,
514,-1.48000e+00,
515,-1.76000e+00,
516,-1.68000e+00,
517,-1.96000e+00,
518,-1.92000e+00,
519,-2.12000e+00,
520,-2.12000e+00,
521,-2.32000e+00,
522,-2.28000e+00,
523,-2.48000e+00,
524,-2.44000e+00,
525,-2.68000e+00,
526,-2.60000e+00,
527,-2.80000e+00,
528,-2.72000e+00,
529,-2.96000e+00,
530,-2.88000e+00,
531,-3.08000e+00,
532,-3.00000e+00,
533,-3.20000e+00,
534,-3.12000e+00,
535,-3.28000e+00,
536,-3.20000e+00,
537,-3.40000e+00,
538,-3.32000e+00,
539,-3.48000e+00,
540,-3.40000e+00,
541,-3.56000e+00,
542,-3.48000e+00,
543,-3.60000e+00,
544,-3.52000e+00,
545,-3.64000e+00,
546,-3.56000e+00,
547,-3.64000e+00,
548,-3.56000e+00,
549,-3.68000e+00,
550,-3.68000e+00,
551,-3.56000e+00,
552,-3.56000e+00,
553,-3.64000e+00,
554,-3.64000e+00,
555,-3.52000e+00,
556,-3.60000e+00,
557,-3.44000e+00,
558,-3.56000e+00,
559,-3.40000e+00,
560,-3.48000e+00,
561,-3.32000e+00,
562,-3.40000e+00,
563,-3.24000e+00,
564,-3.28000e+00,
565,-3.12000e+00,
566,-3.16000e+00,
567,-3.00000e+00,
568,-3.08000e+00,
569,-2.88000e+00,
570,-2.96000e+00,
571,-2.72000e+00,
572,-2.80000e+00,
573,-2.60000e+00,
574,-2.64000e+00,
575,-2.44000e+00,
576,-2.48000e+00,
577,-2.24000e+00,
578,-2.32000e+00,
579,-2.08000e+00,
580,-2.12000e+00,
581,-1.88000e+00,
582,-1.92000e+00,
583,-1.68000e+00,
584,-1.72000e+00,
585,-1.48000e+00,
586,-1.52000e+00,
587,-1.28000e+00,
588,-1.32000e+00,
589,-1.08000e+00,
590,-1.12000e+00,
591,-8.40000e-01,
592,-8.80000e-01,
593,-6.00000e-01,
594,-6.80000e-01,
595,-3.60000e-01,
596,-4.40000e-01,
597,-1.60000e-01,
598,-2.00000e-01,
599,8.00000e-02,
600,4.00000e-02,
601,2.80000e-01,
602,2.40000e-01,
603,5.20000e-01,
604,4.80000e-01,
605,7.60000e-01,
606,6.80000e-01,
607,1.00000e+00,
608,9.20000e-01,
609,1.20000e+00,
610,1.12000e+00,
611,1.40000e+00,
612,1.36000e+00,
613,1.64000e+00,
614,1.56000e+00,
615,1.84000e+00,
616,1.76000e+00,
617,2.04000e+00,
618,1.96000e+00,
619,2.20000e+00,
620,2.12000e+00,
621,2.40000e+00,
622,2.32000e+00,
623,2.56000e+00,
624,2.48000e+00,
625,2.68000e+00,
626,2.64000e+00,
627,2.88000e+00,
628,2.80000e+00,
629,3.04000e+00,
630,2.96000e+00,
631,3.16000e+00,
632,3.08000e+00,
633,3.28000e+00,
634,3.16000e+00,
635,3.36000e+00,
636,3.28000e+00,
637,3.44000e+00,
638,3.36000e+00,
639,3.52000e+00,
640,3.44000e+00,
641,3.60000e+00,
642,3.48000e+00,
643,3.64000e+00,
644,3.56000e+00,
645,3.68000e+00,
646,3.68000e+00,
647,3.56000e+00,
648,3.68000e+00,
649,3.60000e+00,
650,3.60000e+00,
651,3.68000e+00,
652,3.68000e+00,
653,3.56000e+00,
654,3.68000e+00,
655,3.56000e+00,
656,3.64000e+00,
657,3.48000e+00,
658,3.60000e+00,
659,3.44000e+00,
660,3.52000e+00,
661,3.36000e+00,
662,3.44000e+00,
663,3.28000e+00,
664,3.36000e+00,
665,3.16000e+00,
666,3.24000e+00,
667,3.04000e+00,
668,3.12000e+00,
669,2.92000e+00,
670,3.00000e+00,
671,2.80000e+00,
672,2.88000e+00,
673,2.64000e+00,
674,2.68000e+00,
675,2.44000e+00,
676,2.52000e+00,
677,2.28000e+00,
678,2.36000e+00,
679,2.12000e+00,
680,2.20000e+00,
681,1.92000e+00,
682,2.00000e+00,
683,1.76000e+00,
684,1.84000e+00,
685,1.56000e+00,
686,1.64000e+00,
687,1.36000e+00,
688,1.40000e+00,
689,1.12000e+00,
690,1.16000e+00,
691,8.80000e-01,
692,9.60000e-01,
693,6.80000e-01,
694,7.60000e-01,
695,4.40000e-01,
696,5.20000e-01,
697,2.40000e-01,
698,2.80000e-01,
699,4.00000e-02,
700,4.00000e-02,
701,-2.40000e-01,
702,-1.60000e-01,
703,-4.40000e-01,
704,-4.00000e-01,
705,-6.80000e-01,
706,-6.40000e-01,
707,-8.80000e-01,
708,-8.80000e-01,
709,-1.12000e+00,
710,-1.08000e+00,
711,-1.36000e+00,
712,-1.28000e+00,
713,-1.56000e+00,
714,-1.48000e+00,
715,-1.76000e+00,
716,-1.68000e+00,
717,-1.92000e+00,
718,-1.88000e+00,
719,-2.12000e+00,
720,-2.12000e+00,
721,-2.32000e+00,
722,-2.28000e+00,
723,-2.48000e+00,
724,-2.44000e+00,
725,-2.68000e+00,
726,-2.60000e+00,
727,-2.80000e+00,
728,-2.72000e+00,
729,-2.92000e+00,
730,-2.88000e+00,
731,-3.08000e+00,
732,-3.00000e+00,
733,-3.20000e+00,
734,-3.16000e+00,
735,-3.28000e+00,
736,-3.20000e+00,
737,-3.40000e+00,
738,-3.32000e+00,
739,-3.48000e+00,
740,-3.40000e+00,
741,-3.56000e+00,
742,-3.48000e+00,
743,-3.60000e+00,
744,-3.52000e+00,
745,-3.64000e+00,
746,-3.56000e+00,
747,-3.68000e+00,
748,-3.68000e+00,
749,-3.56000e+00,
750,-3.68000e+00,
751,-3.56000e+00,
752,-3.56000e+00,
753,-3.68000e+00,
754,-3.64000e+00,
755,-3.52000e+00,
756,-3.60000e+00,
757,-3.48000e+00,
758,-3.56000e+00,
759,-3.40000e+00,
760,-3.48000e+00,
761,-3.32000e+00,
762,-3.40000e+00,
763,-3.24000e+00,
764,-3.28000e+00,
765,-3.12000e+00,
766,-3.20000e+00,
767,-3.00000e+00,
768,-3.04000e+00,
769,-2.84000e+00,
770,-2.92000e+00,
771,-2.72000e+00,
772,-2.80000e+00,
773,-2.60000e+00,
774,-2.64000e+00,
775,-2.40000e+00,
776,-2.48000e+00,
777,-2.24000e+00,
778,-2.32000e+00,
779,-2.08000e+00,
780,-2.12000e+00,
781,-1.84000e+00,
782,-1.92000e+00,
783,-1.68000e+00,
784,-1.72000e+00,
785,-1.48000e+00,
786,-1.52000e+00,
787,-1.28000e+00,
788,-1.32000e+00,
789,-1.04000e+00,
790,-1.12000e+00,
791,-8.00000e-01,
792,-8.80000e-01,
793,-6.00000e-01,
794,-6.40000e-01,
795,-3.60000e-01,
796,-4.40000e-01,
797,-1.60000e-01,
798,-2.00000e-01,
799,8.00000e-02,
800,4.00000e-02,
801,2.80000e-01,
802,2.80000e-01,
803,5.60000e-01,
804,4.80000e-01,
805,7.60000e-01,
806,6.80000e-01,
807,1.00000e+00,
808,9.20000e-01,
809,1.20000e+00,
810,1.12000e+00,
811,1.40000e+00,
812,1.36000e+00,
813,1.64000e+00,
814,1.56000e+00,
815,1.84000e+00,
816,1.76000e+00,
817,2.04000e+00,
818,1.96000e+00,
819,2.20000e+00,
820,2.12000e+00,
821,2.40000e+00,
822,2.32000e+00,
823,2.56000e+00,
824,2.48000e+00,
825,2.76000e+00,
826,2.68000e+00,
827,2.88000e+00,
828,2.80000e+00,
829,3.04000e+00,
830,2.96000e+00,
831,3.16000e+00,
832,3.08000e+00,
833,3.28000e+00,
834,3.16000e+00,
835,3.36000e+00,
836,3.28000e+00,
837,3.44000e+00,
838,3.36000e+00,
839,3.52000e+00,
840,3.44000e+00,
841,3.60000e+00,
842,3.52000e+00,
843,3.64000e+00,
844,3.52000e+00,
845,3.68000e+00,
846,3.56000e+00,
847,3.68000e+00,
848,3.68000e+00,
849,3.60000e+00,
850,3.68000e+00,
851,3.56000e+00,
852,3.68000e+00,
853,3.56000e+00,
854,3.68000e+00,
855,3.56000e+00,
856,3.64000e+00,
857,3.48000e+00,
858,3.60000e+00,
859,3.44000e+00,
860,3.52000e+00,
861,3.36000e+00,
862,3.44000e+00,
863,3.28000e+00,
864,3.36000e+00,
865,3.16000e+00,
866,3.24000e+00,
867,3.04000e+00,
868,3.16000e+00,
869,2.96000e+00,
870,3.00000e+00,
871,2.80000e+00,
872,2.88000e+00,
873,2.64000e+00,
874,2.72000e+00,
875,2.48000e+00,
876,2.56000e+00,
877,2.28000e+00,
878,2.36000e+00,
879,2.12000e+00,
880,2.20000e+00,
881,1.92000e+00,
882,2.00000e+00,
883,1.76000e+00,
884,1.84000e+00,
885,1.56000e+00,
886,1.64000e+00,
887,1.32000e+00,
888,1.40000e+00,
889,1.12000e+00,
890,1.16000e+00,
891,8.80000e-01,
892,9.60000e-01,
893,6.80000e-01,
894,7.60000e-01,
895,4.80000e-01,
896,5.20000e-01,
897,2.40000e-01,
898,2.80000e-01,
899,0.00000e+00,
900,8.00000e-02,
901,-2.40000e-01,
902,-1.60000e-01,
903,-4.40000e-01,
904,-4.00000e-01,
905,-6.80000e-01,
906,-6.00000e-01,
907,-8.80000e-01,
908,-8.80000e-01,
909,-1.12000e+00,
910,-1.08000e+00,
911,-1.36000e+00,
912,-1.28000e+00,
913,-1.56000e+00,
914,-1.48000e+00,
915,-1.76000e+00,
916,-1.68000e+00,
917,-1.92000e+00,
918,-1.88000e+00,
919,-2.12000e+00,
920,-2.08000e+00,
921,-2.32000e+00,
922,-2.28000e+00,
923,-2.52000e+00,
924,-2.44000e+00,
925,-2.64000e+00,
926,-2.60000e+00,
927,-2.80000e+00,
928,-2.72000e+00,
929,-2.96000e+00,
930,-2.88000e+00,
931,-3.08000e+00,
932,-3.00000e+00,
933,-3.20000e+00,
934,-3.12000e+00,
935,-3.28000e+00,
936,-3.24000e+00,
937,-3.40000e+00,
938,-3.32000e+00,
939,-3.48000e+00,
940,-3.40000e+00,
941,-3.56000e+00,
942,-3.48000e+00,
943,-3.60000e+00,
944,-3.52000e+00,
945,-3.64000e+00,
946,-3.56000e+00,
947,-3.68000e+00,
948,-3.56000e+00,
949,-3.68000e+00,
950,-3.68000e+00,
951,-3.56000e+00,
952,-3.56000e+00,
953,-3.68000e+00,
954,-3.64000e+00,
955,-3.52000e+00,
956,-3.60000e+00,
957,-3.48000e+00,
958,-3.56000e+00,
959,-3.40000e+00,
960,-3.48000e+00,
961,-3.32000e+00,
962,-3.40000e+00,
963,-3.24000e+00,
964,-3.28000e+00,
965,-3.08000e+00,
966,-3.16000e+00,
967,-3.00000e+00,
968,-3.08000e+00,
969,-2.88000e+00,
970,-2.96000e+00,
971,-2.72000e+00,
972,-2.80000e+00,
973,-2.60000e+00,
974,-2.64000e+00,
975,-2.40000e+00,
976,-2.48000e+00,
977,-2.24000e+00,
978,-2.32000e+00,
979,-2.08000e+00,
980,-2.12000e+00,
981,-1.88000e+00,
982,-1.92000e+00,
983,-1.68000e+00,
984,-1.72000e+00,
985,-1.48000e+00,
986,-1.52000e+00,
987,-1.28000e+00,
988,-1.32000e+00,
989,-1.08000e+00,
990,-1.12000e+00,
991,-8.40000e-01,
992,-8.80000e-01,
993,-6.00000e-01,
994,-6.40000e-01,
995,-3.60000e-01,
996,-4.40000e-01,
997,-1.60000e-01,
998,-2.00000e-01,
999,8.00000e-02,
1000,0.00000e+00,
1001,2.80000e-01,
1002,2.80000e-01,
1003,5.60000e-01,
1004,4.80000e-01,
1005,8.00000e-01,
1006,7.20000e-01,
1007,1.00000e+00,
1008,9.20000e-01,
1009,1.20000e+00,
1010,1.16000e+00,
1011,1.40000e+00,
1012,1.36000e+00,
1013,1.64000e+00,
1014,1.56000e+00,
1015,1.84000e+00,
1016,1.76000e+00,
1017,2.04000e+00,
1018,1.96000e+00,
1019,2.20000e+00,
1020,2.12000e+00,
1021,2.36000e+00,
1022,2.32000e+00,
1023,2.56000e+00,
1024,2.48000e+00,
1025,2.72000e+00,
1026,2.64000e+00,
1027,2.88000e+00,
1028,2.80000e+00,
1029,3.00000e+00,
1030,2.92000e+00,
1031,3.16000e+00,
1032,3.08000e+00,
1033,3.24000e+00,
1034,3.16000e+00,
1035,3.36000e+00,
1036,3.28000e+00,
1037,3.44000e+00,
1038,3.36000e+00,
1039,3.52000e+00,
1040,3.44000e+00,
1041,3.60000e+00,
1042,3.48000e+00,
1043,3.64000e+00,
1044,3.56000e+00,
1045,3.68000e+00,
1046,3.60000e+00,
1047,3.68000e+00,
1048,3.60000e+00,
1049,3.68000e+00,
1050,3.60000e+00,
1051,3.68000e+00,
1052,3.68000e+00,
1053,3.56000e+00,
1054,3.56000e+00,
1055,3.68000e+00,
1056,3.64000e+00,
1057,3.48000e+00,
1058,3.60000e+00,
1059,3.44000e+00,
1060,3.52000e+00,
1061,3.36000e+00,
1062,3.44000e+00,
1063,3.28000e+00,
1064,3.36000e+00,
1065,3.16000e+00,
1066,3.24000e+00,
1067,3.04000e+00,
1068,3.12000e+00,
1069,2.92000e+00,
1070,3.00000e+00,
1071,2.80000e+00,
1072,2.84000e+00,
1073,2.64000e+00,
1074,2.68000e+00,
1075,2.44000e+00,
1076,2.52000e+00,
1077,2.28000e+00,
1078,2.36000e+00,
1079,2.12000e+00,
1080,2.20000e+00,
1081,1.92000e+00,
1082,2.00000e+00,
1083,1.76000e+00,
1084,1.80000e+00,
1085,1.56000e+00,
1086,1.64000e+00,
1087,1.32000e+00,
1088,1.40000e+00,
1089,1.12000e+00,
1090,1.16000e+00,
1091,8.80000e-01,
1092,9.60000e-01,
1093,6.80000e-01,
1094,7.60000e-01,
1095,4.80000e-01,
1096,5.20000e-01,
1097,2.40000e-01,
1098,2.80000e-01,
1099,0.00000e+00,
1100,4.00000e-02,
1101,-2.40000e-01,
1102,-1.60000e-01,
1103,-4.40000e-01,
1104,-4.00000e-01,
1105,-6.80000e-01,
1106,-6.40000e-01,
1107,-8.80000e-01,
1108,-8.80000e-01,
1109,-1.12000e+00,
1110,-1.08000e+00,
1111,-1.36000e+00,
1112,-1.28000e+00,
1113,-1.56000e+00,
1114,-1.48000e+00,
1115,-1.76000e+00,
1116,-1.68000e+00,
1117,-1.92000e+00,
1118,-1.88000e+00,
1119,-2.12000e+00,
1120,-2.08000e+00,
1121,-2.32000e+00,
1122,-2.28000e+00,
1123,-2.52000e+00,
1124,-2.44000e+00,
1125,-2.64000e+00,
1126,-2.60000e+00,
1127,-2.80000e+00,
1128,-2.72000e+00,
1129,-2.96000e+00,
1130,-2.88000e+00,
1131,-3.08000e+00,
1132,-3.00000e+00,
1133,-3.20000e+00,
1134,-3.12000e+00,
1135,-3.28000e+00,
1136,-3.20000e+00,
1137,-3.40000e+00,
1138,-3.32000e+00,
1139,-3.48000e+00,
