DataAnalysis/Johnson_noise/2017_johnson_noise/data_MUIC_nop_anan/NewFile24.csv

X,CH1,Start,Increment,
Sequence,Volt,-3.60000e-03,1.00000e-05
0,2.36000e+00,
1,2.76000e+00,
2,2.68000e+00,
3,2.96000e+00,
4,2.88000e+00,
5,3.12000e+00,
6,3.04000e+00,
7,3.28000e+00,
8,3.20000e+00,
9,3.40000e+00,
10,3.32000e+00,
11,3.52000e+00,
12,3.44000e+00,
13,3.56000e+00,
14,3.48000e+00,
15,3.60000e+00,
16,3.60000e+00,
17,3.48000e+00,
18,3.60000e+00,
19,3.44000e+00,
20,3.52000e+00,
21,3.36000e+00,
22,3.44000e+00,
23,3.24000e+00,
24,3.32000e+00,
25,3.12000e+00,
26,3.20000e+00,
27,2.92000e+00,
28,3.00000e+00,
29,2.72000e+00,
30,2.80000e+00,
31,2.48000e+00,
32,2.52000e+00,
33,2.20000e+00,
34,2.28000e+00,
35,1.92000e+00,
36,2.00000e+00,
37,1.64000e+00,
38,1.68000e+00,
39,1.32000e+00,
40,1.36000e+00,
41,9.60000e-01,
42,1.00000e+00,
43,6.40000e-01,
44,6.80000e-01,
45,2.80000e-01,
46,3.20000e-01,
47,-1.20000e-01,
48,-4.00000e-02,
49,-4.40000e-01,
50,-4.00000e-01,
51,-8.00000e-01,
52,-7.60000e-01,
53,-1.16000e+00,
54,-1.12000e+00,
55,-1.48000e+00,
56,-1.40000e+00,
57,-1.80000e+00,
58,-1.76000e+00,
59,-2.12000e+00,
60,-2.04000e+00,
61,-2.36000e+00,
62,-2.32000e+00,
63,-2.64000e+00,
64,-2.56000e+00,
65,-2.88000e+00,
66,-2.80000e+00,
67,-3.08000e+00,
68,-3.00000e+00,
69,-3.24000e+00,
70,-3.20000e+00,
71,-3.40000e+00,
72,-3.32000e+00,
73,-3.52000e+00,
74,-3.44000e+00,
75,-3.56000e+00,
76,-3.48000e+00,
77,-3.60000e+00,
78,-3.52000e+00,
79,-3.64000e+00,
80,-3.60000e+00,
81,-3.48000e+00,
82,-3.56000e+00,
83,-3.44000e+00,
84,-3.48000e+00,
85,-3.32000e+00,
86,-3.36000e+00,
87,-3.12000e+00,
88,-3.20000e+00,
89,-2.96000e+00,
90,-3.04000e+00,
91,-2.76000e+00,
92,-2.84000e+00,
93,-2.56000e+00,
94,-2.64000e+00,
95,-2.28000e+00,
96,-2.36000e+00,
97,-2.00000e+00,
98,-2.00000e+00,
99,-1.68000e+00,
100,-1.76000e+00,
101,-1.36000e+00,
102,-1.44000e+00,
103,-1.04000e+00,
104,-1.04000e+00,
105,-6.80000e-01,
106,-7.20000e-01,
107,-3.20000e-01,
108,-4.00000e-01,
109,0.00000e+00,
110,0.00000e+00,
111,4.00000e-01,
112,3.60000e-01,
113,7.60000e-01,
114,7.20000e-01,
115,1.08000e+00,
116,1.00000e+00,
117,1.40000e+00,
118,1.36000e+00,
119,1.76000e+00,
120,1.72000e+00,
121,2.04000e+00,
122,2.00000e+00,
123,2.32000e+00,
124,2.24000e+00,
125,2.56000e+00,
126,2.52000e+00,
127,2.84000e+00,
128,2.76000e+00,
129,3.04000e+00,
130,2.96000e+00,
131,3.20000e+00,
132,3.12000e+00,
133,3.36000e+00,
134,3.28000e+00,
135,3.48000e+00,
136,3.36000e+00,
137,3.52000e+00,
138,3.40000e+00,
139,3.60000e+00,
140,3.60000e+00,
141,3.48000e+00,
142,3.56000e+00,
143,3.44000e+00,
144,3.40000e+00,
145,3.52000e+00,
146,3.52000e+00,
147,3.28000e+00,
148,3.36000e+00,
149,3.16000e+00,
150,3.28000e+00,
151,3.04000e+00,
152,3.12000e+00,
153,2.84000e+00,
154,2.92000e+00,
155,2.60000e+00,
156,2.68000e+00,
157,2.32000e+00,
158,2.40000e+00,
159,2.08000e+00,
160,2.16000e+00,
161,1.80000e+00,
162,1.84000e+00,
163,1.48000e+00,
164,1.52000e+00,
165,1.12000e+00,
166,1.20000e+00,
167,8.00000e-01,
168,8.40000e-01,
169,4.40000e-01,
170,5.20000e-01,
171,1.20000e-01,
172,1.60000e-01,
173,-2.80000e-01,
174,-2.00000e-01,
175,-6.00000e-01,
176,-5.60000e-01,
177,-9.60000e-01,
178,-9.20000e-01,
179,-1.32000e+00,
180,-1.24000e+00,
181,-1.64000e+00,
182,-1.56000e+00,
183,-1.92000e+00,
184,-1.92000e+00,
185,-2.28000e+00,
186,-2.20000e+00,
187,-2.52000e+00,
188,-2.44000e+00,
189,-2.76000e+00,
190,-2.68000e+00,
191,-2.96000e+00,
192,-2.88000e+00,
193,-3.16000e+00,
194,-3.12000e+00,
195,-3.28000e+00,
196,-3.24000e+00,
197,-3.48000e+00,
198,-3.40000e+00,
199,-3.52000e+00,
200,-3.44000e+00,
201,-3.60000e+00,
202,-3.60000e+00,
203,-3.52000e+00,
204,-3.60000e+00,
205,-3.48000e+00,
206,-3.60000e+00,
207,-3.44000e+00,
208,-3.52000e+00,
209,-3.36000e+00,
210,-3.44000e+00,
211,-3.20000e+00,
212,-3.28000e+00,
213,-3.04000e+00,
214,-3.12000e+00,
215,-2.88000e+00,
216,-2.92000e+00,
217,-2.64000e+00,
218,-2.72000e+00,
219,-2.40000e+00,
220,-2.48000e+00,
221,-2.12000e+00,
222,-2.16000e+00,
223,-1.80000e+00,
224,-1.88000e+00,
225,-1.52000e+00,
226,-1.56000e+00,
227,-1.20000e+00,
228,-1.24000e+00,
229,-8.00000e-01,
230,-8.80000e-01,
231,-4.80000e-01,
232,-5.60000e-01,
233,-1.20000e-01,
234,-2.00000e-01,
235,2.00000e-01,
236,1.60000e-01,
237,5.60000e-01,
238,5.20000e-01,
239,9.20000e-01,
240,8.80000e-01,
241,1.24000e+00,
242,1.24000e+00,
243,1.60000e+00,
244,1.52000e+00,
245,1.92000e+00,
246,1.84000e+00,
247,2.20000e+00,
248,2.12000e+00,
249,2.44000e+00,
250,2.40000e+00,
251,2.68000e+00,
252,2.64000e+00,
253,2.96000e+00,
254,2.88000e+00,
255,3.12000e+00,
256,3.04000e+00,
257,3.28000e+00,
258,3.20000e+00,
259,3.44000e+00,
260,3.36000e+00,
261,3.52000e+00,
262,3.44000e+00,
263,3.56000e+00,
264,3.48000e+00,
265,3.60000e+00,
266,3.60000e+00,
267,3.48000e+00,
268,3.60000e+00,
269,3.44000e+00,
270,3.52000e+00,
271,3.36000e+00,
272,3.44000e+00,
273,3.24000e+00,
274,3.32000e+00,
275,3.12000e+00,
276,3.20000e+00,
277,2.92000e+00,
278,3.00000e+00,
279,2.72000e+00,
280,2.76000e+00,
281,2.48000e+00,
282,2.52000e+00,
283,2.20000e+00,
284,2.28000e+00,
285,1.92000e+00,
286,2.00000e+00,
287,1.64000e+00,
288,1.68000e+00,
289,1.32000e+00,
290,1.36000e+00,
291,9.60000e-01,
292,1.00000e+00,
293,6.00000e-01,
294,6.80000e-01,
295,2.80000e-01,
296,3.20000e-01,
297,-8.00000e-02,
298,-4.00000e-02,
299,-4.40000e-01,
300,-3.60000e-01,
301,-8.00000e-01,
302,-7.20000e-01,
303,-1.12000e+00,
304,-1.12000e+00,
305,-1.48000e+00,
306,-1.44000e+00,
307,-1.80000e+00,
308,-1.72000e+00,
309,-2.08000e+00,
310,-2.00000e+00,
311,-2.40000e+00,
312,-2.32000e+00,
313,-2.64000e+00,
314,-2.56000e+00,
315,-2.84000e+00,
316,-2.80000e+00,
317,-3.08000e+00,
318,-3.00000e+00,
319,-3.24000e+00,
320,-3.16000e+00,
321,-3.40000e+00,
322,-3.32000e+00,
323,-3.52000e+00,
324,-3.44000e+00,
325,-3.56000e+00,
326,-3.48000e+00,
327,-3.60000e+00,
328,-3.52000e+00,
329,-3.60000e+00,
330,-3.60000e+00,
331,-3.48000e+00,
332,-3.56000e+00,
333,-3.40000e+00,
334,-3.48000e+00,
335,-3.32000e+00,
336,-3.40000e+00,
337,-3.12000e+00,
338,-3.20000e+00,
339,-2.96000e+00,
340,-3.04000e+00,
341,-2.76000e+00,
342,-2.84000e+00,
343,-2.52000e+00,
344,-2.60000e+00,
345,-2.28000e+00,
346,-2.36000e+00,
347,-2.00000e+00,
348,-2.04000e+00,
349,-1.68000e+00,
350,-1.72000e+00,
351,-1.36000e+00,
352,-1.44000e+00,
353,-1.04000e+00,
354,-1.08000e+00,
355,-6.40000e-01,
356,-7.20000e-01,
357,-3.20000e-01,
358,-4.00000e-01,
359,0.00000e+00,
360,0.00000e+00,
361,3.60000e-01,
362,3.60000e-01,
363,7.60000e-01,
364,6.80000e-01,
365,1.08000e+00,
366,1.04000e+00,
367,1.40000e+00,
368,1.40000e+00,
369,1.76000e+00,
370,1.68000e+00,
371,2.04000e+00,
372,2.00000e+00,
373,2.32000e+00,
374,2.24000e+00,
375,2.56000e+00,
376,2.56000e+00,
377,2.84000e+00,
378,2.76000e+00,
379,3.04000e+00,
380,2.96000e+00,
381,3.24000e+00,
382,3.16000e+00,
383,3.36000e+00,
384,3.28000e+00,
385,3.48000e+00,
386,3.40000e+00,
387,3.52000e+00,
388,3.44000e+00,
389,3.60000e+00,
390,3.60000e+00,
391,3.48000e+00,
392,3.60000e+00,
393,3.48000e+00,
394,3.56000e+00,
395,3.40000e+00,
396,3.48000e+00,
397,3.32000e+00,
398,3.40000e+00,
399,3.16000e+00,
400,3.24000e+00,
401,3.00000e+00,
402,3.12000e+00,
403,2.84000e+00,
404,2.92000e+00,
405,2.60000e+00,
406,2.68000e+00,
407,2.32000e+00,
408,2.40000e+00,
409,2.08000e+00,
410,2.12000e+00,
411,1.76000e+00,
412,1.84000e+00,
413,1.48000e+00,
414,1.52000e+00,
415,1.12000e+00,
416,1.20000e+00,
417,8.00000e-01,
418,8.80000e-01,
419,4.40000e-01,
420,5.20000e-01,
421,8.00000e-02,
422,1.20000e-01,
423,-2.80000e-01,
424,-2.00000e-01,
425,-6.00000e-01,
426,-6.00000e-01,
427,-9.60000e-01,
428,-9.20000e-01,
429,-1.28000e+00,
430,-1.24000e+00,
431,-1.64000e+00,
432,-1.56000e+00,
433,-1.92000e+00,
434,-1.88000e+00,
435,-2.24000e+00,
436,-2.20000e+00,
437,-2.52000e+00,
438,-2.44000e+00,
439,-2.76000e+00,
440,-2.68000e+00,
441,-2.96000e+00,
442,-2.88000e+00,
443,-3.16000e+00,
444,-3.08000e+00,
445,-3.28000e+00,
446,-3.24000e+00,
447,-3.44000e+00,
448,-3.36000e+00,
449,-3.56000e+00,
450,-3.44000e+00,
451,-3.60000e+00,
452,-3.60000e+00,
453,-3.48000e+00,
454,-3.52000e+00,
455,-3.60000e+00,
456,-3.60000e+00,
457,-3.44000e+00,
458,-3.52000e+00,
459,-3.36000e+00,
460,-3.44000e+00,
461,-3.20000e+00,
462,-3.28000e+00,
463,-3.08000e+00,
464,-3.12000e+00,
465,-2.84000e+00,
466,-2.92000e+00,
467,-2.64000e+00,
468,-2.72000e+00,
469,-2.40000e+00,
470,-2.48000e+00,
471,-2.16000e+00,
472,-2.20000e+00,
473,-1.84000e+00,
474,-1.88000e+00,
475,-1.52000e+00,
476,-1.60000e+00,
477,-1.20000e+00,
478,-1.28000e+00,
479,-8.80000e-01,
480,-8.80000e-01,
481,-4.80000e-01,
482,-5.60000e-01,
483,-1.60000e-01,
484,-1.60000e-01,
485,2.00000e-01,
486,1.20000e-01,
487,6.00000e-01,
488,5.20000e-01,
489,9.20000e-01,
490,8.40000e-01,
491,1.24000e+00,
492,1.24000e+00,
493,1.60000e+00,
494,1.56000e+00,
495,1.92000e+00,
496,1.84000e+00,
497,2.20000e+00,
498,2.12000e+00,
499,2.48000e+00,
500,2.44000e+00,
501,2.72000e+00,
502,2.64000e+00,
503,2.96000e+00,
504,2.88000e+00,
505,3.12000e+00,
506,3.04000e+00,
507,3.28000e+00,
508,3.20000e+00,
509,3.40000e+00,
510,3.32000e+00,
511,3.52000e+00,
512,3.44000e+00,
513,3.56000e+00,
514,3.48000e+00,
515,3.60000e+00,
516,3.60000e+00,
517,3.48000e+00,
518,3.56000e+00,
519,3.44000e+00,
520,3.52000e+00,
521,3.36000e+00,
522,3.44000e+00,
523,3.24000e+00,
524,3.32000e+00,
525,3.08000e+00,
526,3.20000e+00,
527,2.92000e+00,
528,3.00000e+00,
529,2.72000e+00,
530,2.80000e+00,
531,2.48000e+00,
532,2.52000e+00,
533,2.20000e+00,
534,2.28000e+00,
535,1.92000e+00,
536,2.00000e+00,
537,1.64000e+00,
538,1.68000e+00,
539,1.28000e+00,
540,1.36000e+00,
541,9.60000e-01,
542,1.04000e+00,
543,6.40000e-01,
544,6.80000e-01,
545,2.80000e-01,
546,3.20000e-01,
547,-8.00000e-02,
548,-4.00000e-02,
549,-4.40000e-01,
550,-4.00000e-01,
551,-8.00000e-01,
552,-7.60000e-01,
553,-1.16000e+00,
554,-1.08000e+00,
555,-1.48000e+00,
556,-1.44000e+00,
557,-1.80000e+00,
558,-1.76000e+00,
559,-2.08000e+00,
560,-2.04000e+00,
561,-2.40000e+00,
562,-2.32000e+00,
563,-2.64000e+00,
564,-2.56000e+00,
565,-2.88000e+00,
566,-2.80000e+00,
567,-3.04000e+00,
568,-3.00000e+00,
569,-3.24000e+00,
570,-3.20000e+00,
571,-3.40000e+00,
572,-3.32000e+00,
573,-3.52000e+00,
574,-3.44000e+00,
575,-3.56000e+00,
576,-3.48000e+00,
577,-3.60000e+00,
578,-3.60000e+00,
579,-3.52000e+00,
580,-3.60000e+00,
581,-3.48000e+00,
582,-3.56000e+00,
583,-3.40000e+00,
584,-3.48000e+00,
585,-3.28000e+00,
586,-3.32000e+00,
587,-3.12000e+00,
588,-3.20000e+00,
589,-2.96000e+00,
590,-3.04000e+00,
591,-2.76000e+00,
592,-2.84000e+00,
593,-2.52000e+00,
594,-2.60000e+00,
595,-2.28000e+00,
596,-2.36000e+00,
597,-2.00000e+00,
598,-2.04000e+00,
599,-1.68000e+00,
600,-1.72000e+00,
601,-1.36000e+00,
602,-1.44000e+00,
603,-1.04000e+00,
604,-1.08000e+00,
605,-6.80000e-01,
606,-7.20000e-01,
607,-3.20000e-01,
608,-4.00000e-01,
609,4.00000e-02,
610,-4.00000e-02,
611,4.00000e-01,
612,3.60000e-01,
613,7.60000e-01,
614,6.80000e-01,
615,1.12000e+00,
616,1.08000e+00,
617,1.40000e+00,
618,1.40000e+00,
619,1.76000e+00,
620,1.68000e+00,
621,2.04000e+00,
622,2.00000e+00,
623,2.32000e+00,
624,2.28000e+00,
625,2.60000e+00,
626,2.52000e+00,
627,2.80000e+00,
628,2.76000e+00,
629,3.04000e+00,
630,3.00000e+00,
631,3.20000e+00,
632,3.16000e+00,
633,3.36000e+00,
634,3.28000e+00,
635,3.48000e+00,
636,3.36000e+00,
637,3.52000e+00,
638,3.44000e+00,
639,3.60000e+00,
640,3.48000e+00,
641,3.60000e+00,
642,3.60000e+00,
643,3.48000e+00,
644,3.56000e+00,
645,3.40000e+00,
646,3.48000e+00,
647,3.32000e+00,
648,3.40000e+00,
649,3.16000e+00,
650,3.24000e+00,
651,3.04000e+00,
652,3.08000e+00,
653,2.84000e+00,
654,2.92000e+00,
655,2.60000e+00,
656,2.68000e+00,
657,2.32000e+00,
658,2.40000e+00,
659,2.08000e+00,
660,2.12000e+00,
661,1.80000e+00,
662,1.84000e+00,
663,1.48000e+00,
664,1.56000e+00,
665,1.12000e+00,
666,1.20000e+00,
667,8.00000e-01,
668,8.40000e-01,
669,4.40000e-01,
670,5.20000e-01,
671,8.00000e-02,
672,1.60000e-01,
673,-2.80000e-01,
674,-2.00000e-01,
675,-6.00000e-01,
676,-5.60000e-01,
677,-9.60000e-01,
678,-8.80000e-01,
679,-1.32000e+00,
680,-1.24000e+00,
681,-1.64000e+00,
682,-1.56000e+00,
683,-1.92000e+00,
684,-1.88000e+00,
685,-2.24000e+00,
686,-2.20000e+00,
687,-2.52000e+00,
688,-2.44000e+00,
689,-2.76000e+00,
690,-2.68000e+00,
691,-2.96000e+00,
692,-2.92000e+00,
693,-3.16000e+00,
694,-3.12000e+00,
695,-3.32000e+00,
696,-3.28000e+00,
697,-3.44000e+00,
698,-3.40000e+00,
699,-3.56000e+00,
700,-3.44000e+00,
701,-3.60000e+00,
702,-3.60000e+00,
703,-3.52000e+00,
704,-3.52000e+00,
705,-3.60000e+00,
706,-3.60000e+00,
707,-3.44000e+00,
708,-3.52000e+00,
709,-3.36000e+00,
710,-3.44000e+00,
711,-3.24000e+00,
712,-3.28000e+00,
713,-3.04000e+00,
714,-3.12000e+00,
715,-2.88000e+00,
716,-2.92000e+00,
717,-2.64000e+00,
718,-2.72000e+00,
719,-2.40000e+00,
720,-2.48000e+00,
721,-2.12000e+00,
722,-2.16000e+00,
723,-1.80000e+00,
724,-1.88000e+00,
725,-1.52000e+00,
726,-1.60000e+00,
727,-1.20000e+00,
728,-1.24000e+00,
729,-8.40000e-01,
730,-8.80000e-01,
731,-4.80000e-01,
732,-5.60000e-01,
733,-1.20000e-01,
734,-2.00000e-01,
735,2.00000e-01,
736,1.60000e-01,
737,5.60000e-01,
738,5.20000e-01,
739,9.20000e-01,
740,8.40000e-01,
741,1.24000e+00,
742,1.20000e+00,
743,1.60000e+00,
744,1.52000e+00,
745,1.92000e+00,
746,1.84000e+00,
747,2.20000e+00,
748,2.12000e+00,
749,2.44000e+00,
750,2.44000e+00,
751,2.72000e+00,
752,2.68000e+00,
753,2.96000e+00,
754,2.88000e+00,
755,3.12000e+00,
756,3.04000e+00,
757,3.28000e+00,
758,3.20000e+00,
759,3.40000e+00,
760,3.32000e+00,
761,3.48000e+00,
762,3.40000e+00,
763,3.56000e+00,
764,3.48000e+00,
765,3.60000e+00,
766,3.60000e+00,
767,3.48000e+00,
768,3.56000e+00,
769,3.44000e+00,
770,3.52000e+00,
771,3.36000e+00,
772,3.44000e+00,
773,3.24000e+00,
774,3.32000e+00,
775,3.08000e+00,
776,3.16000e+00,
777,2.92000e+00,
778,3.00000e+00,
779,2.72000e+00,
780,2.80000e+00,
781,2.48000e+00,
782,2.52000e+00,
783,2.20000e+00,
784,2.28000e+00,
785,1.92000e+00,
786,2.00000e+00,
787,1.64000e+00,
788,1.68000e+00,
789,1.28000e+00,
790,1.36000e+00,
791,9.60000e-01,
792,1.00000e+00,
793,6.40000e-01,
794,6.80000e-01,
795,2.80000e-01,
796,3.20000e-01,
797,-1.20000e-01,
798,-4.00000e-02,
799,-4.40000e-01,
800,-4.00000e-01,
801,-7.60000e-01,
802,-7.20000e-01,
803,-1.16000e+00,
804,-1.08000e+00,
805,-1.48000e+00,
806,-1.44000e+00,
807,-1.80000e+00,
808,-1.76000e+00,
809,-2.08000e+00,
810,-2.08000e+00,
811,-2.40000e+00,
812,-2.32000e+00,
813,-2.64000e+00,
814,-2.56000e+00,
815,-2.88000e+00,
816,-2.80000e+00,
817,-3.08000e+00,
818,-3.00000e+00,
819,-3.24000e+00,
820,-3.16000e+00,
821,-3.36000e+00,
822,-3.32000e+00,
823,-3.52000e+00,
824,-3.44000e+00,
825,-3.56000e+00,
826,-3.48000e+00,
827,-3.60000e+00,
828,-3.52000e+00,
829,-3.60000e+00,
830,-3.60000e+00,
831,-3.48000e+00,
832,-3.56000e+00,
833,-3.40000e+00,
834,-3.48000e+00,
835,-3.28000e+00,
836,-3.36000e+00,
837,-3.12000e+00,
838,-3.20000e+00,
839,-3.00000e+00,
840,-3.04000e+00,
841,-2.76000e+00,
842,-2.84000e+00,
843,-2.52000e+00,
844,-2.60000e+00,
845,-2.28000e+00,
846,-2.32000e+00,
847,-2.00000e+00,
848,-2.04000e+00,
849,-1.68000e+00,
850,-1.72000e+00,
851,-1.36000e+00,
852,-1.44000e+00,
853,-1.04000e+00,
854,-1.08000e+00,
855,-6.40000e-01,
856,-7.20000e-01,
857,-3.20000e-01,
858,-3.60000e-01,
859,4.00000e-02,
860,0.00000e+00,
861,4.00000e-01,
862,3.60000e-01,
863,7.60000e-01,
864,6.80000e-01,
865,1.08000e+00,
866,1.04000e+00,
867,1.40000e+00,
868,1.40000e+00,
869,1.76000e+00,
870,1.68000e+00,
871,2.04000e+00,
872,2.00000e+00,
873,2.32000e+00,
874,2.28000e+00,
875,2.60000e+00,
876,2.52000e+00,
877,2.84000e+00,
878,2.80000e+00,
879,3.04000e+00,
880,2.96000e+00,
881,3.20000e+00,
882,3.12000e+00,
883,3.36000e+00,
884,3.28000e+00,
885,3.48000e+00,
886,3.40000e+00,
887,3.52000e+00,
888,3.44000e+00,
889,3.60000e+00,
890,3.48000e+00,
891,3.60000e+00,
892,3.60000e+00,
893,3.48000e+00,
894,3.56000e+00,
895,3.40000e+00,
896,3.48000e+00,
897,3.32000e+00,
898,3.40000e+00,
899,3.20000e+00,
900,3.28000e+00,
901,3.04000e+00,
902,3.08000e+00,
903,2.84000e+00,
904,2.88000e+00,
905,2.60000e+00,
906,2.68000e+00,
907,2.32000e+00,
908,2.40000e+00,
909,2.04000e+00,
910,2.12000e+00,
911,1.80000e+00,
912,1.84000e+00,
913,1.48000e+00,
914,1.52000e+00,
915,1.16000e+00,
916,1.20000e+00,
917,8.00000e-01,
918,8.40000e-01,
919,4.80000e-01,
920,5.20000e-01,
921,1.20000e-01,
922,1.60000e-01,
923,-2.40000e-01,
924,-2.00000e-01,
925,-6.00000e-01,
926,-5.20000e-01,
927,-9.20000e-01,
928,-9.20000e-01,
929,-1.32000e+00,
930,-1.28000e+00,
931,-1.64000e+00,
932,-1.60000e+00,
933,-1.92000e+00,
934,-1.88000e+00,
935,-2.24000e+00,
936,-2.20000e+00,
937,-2.56000e+00,
938,-2.52000e+00,
939,-2.76000e+00,
940,-2.68000e+00,
941,-2.96000e+00,
942,-2.92000e+00,
943,-3.16000e+00,
944,-3.08000e+00,
945,-3.32000e+00,
946,-3.28000e+00,
947,-3.48000e+00,
948,-3.40000e+00,
949,-3.56000e+00,
950,-3.48000e+00,
951,-3.60000e+00,
952,-3.52000e+00,
953,-3.64000e+00,
954,-3.64000e+00,
955,-3.52000e+00,
956,-3.60000e+00,
957,-3.44000e+00,
958,-3.48000e+00,
959,-3.36000e+00,
960,-3.44000e+00,
961,-3.20000e+00,
962,-3.28000e+00,
963,-3.04000e+00,
964,-3.12000e+00,
965,-2.88000e+00,
966,-2.96000e+00,
967,-2.64000e+00,
968,-2.72000e+00,
969,-2.40000e+00,
970,-2.48000e+00,
971,-2.16000e+00,
972,-2.20000e+00,
973,-1.84000e+00,
974,-1.88000e+00,
975,-1.52000e+00,
976,-1.60000e+00,
977,-1.20000e+00,
978,-1.24000e+00,
979,-8.80000e-01,
980,-9.20000e-01,
981,-4.80000e-01,
982,-5.60000e-01,
983,-1.60000e-01,
984,-2.00000e-01,
985,2.00000e-01,
986,1.20000e-01,
987,6.00000e-01,
988,5.20000e-01,
989,9.20000e-01,
990,8.80000e-01,
991,1.24000e+00,
992,1.20000e+00,
993,1.60000e+00,
994,1.56000e+00,
995,1.88000e+00,
996,1.84000e+00,
997,2.16000e+00,
998,2.08000e+00,
999,2.48000e+00,
1000,2.44000e+00,
1001,2.72000e+00,
1002,2.64000e+00,
1003,2.96000e+00,
1004,2.88000e+00,
1005,3.12000e+00,
1006,3.08000e+00,
1007,3.28000e+00,
1008,3.20000e+00,
1009,3.44000e+00,
1010,3.32000e+00,
1011,3.52000e+00,
1012,3.40000e+00,
1013,3.56000e+00,
1014,3.44000e+00,
1015,3.60000e+00,
1016,3.60000e+00,
1017,3.48000e+00,
1018,3.56000e+00,
1019,3.44000e+00,
1020,3.52000e+00,
1021,3.36000e+00,
1022,3.44000e+00,
1023,3.28000e+00,
1024,3.36000e+00,
1025,3.08000e+00,
1026,3.16000e+00,
1027,2.96000e+00,
1028,3.00000e+00,
1029,2.72000e+00,
1030,2.80000e+00,
1031,2.48000e+00,
1032,2.52000e+00,
1033,2.24000e+00,
1034,2.28000e+00,
1035,1.92000e+00,
1036,2.00000e+00,
1037,1.64000e+00,
1038,1.68000e+00,
1039,1.28000e+00,
1040,1.36000e+00,
1041,9.60000e-01,
1042,1.04000e+00,
1043,6.40000e-01,
1044,6.80000e-01,
1045,2.80000e-01,
1046,2.80000e-01,
1047,-1.20000e-01,
1048,-4.00000e-02,
1049,-4.40000e-01,
1050,-3.60000e-01,
1051,-8.00000e-01,
1052,-7.60000e-01,
1053,-1.16000e+00,
1054,-1.08000e+00,
1055,-1.44000e+00,
1056,-1.40000e+00,
1057,-1.80000e+00,
1058,-1.76000e+00,
1059,-2.12000e+00,
1060,-2.08000e+00,
1061,-2.36000e+00,
1062,-2.32000e+00,
1063,-2.64000e+00,
1064,-2.56000e+00,
1065,-2.88000e+00,
1066,-2.80000e+00,
1067,-3.08000e+00,
1068,-3.00000e+00,
1069,-3.20000e+00,
1070,-3.16000e+00,
1071,-3.40000e+00,
1072,-3.32000e+00,
1073,-3.52000e+00,
1074,-3.44000e+00,
1075,-3.56000e+00,
1076,-3.48000e+00,
1077,-3.60000e+00,
1078,-3.52000e+00,
1079,-3.60000e+00,
1080,-3.60000e+00,
1081,-3.48000e+00,
1082,-3.56000e+00,
1083,-3.40000e+00,
1084,-3.48000e+00,
1085,-3.32000e+00,
1086,-3.36000e+00,
1087,-3.12000e+00,
1088,-3.20000e+00,
1089,-2.96000e+00,
1090,-3.00000e+00,
1091,-2.76000e+00,
1092,-2.80000e+00,
1093,-2.52000e+00,
1094,-2.60000e+00,
1095,-2.28000e+00,
1096,-2.36000e+00,
1097,-1.96000e+00,
1098,-2.00000e+00,
1099,-1.64000e+00,
1100,-1.72000e+00,
1101,-1.36000e+00,
1102,-1.44000e+00,
1103,-1.04000e+00,
1104,-1.08000e+00,
1105,-6.40000e-01,
1106,-7.20000e-01,
1107,-2.80000e-01,
1108,-3.20000e-01,
1109,0.00000e+00,
1110,-4.00000e-02,
1111,4.00000e-01,
1112,3.60000e-01,
1113,7.60000e-01,
1114,7.20000e-01,
1115,1.12000e+00,
1116,1.04000e+00,
1117,1.40000e+00,
1118,1.36000e+00,
1119,1.76000e+00,
1120,1.68000e+00,
1121,2.08000e+00,
1122,2.00000e+00,
1123,2.32000e+00,
1124,2.28000e+00,
1125,2.56000e+00,
1126,2.56000e+00,
1127,2.88000e+00,
1128,2.80000e+00,
1129,3.08000e+00,
1130,2.96000e+00,
1131,3.24000e+00,
1132,3.16000e+00,
1133,3.36000e+00,
1134,3.28000e+00,
1135,3.48000e+00,
1136,3.40000e+00,
1137,3.56000e+00,
