DataAnalysis/Johnson_noise/2017_johnson_noise/data_MUIC_nop_anan/NewFile54.csv

X,CH1,Start,Increment,
Sequence,Volt,1.80000e-03,1.00000e-06
0,3.28000e+00,
1,3.08000e+00,
2,3.16000e+00,
3,2.92000e+00,
4,3.00000e+00,
5,2.72000e+00,
6,2.76000e+00,
7,2.48000e+00,
8,2.52000e+00,
9,2.20000e+00,
10,2.28000e+00,
11,1.92000e+00,
12,2.00000e+00,
13,1.64000e+00,
14,1.72000e+00,
15,1.28000e+00,
16,1.36000e+00,
17,9.60000e-01,
18,1.00000e+00,
19,6.00000e-01,
20,6.80000e-01,
21,2.80000e-01,
22,2.80000e-01,
23,-8.00000e-02,
24,-4.00000e-02,
25,-4.80000e-01,
26,-4.00000e-01,
27,-8.00000e-01,
28,-7.60000e-01,
29,-1.16000e+00,
30,-1.12000e+00,
31,-1.48000e+00,
32,-1.44000e+00,
33,-1.80000e+00,
34,-1.76000e+00,
35,-2.12000e+00,
36,-2.08000e+00,
37,-2.36000e+00,
38,-2.32000e+00,
39,-2.64000e+00,
40,-2.56000e+00,
41,-2.84000e+00,
42,-2.76000e+00,
43,-3.00000e+00,
44,-2.96000e+00,
45,-3.16000e+00,
46,-3.08000e+00,
47,-3.28000e+00,
48,-3.20000e+00,
49,-3.36000e+00,
50,-3.28000e+00,
51,-3.40000e+00,
52,-3.32000e+00,
53,-3.40000e+00,
54,-3.40000e+00,
55,-3.28000e+00,
56,-3.32000e+00,
57,-3.16000e+00,
58,-3.24000e+00,
59,-3.08000e+00,
60,-3.12000e+00,
61,-2.92000e+00,
62,-3.00000e+00,
63,-2.72000e+00,
64,-2.80000e+00,
65,-2.52000e+00,
66,-2.60000e+00,
67,-2.28000e+00,
68,-2.32000e+00,
69,-2.00000e+00,
70,-2.04000e+00,
71,-1.68000e+00,
72,-1.76000e+00,
73,-1.36000e+00,
74,-1.44000e+00,
75,-1.04000e+00,
76,-1.12000e+00,
77,-6.80000e-01,
78,-7.60000e-01,
79,-3.20000e-01,
80,-4.00000e-01,
81,0.00000e+00,
82,-4.00000e-02,
83,3.60000e-01,
84,3.20000e-01,
85,7.20000e-01,
86,6.80000e-01,
87,1.08000e+00,
88,1.00000e+00,
89,1.40000e+00,
90,1.40000e+00,
91,1.72000e+00,
92,1.68000e+00,
93,2.04000e+00,
94,2.00000e+00,
95,2.32000e+00,
96,2.24000e+00,
97,2.56000e+00,
98,2.52000e+00,
99,2.80000e+00,
100,2.76000e+00,
101,3.00000e+00,
102,2.92000e+00,
103,3.16000e+00,
104,3.08000e+00,
105,3.28000e+00,
106,3.20000e+00,
107,3.36000e+00,
108,3.28000e+00,
109,3.40000e+00,
110,3.32000e+00,
111,3.44000e+00,
112,3.44000e+00,
113,3.32000e+00,
114,3.40000e+00,
115,3.24000e+00,
116,3.36000e+00,
117,3.16000e+00,
118,3.24000e+00,
119,3.04000e+00,
120,3.12000e+00,
121,2.88000e+00,
122,2.96000e+00,
123,2.68000e+00,
124,2.76000e+00,
125,2.40000e+00,
126,2.48000e+00,
127,2.16000e+00,
128,2.24000e+00,
129,1.88000e+00,
130,1.96000e+00,
131,1.56000e+00,
132,1.64000e+00,
133,1.24000e+00,
134,1.28000e+00,
135,8.80000e-01,
136,9.60000e-01,
137,5.60000e-01,
138,6.00000e-01,
139,2.00000e-01,
140,2.40000e-01,
141,-1.60000e-01,
142,-1.20000e-01,
143,-5.20000e-01,
144,-4.80000e-01,
145,-8.80000e-01,
146,-8.40000e-01,
147,-1.24000e+00,
148,-1.20000e+00,
149,-1.56000e+00,
150,-1.52000e+00,
151,-1.88000e+00,
152,-1.80000e+00,
153,-2.16000e+00,
154,-2.12000e+00,
155,-2.44000e+00,
156,-2.36000e+00,
157,-2.68000e+00,
158,-2.60000e+00,
159,-2.88000e+00,
160,-2.80000e+00,
161,-3.04000e+00,
162,-2.96000e+00,
163,-3.20000e+00,
164,-3.12000e+00,
165,-3.28000e+00,
166,-3.20000e+00,
167,-3.40000e+00,
168,-3.32000e+00,
169,-3.40000e+00,
170,-3.32000e+00,
171,-3.40000e+00,
172,-3.40000e+00,
173,-3.28000e+00,
174,-3.32000e+00,
175,-3.16000e+00,
176,-3.24000e+00,
177,-3.04000e+00,
178,-3.12000e+00,
179,-2.88000e+00,
180,-2.96000e+00,
181,-2.68000e+00,
182,-2.76000e+00,
183,-2.48000e+00,
184,-2.56000e+00,
185,-2.24000e+00,
186,-2.32000e+00,
187,-1.96000e+00,
188,-2.00000e+00,
189,-1.64000e+00,
190,-1.68000e+00,
191,-1.32000e+00,
192,-1.40000e+00,
193,-1.00000e+00,
194,-1.04000e+00,
195,-6.80000e-01,
196,-6.80000e-01,
197,-2.80000e-01,
198,-3.60000e-01,
199,8.00000e-02,
200,4.00000e-02,
201,4.40000e-01,
202,4.00000e-01,
203,8.00000e-01,
204,7.20000e-01,
205,1.12000e+00,
206,1.08000e+00,
207,1.48000e+00,
208,1.44000e+00,
209,1.80000e+00,
210,1.72000e+00,
211,2.08000e+00,
212,2.04000e+00,
213,2.36000e+00,
214,2.28000e+00,
215,2.60000e+00,
216,2.56000e+00,
217,2.88000e+00,
218,2.76000e+00,
219,3.04000e+00,
220,2.96000e+00,
221,3.20000e+00,
222,3.12000e+00,
223,3.32000e+00,
224,3.20000e+00,
225,3.40000e+00,
226,3.32000e+00,
227,3.44000e+00,
228,3.44000e+00,
229,3.32000e+00,
230,3.44000e+00,
231,3.32000e+00,
232,3.40000e+00,
233,3.24000e+00,
234,3.32000e+00,
235,3.16000e+00,
236,3.24000e+00,
237,3.00000e+00,
238,3.08000e+00,
239,2.84000e+00,
240,2.92000e+00,
241,2.64000e+00,
242,2.64000e+00,
243,2.40000e+00,
244,2.44000e+00,
245,2.12000e+00,
246,2.16000e+00,
247,1.84000e+00,
248,1.88000e+00,
249,1.52000e+00,
250,1.56000e+00,
251,1.16000e+00,
252,1.24000e+00,
253,8.40000e-01,
254,9.20000e-01,
255,4.80000e-01,
256,5.20000e-01,
257,1.20000e-01,
258,1.60000e-01,
259,-2.40000e-01,
260,-1.60000e-01,
261,-5.60000e-01,
262,-5.60000e-01,
263,-9.20000e-01,
264,-8.80000e-01,
265,-1.28000e+00,
266,-1.24000e+00,
267,-1.60000e+00,
268,-1.56000e+00,
269,-1.92000e+00,
270,-1.88000e+00,
271,-2.20000e+00,
272,-2.16000e+00,
273,-2.48000e+00,
274,-2.40000e+00,
275,-2.72000e+00,
276,-2.64000e+00,
277,-2.92000e+00,
278,-2.84000e+00,
279,-3.08000e+00,
280,-3.00000e+00,
281,-3.20000e+00,
282,-3.12000e+00,
283,-3.28000e+00,
284,-3.24000e+00,
285,-3.40000e+00,
286,-3.32000e+00,
287,-3.44000e+00,
288,-3.32000e+00,
289,-3.44000e+00,
290,-3.40000e+00,
291,-3.24000e+00,
292,-3.32000e+00,
293,-3.16000e+00,
294,-3.20000e+00,
295,-3.00000e+00,
296,-3.08000e+00,
297,-2.84000e+00,
298,-2.92000e+00,
299,-2.68000e+00,
300,-2.72000e+00,
301,-2.44000e+00,
302,-2.52000e+00,
303,-2.20000e+00,
304,-2.24000e+00,
305,-1.88000e+00,
306,-1.92000e+00,
307,-1.60000e+00,
308,-1.64000e+00,
309,-1.28000e+00,
310,-1.32000e+00,
311,-9.20000e-01,
312,-9.60000e-01,
313,-5.60000e-01,
314,-6.00000e-01,
315,-2.00000e-01,
316,-2.80000e-01,
317,1.20000e-01,
318,1.20000e-01,
319,5.20000e-01,
320,4.40000e-01,
321,8.80000e-01,
322,8.00000e-01,
323,1.20000e+00,
324,1.20000e+00,
325,1.52000e+00,
326,1.48000e+00,
327,1.84000e+00,
328,1.80000e+00,
329,2.16000e+00,
330,2.08000e+00,
331,2.44000e+00,
332,2.36000e+00,
333,2.64000e+00,
334,2.60000e+00,
335,2.88000e+00,
336,2.84000e+00,
337,3.08000e+00,
338,3.00000e+00,
339,3.20000e+00,
340,3.16000e+00,
341,3.32000e+00,
342,3.24000e+00,
343,3.40000e+00,
344,3.32000e+00,
345,3.44000e+00,
346,3.44000e+00,
347,3.36000e+00,
348,3.44000e+00,
349,3.32000e+00,
350,3.40000e+00,
351,3.24000e+00,
352,3.32000e+00,
353,3.12000e+00,
354,3.20000e+00,
355,2.96000e+00,
356,3.08000e+00,
357,2.80000e+00,
358,2.84000e+00,
359,2.60000e+00,
360,2.64000e+00,
361,2.32000e+00,
362,2.40000e+00,
363,2.08000e+00,
364,2.12000e+00,
365,1.76000e+00,
366,1.84000e+00,
367,1.48000e+00,
368,1.48000e+00,
369,1.12000e+00,
370,1.16000e+00,
371,8.00000e-01,
372,8.40000e-01,
373,4.40000e-01,
374,4.40000e-01,
375,8.00000e-02,
376,1.20000e-01,
377,-2.80000e-01,
378,-2.40000e-01,
379,-6.40000e-01,
380,-6.00000e-01,
381,-9.60000e-01,
382,-9.60000e-01,
383,-1.32000e+00,
384,-1.28000e+00,
385,-1.64000e+00,
386,-1.60000e+00,
387,-1.96000e+00,
388,-1.88000e+00,
389,-2.28000e+00,
390,-2.20000e+00,
391,-2.52000e+00,
392,-2.44000e+00,
393,-2.76000e+00,
394,-2.68000e+00,
395,-2.96000e+00,
396,-2.84000e+00,
397,-3.08000e+00,
398,-3.00000e+00,
399,-3.20000e+00,
400,-3.12000e+00,
401,-3.32000e+00,
402,-3.28000e+00,
403,-3.40000e+00,
404,-3.40000e+00,
405,-3.32000e+00,
406,-3.32000e+00,
407,-3.40000e+00,
408,-3.40000e+00,
409,-3.24000e+00,
410,-3.28000e+00,
411,-3.12000e+00,
412,-3.20000e+00,
413,-3.00000e+00,
414,-3.04000e+00,
415,-2.80000e+00,
416,-2.88000e+00,
417,-2.60000e+00,
418,-2.68000e+00,
419,-2.40000e+00,
420,-2.48000e+00,
421,-2.16000e+00,
422,-2.20000e+00,
423,-1.84000e+00,
424,-1.88000e+00,
425,-1.52000e+00,
426,-1.60000e+00,
427,-1.20000e+00,
428,-1.24000e+00,
429,-8.80000e-01,
430,-9.20000e-01,
431,-4.80000e-01,
432,-5.60000e-01,
433,-1.60000e-01,
434,-2.00000e-01,
435,2.00000e-01,
436,1.20000e-01,
437,5.60000e-01,
438,5.20000e-01,
439,9.20000e-01,
440,8.80000e-01,
441,1.24000e+00,
442,1.20000e+00,
443,1.60000e+00,
444,1.56000e+00,
445,1.92000e+00,
446,1.84000e+00,
447,2.20000e+00,
448,2.12000e+00,
449,2.44000e+00,
450,2.40000e+00,
451,2.72000e+00,
452,2.64000e+00,
453,2.92000e+00,
454,2.84000e+00,
455,3.12000e+00,
456,3.04000e+00,
457,3.24000e+00,
458,3.16000e+00,
459,3.36000e+00,
460,3.24000e+00,
461,3.44000e+00,
462,3.44000e+00,
463,3.32000e+00,
464,3.36000e+00,
465,3.44000e+00,
466,3.44000e+00,
467,3.28000e+00,
468,3.40000e+00,
469,3.24000e+00,
470,3.32000e+00,
471,3.12000e+00,
472,3.20000e+00,
473,2.96000e+00,
474,3.04000e+00,
475,2.76000e+00,
476,2.84000e+00,
477,2.56000e+00,
478,2.60000e+00,
479,2.28000e+00,
480,2.36000e+00,
481,2.00000e+00,
482,2.08000e+00,
483,1.72000e+00,
484,1.80000e+00,
485,1.40000e+00,
486,1.44000e+00,
487,1.04000e+00,
488,1.12000e+00,
489,7.20000e-01,
490,7.60000e-01,
491,3.60000e-01,
492,4.00000e-01,
493,0.00000e+00,
494,4.00000e-02,
495,-3.60000e-01,
496,-3.20000e-01,
497,-7.20000e-01,
498,-6.40000e-01,
499,-1.04000e+00,
500,-1.04000e+00,
501,-1.40000e+00,
502,-1.36000e+00,
503,-1.72000e+00,
504,-1.68000e+00,
505,-2.00000e+00,
506,-1.96000e+00,
507,-2.32000e+00,
508,-2.24000e+00,
509,-2.56000e+00,
510,-2.48000e+00,
511,-2.80000e+00,
512,-2.72000e+00,
513,-2.96000e+00,
514,-2.88000e+00,
515,-3.12000e+00,
516,-3.04000e+00,
517,-3.24000e+00,
518,-3.16000e+00,
519,-3.32000e+00,
520,-3.24000e+00,
521,-3.40000e+00,
522,-3.32000e+00,
523,-3.40000e+00,
524,-3.40000e+00,
525,-3.28000e+00,
526,-3.36000e+00,
527,-3.20000e+00,
528,-3.28000e+00,
529,-3.12000e+00,
530,-3.16000e+00,
531,-3.00000e+00,
532,-3.04000e+00,
533,-2.80000e+00,
534,-2.84000e+00,
535,-2.60000e+00,
536,-2.64000e+00,
537,-2.36000e+00,
538,-2.40000e+00,
539,-2.04000e+00,
540,-2.12000e+00,
541,-1.76000e+00,
542,-1.84000e+00,
543,-1.48000e+00,
544,-1.52000e+00,
545,-1.16000e+00,
546,-1.20000e+00,
547,-8.00000e-01,
548,-8.40000e-01,
549,-4.40000e-01,
550,-5.20000e-01,
551,-8.00000e-02,
552,-1.60000e-01,
553,2.80000e-01,
554,2.40000e-01,
555,6.40000e-01,
556,6.00000e-01,
557,1.00000e+00,
558,9.20000e-01,
559,1.32000e+00,
560,1.28000e+00,
561,1.68000e+00,
562,1.60000e+00,
563,1.96000e+00,
564,1.88000e+00,
565,2.24000e+00,
566,2.16000e+00,
567,2.52000e+00,
568,2.44000e+00,
569,2.80000e+00,
570,2.68000e+00,
571,2.96000e+00,
572,2.88000e+00,
573,3.12000e+00,
574,3.04000e+00,
575,3.24000e+00,
576,3.16000e+00,
577,3.36000e+00,
578,3.28000e+00,
579,3.40000e+00,
580,3.32000e+00,
581,3.44000e+00,
582,3.44000e+00,
583,3.32000e+00,
584,3.44000e+00,
585,3.28000e+00,
586,3.36000e+00,
587,3.20000e+00,
588,3.28000e+00,
589,3.08000e+00,
590,3.16000e+00,
591,2.92000e+00,
592,3.00000e+00,
593,2.72000e+00,
594,2.80000e+00,
595,2.52000e+00,
596,2.56000e+00,
597,2.20000e+00,
598,2.32000e+00,
599,1.96000e+00,
600,2.04000e+00,
601,1.68000e+00,
602,1.76000e+00,
603,1.32000e+00,
604,1.40000e+00,
605,1.00000e+00,
606,1.04000e+00,
607,6.40000e-01,
608,7.20000e-01,
609,3.20000e-01,
610,3.20000e-01,
611,-8.00000e-02,
612,-4.00000e-02,
613,-4.40000e-01,
614,-3.60000e-01,
615,-7.60000e-01,
616,-7.20000e-01,
617,-1.12000e+00,
618,-1.08000e+00,
619,-1.48000e+00,
620,-1.40000e+00,
621,-1.76000e+00,
622,-1.72000e+00,
623,-2.08000e+00,
624,-2.04000e+00,
625,-2.36000e+00,
626,-2.32000e+00,
627,-2.60000e+00,
628,-2.52000e+00,
629,-2.84000e+00,
630,-2.76000e+00,
631,-3.00000e+00,
632,-2.92000e+00,
633,-3.12000e+00,
634,-3.08000e+00,
635,-3.24000e+00,
636,-3.20000e+00,
637,-3.36000e+00,
638,-3.28000e+00,
639,-3.40000e+00,
640,-3.32000e+00,
641,-3.44000e+00,
642,-3.32000e+00,
643,-3.40000e+00,
644,-3.36000e+00,
645,-3.20000e+00,
646,-3.28000e+00,
647,-3.08000e+00,
648,-3.16000e+00,
649,-2.92000e+00,
650,-3.00000e+00,
651,-2.76000e+00,
652,-2.84000e+00,
653,-2.56000e+00,
654,-2.64000e+00,
655,-2.32000e+00,
656,-2.36000e+00,
657,-2.04000e+00,
658,-2.08000e+00,
659,-1.72000e+00,
660,-1.80000e+00,
661,-1.40000e+00,
662,-1.48000e+00,
663,-1.08000e+00,
664,-1.12000e+00,
665,-7.60000e-01,
666,-8.00000e-01,
667,-4.00000e-01,
668,-4.00000e-01,
669,-4.00000e-02,
670,-8.00000e-02,
671,3.20000e-01,
672,2.80000e-01,
673,7.20000e-01,
674,6.40000e-01,
675,1.04000e+00,
676,9.60000e-01,
677,1.40000e+00,
678,1.32000e+00,
679,1.72000e+00,
680,1.68000e+00,
681,2.00000e+00,
682,1.96000e+00,
683,2.28000e+00,
684,2.20000e+00,
685,2.56000e+00,
686,2.48000e+00,
687,2.80000e+00,
688,2.72000e+00,
689,3.00000e+00,
690,2.92000e+00,
691,3.16000e+00,
692,3.08000e+00,
693,3.28000e+00,
694,3.20000e+00,
695,3.36000e+00,
696,3.28000e+00,
697,3.44000e+00,
698,3.44000e+00,
699,3.32000e+00,
700,3.44000e+00,
701,3.32000e+00,
702,3.40000e+00,
703,3.24000e+00,
704,3.36000e+00,
705,3.16000e+00,
706,3.28000e+00,
707,3.04000e+00,
708,3.12000e+00,
709,2.88000e+00,
710,2.96000e+00,
711,2.68000e+00,
712,2.72000e+00,
713,2.48000e+00,
714,2.52000e+00,
715,2.16000e+00,
716,2.24000e+00,
717,1.92000e+00,
718,1.96000e+00,
719,1.60000e+00,
720,1.68000e+00,
721,1.28000e+00,
722,1.32000e+00,
723,9.20000e-01,
724,1.00000e+00,
725,6.00000e-01,
726,6.40000e-01,
727,2.40000e-01,
728,2.80000e-01,
729,-1.20000e-01,
730,-8.00000e-02,
731,-4.80000e-01,
732,-4.40000e-01,
733,-8.40000e-01,
734,-8.00000e-01,
735,-1.20000e+00,
736,-1.12000e+00,
737,-1.52000e+00,
738,-1.48000e+00,
739,-1.80000e+00,
740,-1.76000e+00,
741,-2.12000e+00,
742,-2.08000e+00,
743,-2.36000e+00,
744,-2.36000e+00,
745,-2.64000e+00,
746,-2.56000e+00,
747,-2.84000e+00,
748,-2.76000e+00,
749,-3.04000e+00,
750,-2.96000e+00,
751,-3.16000e+00,
752,-3.08000e+00,
753,-3.28000e+00,
754,-3.20000e+00,
755,-3.36000e+00,
756,-3.24000e+00,
757,-3.40000e+00,
758,-3.32000e+00,
759,-3.44000e+00,
760,-3.40000e+00,
761,-3.28000e+00,
762,-3.32000e+00,
763,-3.20000e+00,
764,-3.24000e+00,
765,-3.08000e+00,
766,-3.12000e+00,
767,-2.92000e+00,
768,-3.00000e+00,
769,-2.72000e+00,
770,-2.80000e+00,
771,-2.52000e+00,
772,-2.56000e+00,
773,-2.28000e+00,
774,-2.32000e+00,
775,-1.96000e+00,
776,-2.04000e+00,
777,-1.68000e+00,
778,-1.72000e+00,
779,-1.36000e+00,
780,-1.44000e+00,
781,-1.04000e+00,
782,-1.08000e+00,
783,-6.80000e-01,
784,-7.20000e-01,
785,-3.20000e-01,
786,-3.60000e-01,
787,4.00000e-02,
788,0.00000e+00,
789,4.00000e-01,
790,3.60000e-01,
791,7.60000e-01,
792,6.80000e-01,
793,1.12000e+00,
794,1.04000e+00,
795,1.44000e+00,
796,1.40000e+00,
797,1.76000e+00,
798,1.72000e+00,
799,2.08000e+00,
800,2.00000e+00,
801,2.36000e+00,
802,2.28000e+00,
803,2.60000e+00,
804,2.56000e+00,
805,2.84000e+00,
806,2.76000e+00,
807,3.00000e+00,
808,2.96000e+00,
809,3.20000e+00,
810,3.08000e+00,
811,3.28000e+00,
812,3.20000e+00,
813,3.40000e+00,
814,3.28000e+00,
815,3.44000e+00,
816,3.44000e+00,
817,3.32000e+00,
818,3.44000e+00,
819,3.32000e+00,
820,3.40000e+00,
821,3.24000e+00,
822,3.32000e+00,
823,3.16000e+00,
824,3.24000e+00,
825,3.04000e+00,
826,3.12000e+00,
827,2.84000e+00,
828,2.92000e+00,
829,2.64000e+00,
830,2.72000e+00,
831,2.40000e+00,
832,2.48000e+00,
833,2.12000e+00,
834,2.20000e+00,
835,1.84000e+00,
836,1.92000e+00,
837,1.56000e+00,
838,1.64000e+00,
839,1.24000e+00,
840,1.28000e+00,
841,8.80000e-01,
842,9.60000e-01,
843,5.20000e-01,
844,6.00000e-01,
845,2.00000e-01,
846,2.00000e-01,
847,-2.00000e-01,
848,-1.20000e-01,
849,-5.20000e-01,
850,-4.80000e-01,
851,-8.80000e-01,
852,-8.80000e-01,
853,-1.24000e+00,
854,-1.20000e+00,
855,-1.56000e+00,
856,-1.52000e+00,
857,-1.88000e+00,
858,-1.80000e+00,
859,-2.20000e+00,
860,-2.12000e+00,
861,-2.44000e+00,
862,-2.40000e+00,
863,-2.68000e+00,
864,-2.60000e+00,
865,-2.88000e+00,
866,-2.80000e+00,
867,-3.04000e+00,
868,-3.00000e+00,
869,-3.20000e+00,
870,-3.12000e+00,
871,-3.28000e+00,
872,-3.24000e+00,
873,-3.40000e+00,
874,-3.32000e+00,
875,-3.44000e+00,
876,-3.44000e+00,
877,-3.32000e+00,
878,-3.40000e+00,
879,-3.28000e+00,
880,-3.32000e+00,
881,-3.16000e+00,
882,-3.24000e+00,
883,-3.04000e+00,
884,-3.12000e+00,
885,-2.88000e+00,
886,-2.96000e+00,
887,-2.68000e+00,
888,-2.76000e+00,
889,-2.48000e+00,
890,-2.56000e+00,
891,-2.24000e+00,
892,-2.28000e+00,
893,-1.92000e+00,
894,-2.00000e+00,
895,-1.64000e+00,
896,-1.68000e+00,
897,-1.32000e+00,
898,-1.36000e+00,
899,-1.00000e+00,
900,-1.04000e+00,
901,-6.00000e-01,
902,-6.80000e-01,
903,-2.40000e-01,
904,-3.20000e-01,
905,8.00000e-02,
906,4.00000e-02,
907,4.80000e-01,
908,4.00000e-01,
909,8.40000e-01,
910,7.60000e-01,
911,1.16000e+00,
912,1.12000e+00,
913,1.48000e+00,
914,1.44000e+00,
915,1.84000e+00,
916,1.76000e+00,
917,2.12000e+00,
918,2.04000e+00,
919,2.40000e+00,
920,2.32000e+00,
921,2.64000e+00,
922,2.60000e+00,
923,2.88000e+00,
924,2.80000e+00,
925,3.08000e+00,
926,2.96000e+00,
927,3.20000e+00,
928,3.12000e+00,
929,3.32000e+00,
930,3.24000e+00,
931,3.40000e+00,
932,3.28000e+00,
933,3.44000e+00,
934,3.44000e+00,
935,3.36000e+00,
936,3.44000e+00,
937,3.32000e+00,
938,3.40000e+00,
939,3.24000e+00,
940,3.32000e+00,
941,3.16000e+00,
942,3.24000e+00,
943,3.00000e+00,
944,3.08000e+00,
945,2.84000e+00,
946,2.92000e+00,
947,2.64000e+00,
948,2.68000e+00,
949,2.36000e+00,
950,2.44000e+00,
951,2.08000e+00,
952,2.16000e+00,
953,1.80000e+00,
954,1.88000e+00,
955,1.52000e+00,
956,1.56000e+00,
957,1.16000e+00,
958,1.24000e+00,
959,8.40000e-01,
960,8.80000e-01,
961,4.80000e-01,
962,5.20000e-01,
963,1.20000e-01,
964,1.60000e-01,
965,-2.40000e-01,
966,-2.00000e-01,
967,-6.00000e-01,
968,-5.20000e-01,
969,-9.20000e-01,
970,-9.20000e-01,
971,-1.28000e+00,
972,-1.24000e+00,
973,-1.60000e+00,
974,-1.56000e+00,
975,-1.92000e+00,
976,-1.88000e+00,
977,-2.24000e+00,
978,-2.20000e+00,
979,-2.48000e+00,
980,-2.44000e+00,
981,-2.72000e+00,
982,-2.64000e+00,
983,-2.92000e+00,
984,-2.84000e+00,
985,-3.08000e+00,
986,-3.00000e+00,
987,-3.20000e+00,
988,-3.16000e+00,
989,-3.32000e+00,
990,-3.20000e+00,
991,-3.40000e+00,
992,-3.32000e+00,
993,-3.44000e+00,
994,-3.32000e+00,
995,-3.40000e+00,
996,-3.40000e+00,
997,-3.24000e+00,
998,-3.32000e+00,
999,-3.12000e+00,
1000,-3.20000e+00,
1001,-3.00000e+00,
1002,-3.08000e+00,
1003,-2.84000e+00,
1004,-2.92000e+00,
1005,-2.64000e+00,
1006,-2.72000e+00,
1007,-2.40000e+00,
1008,-2.48000e+00,
1009,-2.16000e+00,
1010,-2.20000e+00,
1011,-1.88000e+00,
1012,-1.92000e+00,
1013,-1.56000e+00,
1014,-1.60000e+00,
1015,-1.24000e+00,
1016,-1.32000e+00,
1017,-9.20000e-01,
1018,-9.20000e-01,
1019,-5.20000e-01,
1020,-6.00000e-01,
1021,-1.60000e-01,
1022,-2.00000e-01,
1023,1.60000e-01,
1024,1.20000e-01,
1025,5.20000e-01,
1026,4.80000e-01,
1027,8.80000e-01,
1028,8.40000e-01,
1029,1.24000e+00,
1030,1.20000e+00,
1031,1.60000e+00,
1032,1.52000e+00,
1033,1.88000e+00,
1034,1.84000e+00,
1035,2.16000e+00,
1036,2.12000e+00,
1037,2.44000e+00,
1038,2.36000e+00,
1039,2.64000e+00,
1040,2.64000e+00,
1041,2.88000e+00,
1042,2.84000e+00,
1043,3.08000e+00,
1044,3.00000e+00,
1045,3.24000e+00,
1046,3.16000e+00,
1047,3.36000e+00,
1048,3.24000e+00,
1049,3.40000e+00,
1050,3.32000e+00,
1051,3.44000e+00,
1052,3.44000e+00,
1053,3.36000e+00,
1054,3.44000e+00,
1055,3.32000e+00,
1056,3.40000e+00,
1057,3.24000e+00,
1058,3.32000e+00,
1059,3.12000e+00,
1060,3.20000e+00,
1061,2.96000e+00,
1062,3.04000e+00,
1063,2.80000e+00,
1064,2.84000e+00,
1065,2.60000e+00,
1066,2.64000e+00,
1067,2.32000e+00,
1068,2.36000e+00,
1069,2.04000e+00,
1070,2.12000e+00,
1071,1.76000e+00,
1072,1.84000e+00,
1073,1.44000e+00,
1074,1.48000e+00,
1075,1.08000e+00,
1076,1.16000e+00,
1077,7.60000e-01,
1078,8.00000e-01,
1079,4.00000e-01,
1080,4.40000e-01,
1081,8.00000e-02,
1082,8.00000e-02,
1083,-3.20000e-01,
1084,-2.40000e-01,
1085,-6.80000e-01,
1086,-6.00000e-01,
1087,-1.00000e+00,
1088,-1.00000e+00,
1089,-1.36000e+00,
1090,-1.32000e+00,
1091,-1.68000e+00,
1092,-1.60000e+00,
1093,-2.00000e+00,
1094,-1.92000e+00,
1095,-2.24000e+00,
1096,-2.24000e+00,
1097,-2.52000e+00,
1098,-2.48000e+00,
1099,-2.76000e+00,
1100,-2.68000e+00,
1101,-2.96000e+00,
1102,-2.88000e+00,
1103,-3.08000e+00,
1104,-3.04000e+00,
1105,-3.24000e+00,
1106,-3.16000e+00,
1107,-3.36000e+00,
1108,-3.28000e+00,
1109,-3.40000e+00,
1110,-3.32000e+00,
1111,-3.40000e+00,
1112,-3.32000e+00,
1113,-3.40000e+00,
1114,-3.40000e+00,
1115,-3.24000e+00,
1116,-3.28000e+00,
1117,-3.12000e+00,
1118,-3.20000e+00,
1119,-2.96000e+00,
1120,-3.04000e+00,
1121,-2.80000e+00,
1122,-2.88000e+00,
1123,-2.60000e+00,
1124,-2.68000e+00,
1125,-2.36000e+00,
1126,-2.44000e+00,
1127,-2.12000e+00,
1128,-2.16000e+00,
1129,-1.80000e+00,
1130,-1.88000e+00,
1131,-1.52000e+00,
1132,-1.56000e+00,
1133,-1.20000e+00,
1134,-1.24000e+00,
1135,-8.40000e-01,
1136,-8.80000e-01,
