DataAnalysis/Johnson_noise/2017_johnson_noise/data_MUIC_nop_anan/NewFile18.csv

X,CH1,Start,Increment,
Sequence,Volt,-3.60000e-03,1.00000e-05
0,3.04000e+00,
1,3.16000e+00,
2,3.08000e+00,
3,3.20000e+00,
4,3.12000e+00,
5,3.24000e+00,
6,3.16000e+00,
7,3.28000e+00,
8,3.28000e+00,
9,3.16000e+00,
10,3.28000e+00,
11,3.16000e+00,
12,3.16000e+00,
13,3.28000e+00,
14,3.16000e+00,
15,3.24000e+00,
16,3.24000e+00,
17,3.08000e+00,
18,3.16000e+00,
19,3.04000e+00,
20,3.12000e+00,
21,3.00000e+00,
22,3.08000e+00,
23,2.92000e+00,
24,3.00000e+00,
25,2.84000e+00,
26,2.92000e+00,
27,2.72000e+00,
28,2.80000e+00,
29,2.60000e+00,
30,2.68000e+00,
31,2.48000e+00,
32,2.56000e+00,
33,2.36000e+00,
34,2.44000e+00,
35,2.20000e+00,
36,2.28000e+00,
37,2.08000e+00,
38,2.16000e+00,
39,1.92000e+00,
40,2.00000e+00,
41,1.76000e+00,
42,1.84000e+00,
43,1.56000e+00,
44,1.64000e+00,
45,1.40000e+00,
46,1.48000e+00,
47,1.20000e+00,
48,1.28000e+00,
49,1.04000e+00,
50,1.12000e+00,
51,8.40000e-01,
52,9.20000e-01,
53,6.80000e-01,
54,7.20000e-01,
55,4.80000e-01,
56,5.20000e-01,
57,2.80000e-01,
58,3.20000e-01,
59,4.00000e-02,
60,1.20000e-01,
61,-1.60000e-01,
62,-8.00000e-02,
63,-3.20000e-01,
64,-2.80000e-01,
65,-5.20000e-01,
66,-4.80000e-01,
67,-7.20000e-01,
68,-7.20000e-01,
69,-9.60000e-01,
70,-8.80000e-01,
71,-1.12000e+00,
72,-1.08000e+00,
73,-1.32000e+00,
74,-1.24000e+00,
75,-1.48000e+00,
76,-1.40000e+00,
77,-1.68000e+00,
78,-1.60000e+00,
79,-1.84000e+00,
80,-1.80000e+00,
81,-2.04000e+00,
82,-1.96000e+00,
83,-2.16000e+00,
84,-2.12000e+00,
85,-2.32000e+00,
86,-2.24000e+00,
87,-2.44000e+00,
88,-2.36000e+00,
89,-2.56000e+00,
90,-2.48000e+00,
91,-2.68000e+00,
92,-2.60000e+00,
93,-2.80000e+00,
94,-2.72000e+00,
95,-2.88000e+00,
96,-2.80000e+00,
97,-2.96000e+00,
98,-2.88000e+00,
99,-3.04000e+00,
100,-3.00000e+00,
101,-3.12000e+00,
102,-3.16000e+00,
103,-3.04000e+00,
104,-3.08000e+00,
105,-3.20000e+00,
106,-3.12000e+00,
107,-3.24000e+00,
108,-3.16000e+00,
109,-3.24000e+00,
110,-3.16000e+00,
111,-3.24000e+00,
112,-3.24000e+00,
113,-3.12000e+00,
114,-3.24000e+00,
115,-3.12000e+00,
116,-3.20000e+00,
117,-3.08000e+00,
118,-3.12000e+00,
119,-2.96000e+00,
120,-3.04000e+00,
121,-2.92000e+00,
122,-3.00000e+00,
123,-2.84000e+00,
124,-2.92000e+00,
125,-2.76000e+00,
126,-2.84000e+00,
127,-2.68000e+00,
128,-2.72000e+00,
129,-2.56000e+00,
130,-2.64000e+00,
131,-2.44000e+00,
132,-2.52000e+00,
133,-2.32000e+00,
134,-2.36000e+00,
135,-2.16000e+00,
136,-2.24000e+00,
137,-2.00000e+00,
138,-2.04000e+00,
139,-1.88000e+00,
140,-1.92000e+00,
141,-1.68000e+00,
142,-1.72000e+00,
143,-1.52000e+00,
144,-1.56000e+00,
145,-1.32000e+00,
146,-1.40000e+00,
147,-1.16000e+00,
148,-1.20000e+00,
149,-9.60000e-01,
150,-1.04000e+00,
151,-7.60000e-01,
152,-8.00000e-01,
153,-5.60000e-01,
154,-6.40000e-01,
155,-3.60000e-01,
156,-4.40000e-01,
157,-2.00000e-01,
158,-2.40000e-01,
159,4.00000e-02,
160,-4.00000e-02,
161,2.00000e-01,
162,1.60000e-01,
163,4.00000e-01,
164,3.60000e-01,
165,6.40000e-01,
166,6.00000e-01,
167,8.40000e-01,
168,7.60000e-01,
169,1.04000e+00,
170,9.60000e-01,
171,1.20000e+00,
172,1.12000e+00,
173,1.40000e+00,
174,1.32000e+00,
175,1.56000e+00,
176,1.48000e+00,
177,1.72000e+00,
178,1.68000e+00,
179,1.92000e+00,
180,1.84000e+00,
181,2.04000e+00,
182,2.00000e+00,
183,2.24000e+00,
184,2.16000e+00,
185,2.36000e+00,
186,2.28000e+00,
187,2.48000e+00,
188,2.44000e+00,
189,2.60000e+00,
190,2.56000e+00,
191,2.72000e+00,
192,2.64000e+00,
193,2.84000e+00,
194,2.76000e+00,
195,2.92000e+00,
196,2.88000e+00,
197,3.04000e+00,
198,2.96000e+00,
199,3.08000e+00,
200,3.04000e+00,
201,3.16000e+00,
202,3.08000e+00,
203,3.20000e+00,
204,3.12000e+00,
205,3.24000e+00,
206,3.16000e+00,
207,3.28000e+00,
208,3.28000e+00,
209,3.16000e+00,
210,3.28000e+00,
211,3.16000e+00,
212,3.28000e+00,
213,3.16000e+00,
214,3.16000e+00,
215,3.24000e+00,
216,3.24000e+00,
217,3.08000e+00,
218,3.20000e+00,
219,3.04000e+00,
220,3.12000e+00,
221,3.00000e+00,
222,3.08000e+00,
223,2.88000e+00,
224,2.96000e+00,
225,2.84000e+00,
226,2.88000e+00,
227,2.68000e+00,
228,2.76000e+00,
229,2.60000e+00,
230,2.68000e+00,
231,2.48000e+00,
232,2.56000e+00,
233,2.32000e+00,
234,2.40000e+00,
235,2.20000e+00,
236,2.28000e+00,
237,2.04000e+00,
238,2.12000e+00,
239,1.92000e+00,
240,2.00000e+00,
241,1.76000e+00,
242,1.80000e+00,
243,1.56000e+00,
244,1.64000e+00,
245,1.40000e+00,
246,1.44000e+00,
247,1.20000e+00,
248,1.28000e+00,
249,1.04000e+00,
250,1.12000e+00,
251,8.40000e-01,
252,9.20000e-01,
253,6.40000e-01,
254,7.20000e-01,
255,4.80000e-01,
256,4.80000e-01,
257,2.80000e-01,
258,2.80000e-01,
259,4.00000e-02,
260,1.20000e-01,
261,-1.60000e-01,
262,-8.00000e-02,
263,-3.60000e-01,
264,-2.80000e-01,
265,-5.20000e-01,
266,-4.80000e-01,
267,-7.20000e-01,
268,-7.20000e-01,
269,-9.60000e-01,
270,-8.80000e-01,
271,-1.16000e+00,
272,-1.08000e+00,
273,-1.32000e+00,
274,-1.24000e+00,
275,-1.48000e+00,
276,-1.44000e+00,
277,-1.68000e+00,
278,-1.60000e+00,
279,-1.84000e+00,
280,-1.80000e+00,
281,-2.00000e+00,
282,-1.96000e+00,
283,-2.16000e+00,
284,-2.12000e+00,
285,-2.32000e+00,
286,-2.24000e+00,
287,-2.44000e+00,
288,-2.36000e+00,
289,-2.60000e+00,
290,-2.52000e+00,
291,-2.68000e+00,
292,-2.60000e+00,
293,-2.80000e+00,
294,-2.72000e+00,
295,-2.88000e+00,
296,-2.80000e+00,
297,-2.96000e+00,
298,-2.92000e+00,
299,-3.04000e+00,
300,-2.96000e+00,
301,-3.12000e+00,
302,-3.04000e+00,
303,-3.20000e+00,
304,-3.12000e+00,
305,-3.20000e+00,
306,-3.12000e+00,
307,-3.24000e+00,
308,-3.16000e+00,
309,-3.24000e+00,
310,-3.16000e+00,
311,-3.24000e+00,
312,-3.24000e+00,
313,-3.12000e+00,
314,-3.24000e+00,
315,-3.12000e+00,
316,-3.20000e+00,
317,-3.08000e+00,
318,-3.12000e+00,
319,-2.96000e+00,
320,-3.04000e+00,
321,-2.92000e+00,
322,-3.00000e+00,
323,-2.84000e+00,
324,-2.92000e+00,
325,-2.76000e+00,
326,-2.80000e+00,
327,-2.68000e+00,
328,-2.72000e+00,
329,-2.56000e+00,
330,-2.60000e+00,
331,-2.44000e+00,
332,-2.52000e+00,
333,-2.32000e+00,
334,-2.36000e+00,
335,-2.16000e+00,
336,-2.24000e+00,
337,-2.04000e+00,
338,-2.08000e+00,
339,-1.88000e+00,
340,-1.88000e+00,
341,-1.72000e+00,
342,-1.72000e+00,
343,-1.52000e+00,
344,-1.56000e+00,
345,-1.32000e+00,
346,-1.40000e+00,
347,-1.16000e+00,
348,-1.20000e+00,
349,-9.60000e-01,
350,-1.04000e+00,
351,-8.00000e-01,
352,-8.40000e-01,
353,-6.00000e-01,
354,-6.40000e-01,
355,-3.60000e-01,
356,-4.40000e-01,
357,-1.60000e-01,
358,-2.40000e-01,
359,4.00000e-02,
360,-4.00000e-02,
361,2.40000e-01,
362,1.60000e-01,
363,4.00000e-01,
364,4.00000e-01,
365,6.00000e-01,
366,6.00000e-01,
367,8.00000e-01,
368,7.60000e-01,
369,1.00000e+00,
370,9.60000e-01,
371,1.20000e+00,
372,1.12000e+00,
373,1.36000e+00,
374,1.32000e+00,
375,1.56000e+00,
376,1.48000e+00,
377,1.76000e+00,
378,1.72000e+00,
379,1.92000e+00,
380,1.84000e+00,
381,2.08000e+00,
382,2.00000e+00,
383,2.24000e+00,
384,2.16000e+00,
385,2.36000e+00,
386,2.28000e+00,
387,2.48000e+00,
388,2.40000e+00,
389,2.60000e+00,
390,2.56000e+00,
391,2.72000e+00,
392,2.64000e+00,
393,2.84000e+00,
394,2.80000e+00,
395,2.96000e+00,
396,2.88000e+00,
397,3.04000e+00,
398,2.96000e+00,
399,3.12000e+00,
400,3.00000e+00,
401,3.16000e+00,
402,3.08000e+00,
403,3.20000e+00,
404,3.12000e+00,
405,3.24000e+00,
406,3.16000e+00,
407,3.24000e+00,
408,3.16000e+00,
409,3.28000e+00,
410,3.28000e+00,
411,3.16000e+00,
412,3.16000e+00,
413,3.24000e+00,
414,3.24000e+00,
415,3.12000e+00,
416,3.24000e+00,
417,3.08000e+00,
418,3.16000e+00,
419,3.04000e+00,
420,3.12000e+00,
421,3.00000e+00,
422,3.08000e+00,
423,2.92000e+00,
424,3.00000e+00,
425,2.84000e+00,
426,2.88000e+00,
427,2.68000e+00,
428,2.76000e+00,
429,2.60000e+00,
430,2.68000e+00,
431,2.48000e+00,
432,2.56000e+00,
433,2.36000e+00,
434,2.44000e+00,
435,2.20000e+00,
436,2.28000e+00,
437,2.08000e+00,
438,2.16000e+00,
439,1.92000e+00,
440,2.00000e+00,
441,1.76000e+00,
442,1.80000e+00,
443,1.60000e+00,
444,1.64000e+00,
445,1.36000e+00,
446,1.44000e+00,
447,1.20000e+00,
448,1.28000e+00,
449,1.00000e+00,
450,1.08000e+00,
451,8.40000e-01,
452,9.20000e-01,
453,6.40000e-01,
454,6.80000e-01,
455,4.80000e-01,
456,4.80000e-01,
457,2.40000e-01,
458,3.20000e-01,
459,4.00000e-02,
460,1.20000e-01,
461,-1.60000e-01,
462,-8.00000e-02,
463,-3.60000e-01,
464,-2.80000e-01,
465,-5.20000e-01,
466,-4.80000e-01,
467,-7.20000e-01,
468,-7.20000e-01,
469,-9.60000e-01,
470,-9.20000e-01,
471,-1.16000e+00,
472,-1.08000e+00,
473,-1.32000e+00,
474,-1.24000e+00,
475,-1.48000e+00,
476,-1.44000e+00,
477,-1.68000e+00,
478,-1.60000e+00,
479,-1.84000e+00,
480,-1.80000e+00,
481,-2.00000e+00,
482,-1.96000e+00,
483,-2.20000e+00,
484,-2.12000e+00,
485,-2.32000e+00,
486,-2.24000e+00,
487,-2.44000e+00,
488,-2.36000e+00,
489,-2.56000e+00,
490,-2.48000e+00,
491,-2.68000e+00,
492,-2.60000e+00,
493,-2.80000e+00,
494,-2.72000e+00,
495,-2.88000e+00,
496,-2.80000e+00,
497,-2.96000e+00,
498,-2.88000e+00,
499,-3.04000e+00,
500,-2.96000e+00,
501,-3.16000e+00,
502,-3.16000e+00,
503,-3.08000e+00,
504,-3.12000e+00,
505,-3.20000e+00,
506,-3.12000e+00,
507,-3.24000e+00,
508,-3.24000e+00,
509,-3.12000e+00,
510,-3.16000e+00,
511,-3.20000e+00,
512,-3.24000e+00,
513,-3.12000e+00,
514,-3.12000e+00,
515,-3.24000e+00,
516,-3.20000e+00,
517,-3.08000e+00,
518,-3.16000e+00,
519,-3.00000e+00,
520,-3.04000e+00,
521,-2.92000e+00,
522,-3.00000e+00,
523,-2.84000e+00,
524,-2.92000e+00,
525,-2.76000e+00,
526,-2.84000e+00,
527,-2.68000e+00,
528,-2.72000e+00,
529,-2.56000e+00,
530,-2.64000e+00,
531,-2.44000e+00,
532,-2.52000e+00,
533,-2.32000e+00,
534,-2.36000e+00,
535,-2.16000e+00,
536,-2.24000e+00,
537,-2.04000e+00,
538,-2.08000e+00,
539,-1.88000e+00,
540,-1.92000e+00,
541,-1.72000e+00,
542,-1.76000e+00,
543,-1.52000e+00,
544,-1.56000e+00,
545,-1.32000e+00,
546,-1.40000e+00,
547,-1.16000e+00,
548,-1.20000e+00,
549,-9.60000e-01,
550,-1.04000e+00,
551,-7.60000e-01,
552,-8.40000e-01,
553,-6.00000e-01,
554,-6.40000e-01,
555,-3.60000e-01,
556,-4.40000e-01,
557,-1.60000e-01,
558,-2.40000e-01,
559,4.00000e-02,
560,-4.00000e-02,
561,2.00000e-01,
562,1.60000e-01,
563,4.00000e-01,
564,3.60000e-01,
565,6.00000e-01,
566,6.00000e-01,
567,8.40000e-01,
568,7.60000e-01,
569,1.04000e+00,
570,9.60000e-01,
571,1.20000e+00,
572,1.16000e+00,
573,1.40000e+00,
574,1.32000e+00,
575,1.56000e+00,
576,1.52000e+00,
577,1.72000e+00,
578,1.72000e+00,
579,1.92000e+00,
580,1.88000e+00,
581,2.08000e+00,
582,2.00000e+00,
583,2.24000e+00,
584,2.16000e+00,
585,2.36000e+00,
586,2.28000e+00,
587,2.48000e+00,
588,2.44000e+00,
589,2.60000e+00,
590,2.56000e+00,
591,2.72000e+00,
592,2.64000e+00,
593,2.84000e+00,
594,2.76000e+00,
595,2.96000e+00,
596,2.88000e+00,
597,3.04000e+00,
598,2.96000e+00,
599,3.12000e+00,
600,3.04000e+00,
601,3.16000e+00,
602,3.08000e+00,
603,3.20000e+00,
604,3.12000e+00,
605,3.24000e+00,
606,3.16000e+00,
607,3.24000e+00,
608,3.16000e+00,
609,3.28000e+00,
610,3.16000e+00,
611,3.28000e+00,
612,3.16000e+00,
613,3.28000e+00,
614,3.16000e+00,
615,3.24000e+00,
616,3.24000e+00,
617,3.08000e+00,
618,3.20000e+00,
619,3.04000e+00,
620,3.12000e+00,
621,3.00000e+00,
622,3.04000e+00,
623,2.92000e+00,
624,3.00000e+00,
625,2.80000e+00,
626,2.88000e+00,
627,2.68000e+00,
628,2.76000e+00,
629,2.56000e+00,
630,2.64000e+00,
631,2.48000e+00,
632,2.56000e+00,
633,2.36000e+00,
634,2.44000e+00,
635,2.20000e+00,
636,2.28000e+00,
637,2.04000e+00,
638,2.12000e+00,
639,1.92000e+00,
640,2.00000e+00,
641,1.76000e+00,
642,1.80000e+00,
643,1.56000e+00,
644,1.64000e+00,
645,1.40000e+00,
646,1.44000e+00,
647,1.20000e+00,
648,1.28000e+00,
649,1.04000e+00,
650,1.08000e+00,
651,8.40000e-01,
652,9.20000e-01,
653,6.40000e-01,
654,7.20000e-01,
655,4.80000e-01,
656,4.80000e-01,
657,2.40000e-01,
658,3.20000e-01,
659,4.00000e-02,
660,1.20000e-01,
661,-1.60000e-01,
662,-8.00000e-02,
663,-3.60000e-01,
664,-2.80000e-01,
665,-5.60000e-01,
666,-4.80000e-01,
667,-7.20000e-01,
668,-7.20000e-01,
669,-9.20000e-01,
670,-9.20000e-01,
671,-1.16000e+00,
672,-1.08000e+00,
673,-1.32000e+00,
674,-1.24000e+00,
675,-1.48000e+00,
676,-1.44000e+00,
677,-1.68000e+00,
678,-1.60000e+00,
679,-1.84000e+00,
680,-1.76000e+00,
681,-2.00000e+00,
682,-1.96000e+00,
683,-2.16000e+00,
684,-2.08000e+00,
685,-2.32000e+00,
686,-2.24000e+00,
687,-2.44000e+00,
688,-2.36000e+00,
689,-2.56000e+00,
690,-2.48000e+00,
691,-2.68000e+00,
692,-2.60000e+00,
693,-2.80000e+00,
694,-2.72000e+00,
695,-2.88000e+00,
696,-2.80000e+00,
697,-2.96000e+00,
698,-2.88000e+00,
699,-3.04000e+00,
700,-2.96000e+00,
701,-3.08000e+00,
702,-3.04000e+00,
703,-3.16000e+00,
704,-3.08000e+00,
705,-3.20000e+00,
706,-3.12000e+00,
707,-3.24000e+00,
708,-3.16000e+00,
709,-3.24000e+00,
710,-3.16000e+00,
711,-3.20000e+00,
712,-3.24000e+00,
713,-3.12000e+00,
714,-3.12000e+00,
715,-3.24000e+00,
716,-3.20000e+00,
717,-3.08000e+00,
718,-3.16000e+00,
719,-3.04000e+00,
720,-3.08000e+00,
721,-2.92000e+00,
722,-3.00000e+00,
723,-2.84000e+00,
724,-2.92000e+00,
725,-2.76000e+00,
726,-2.84000e+00,
727,-2.64000e+00,
728,-2.72000e+00,
729,-2.56000e+00,
730,-2.64000e+00,
731,-2.44000e+00,
732,-2.52000e+00,
733,-2.32000e+00,
734,-2.40000e+00,
735,-2.16000e+00,
736,-2.24000e+00,
737,-2.04000e+00,
738,-2.08000e+00,
739,-1.88000e+00,
740,-1.88000e+00,
741,-1.68000e+00,
742,-1.68000e+00,
743,-1.48000e+00,
744,-1.56000e+00,
745,-1.32000e+00,
746,-1.36000e+00,
747,-1.16000e+00,
748,-1.24000e+00,
749,-9.60000e-01,
750,-1.00000e+00,
751,-7.60000e-01,
752,-8.00000e-01,
753,-5.60000e-01,
754,-6.00000e-01,
755,-3.60000e-01,
756,-4.40000e-01,
757,-1.60000e-01,
758,-2.40000e-01,
759,0.00000e+00,
760,-4.00000e-02,
761,2.00000e-01,
762,1.60000e-01,
763,4.00000e-01,
764,3.60000e-01,
765,6.40000e-01,
766,6.00000e-01,
767,8.40000e-01,
768,8.00000e-01,
769,1.00000e+00,
770,9.20000e-01,
771,1.16000e+00,
772,1.12000e+00,
773,1.40000e+00,
774,1.32000e+00,
775,1.56000e+00,
776,1.48000e+00,
777,1.72000e+00,
778,1.68000e+00,
779,1.92000e+00,
780,1.84000e+00,
781,2.08000e+00,
782,2.00000e+00,
783,2.24000e+00,
784,2.16000e+00,
785,2.36000e+00,
786,2.28000e+00,
787,2.48000e+00,
788,2.44000e+00,
789,2.64000e+00,
790,2.56000e+00,
791,2.72000e+00,
792,2.64000e+00,
793,2.84000e+00,
794,2.80000e+00,
795,2.92000e+00,
796,2.88000e+00,
797,3.00000e+00,
798,2.92000e+00,
799,3.12000e+00,
800,3.04000e+00,
801,3.16000e+00,
802,3.08000e+00,
803,3.20000e+00,
804,3.08000e+00,
805,3.24000e+00,
806,3.16000e+00,
807,3.28000e+00,
808,3.16000e+00,
809,3.28000e+00,
810,3.28000e+00,
811,3.20000e+00,
812,3.28000e+00,
813,3.16000e+00,
814,3.24000e+00,
815,3.08000e+00,
816,3.08000e+00,
817,3.24000e+00,
818,3.20000e+00,
819,3.04000e+00,
820,3.12000e+00,
821,3.00000e+00,
822,3.04000e+00,
823,2.88000e+00,
824,3.00000e+00,
825,2.84000e+00,
826,2.88000e+00,
827,2.72000e+00,
828,2.76000e+00,
829,2.56000e+00,
830,2.64000e+00,
831,2.48000e+00,
832,2.56000e+00,
833,2.32000e+00,
834,2.40000e+00,
835,2.24000e+00,
836,2.32000e+00,
837,2.08000e+00,
838,2.16000e+00,
839,1.88000e+00,
840,1.96000e+00,
841,1.76000e+00,
842,1.84000e+00,
843,1.60000e+00,
844,1.64000e+00,
845,1.36000e+00,
846,1.44000e+00,
847,1.24000e+00,
848,1.28000e+00,
849,1.00000e+00,
850,1.08000e+00,
851,8.40000e-01,
852,9.20000e-01,
853,6.40000e-01,
854,7.20000e-01,
855,4.80000e-01,
856,5.60000e-01,
857,2.40000e-01,
858,3.20000e-01,
859,4.00000e-02,
860,1.20000e-01,
861,-1.60000e-01,
862,-8.00000e-02,
863,-3.20000e-01,
864,-2.80000e-01,
865,-5.60000e-01,
866,-4.80000e-01,
867,-7.60000e-01,
868,-7.20000e-01,
869,-9.20000e-01,
870,-8.80000e-01,
871,-1.12000e+00,
872,-1.08000e+00,
873,-1.32000e+00,
874,-1.24000e+00,
875,-1.48000e+00,
876,-1.44000e+00,
877,-1.68000e+00,
878,-1.64000e+00,
879,-1.84000e+00,
880,-1.80000e+00,
881,-2.00000e+00,
882,-1.96000e+00,
883,-2.20000e+00,
884,-2.12000e+00,
885,-2.32000e+00,
886,-2.24000e+00,
887,-2.44000e+00,
888,-2.36000e+00,
889,-2.56000e+00,
890,-2.48000e+00,
891,-2.68000e+00,
892,-2.60000e+00,
893,-2.80000e+00,
894,-2.72000e+00,
895,-2.88000e+00,
896,-2.80000e+00,
897,-2.96000e+00,
898,-2.88000e+00,
899,-3.04000e+00,
900,-2.96000e+00,
901,-3.12000e+00,
902,-3.04000e+00,
903,-3.20000e+00,
904,-3.12000e+00,
905,-3.20000e+00,
906,-3.12000e+00,
907,-3.24000e+00,
908,-3.12000e+00,
909,-3.24000e+00,
910,-3.16000e+00,
911,-3.24000e+00,
912,-3.24000e+00,
913,-3.12000e+00,
914,-3.12000e+00,
915,-3.24000e+00,
916,-3.20000e+00,
917,-3.08000e+00,
918,-3.16000e+00,
919,-3.00000e+00,
920,-3.04000e+00,
921,-2.92000e+00,
922,-3.00000e+00,
923,-2.84000e+00,
924,-2.92000e+00,
925,-2.76000e+00,
926,-2.84000e+00,
927,-2.64000e+00,
928,-2.72000e+00,
929,-2.56000e+00,
930,-2.64000e+00,
931,-2.44000e+00,
932,-2.52000e+00,
933,-2.28000e+00,
934,-2.36000e+00,
935,-2.16000e+00,
936,-2.24000e+00,
937,-2.04000e+00,
938,-2.04000e+00,
939,-1.88000e+00,
940,-1.88000e+00,
941,-1.68000e+00,
942,-1.72000e+00,
943,-1.48000e+00,
944,-1.56000e+00,
945,-1.32000e+00,
946,-1.40000e+00,
947,-1.12000e+00,
948,-1.20000e+00,
949,-9.60000e-01,
950,-1.00000e+00,
951,-7.60000e-01,
952,-8.40000e-01,
953,-5.20000e-01,
954,-6.00000e-01,
955,-3.60000e-01,
956,-4.40000e-01,
957,-1.60000e-01,
958,-2.40000e-01,
959,4.00000e-02,
960,-4.00000e-02,
961,2.40000e-01,
962,1.60000e-01,
963,4.00000e-01,
964,4.00000e-01,
965,6.80000e-01,
966,6.00000e-01,
967,8.80000e-01,
968,8.00000e-01,
969,1.04000e+00,
970,9.60000e-01,
971,1.24000e+00,
972,1.16000e+00,
973,1.36000e+00,
974,1.28000e+00,
975,1.56000e+00,
976,1.52000e+00,
977,1.76000e+00,
978,1.68000e+00,
979,1.88000e+00,
980,1.84000e+00,
981,2.08000e+00,
982,2.04000e+00,
983,2.24000e+00,
984,2.16000e+00,
985,2.36000e+00,
986,2.28000e+00,
987,2.48000e+00,
988,2.44000e+00,
989,2.64000e+00,
990,2.56000e+00,
991,2.72000e+00,
992,2.64000e+00,
993,2.84000e+00,
994,2.80000e+00,
995,2.96000e+00,
996,2.88000e+00,
997,3.04000e+00,
998,2.96000e+00,
999,3.08000e+00,
1000,3.04000e+00,
1001,3.16000e+00,
1002,3.08000e+00,
1003,3.20000e+00,
1004,3.12000e+00,
1005,3.24000e+00,
1006,3.24000e+00,
1007,3.16000e+00,
1008,3.16000e+00,
1009,3.28000e+00,
1010,3.28000e+00,
1011,3.20000e+00,
1012,3.28000e+00,
1013,3.16000e+00,
1014,3.24000e+00,
1015,3.12000e+00,
1016,3.20000e+00,
1017,3.08000e+00,
1018,3.20000e+00,
1019,3.04000e+00,
1020,3.12000e+00,
1021,3.00000e+00,
1022,3.04000e+00,
1023,2.92000e+00,
1024,3.00000e+00,
1025,2.84000e+00,
1026,2.88000e+00,
1027,2.72000e+00,
1028,2.76000e+00,
1029,2.60000e+00,
1030,2.68000e+00,
1031,2.48000e+00,
1032,2.52000e+00,
1033,2.36000e+00,
1034,2.40000e+00,
1035,2.20000e+00,
1036,2.28000e+00,
1037,2.08000e+00,
1038,2.16000e+00,
1039,1.92000e+00,
1040,2.00000e+00,
1041,1.76000e+00,
1042,1.80000e+00,
1043,1.56000e+00,
1044,1.64000e+00,
1045,1.40000e+00,
1046,1.44000e+00,
1047,1.20000e+00,
1048,1.28000e+00,
1049,1.04000e+00,
1050,1.08000e+00,
1051,8.40000e-01,
1052,9.20000e-01,
1053,6.40000e-01,
1054,7.20000e-01,
1055,4.80000e-01,
1056,4.80000e-01,
1057,2.40000e-01,
1058,2.80000e-01,
1059,4.00000e-02,
1060,1.20000e-01,
1061,-1.60000e-01,
1062,-8.00000e-02,
1063,-3.60000e-01,
1064,-2.80000e-01,
1065,-5.60000e-01,
1066,-4.80000e-01,
1067,-7.20000e-01,
1068,-7.20000e-01,
1069,-9.60000e-01,
1070,-8.80000e-01,
1071,-1.16000e+00,
1072,-1.08000e+00,
1073,-1.32000e+00,
1074,-1.24000e+00,
1075,-1.52000e+00,
1076,-1.44000e+00,
1077,-1.68000e+00,
1078,-1.60000e+00,
1079,-1.84000e+00,
1080,-1.80000e+00,
1081,-2.04000e+00,
1082,-1.96000e+00,
1083,-2.20000e+00,
1084,-2.12000e+00,
1085,-2.32000e+00,
1086,-2.24000e+00,
1087,-2.44000e+00,
1088,-2.36000e+00,
1089,-2.60000e+00,
1090,-2.52000e+00,
1091,-2.68000e+00,
1092,-2.60000e+00,
1093,-2.80000e+00,
1094,-2.72000e+00,
1095,-2.88000e+00,
1096,-2.80000e+00,
1097,-2.96000e+00,
1098,-2.88000e+00,
1099,-3.04000e+00,
1100,-2.96000e+00,
1101,-3.12000e+00,
1102,-3.04000e+00,
1103,-3.20000e+00,
1104,-3.12000e+00,
1105,-3.20000e+00,
1106,-3.12000e+00,
1107,-3.24000e+00,
1108,-3.16000e+00,
1109,-3.24000e+00,
1110,-3.24000e+00,
1111,-3.16000e+00,
1112,-3.24000e+00,
1113,-3.12000e+00,
1114,-3.12000e+00,
1115,-3.20000e+00,
1116,-3.20000e+00,
1117,-3.08000e+00,
1118,-3.16000e+00,
1119,-3.00000e+00,
1120,-3.04000e+00,
1121,-2.92000e+00,
1122,-3.00000e+00,
1123,-2.84000e+00,
1124,-2.92000e+00,
1125,-2.76000e+00,
1126,-2.84000e+00,
1127,-2.68000e+00,
1128,-2.72000e+00,
1129,-2.56000e+00,
1130,-2.60000e+00,
1131,-2.44000e+00,
1132,-2.52000e+00,
1133,-2.28000e+00,
1134,-2.36000e+00,
1135,-2.16000e+00,
1136,-2.24000e+00,
