DataAnalysis/Johnson_noise/2017_johnson_noise/data_MUIC_nop_anan/NewFile63.csv

X,CH1,Start,Increment,
Sequence,Volt,1.80000e-03,1.00000e-06
0,4.00000e-02,
1,6.40000e-01,
2,6.00000e-01,
3,1.20000e+00,
4,1.16000e+00,
5,1.64000e+00,
6,1.60000e+00,
7,2.04000e+00,
8,1.96000e+00,
9,2.28000e+00,
10,2.20000e+00,
11,2.36000e+00,
12,2.40000e+00,
13,2.24000e+00,
14,2.36000e+00,
15,2.08000e+00,
16,2.16000e+00,
17,1.76000e+00,
18,1.84000e+00,
19,1.36000e+00,
20,1.40000e+00,
21,8.40000e-01,
22,9.20000e-01,
23,3.20000e-01,
24,3.20000e-01,
25,-2.80000e-01,
26,-2.40000e-01,
27,-8.40000e-01,
28,-8.00000e-01,
29,-1.36000e+00,
30,-1.28000e+00,
31,-1.76000e+00,
32,-1.72000e+00,
33,-2.08000e+00,
34,-2.04000e+00,
35,-2.28000e+00,
36,-2.24000e+00,
37,-2.32000e+00,
38,-2.32000e+00,
39,-2.16000e+00,
40,-2.20000e+00,
41,-1.88000e+00,
42,-1.92000e+00,
43,-1.52000e+00,
44,-1.56000e+00,
45,-1.04000e+00,
46,-1.08000e+00,
47,-4.80000e-01,
48,-5.60000e-01,
49,8.00000e-02,
50,0.00000e+00,
51,6.40000e-01,
52,6.00000e-01,
53,1.20000e+00,
54,1.16000e+00,
55,1.68000e+00,
56,1.60000e+00,
57,2.04000e+00,
58,1.96000e+00,
59,2.28000e+00,
60,2.20000e+00,
61,2.36000e+00,
62,2.36000e+00,
63,2.24000e+00,
64,2.32000e+00,
65,2.08000e+00,
66,2.16000e+00,
67,1.76000e+00,
68,1.84000e+00,
69,1.36000e+00,
70,1.40000e+00,
71,8.40000e-01,
72,9.20000e-01,
73,3.20000e-01,
74,3.20000e-01,
75,-2.80000e-01,
76,-2.40000e-01,
77,-8.40000e-01,
78,-8.00000e-01,
79,-1.36000e+00,
80,-1.32000e+00,
81,-1.76000e+00,
82,-1.72000e+00,
83,-2.08000e+00,
84,-2.04000e+00,
85,-2.24000e+00,
86,-2.24000e+00,
87,-2.36000e+00,
88,-2.32000e+00,
89,-2.16000e+00,
90,-2.20000e+00,
91,-1.88000e+00,
92,-1.92000e+00,
93,-1.52000e+00,
94,-1.56000e+00,
95,-1.08000e+00,
96,-1.08000e+00,
97,-5.20000e-01,
98,-5.60000e-01,
99,4.00000e-02,
100,0.00000e+00,
101,6.80000e-01,
102,6.00000e-01,
103,1.16000e+00,
104,1.12000e+00,
105,1.64000e+00,
106,1.60000e+00,
107,2.04000e+00,
108,1.96000e+00,
109,2.24000e+00,
110,2.20000e+00,
111,2.36000e+00,
112,2.36000e+00,
113,2.24000e+00,
114,2.32000e+00,
115,2.08000e+00,
116,2.16000e+00,
117,1.76000e+00,
118,1.84000e+00,
119,1.36000e+00,
120,1.40000e+00,
121,8.40000e-01,
122,9.20000e-01,
123,3.20000e-01,
124,3.20000e-01,
125,-2.80000e-01,
126,-2.40000e-01,
127,-8.00000e-01,
128,-7.60000e-01,
129,-1.32000e+00,
130,-1.32000e+00,
131,-1.80000e+00,
132,-1.72000e+00,
133,-2.08000e+00,
134,-2.04000e+00,
135,-2.28000e+00,
136,-2.20000e+00,
137,-2.32000e+00,
138,-2.32000e+00,
139,-2.16000e+00,
140,-2.20000e+00,
141,-1.88000e+00,
142,-1.92000e+00,
143,-1.52000e+00,
144,-1.60000e+00,
145,-1.04000e+00,
146,-1.08000e+00,
147,-5.20000e-01,
148,-5.60000e-01,
149,4.00000e-02,
150,0.00000e+00,
151,6.80000e-01,
152,6.00000e-01,
153,1.16000e+00,
154,1.16000e+00,
155,1.64000e+00,
156,1.60000e+00,
157,2.04000e+00,
158,1.96000e+00,
159,2.24000e+00,
160,2.20000e+00,
161,2.36000e+00,
162,2.36000e+00,
163,2.24000e+00,
164,2.32000e+00,
165,2.08000e+00,
166,2.16000e+00,
167,1.76000e+00,
168,1.84000e+00,
169,1.36000e+00,
170,1.40000e+00,
171,8.40000e-01,
172,9.20000e-01,
173,2.80000e-01,
174,3.20000e-01,
175,-2.80000e-01,
176,-2.40000e-01,
177,-8.40000e-01,
178,-8.00000e-01,
179,-1.36000e+00,
180,-1.32000e+00,
181,-1.80000e+00,
182,-1.72000e+00,
183,-2.08000e+00,
184,-2.08000e+00,
185,-2.28000e+00,
186,-2.20000e+00,
187,-2.36000e+00,
188,-2.32000e+00,
189,-2.16000e+00,
190,-2.20000e+00,
191,-1.88000e+00,
192,-1.92000e+00,
193,-1.52000e+00,
194,-1.56000e+00,
195,-1.08000e+00,
196,-1.08000e+00,
197,-5.20000e-01,
198,-5.60000e-01,
199,8.00000e-02,
200,4.00000e-02,
201,6.40000e-01,
202,6.00000e-01,
203,1.20000e+00,
204,1.16000e+00,
205,1.68000e+00,
206,1.60000e+00,
207,2.04000e+00,
208,1.96000e+00,
209,2.28000e+00,
210,2.20000e+00,
211,2.36000e+00,
212,2.36000e+00,
213,2.24000e+00,
214,2.36000e+00,
215,2.08000e+00,
216,2.16000e+00,
217,1.80000e+00,
218,1.84000e+00,
219,1.36000e+00,
220,1.40000e+00,
221,8.40000e-01,
222,9.20000e-01,
223,3.20000e-01,
224,3.20000e-01,
225,-2.80000e-01,
226,-2.40000e-01,
227,-8.40000e-01,
228,-8.00000e-01,
229,-1.36000e+00,
230,-1.32000e+00,
231,-1.76000e+00,
232,-1.72000e+00,
233,-2.08000e+00,
234,-2.04000e+00,
235,-2.28000e+00,
236,-2.24000e+00,
237,-2.36000e+00,
238,-2.32000e+00,
239,-2.16000e+00,
240,-2.20000e+00,
241,-1.88000e+00,
242,-1.96000e+00,
243,-1.52000e+00,
244,-1.60000e+00,
245,-1.08000e+00,
246,-1.08000e+00,
247,-5.20000e-01,
248,-5.60000e-01,
249,4.00000e-02,
250,4.00000e-02,
251,6.00000e-01,
252,6.00000e-01,
253,1.16000e+00,
254,1.12000e+00,
255,1.64000e+00,
256,1.60000e+00,
257,2.04000e+00,
258,1.96000e+00,
259,2.28000e+00,
260,2.20000e+00,
261,2.36000e+00,
262,2.40000e+00,
263,2.24000e+00,
264,2.32000e+00,
265,2.08000e+00,
266,2.16000e+00,
267,1.80000e+00,
268,1.84000e+00,
269,1.36000e+00,
270,1.40000e+00,
271,8.40000e-01,
272,8.80000e-01,
273,3.20000e-01,
274,3.20000e-01,
275,-2.80000e-01,
276,-2.40000e-01,
277,-8.40000e-01,
278,-8.00000e-01,
279,-1.36000e+00,
280,-1.32000e+00,
281,-1.80000e+00,
282,-1.76000e+00,
283,-2.08000e+00,
284,-2.04000e+00,
285,-2.28000e+00,
286,-2.20000e+00,
287,-2.36000e+00,
288,-2.32000e+00,
289,-2.16000e+00,
290,-2.20000e+00,
291,-1.88000e+00,
292,-1.92000e+00,
293,-1.52000e+00,
294,-1.56000e+00,
295,-1.04000e+00,
296,-1.08000e+00,
297,-4.80000e-01,
298,-5.60000e-01,
299,8.00000e-02,
300,0.00000e+00,
301,6.40000e-01,
302,6.40000e-01,
303,1.16000e+00,
304,1.08000e+00,
305,1.64000e+00,
306,1.60000e+00,
307,2.00000e+00,
308,1.96000e+00,
309,2.24000e+00,
310,2.20000e+00,
311,2.36000e+00,
312,2.36000e+00,
313,2.24000e+00,
314,2.32000e+00,
315,2.08000e+00,
316,2.16000e+00,
317,1.76000e+00,
318,1.80000e+00,
319,1.36000e+00,
320,1.40000e+00,
321,8.40000e-01,
322,9.20000e-01,
323,3.20000e-01,
324,3.20000e-01,
325,-2.80000e-01,
326,-2.40000e-01,
327,-8.40000e-01,
328,-8.00000e-01,
329,-1.36000e+00,
330,-1.32000e+00,
331,-1.80000e+00,
332,-1.72000e+00,
333,-2.08000e+00,
334,-2.04000e+00,
335,-2.32000e+00,
336,-2.24000e+00,
337,-2.36000e+00,
338,-2.32000e+00,
339,-2.16000e+00,
340,-2.20000e+00,
341,-1.88000e+00,
342,-1.92000e+00,
343,-1.52000e+00,
344,-1.56000e+00,
345,-1.04000e+00,
346,-1.08000e+00,
347,-5.20000e-01,
348,-5.60000e-01,
349,8.00000e-02,
350,4.00000e-02,
351,6.80000e-01,
352,6.00000e-01,
353,1.20000e+00,
354,1.12000e+00,
355,1.64000e+00,
356,1.60000e+00,
357,2.04000e+00,
358,1.96000e+00,
359,2.28000e+00,
360,2.20000e+00,
361,2.36000e+00,
362,2.36000e+00,
363,2.24000e+00,
364,2.32000e+00,
365,2.08000e+00,
366,2.16000e+00,
367,1.80000e+00,
368,1.84000e+00,
369,1.36000e+00,
370,1.40000e+00,
371,8.40000e-01,
372,9.20000e-01,
373,3.20000e-01,
374,3.20000e-01,
375,-2.80000e-01,
376,-2.40000e-01,
377,-8.40000e-01,
378,-8.00000e-01,
379,-1.36000e+00,
380,-1.32000e+00,
381,-1.76000e+00,
382,-1.72000e+00,
383,-2.08000e+00,
384,-2.04000e+00,
385,-2.24000e+00,
386,-2.24000e+00,
387,-2.32000e+00,
388,-2.32000e+00,
389,-2.16000e+00,
390,-2.24000e+00,
391,-1.88000e+00,
392,-1.92000e+00,
393,-1.52000e+00,
394,-1.56000e+00,
395,-1.04000e+00,
396,-1.08000e+00,
397,-5.20000e-01,
398,-5.60000e-01,
399,4.00000e-02,
400,4.00000e-02,
401,6.40000e-01,
402,6.00000e-01,
403,1.20000e+00,
404,1.12000e+00,
405,1.68000e+00,
406,1.60000e+00,
407,2.04000e+00,
408,1.96000e+00,
409,2.28000e+00,
410,2.20000e+00,
411,2.36000e+00,
412,2.36000e+00,
413,2.24000e+00,
414,2.32000e+00,
415,2.08000e+00,
416,2.16000e+00,
417,1.80000e+00,
418,1.84000e+00,
419,1.40000e+00,
420,1.40000e+00,
421,8.40000e-01,
422,9.20000e-01,
423,3.20000e-01,
424,3.20000e-01,
425,-2.80000e-01,
426,-2.40000e-01,
427,-8.40000e-01,
428,-8.00000e-01,
429,-1.32000e+00,
430,-1.28000e+00,
431,-1.76000e+00,
432,-1.72000e+00,
433,-2.08000e+00,
434,-2.00000e+00,
435,-2.28000e+00,
436,-2.20000e+00,
437,-2.32000e+00,
438,-2.32000e+00,
439,-2.16000e+00,
440,-2.16000e+00,
441,-1.88000e+00,
442,-1.92000e+00,
443,-1.52000e+00,
444,-1.56000e+00,
445,-1.04000e+00,
446,-1.12000e+00,
447,-5.20000e-01,
448,-5.60000e-01,
449,8.00000e-02,
450,4.00000e-02,
451,6.40000e-01,
452,6.00000e-01,
453,1.16000e+00,
454,1.12000e+00,
455,1.68000e+00,
456,1.60000e+00,
457,2.04000e+00,
458,1.96000e+00,
459,2.28000e+00,
460,2.20000e+00,
461,2.40000e+00,
462,2.28000e+00,
463,2.40000e+00,
464,2.36000e+00,
465,2.08000e+00,
466,2.16000e+00,
467,1.80000e+00,
468,1.84000e+00,
469,1.36000e+00,
470,1.40000e+00,
471,8.40000e-01,
472,9.20000e-01,
473,3.20000e-01,
474,3.20000e-01,
475,-2.80000e-01,
476,-2.40000e-01,
477,-8.40000e-01,
478,-8.00000e-01,
479,-1.36000e+00,
480,-1.32000e+00,
481,-1.76000e+00,
482,-1.72000e+00,
483,-2.08000e+00,
484,-2.04000e+00,
485,-2.28000e+00,
486,-2.20000e+00,
487,-2.32000e+00,
488,-2.32000e+00,
489,-2.16000e+00,
490,-2.24000e+00,
491,-1.88000e+00,
492,-1.92000e+00,
493,-1.52000e+00,
494,-1.56000e+00,
495,-1.04000e+00,
496,-1.08000e+00,
497,-4.80000e-01,
498,-5.60000e-01,
499,8.00000e-02,
500,0.00000e+00,
501,6.80000e-01,
502,6.00000e-01,
503,1.20000e+00,
504,1.12000e+00,
505,1.64000e+00,
506,1.60000e+00,
507,2.04000e+00,
508,1.96000e+00,
509,2.28000e+00,
510,2.20000e+00,
511,2.36000e+00,
512,2.40000e+00,
513,2.24000e+00,
514,2.32000e+00,
515,2.08000e+00,
516,2.16000e+00,
517,1.80000e+00,
518,1.84000e+00,
519,1.36000e+00,
520,1.40000e+00,
521,8.40000e-01,
522,9.20000e-01,
523,3.20000e-01,
524,3.20000e-01,
525,-2.80000e-01,
526,-2.40000e-01,
527,-8.40000e-01,
528,-8.00000e-01,
529,-1.36000e+00,
530,-1.32000e+00,
531,-1.80000e+00,
532,-1.72000e+00,
533,-2.08000e+00,
534,-2.04000e+00,
535,-2.24000e+00,
536,-2.24000e+00,
537,-2.36000e+00,
538,-2.32000e+00,
539,-2.16000e+00,
540,-2.20000e+00,
541,-1.88000e+00,
542,-1.92000e+00,
543,-1.52000e+00,
544,-1.56000e+00,
545,-1.08000e+00,
546,-1.08000e+00,
547,-5.20000e-01,
548,-5.60000e-01,
549,8.00000e-02,
550,0.00000e+00,
551,6.40000e-01,
552,6.00000e-01,
553,1.16000e+00,
554,1.12000e+00,
555,1.68000e+00,
556,1.60000e+00,
557,2.04000e+00,
558,1.96000e+00,
559,2.24000e+00,
560,2.16000e+00,
561,2.36000e+00,
562,2.36000e+00,
563,2.24000e+00,
564,2.32000e+00,
565,2.08000e+00,
566,2.16000e+00,
567,1.76000e+00,
568,1.84000e+00,
569,1.36000e+00,
570,1.40000e+00,
571,8.40000e-01,
572,9.20000e-01,
573,3.20000e-01,
574,3.60000e-01,
575,-2.80000e-01,
576,-2.40000e-01,
577,-8.40000e-01,
578,-8.00000e-01,
579,-1.32000e+00,
580,-1.28000e+00,
581,-1.76000e+00,
582,-1.72000e+00,
583,-2.08000e+00,
584,-2.04000e+00,
585,-2.28000e+00,
586,-2.20000e+00,
587,-2.32000e+00,
588,-2.32000e+00,
589,-2.16000e+00,
590,-2.20000e+00,
591,-1.88000e+00,
592,-1.92000e+00,
593,-1.52000e+00,
594,-1.56000e+00,
595,-1.04000e+00,
596,-1.12000e+00,
597,-5.20000e-01,
598,-5.60000e-01,
599,8.00000e-02,
600,0.00000e+00,
601,6.80000e-01,
602,6.00000e-01,
603,1.20000e+00,
604,1.12000e+00,
605,1.64000e+00,
606,1.60000e+00,
607,2.04000e+00,
608,1.96000e+00,
609,2.28000e+00,
610,2.16000e+00,
611,2.36000e+00,
612,2.36000e+00,
613,2.24000e+00,
614,2.32000e+00,
615,2.08000e+00,
616,2.16000e+00,
617,1.80000e+00,
618,1.84000e+00,
619,1.32000e+00,
620,1.40000e+00,
621,8.40000e-01,
622,9.20000e-01,
623,3.20000e-01,
624,3.20000e-01,
625,-2.80000e-01,
626,-2.40000e-01,
627,-8.40000e-01,
628,-8.00000e-01,
629,-1.36000e+00,
630,-1.32000e+00,
631,-1.76000e+00,
632,-1.76000e+00,
633,-2.08000e+00,
634,-2.04000e+00,
635,-2.28000e+00,
636,-2.20000e+00,
637,-2.32000e+00,
638,-2.32000e+00,
639,-2.16000e+00,
640,-2.20000e+00,
641,-1.92000e+00,
642,-1.92000e+00,
643,-1.52000e+00,
644,-1.56000e+00,
645,-1.04000e+00,
646,-1.08000e+00,
647,-5.20000e-01,
648,-5.60000e-01,
649,8.00000e-02,
650,0.00000e+00,
651,6.40000e-01,
652,6.00000e-01,
653,1.16000e+00,
654,1.12000e+00,
655,1.64000e+00,
656,1.60000e+00,
657,2.00000e+00,
658,1.96000e+00,
659,2.24000e+00,
660,2.16000e+00,
661,2.36000e+00,
662,2.36000e+00,
663,2.24000e+00,
664,2.32000e+00,
665,2.08000e+00,
666,2.16000e+00,
667,1.76000e+00,
668,1.84000e+00,
669,1.36000e+00,
670,1.40000e+00,
671,8.40000e-01,
672,9.20000e-01,
673,3.20000e-01,
674,3.20000e-01,
675,-2.80000e-01,
676,-2.40000e-01,
677,-8.40000e-01,
678,-7.60000e-01,
679,-1.36000e+00,
680,-1.28000e+00,
681,-1.76000e+00,
682,-1.72000e+00,
683,-2.08000e+00,
684,-2.04000e+00,
685,-2.28000e+00,
686,-2.20000e+00,
687,-2.32000e+00,
688,-2.28000e+00,
689,-2.16000e+00,
690,-2.20000e+00,
691,-1.88000e+00,
692,-1.92000e+00,
693,-1.52000e+00,
694,-1.56000e+00,
695,-1.04000e+00,
696,-1.08000e+00,
697,-4.80000e-01,
698,-5.60000e-01,
699,8.00000e-02,
700,4.00000e-02,
701,6.40000e-01,
702,6.00000e-01,
703,1.20000e+00,
704,1.12000e+00,
705,1.68000e+00,
706,1.60000e+00,
707,2.00000e+00,
708,1.96000e+00,
709,2.28000e+00,
710,2.20000e+00,
711,2.36000e+00,
712,2.40000e+00,
713,2.24000e+00,
714,2.32000e+00,
715,2.08000e+00,
716,2.16000e+00,
717,1.76000e+00,
718,1.84000e+00,
719,1.36000e+00,
720,1.40000e+00,
721,8.40000e-01,
722,8.80000e-01,
723,3.20000e-01,
724,3.20000e-01,
725,-2.80000e-01,
726,-2.40000e-01,
727,-8.40000e-01,
728,-8.00000e-01,
729,-1.36000e+00,
730,-1.32000e+00,
731,-1.80000e+00,
732,-1.72000e+00,
733,-2.08000e+00,
734,-2.04000e+00,
735,-2.32000e+00,
736,-2.24000e+00,
737,-2.36000e+00,
738,-2.36000e+00,
739,-2.16000e+00,
740,-2.24000e+00,
741,-1.88000e+00,
742,-1.92000e+00,
743,-1.52000e+00,
744,-1.60000e+00,
745,-1.08000e+00,
746,-1.08000e+00,
747,-5.20000e-01,
748,-5.60000e-01,
749,8.00000e-02,
750,0.00000e+00,
751,6.40000e-01,
752,6.00000e-01,
753,1.16000e+00,
754,1.08000e+00,
755,1.64000e+00,
756,1.60000e+00,
757,2.04000e+00,
758,1.96000e+00,
759,2.28000e+00,
760,2.20000e+00,
761,2.36000e+00,
762,2.36000e+00,
763,2.24000e+00,
764,2.32000e+00,
765,2.08000e+00,
766,2.16000e+00,
767,1.80000e+00,
768,1.80000e+00,
769,1.36000e+00,
770,1.40000e+00,
771,8.40000e-01,
772,9.20000e-01,
773,3.20000e-01,
774,3.20000e-01,
775,-2.80000e-01,
776,-2.40000e-01,
777,-8.40000e-01,
778,-8.00000e-01,
779,-1.36000e+00,
780,-1.32000e+00,
781,-1.76000e+00,
782,-1.72000e+00,
783,-2.08000e+00,
784,-2.04000e+00,
785,-2.28000e+00,
786,-2.20000e+00,
787,-2.32000e+00,
788,-2.32000e+00,
789,-2.16000e+00,
790,-2.16000e+00,
791,-1.88000e+00,
792,-1.92000e+00,
793,-1.52000e+00,
794,-1.56000e+00,
795,-1.08000e+00,
796,-1.12000e+00,
797,-4.80000e-01,
798,-5.60000e-01,
799,8.00000e-02,
800,0.00000e+00,
801,6.40000e-01,
802,6.00000e-01,
803,1.20000e+00,
804,1.12000e+00,
805,1.64000e+00,
806,1.60000e+00,
807,2.04000e+00,
808,1.96000e+00,
809,2.28000e+00,
810,2.20000e+00,
811,2.36000e+00,
812,2.36000e+00,
813,2.24000e+00,
814,2.32000e+00,
815,2.08000e+00,
816,2.16000e+00,
817,1.80000e+00,
818,1.84000e+00,
819,1.40000e+00,
820,1.40000e+00,
821,8.40000e-01,
822,9.20000e-01,
823,3.20000e-01,
824,3.20000e-01,
825,-2.80000e-01,
826,-2.40000e-01,
827,-8.40000e-01,
828,-8.00000e-01,
829,-1.36000e+00,
830,-1.32000e+00,
831,-1.76000e+00,
832,-1.72000e+00,
833,-2.08000e+00,
834,-2.00000e+00,
835,-2.28000e+00,
836,-2.24000e+00,
837,-2.36000e+00,
838,-2.32000e+00,
839,-2.16000e+00,
840,-2.20000e+00,
841,-1.88000e+00,
842,-1.96000e+00,
843,-1.52000e+00,
844,-1.56000e+00,
845,-1.04000e+00,
846,-1.12000e+00,
847,-5.20000e-01,
848,-5.60000e-01,
849,8.00000e-02,
850,0.00000e+00,
851,6.80000e-01,
852,6.00000e-01,
853,1.20000e+00,
854,1.12000e+00,
855,1.68000e+00,
856,1.60000e+00,
857,2.04000e+00,
858,1.96000e+00,
859,2.24000e+00,
860,2.20000e+00,
861,2.36000e+00,
862,2.36000e+00,
863,2.24000e+00,
864,2.32000e+00,
865,2.08000e+00,
866,2.16000e+00,
867,1.76000e+00,
868,1.84000e+00,
869,1.36000e+00,
870,1.40000e+00,
871,8.40000e-01,
872,9.20000e-01,
873,3.20000e-01,
874,3.60000e-01,
875,-2.80000e-01,
876,-2.40000e-01,
877,-8.40000e-01,
878,-7.60000e-01,
879,-1.32000e+00,
880,-1.32000e+00,
881,-1.76000e+00,
882,-1.72000e+00,
883,-2.08000e+00,
884,-2.04000e+00,
885,-2.28000e+00,
886,-2.20000e+00,
887,-2.32000e+00,
888,-2.32000e+00,
889,-2.12000e+00,
890,-2.16000e+00,
891,-1.88000e+00,
892,-1.92000e+00,
893,-1.48000e+00,
894,-1.56000e+00,
895,-1.04000e+00,
896,-1.12000e+00,
897,-4.80000e-01,
898,-5.60000e-01,
899,8.00000e-02,
900,4.00000e-02,
901,6.80000e-01,
902,6.00000e-01,
903,1.20000e+00,
904,1.12000e+00,
905,1.68000e+00,
906,1.60000e+00,
907,2.04000e+00,
908,1.96000e+00,
909,2.28000e+00,
910,2.20000e+00,
911,2.36000e+00,
912,2.40000e+00,
913,2.24000e+00,
914,2.36000e+00,
915,2.08000e+00,
916,2.16000e+00,
917,1.80000e+00,
918,1.84000e+00,
919,1.36000e+00,
920,1.40000e+00,
921,8.40000e-01,
922,9.20000e-01,
923,3.20000e-01,
924,3.20000e-01,
925,-2.80000e-01,
926,-2.40000e-01,
927,-8.40000e-01,
928,-8.00000e-01,
929,-1.36000e+00,
930,-1.32000e+00,
931,-1.76000e+00,
932,-1.72000e+00,
933,-2.08000e+00,
934,-2.00000e+00,
935,-2.24000e+00,
936,-2.20000e+00,
937,-2.32000e+00,
938,-2.32000e+00,
939,-2.16000e+00,
940,-2.16000e+00,
941,-1.88000e+00,
942,-1.92000e+00,
943,-1.52000e+00,
944,-1.56000e+00,
945,-1.04000e+00,
946,-1.08000e+00,
947,-5.20000e-01,
948,-5.60000e-01,
949,8.00000e-02,
950,4.00000e-02,
951,6.40000e-01,
952,6.00000e-01,
953,1.16000e+00,
954,1.12000e+00,
955,1.64000e+00,
956,1.60000e+00,
957,2.04000e+00,
958,1.96000e+00,
959,2.28000e+00,
960,2.20000e+00,
961,2.36000e+00,
962,2.36000e+00,
963,2.24000e+00,
964,2.32000e+00,
965,2.08000e+00,
966,2.16000e+00,
967,1.76000e+00,
968,1.84000e+00,
969,1.36000e+00,
970,1.40000e+00,
971,8.40000e-01,
972,9.20000e-01,
973,3.20000e-01,
974,3.20000e-01,
975,-2.80000e-01,
976,-2.40000e-01,
977,-8.40000e-01,
978,-8.40000e-01,
979,-1.40000e+00,
980,-1.32000e+00,
981,-1.80000e+00,
982,-1.72000e+00,
983,-2.08000e+00,
984,-2.04000e+00,
985,-2.28000e+00,
986,-2.24000e+00,
987,-2.32000e+00,
988,-2.32000e+00,
989,-2.12000e+00,
990,-2.20000e+00,
991,-1.88000e+00,
992,-1.92000e+00,
993,-1.52000e+00,
994,-1.56000e+00,
995,-1.04000e+00,
996,-1.08000e+00,
997,-4.80000e-01,
998,-5.60000e-01,
999,8.00000e-02,
1000,4.00000e-02,
1001,6.40000e-01,
1002,6.00000e-01,
1003,1.20000e+00,
1004,1.16000e+00,
1005,1.64000e+00,
1006,1.60000e+00,
1007,2.04000e+00,
1008,1.96000e+00,
1009,2.28000e+00,
1010,2.20000e+00,
1011,2.36000e+00,
1012,2.40000e+00,
1013,2.24000e+00,
1014,2.36000e+00,
1015,2.08000e+00,
1016,2.16000e+00,
1017,1.80000e+00,
1018,1.84000e+00,
1019,1.40000e+00,
1020,1.40000e+00,
1021,8.40000e-01,
1022,9.20000e-01,
1023,3.20000e-01,
1024,3.20000e-01,
1025,-2.80000e-01,
1026,-2.40000e-01,
1027,-8.40000e-01,
1028,-7.60000e-01,
1029,-1.36000e+00,
1030,-1.32000e+00,
1031,-1.76000e+00,
1032,-1.76000e+00,
1033,-2.08000e+00,
1034,-2.04000e+00,
1035,-2.28000e+00,
1036,-2.20000e+00,
1037,-2.32000e+00,
1038,-2.32000e+00,
1039,-2.16000e+00,
1040,-2.20000e+00,
1041,-1.92000e+00,
1042,-1.92000e+00,
1043,-1.52000e+00,
1044,-1.56000e+00,
1045,-1.04000e+00,
1046,-1.08000e+00,
1047,-4.80000e-01,
1048,-5.60000e-01,
1049,8.00000e-02,
1050,4.00000e-02,
1051,6.40000e-01,
1052,6.00000e-01,
1053,1.20000e+00,
1054,1.16000e+00,
1055,1.68000e+00,
1056,1.60000e+00,
1057,2.04000e+00,
1058,1.96000e+00,
1059,2.28000e+00,
1060,2.20000e+00,
1061,2.36000e+00,
1062,2.28000e+00,
1063,2.40000e+00,
1064,2.32000e+00,
1065,2.08000e+00,
1066,2.16000e+00,
1067,1.80000e+00,
1068,1.88000e+00,
1069,1.36000e+00,
1070,1.40000e+00,
1071,8.40000e-01,
1072,9.20000e-01,
1073,3.20000e-01,
1074,3.60000e-01,
1075,-2.40000e-01,
1076,-2.40000e-01,
1077,-8.40000e-01,
1078,-8.00000e-01,
1079,-1.36000e+00,
1080,-1.28000e+00,
1081,-1.76000e+00,
1082,-1.72000e+00,
1083,-2.08000e+00,
1084,-2.04000e+00,
1085,-2.28000e+00,
1086,-2.24000e+00,
1087,-2.36000e+00,
1088,-2.36000e+00,
1089,-2.16000e+00,
1090,-2.20000e+00,
1091,-1.88000e+00,
1092,-1.96000e+00,
1093,-1.52000e+00,
1094,-1.56000e+00,
1095,-1.04000e+00,
1096,-1.12000e+00,
1097,-4.80000e-01,
1098,-5.60000e-01,
1099,8.00000e-02,
1100,4.00000e-02,
1101,6.40000e-01,
1102,6.00000e-01,
1103,1.20000e+00,
1104,1.12000e+00,
1105,1.68000e+00,
1106,1.60000e+00,
1107,2.04000e+00,
1108,1.96000e+00,
1109,2.28000e+00,
1110,2.20000e+00,
1111,2.36000e+00,
1112,2.40000e+00,
1113,2.24000e+00,
1114,2.36000e+00,
1115,2.08000e+00,
1116,2.16000e+00,
1117,1.80000e+00,
1118,1.84000e+00,
1119,1.36000e+00,
1120,1.40000e+00,
1121,8.40000e-01,
1122,9.20000e-01,
1123,3.20000e-01,
1124,3.20000e-01,
1125,-2.80000e-01,
1126,-2.40000e-01,
1127,-8.40000e-01,
1128,-7.60000e-01,
1129,-1.36000e+00,
1130,-1.28000e+00,
1131,-1.76000e+00,
1132,-1.72000e+00,
1133,-2.08000e+00,
1134,-2.04000e+00,
1135,-2.28000e+00,
1136,-2.20000e+00,
1137,-2.32000e+00,
1138,-2.32000e+00,
