DataAnalysis/Johnson_noise/2017_johnson_noise/data_MUIC_nop_anan/NewFile69.csv

X,CH1,Start,Increment,
Sequence,Volt,1.80000e-03,1.00000e-06
0,4.00000e-02,
1,6.40000e-01,
2,5.60000e-01,
3,1.00000e+00,
4,9.60000e-01,
5,1.20000e+00,
6,1.20000e+00,
7,1.00000e+00,
8,1.08000e+00,
9,6.80000e-01,
10,7.20000e-01,
11,1.60000e-01,
12,1.60000e-01,
13,-4.00000e-01,
14,-4.00000e-01,
15,-8.40000e-01,
16,-8.40000e-01,
17,-1.12000e+00,
18,-1.04000e+00,
19,-1.16000e+00,
20,-1.04000e+00,
21,-7.20000e-01,
22,-7.60000e-01,
23,-2.00000e-01,
24,-2.80000e-01,
25,3.60000e-01,
26,3.20000e-01,
27,8.40000e-01,
28,7.60000e-01,
29,1.12000e+00,
30,1.04000e+00,
31,1.20000e+00,
32,1.16000e+00,
33,8.80000e-01,
34,9.20000e-01,
35,4.40000e-01,
36,4.80000e-01,
37,-1.20000e-01,
38,-8.00000e-02,
39,-6.40000e-01,
40,-6.00000e-01,
41,-1.00000e+00,
42,-9.60000e-01,
43,-1.16000e+00,
44,-1.12000e+00,
45,-8.80000e-01,
46,-9.20000e-01,
47,-4.80000e-01,
48,-5.20000e-01,
49,8.00000e-02,
50,4.00000e-02,
51,6.40000e-01,
52,5.60000e-01,
53,1.04000e+00,
54,9.60000e-01,
55,1.20000e+00,
56,1.20000e+00,
57,1.00000e+00,
58,1.08000e+00,
59,6.80000e-01,
60,7.20000e-01,
61,1.20000e-01,
62,1.60000e-01,
63,-4.00000e-01,
64,-3.60000e-01,
65,-8.40000e-01,
66,-8.40000e-01,
67,-1.12000e+00,
68,-1.16000e+00,
69,-1.00000e+00,
70,-1.08000e+00,
71,-6.80000e-01,
72,-7.60000e-01,
73,-2.00000e-01,
74,-2.80000e-01,
75,3.20000e-01,
76,3.20000e-01,
77,8.40000e-01,
78,7.60000e-01,
79,1.12000e+00,
80,1.08000e+00,
81,1.20000e+00,
82,1.16000e+00,
83,8.80000e-01,
84,9.20000e-01,
85,4.40000e-01,
86,4.80000e-01,
87,-1.60000e-01,
88,-8.00000e-02,
89,-6.80000e-01,
90,-6.00000e-01,
91,-1.00000e+00,
92,-9.60000e-01,
93,-1.12000e+00,
94,-1.12000e+00,
95,-8.80000e-01,
96,-9.20000e-01,
97,-5.20000e-01,
98,-5.20000e-01,
99,8.00000e-02,
100,4.00000e-02,
101,6.40000e-01,
102,5.60000e-01,
103,1.04000e+00,
104,9.60000e-01,
105,1.20000e+00,
106,1.20000e+00,
107,1.00000e+00,
108,1.08000e+00,
109,6.80000e-01,
110,7.20000e-01,
111,1.20000e-01,
112,1.60000e-01,
113,-4.40000e-01,
114,-3.60000e-01,
115,-8.40000e-01,
116,-8.00000e-01,
117,-1.12000e+00,
118,-1.12000e+00,
119,-1.00000e+00,
120,-1.08000e+00,
121,-6.80000e-01,
122,-7.60000e-01,
123,-2.00000e-01,
124,-2.80000e-01,
125,3.60000e-01,
126,3.20000e-01,
127,8.40000e-01,
128,8.00000e-01,
129,1.12000e+00,
130,1.08000e+00,
131,1.20000e+00,
132,1.16000e+00,
133,8.80000e-01,
134,9.20000e-01,
135,4.40000e-01,
136,4.80000e-01,
137,-1.60000e-01,
138,-8.00000e-02,
139,-6.40000e-01,
140,-6.00000e-01,
141,-1.04000e+00,
142,-9.60000e-01,
143,-1.16000e+00,
144,-1.16000e+00,
145,-9.20000e-01,
146,-9.20000e-01,
147,-4.80000e-01,
148,-4.80000e-01,
149,8.00000e-02,
150,4.00000e-02,
151,6.00000e-01,
152,5.60000e-01,
153,1.00000e+00,
154,9.60000e-01,
155,1.20000e+00,
156,1.20000e+00,
157,1.00000e+00,
158,1.08000e+00,
159,6.80000e-01,
160,7.20000e-01,
161,1.60000e-01,
162,1.60000e-01,
163,-4.40000e-01,
164,-3.60000e-01,
165,-8.80000e-01,
166,-8.40000e-01,
167,-1.12000e+00,
168,-1.16000e+00,
169,-1.04000e+00,
170,-1.08000e+00,
171,-6.80000e-01,
172,-7.60000e-01,
173,-2.00000e-01,
174,-2.80000e-01,
175,3.20000e-01,
176,3.20000e-01,
177,8.40000e-01,
178,7.60000e-01,
179,1.12000e+00,
180,1.08000e+00,
181,1.20000e+00,
182,1.16000e+00,
183,8.40000e-01,
184,9.20000e-01,
185,4.40000e-01,
186,4.40000e-01,
187,-1.60000e-01,
188,-8.00000e-02,
189,-6.40000e-01,
190,-6.00000e-01,
191,-1.00000e+00,
192,-9.60000e-01,
193,-1.12000e+00,
194,-1.12000e+00,
195,-8.80000e-01,
196,-9.20000e-01,
197,-4.80000e-01,
198,-5.20000e-01,
199,4.00000e-02,
200,0.00000e+00,
201,6.00000e-01,
202,5.60000e-01,
203,1.00000e+00,
204,9.60000e-01,
205,1.20000e+00,
206,1.20000e+00,
207,1.00000e+00,
208,1.08000e+00,
209,6.80000e-01,
210,7.20000e-01,
211,1.60000e-01,
212,2.00000e-01,
213,-4.40000e-01,
214,-4.00000e-01,
215,-8.40000e-01,
216,-8.00000e-01,
217,-1.12000e+00,
218,-1.04000e+00,
219,-1.16000e+00,
220,-1.04000e+00,
221,-7.20000e-01,
222,-7.60000e-01,
223,-2.40000e-01,
224,-2.40000e-01,
225,3.20000e-01,
226,2.80000e-01,
227,8.40000e-01,
228,7.60000e-01,
229,1.12000e+00,
230,1.04000e+00,
231,1.20000e+00,
232,1.16000e+00,
233,8.40000e-01,
234,9.20000e-01,
235,4.00000e-01,
236,4.40000e-01,
237,-1.60000e-01,
238,-1.20000e-01,
239,-6.80000e-01,
240,-6.00000e-01,
241,-1.04000e+00,
242,-9.60000e-01,
243,-1.16000e+00,
244,-1.16000e+00,
245,-9.20000e-01,
246,-9.20000e-01,
247,-4.80000e-01,
248,-5.20000e-01,
249,8.00000e-02,
250,4.00000e-02,
251,6.00000e-01,
252,5.60000e-01,
253,1.04000e+00,
254,9.60000e-01,
255,1.20000e+00,
256,1.20000e+00,
257,1.04000e+00,
258,1.08000e+00,
259,6.80000e-01,
260,7.20000e-01,
261,1.60000e-01,
262,2.00000e-01,
263,-4.00000e-01,
264,-3.60000e-01,
265,-8.40000e-01,
266,-8.40000e-01,
267,-1.12000e+00,
268,-1.12000e+00,
269,-1.00000e+00,
270,-1.04000e+00,
271,-7.20000e-01,
272,-7.20000e-01,
273,-2.00000e-01,
274,-2.40000e-01,
275,4.00000e-01,
276,3.20000e-01,
277,8.40000e-01,
278,8.00000e-01,
279,1.16000e+00,
280,1.08000e+00,
281,1.20000e+00,
282,1.16000e+00,
283,8.80000e-01,
284,9.20000e-01,
285,4.40000e-01,
286,4.40000e-01,
287,-1.60000e-01,
288,-8.00000e-02,
289,-6.40000e-01,
290,-6.00000e-01,
291,-1.00000e+00,
292,-9.60000e-01,
293,-1.16000e+00,
294,-1.16000e+00,
295,-8.80000e-01,
296,-9.20000e-01,
297,-4.40000e-01,
298,-5.20000e-01,
299,8.00000e-02,
300,4.00000e-02,
301,6.40000e-01,
302,5.60000e-01,
303,1.04000e+00,
304,9.60000e-01,
305,1.20000e+00,
306,1.20000e+00,
307,1.00000e+00,
308,1.08000e+00,
309,6.80000e-01,
310,7.20000e-01,
311,1.20000e-01,
312,1.60000e-01,
313,-4.00000e-01,
314,-4.00000e-01,
315,-8.40000e-01,
316,-8.00000e-01,
317,-1.12000e+00,
318,-1.12000e+00,
319,-1.00000e+00,
320,-1.08000e+00,
321,-6.80000e-01,
322,-7.20000e-01,
323,-2.00000e-01,
324,-2.80000e-01,
325,3.20000e-01,
326,3.20000e-01,
327,8.40000e-01,
328,8.00000e-01,
329,1.16000e+00,
330,1.08000e+00,
331,1.20000e+00,
332,1.16000e+00,
333,8.80000e-01,
334,9.20000e-01,
335,4.00000e-01,
336,4.40000e-01,
337,-1.20000e-01,
338,-8.00000e-02,
339,-6.40000e-01,
340,-6.00000e-01,
341,-1.00000e+00,
342,-9.60000e-01,
343,-1.16000e+00,
344,-1.16000e+00,
345,-9.20000e-01,
346,-9.20000e-01,
347,-4.80000e-01,
348,-5.20000e-01,
349,4.00000e-02,
350,4.00000e-02,
351,6.40000e-01,
352,5.60000e-01,
353,1.00000e+00,
354,9.60000e-01,
355,1.16000e+00,
356,1.20000e+00,
357,1.00000e+00,
358,1.08000e+00,
359,6.40000e-01,
360,7.20000e-01,
361,1.60000e-01,
362,1.60000e-01,
363,-4.00000e-01,
364,-3.60000e-01,
365,-8.40000e-01,
366,-8.00000e-01,
367,-1.12000e+00,
368,-1.16000e+00,
369,-1.04000e+00,
370,-1.04000e+00,
371,-7.20000e-01,
372,-7.60000e-01,
373,-2.40000e-01,
374,-2.80000e-01,
375,3.20000e-01,
376,3.20000e-01,
377,8.40000e-01,
378,7.60000e-01,
379,1.12000e+00,
380,1.04000e+00,
381,1.20000e+00,
382,1.16000e+00,
383,8.40000e-01,
384,9.20000e-01,
385,4.00000e-01,
386,4.40000e-01,
387,-1.60000e-01,
388,-8.00000e-02,
389,-6.80000e-01,
390,-6.40000e-01,
391,-1.04000e+00,
392,-9.60000e-01,
393,-1.16000e+00,
394,-1.16000e+00,
395,-9.20000e-01,
396,-9.20000e-01,
397,-4.80000e-01,
398,-5.20000e-01,
399,8.00000e-02,
400,0.00000e+00,
401,6.00000e-01,
402,5.60000e-01,
403,1.00000e+00,
404,9.60000e-01,
405,1.20000e+00,
406,1.20000e+00,
407,1.00000e+00,
408,1.08000e+00,
409,6.80000e-01,
410,6.80000e-01,
411,1.60000e-01,
412,1.60000e-01,
413,-4.40000e-01,
414,-3.60000e-01,
415,-8.40000e-01,
416,-8.00000e-01,
417,-1.08000e+00,
418,-1.04000e+00,
419,-1.16000e+00,
420,-1.04000e+00,
421,-6.80000e-01,
422,-7.20000e-01,
423,-2.00000e-01,
424,-2.80000e-01,
425,3.20000e-01,
426,3.20000e-01,
427,8.40000e-01,
428,7.60000e-01,
429,1.12000e+00,
430,1.08000e+00,
431,1.20000e+00,
432,1.16000e+00,
433,8.80000e-01,
434,9.20000e-01,
435,4.00000e-01,
436,4.40000e-01,
437,-1.20000e-01,
438,-1.20000e-01,
439,-6.40000e-01,
440,-6.00000e-01,
441,-1.00000e+00,
442,-9.60000e-01,
443,-1.12000e+00,
444,-1.12000e+00,
445,-9.20000e-01,
446,-9.20000e-01,
447,-4.80000e-01,
448,-5.20000e-01,
449,4.00000e-02,
450,4.00000e-02,
451,6.00000e-01,
452,5.60000e-01,
453,1.00000e+00,
454,9.60000e-01,
455,1.20000e+00,
456,1.20000e+00,
457,1.00000e+00,
458,1.08000e+00,
459,6.80000e-01,
460,7.20000e-01,
461,1.20000e-01,
462,1.60000e-01,
463,-4.40000e-01,
464,-3.60000e-01,
465,-8.80000e-01,
466,-8.40000e-01,
467,-1.12000e+00,
468,-1.16000e+00,
469,-1.04000e+00,
470,-1.04000e+00,
471,-6.80000e-01,
472,-7.60000e-01,
473,-2.00000e-01,
474,-2.40000e-01,
475,3.60000e-01,
476,3.20000e-01,
477,8.40000e-01,
478,7.60000e-01,
479,1.12000e+00,
480,1.08000e+00,
481,1.20000e+00,
482,1.16000e+00,
483,8.80000e-01,
484,9.20000e-01,
485,4.00000e-01,
486,4.80000e-01,
487,-1.60000e-01,
488,-8.00000e-02,
489,-6.40000e-01,
490,-6.00000e-01,
491,-1.00000e+00,
492,-9.60000e-01,
493,-1.16000e+00,
494,-1.12000e+00,
495,-8.80000e-01,
496,-9.20000e-01,
497,-4.80000e-01,
498,-5.20000e-01,
499,4.00000e-02,
500,4.00000e-02,
501,6.40000e-01,
502,5.60000e-01,
503,1.00000e+00,
504,9.60000e-01,
505,1.20000e+00,
506,1.20000e+00,
507,1.00000e+00,
508,1.08000e+00,
509,6.40000e-01,
510,6.80000e-01,
511,1.60000e-01,
512,1.60000e-01,
513,-4.40000e-01,
514,-3.60000e-01,
515,-8.80000e-01,
516,-8.40000e-01,
517,-1.12000e+00,
518,-1.16000e+00,
519,-1.00000e+00,
520,-1.08000e+00,
521,-6.80000e-01,
522,-7.60000e-01,
523,-2.00000e-01,
524,-2.80000e-01,
525,3.60000e-01,
526,3.20000e-01,
527,8.40000e-01,
528,7.60000e-01,
529,1.12000e+00,
530,1.08000e+00,
531,1.20000e+00,
532,1.16000e+00,
533,8.80000e-01,
534,9.20000e-01,
535,4.40000e-01,
536,4.80000e-01,
537,-1.60000e-01,
538,-8.00000e-02,
539,-6.40000e-01,
540,-6.00000e-01,
541,-1.04000e+00,
542,-9.60000e-01,
543,-1.16000e+00,
544,-1.12000e+00,
545,-8.80000e-01,
546,-9.20000e-01,
547,-4.80000e-01,
548,-5.20000e-01,
549,8.00000e-02,
550,4.00000e-02,
551,6.40000e-01,
552,5.60000e-01,
553,1.04000e+00,
554,9.60000e-01,
555,1.20000e+00,
556,1.20000e+00,
557,1.00000e+00,
558,1.04000e+00,
559,6.80000e-01,
560,7.20000e-01,
561,1.60000e-01,
562,1.60000e-01,
563,-4.00000e-01,
564,-3.60000e-01,
565,-8.40000e-01,
566,-8.00000e-01,
567,-1.12000e+00,
568,-1.12000e+00,
569,-1.00000e+00,
570,-1.04000e+00,
571,-6.80000e-01,
572,-7.60000e-01,
573,-2.00000e-01,
574,-2.80000e-01,
575,3.60000e-01,
576,3.20000e-01,
577,8.40000e-01,
578,8.00000e-01,
579,1.16000e+00,
580,1.08000e+00,
581,1.20000e+00,
582,1.16000e+00,
583,8.80000e-01,
584,9.20000e-01,
585,4.40000e-01,
586,4.80000e-01,
587,-1.20000e-01,
588,-1.20000e-01,
589,-6.40000e-01,
590,-6.00000e-01,
591,-1.04000e+00,
592,-9.60000e-01,
593,-1.12000e+00,
594,-1.12000e+00,
595,-8.80000e-01,
596,-9.20000e-01,
597,-4.40000e-01,
598,-5.20000e-01,
599,8.00000e-02,
600,4.00000e-02,
601,6.00000e-01,
602,5.60000e-01,
603,1.04000e+00,
604,9.60000e-01,
605,1.20000e+00,
606,1.20000e+00,
607,1.00000e+00,
608,1.08000e+00,
609,6.80000e-01,
610,7.20000e-01,
611,1.20000e-01,
612,2.00000e-01,
613,-4.40000e-01,
614,-3.60000e-01,
615,-8.80000e-01,
616,-8.00000e-01,
617,-1.12000e+00,
618,-1.04000e+00,
619,-1.16000e+00,
620,-1.08000e+00,
621,-7.20000e-01,
622,-7.60000e-01,
623,-2.40000e-01,
624,-2.80000e-01,
625,3.20000e-01,
626,3.20000e-01,
627,8.40000e-01,
628,7.60000e-01,
629,1.12000e+00,
630,1.04000e+00,
631,1.20000e+00,
632,1.16000e+00,
633,8.40000e-01,
634,9.20000e-01,
635,4.40000e-01,
636,4.40000e-01,
637,-1.60000e-01,
638,-8.00000e-02,
639,-6.40000e-01,
640,-6.40000e-01,
641,-1.00000e+00,
642,-9.60000e-01,
643,-1.12000e+00,
644,-1.12000e+00,
645,-8.80000e-01,
646,-9.20000e-01,
647,-4.80000e-01,
648,-5.20000e-01,
649,8.00000e-02,
650,4.00000e-02,
651,6.00000e-01,
652,5.60000e-01,
653,1.00000e+00,
654,9.60000e-01,
655,1.20000e+00,
656,1.20000e+00,
657,1.00000e+00,
658,1.08000e+00,
659,6.80000e-01,
660,7.20000e-01,
661,1.20000e-01,
662,2.00000e-01,
663,-4.40000e-01,
664,-3.60000e-01,
665,-8.40000e-01,
666,-8.00000e-01,
667,-1.12000e+00,
668,-1.16000e+00,
669,-1.00000e+00,
670,-1.04000e+00,
671,-6.80000e-01,
672,-7.60000e-01,
673,-2.00000e-01,
674,-2.40000e-01,
675,3.60000e-01,
676,3.20000e-01,
677,8.40000e-01,
678,7.60000e-01,
679,1.12000e+00,
680,1.08000e+00,
681,1.20000e+00,
682,1.16000e+00,
683,8.40000e-01,
684,9.20000e-01,
685,4.40000e-01,
686,4.40000e-01,
687,-1.20000e-01,
688,-8.00000e-02,
689,-6.40000e-01,
690,-6.00000e-01,
691,-1.04000e+00,
692,-9.60000e-01,
693,-1.12000e+00,
694,-1.12000e+00,
695,-8.80000e-01,
696,-9.20000e-01,
697,-4.40000e-01,
698,-4.80000e-01,
699,8.00000e-02,
700,4.00000e-02,
701,6.40000e-01,
702,5.60000e-01,
703,1.04000e+00,
704,9.60000e-01,
705,1.20000e+00,
706,1.20000e+00,
707,1.04000e+00,
708,1.08000e+00,
709,7.20000e-01,
710,7.20000e-01,
711,1.60000e-01,
712,2.00000e-01,
713,-4.00000e-01,
714,-3.60000e-01,
715,-8.40000e-01,
716,-8.00000e-01,
717,-1.12000e+00,
718,-1.12000e+00,
719,-1.00000e+00,
720,-1.08000e+00,
721,-7.20000e-01,
722,-7.60000e-01,
723,-2.00000e-01,
724,-2.80000e-01,
725,3.20000e-01,
726,3.20000e-01,
727,8.40000e-01,
728,8.00000e-01,
729,1.12000e+00,
730,1.08000e+00,
731,1.20000e+00,
732,1.16000e+00,
733,8.80000e-01,
734,9.20000e-01,
735,4.40000e-01,
736,4.40000e-01,
737,-1.20000e-01,
738,-8.00000e-02,
739,-6.40000e-01,
740,-6.00000e-01,
741,-1.00000e+00,
742,-9.60000e-01,
743,-1.16000e+00,
744,-1.16000e+00,
745,-9.20000e-01,
746,-9.20000e-01,
747,-4.80000e-01,
748,-5.20000e-01,
749,8.00000e-02,
750,0.00000e+00,
751,6.40000e-01,
752,5.60000e-01,
753,1.00000e+00,
754,9.60000e-01,
755,1.20000e+00,
756,1.20000e+00,
757,1.00000e+00,
758,1.08000e+00,
759,6.80000e-01,
760,7.20000e-01,
761,1.20000e-01,
762,1.60000e-01,
763,-4.40000e-01,
764,-3.60000e-01,
765,-8.40000e-01,
766,-8.40000e-01,
767,-1.12000e+00,
768,-1.04000e+00,
769,-1.16000e+00,
770,-1.08000e+00,
771,-7.20000e-01,
772,-7.60000e-01,
773,-2.00000e-01,
774,-2.80000e-01,
775,3.20000e-01,
776,3.20000e-01,
777,8.40000e-01,
778,8.00000e-01,
779,1.12000e+00,
780,1.08000e+00,
781,1.20000e+00,
782,1.16000e+00,
783,8.80000e-01,
784,9.20000e-01,
785,4.40000e-01,
786,4.80000e-01,
787,-1.60000e-01,
788,-8.00000e-02,
789,-6.80000e-01,
790,-6.00000e-01,
791,-1.00000e+00,
792,-1.00000e+00,
793,-1.16000e+00,
794,-1.16000e+00,
795,-8.80000e-01,
796,-9.20000e-01,
797,-4.80000e-01,
798,-5.20000e-01,
799,8.00000e-02,
800,0.00000e+00,
801,6.40000e-01,
802,5.60000e-01,
803,1.00000e+00,
804,9.60000e-01,
805,1.20000e+00,
806,1.20000e+00,
807,1.00000e+00,
808,1.08000e+00,
809,6.40000e-01,
810,7.20000e-01,
811,1.60000e-01,
812,1.60000e-01,
813,-4.40000e-01,
814,-3.60000e-01,
815,-8.80000e-01,
816,-8.40000e-01,
817,-1.12000e+00,
818,-1.16000e+00,
819,-1.00000e+00,
820,-1.08000e+00,
821,-7.20000e-01,
822,-7.60000e-01,
823,-2.40000e-01,
824,-2.80000e-01,
825,3.20000e-01,
826,3.20000e-01,
827,8.40000e-01,
828,7.60000e-01,
829,1.12000e+00,
830,1.08000e+00,
831,1.20000e+00,
832,1.16000e+00,
833,8.80000e-01,
834,9.20000e-01,
835,4.00000e-01,
836,4.80000e-01,
837,-1.60000e-01,
838,-1.20000e-01,
839,-6.80000e-01,
840,-6.40000e-01,
841,-1.00000e+00,
842,-9.60000e-01,
843,-1.12000e+00,
844,-1.12000e+00,
845,-8.80000e-01,
846,-9.20000e-01,
847,-4.80000e-01,
848,-5.20000e-01,
849,8.00000e-02,
850,0.00000e+00,
851,6.00000e-01,
852,5.60000e-01,
853,1.00000e+00,
854,9.60000e-01,
855,1.20000e+00,
856,1.20000e+00,
857,1.00000e+00,
858,1.08000e+00,
859,6.80000e-01,
860,7.20000e-01,
861,1.60000e-01,
862,1.60000e-01,
863,-4.40000e-01,
864,-4.00000e-01,
865,-8.80000e-01,
866,-8.00000e-01,
867,-1.12000e+00,
868,-1.16000e+00,
869,-1.00000e+00,
870,-1.08000e+00,
871,-7.20000e-01,
872,-7.60000e-01,
873,-2.00000e-01,
874,-2.80000e-01,
875,3.60000e-01,
876,3.20000e-01,
877,8.40000e-01,
878,7.60000e-01,
879,1.12000e+00,
880,1.08000e+00,
881,1.20000e+00,
882,1.16000e+00,
883,8.80000e-01,
884,9.20000e-01,
885,4.00000e-01,
886,4.80000e-01,
887,-1.60000e-01,
888,-8.00000e-02,
889,-6.40000e-01,
890,-6.00000e-01,
891,-1.00000e+00,
892,-9.60000e-01,
893,-1.12000e+00,
894,-1.12000e+00,
895,-8.80000e-01,
896,-9.20000e-01,
897,-4.40000e-01,
898,-5.20000e-01,
899,8.00000e-02,
900,4.00000e-02,
901,6.40000e-01,
902,5.60000e-01,
903,1.04000e+00,
904,9.60000e-01,
905,1.20000e+00,
906,1.20000e+00,
907,1.00000e+00,
908,1.08000e+00,
909,6.80000e-01,
910,6.80000e-01,
911,1.60000e-01,
912,1.60000e-01,
913,-4.00000e-01,
914,-3.60000e-01,
915,-8.40000e-01,
916,-8.40000e-01,
917,-1.12000e+00,
918,-1.16000e+00,
919,-1.00000e+00,
920,-1.04000e+00,
921,-7.20000e-01,
922,-7.60000e-01,
923,-2.40000e-01,
924,-2.80000e-01,
925,3.60000e-01,
926,3.20000e-01,
927,8.40000e-01,
928,7.60000e-01,
929,1.12000e+00,
930,1.08000e+00,
931,1.20000e+00,
932,1.16000e+00,
933,8.40000e-01,
934,9.20000e-01,
935,4.40000e-01,
936,4.80000e-01,
937,-1.20000e-01,
938,-8.00000e-02,
939,-6.40000e-01,
940,-6.00000e-01,
941,-1.00000e+00,
942,-9.60000e-01,
943,-1.12000e+00,
944,-1.12000e+00,
945,-8.40000e-01,
946,-9.20000e-01,
947,-4.80000e-01,
948,-5.20000e-01,
949,8.00000e-02,
950,0.00000e+00,
951,6.00000e-01,
952,5.60000e-01,
953,1.00000e+00,
954,1.00000e+00,
955,1.20000e+00,
956,1.20000e+00,
957,1.00000e+00,
958,1.08000e+00,
959,6.80000e-01,
960,6.80000e-01,
961,1.60000e-01,
962,2.00000e-01,
963,-4.00000e-01,
964,-3.60000e-01,
965,-8.40000e-01,
966,-8.00000e-01,
967,-1.12000e+00,
968,-1.12000e+00,
969,-1.00000e+00,
970,-1.04000e+00,
971,-6.80000e-01,
972,-7.60000e-01,
973,-2.00000e-01,
974,-2.40000e-01,
975,3.20000e-01,
976,3.20000e-01,
977,8.40000e-01,
978,7.60000e-01,
979,1.12000e+00,
980,1.08000e+00,
981,1.20000e+00,
982,1.16000e+00,
983,8.40000e-01,
984,9.20000e-01,
985,4.40000e-01,
986,4.40000e-01,
987,-1.60000e-01,
988,-8.00000e-02,
989,-6.80000e-01,
990,-6.00000e-01,
991,-1.00000e+00,
992,-9.60000e-01,
993,-1.16000e+00,
994,-1.12000e+00,
995,-9.20000e-01,
996,-9.20000e-01,
997,-4.80000e-01,
998,-5.20000e-01,
999,8.00000e-02,
1000,0.00000e+00,
1001,6.40000e-01,
1002,5.60000e-01,
1003,1.00000e+00,
1004,9.60000e-01,
1005,1.20000e+00,
1006,1.20000e+00,
1007,1.00000e+00,
1008,1.08000e+00,
1009,6.80000e-01,
1010,6.80000e-01,
1011,1.20000e-01,
1012,1.60000e-01,
1013,-4.00000e-01,
1014,-3.60000e-01,
1015,-8.40000e-01,
1016,-8.40000e-01,
1017,-1.12000e+00,
1018,-1.04000e+00,
1019,-1.16000e+00,
1020,-1.08000e+00,
1021,-6.80000e-01,
1022,-7.60000e-01,
1023,-2.40000e-01,
1024,-2.40000e-01,
1025,3.20000e-01,
1026,3.20000e-01,
1027,8.40000e-01,
1028,7.60000e-01,
1029,1.12000e+00,
1030,1.08000e+00,
1031,1.20000e+00,
1032,1.16000e+00,
1033,8.40000e-01,
1034,9.20000e-01,
1035,4.00000e-01,
1036,4.80000e-01,
1037,-1.60000e-01,
1038,-1.20000e-01,
1039,-6.80000e-01,
1040,-6.00000e-01,
1041,-1.00000e+00,
1042,-1.00000e+00,
1043,-1.16000e+00,
1044,-1.16000e+00,
1045,-9.20000e-01,
1046,-9.20000e-01,
1047,-4.80000e-01,
1048,-5.20000e-01,
1049,8.00000e-02,
1050,4.00000e-02,
1051,6.00000e-01,
1052,5.60000e-01,
1053,1.00000e+00,
1054,9.60000e-01,
1055,1.16000e+00,
1056,1.20000e+00,
1057,1.00000e+00,
1058,1.08000e+00,
1059,6.40000e-01,
1060,7.20000e-01,
1061,1.60000e-01,
1062,1.60000e-01,
1063,-4.00000e-01,
1064,-3.60000e-01,
1065,-8.40000e-01,
1066,-8.40000e-01,
1067,-1.12000e+00,
1068,-1.12000e+00,
1069,-1.00000e+00,
1070,-1.04000e+00,
1071,-6.80000e-01,
1072,-7.60000e-01,
1073,-2.00000e-01,
1074,-2.80000e-01,
1075,3.20000e-01,
1076,3.20000e-01,
1077,8.40000e-01,
1078,7.60000e-01,
1079,1.12000e+00,
1080,1.08000e+00,
1081,1.20000e+00,
1082,1.16000e+00,
1083,8.40000e-01,
1084,9.20000e-01,
1085,4.00000e-01,
1086,4.40000e-01,
1087,-1.60000e-01,
1088,-8.00000e-02,
1089,-6.80000e-01,
1090,-6.40000e-01,
1091,-1.00000e+00,
1092,-9.60000e-01,
1093,-1.16000e+00,
1094,-1.16000e+00,
1095,-9.20000e-01,
1096,-9.20000e-01,
1097,-4.80000e-01,
1098,-5.20000e-01,
1099,4.00000e-02,
1100,4.00000e-02,
1101,6.00000e-01,
1102,5.60000e-01,
1103,1.00000e+00,
1104,9.60000e-01,
1105,1.16000e+00,
1106,1.20000e+00,
1107,1.00000e+00,
1108,1.08000e+00,
1109,6.40000e-01,
1110,7.20000e-01,
1111,1.20000e-01,
1112,1.60000e-01,
1113,-4.40000e-01,
1114,-3.60000e-01,
1115,-8.40000e-01,
1116,-8.40000e-01,
1117,-1.12000e+00,
1118,-1.16000e+00,
1119,-1.04000e+00,
1120,-1.08000e+00,
1121,-6.80000e-01,
1122,-7.60000e-01,
1123,-2.00000e-01,
1124,-2.80000e-01,
1125,3.20000e-01,
1126,3.20000e-01,
1127,8.40000e-01,
1128,7.60000e-01,
1129,1.12000e+00,
1130,1.08000e+00,
1131,1.20000e+00,
1132,1.16000e+00,
1133,8.80000e-01,
1134,9.20000e-01,
1135,4.40000e-01,
1136,4.40000e-01,
1137,-1.60000e-01,
1138,-8.00000e-02,
