DataAnalysis/Johnson_noise/2017_johnson_noise/data_MUIC_nop_anan/NewFile68.csv

X,CH1,Start,Increment,
Sequence,Volt,1.80000e-03,1.00000e-06
0,4.00000e-02,
1,6.80000e-01,
2,6.00000e-01,
3,1.12000e+00,
4,1.04000e+00,
5,1.36000e+00,
6,1.32000e+00,
7,1.40000e+00,
8,1.36000e+00,
9,1.04000e+00,
10,1.12000e+00,
11,6.40000e-01,
12,7.20000e-01,
13,4.00000e-02,
14,1.20000e-01,
15,-5.20000e-01,
16,-4.40000e-01,
17,-9.60000e-01,
18,-9.60000e-01,
19,-1.28000e+00,
20,-1.24000e+00,
21,-1.36000e+00,
22,-1.32000e+00,
23,-1.08000e+00,
24,-1.12000e+00,
25,-6.40000e-01,
26,-6.80000e-01,
27,-8.00000e-02,
28,-1.20000e-01,
29,5.20000e-01,
30,4.40000e-01,
31,1.00000e+00,
32,9.20000e-01,
33,1.32000e+00,
34,1.24000e+00,
35,1.40000e+00,
36,1.40000e+00,
37,1.16000e+00,
38,1.20000e+00,
39,7.60000e-01,
40,8.40000e-01,
41,2.40000e-01,
42,2.80000e-01,
43,-3.60000e-01,
44,-2.80000e-01,
45,-8.80000e-01,
46,-8.40000e-01,
47,-1.20000e+00,
48,-1.16000e+00,
49,-1.36000e+00,
50,-1.36000e+00,
51,-1.16000e+00,
52,-1.20000e+00,
53,-7.60000e-01,
54,-8.00000e-01,
55,-2.40000e-01,
56,-3.20000e-01,
57,3.20000e-01,
58,2.80000e-01,
59,8.80000e-01,
60,8.00000e-01,
61,1.24000e+00,
62,1.20000e+00,
63,1.40000e+00,
64,1.40000e+00,
65,1.20000e+00,
66,1.28000e+00,
67,8.80000e-01,
68,9.60000e-01,
69,4.00000e-01,
70,4.40000e-01,
71,-2.00000e-01,
72,-1.60000e-01,
73,-7.20000e-01,
74,-6.80000e-01,
75,-1.16000e+00,
76,-1.08000e+00,
77,-1.36000e+00,
78,-1.36000e+00,
79,-1.20000e+00,
80,-1.28000e+00,
81,-9.20000e-01,
82,-9.60000e-01,
83,-4.00000e-01,
84,-4.80000e-01,
85,1.60000e-01,
86,1.20000e-01,
87,7.20000e-01,
88,6.80000e-01,
89,1.16000e+00,
90,1.08000e+00,
91,1.36000e+00,
92,1.28000e+00,
93,1.40000e+00,
94,1.32000e+00,
95,1.00000e+00,
96,1.04000e+00,
97,5.60000e-01,
98,6.00000e-01,
99,0.00000e+00,
100,0.00000e+00,
101,-6.00000e-01,
102,-5.60000e-01,
103,-1.04000e+00,
104,-1.00000e+00,
105,-1.32000e+00,
106,-1.24000e+00,
107,-1.36000e+00,
108,-1.32000e+00,
109,-1.04000e+00,
110,-1.04000e+00,
111,-6.00000e-01,
112,-6.00000e-01,
113,0.00000e+00,
114,-8.00000e-02,
115,6.00000e-01,
116,5.20000e-01,
117,1.04000e+00,
118,9.60000e-01,
119,1.32000e+00,
120,1.24000e+00,
121,1.40000e+00,
122,1.36000e+00,
123,1.08000e+00,
124,1.16000e+00,
125,6.80000e-01,
126,7.60000e-01,
127,1.60000e-01,
128,1.60000e-01,
129,-4.40000e-01,
130,-3.60000e-01,
131,-9.20000e-01,
132,-9.20000e-01,
133,-1.28000e+00,
134,-1.20000e+00,
135,-1.36000e+00,
136,-1.36000e+00,
137,-1.12000e+00,
138,-1.12000e+00,
139,-6.80000e-01,
140,-7.60000e-01,
141,-1.60000e-01,
142,-2.40000e-01,
143,4.40000e-01,
144,3.60000e-01,
145,9.60000e-01,
146,8.80000e-01,
147,1.28000e+00,
148,1.24000e+00,
149,1.40000e+00,
150,1.40000e+00,
151,1.20000e+00,
152,1.24000e+00,
153,8.40000e-01,
154,8.80000e-01,
155,3.20000e-01,
156,3.60000e-01,
157,-2.80000e-01,
158,-2.40000e-01,
159,-8.00000e-01,
160,-7.60000e-01,
161,-1.20000e+00,
162,-1.16000e+00,
163,-1.36000e+00,
164,-1.36000e+00,
165,-1.16000e+00,
166,-1.24000e+00,
167,-8.40000e-01,
168,-8.80000e-01,
169,-3.20000e-01,
170,-3.60000e-01,
171,2.40000e-01,
172,2.40000e-01,
173,8.00000e-01,
174,7.60000e-01,
175,1.20000e+00,
176,1.16000e+00,
177,1.40000e+00,
178,1.40000e+00,
179,1.24000e+00,
180,1.32000e+00,
181,9.60000e-01,
182,1.00000e+00,
183,4.80000e-01,
184,5.60000e-01,
185,-1.20000e-01,
186,-4.00000e-02,
187,-6.40000e-01,
188,-6.40000e-01,
189,-1.08000e+00,
190,-1.04000e+00,
191,-1.32000e+00,
192,-1.24000e+00,
193,-1.36000e+00,
194,-1.28000e+00,
195,-9.60000e-01,
196,-1.00000e+00,
197,-4.80000e-01,
198,-5.20000e-01,
199,8.00000e-02,
200,4.00000e-02,
201,6.80000e-01,
202,6.00000e-01,
203,1.12000e+00,
204,1.04000e+00,
205,1.36000e+00,
206,1.28000e+00,
207,1.40000e+00,
208,1.36000e+00,
209,1.04000e+00,
210,1.12000e+00,
211,6.00000e-01,
212,6.80000e-01,
213,4.00000e-02,
214,8.00000e-02,
215,-5.20000e-01,
216,-4.40000e-01,
217,-9.60000e-01,
218,-9.60000e-01,
219,-1.32000e+00,
220,-1.24000e+00,
221,-1.36000e+00,
222,-1.32000e+00,
223,-1.08000e+00,
224,-1.12000e+00,
225,-6.40000e-01,
226,-6.80000e-01,
227,-8.00000e-02,
228,-1.60000e-01,
229,4.80000e-01,
230,4.80000e-01,
231,1.00000e+00,
232,9.60000e-01,
233,1.32000e+00,
234,1.24000e+00,
235,1.40000e+00,
236,1.40000e+00,
237,1.12000e+00,
238,1.20000e+00,
239,7.60000e-01,
240,8.00000e-01,
241,2.40000e-01,
242,2.40000e-01,
243,-3.60000e-01,
244,-2.80000e-01,
245,-8.40000e-01,
246,-8.00000e-01,
247,-1.24000e+00,
248,-1.16000e+00,
249,-1.36000e+00,
250,-1.36000e+00,
251,-1.16000e+00,
252,-1.20000e+00,
253,-8.00000e-01,
254,-8.00000e-01,
255,-2.40000e-01,
256,-2.80000e-01,
257,3.60000e-01,
258,2.80000e-01,
259,8.80000e-01,
260,8.00000e-01,
261,1.24000e+00,
262,1.16000e+00,
263,1.40000e+00,
264,1.40000e+00,
265,1.20000e+00,
266,1.28000e+00,
267,8.80000e-01,
268,9.60000e-01,
269,4.00000e-01,
270,4.40000e-01,
271,-2.00000e-01,
272,-1.20000e-01,
273,-7.20000e-01,
274,-7.20000e-01,
275,-1.16000e+00,
276,-1.08000e+00,
277,-1.36000e+00,
278,-1.36000e+00,
279,-1.20000e+00,
280,-1.28000e+00,
281,-9.20000e-01,
282,-9.60000e-01,
283,-4.00000e-01,
284,-4.40000e-01,
285,1.60000e-01,
286,8.00000e-02,
287,7.20000e-01,
288,6.80000e-01,
289,1.16000e+00,
290,1.08000e+00,
291,1.36000e+00,
292,1.40000e+00,
293,1.24000e+00,
294,1.32000e+00,
295,9.60000e-01,
296,1.04000e+00,
297,5.20000e-01,
298,6.00000e-01,
299,-4.00000e-02,
300,0.00000e+00,
301,-6.00000e-01,
302,-5.60000e-01,
303,-1.04000e+00,
304,-1.00000e+00,
305,-1.32000e+00,
306,-1.24000e+00,
307,-1.36000e+00,
308,-1.32000e+00,
309,-1.04000e+00,
310,-1.04000e+00,
311,-5.60000e-01,
312,-6.00000e-01,
313,0.00000e+00,
314,-4.00000e-02,
315,5.60000e-01,
316,5.20000e-01,
317,1.04000e+00,
318,9.60000e-01,
319,1.32000e+00,
320,1.28000e+00,
321,1.40000e+00,
322,1.40000e+00,
323,1.08000e+00,
324,1.16000e+00,
325,6.80000e-01,
326,7.60000e-01,
327,1.60000e-01,
328,1.60000e-01,
329,-4.40000e-01,
330,-4.00000e-01,
331,-9.20000e-01,
332,-8.80000e-01,
333,-1.28000e+00,
334,-1.20000e+00,
335,-1.36000e+00,
336,-1.36000e+00,
337,-1.12000e+00,
338,-1.16000e+00,
339,-6.80000e-01,
340,-7.60000e-01,
341,-1.60000e-01,
342,-2.00000e-01,
343,4.40000e-01,
344,3.60000e-01,
345,9.20000e-01,
346,8.80000e-01,
347,1.28000e+00,
348,1.20000e+00,
349,1.40000e+00,
350,1.40000e+00,
351,1.16000e+00,
352,1.24000e+00,
353,8.00000e-01,
354,8.80000e-01,
355,2.80000e-01,
356,3.20000e-01,
357,-2.80000e-01,
358,-2.40000e-01,
359,-8.00000e-01,
360,-7.60000e-01,
361,-1.20000e+00,
362,-1.16000e+00,
363,-1.36000e+00,
364,-1.36000e+00,
365,-1.20000e+00,
366,-1.24000e+00,
367,-8.40000e-01,
368,-8.80000e-01,
369,-3.20000e-01,
370,-4.00000e-01,
371,2.40000e-01,
372,2.40000e-01,
373,8.00000e-01,
374,7.20000e-01,
375,1.20000e+00,
376,1.12000e+00,
377,1.40000e+00,
378,1.40000e+00,
379,1.24000e+00,
380,1.32000e+00,
381,9.60000e-01,
382,1.00000e+00,
383,4.80000e-01,
384,5.20000e-01,
385,-1.20000e-01,
386,-4.00000e-02,
387,-6.80000e-01,
388,-6.40000e-01,
389,-1.12000e+00,
390,-1.04000e+00,
391,-1.32000e+00,
392,-1.36000e+00,
393,-1.24000e+00,
394,-1.32000e+00,
395,-9.60000e-01,
396,-1.00000e+00,
397,-4.80000e-01,
398,-5.20000e-01,
399,8.00000e-02,
400,4.00000e-02,
401,6.40000e-01,
402,6.00000e-01,
403,1.12000e+00,
404,1.04000e+00,
405,1.36000e+00,
406,1.28000e+00,
407,1.40000e+00,
408,1.36000e+00,
409,1.04000e+00,
410,1.12000e+00,
411,6.00000e-01,
412,6.80000e-01,
413,4.00000e-02,
414,1.20000e-01,
415,-5.20000e-01,
416,-4.40000e-01,
417,-1.00000e+00,
418,-9.60000e-01,
419,-1.32000e+00,
420,-1.24000e+00,
421,-1.36000e+00,
422,-1.36000e+00,
423,-1.08000e+00,
424,-1.12000e+00,
425,-6.40000e-01,
426,-6.80000e-01,
427,-8.00000e-02,
428,-1.20000e-01,
429,5.20000e-01,
430,4.40000e-01,
431,1.00000e+00,
432,9.60000e-01,
433,1.28000e+00,
434,1.24000e+00,
435,1.40000e+00,
436,1.40000e+00,
437,1.12000e+00,
438,1.20000e+00,
439,7.60000e-01,
440,8.00000e-01,
441,2.40000e-01,
442,2.40000e-01,
443,-3.60000e-01,
444,-3.20000e-01,
445,-8.80000e-01,
446,-8.00000e-01,
447,-1.24000e+00,
448,-1.16000e+00,
449,-1.36000e+00,
450,-1.36000e+00,
451,-1.16000e+00,
452,-1.20000e+00,
453,-7.60000e-01,
454,-8.00000e-01,
455,-2.40000e-01,
456,-2.80000e-01,
457,3.60000e-01,
458,2.80000e-01,
459,8.80000e-01,
460,8.00000e-01,
461,1.24000e+00,
462,1.16000e+00,
463,1.40000e+00,
464,1.40000e+00,
465,1.20000e+00,
466,1.28000e+00,
467,8.80000e-01,
468,9.60000e-01,
469,4.00000e-01,
470,4.40000e-01,
471,-2.00000e-01,
472,-1.60000e-01,
473,-7.60000e-01,
474,-6.80000e-01,
475,-1.16000e+00,
476,-1.08000e+00,
477,-1.32000e+00,
478,-1.36000e+00,
479,-1.20000e+00,
480,-1.28000e+00,
481,-9.20000e-01,
482,-9.20000e-01,
483,-4.00000e-01,
484,-4.40000e-01,
485,1.60000e-01,
486,1.20000e-01,
487,7.20000e-01,
488,7.20000e-01,
489,1.16000e+00,
490,1.08000e+00,
491,1.36000e+00,
492,1.40000e+00,
493,1.28000e+00,
494,1.36000e+00,
495,1.00000e+00,
496,1.08000e+00,
497,5.60000e-01,
498,6.00000e-01,
499,-4.00000e-02,
500,0.00000e+00,
501,-6.00000e-01,
502,-5.20000e-01,
503,-1.08000e+00,
504,-1.00000e+00,
505,-1.32000e+00,
506,-1.24000e+00,
507,-1.36000e+00,
508,-1.32000e+00,
509,-1.00000e+00,
510,-1.08000e+00,
511,-5.60000e-01,
512,-6.00000e-01,
513,0.00000e+00,
514,-4.00000e-02,
515,6.00000e-01,
516,5.20000e-01,
517,1.04000e+00,
518,1.00000e+00,
519,1.32000e+00,
520,1.28000e+00,
521,1.40000e+00,
522,1.40000e+00,
523,1.12000e+00,
524,1.16000e+00,
525,6.80000e-01,
526,7.20000e-01,
527,1.60000e-01,
528,2.00000e-01,
529,-4.40000e-01,
530,-4.00000e-01,
531,-9.20000e-01,
532,-8.80000e-01,
533,-1.28000e+00,
534,-1.20000e+00,
535,-1.36000e+00,
536,-1.36000e+00,
537,-1.12000e+00,
538,-1.12000e+00,
539,-7.20000e-01,
540,-7.60000e-01,
541,-1.60000e-01,
542,-2.40000e-01,
543,4.00000e-01,
544,3.60000e-01,
545,9.20000e-01,
546,8.80000e-01,
547,1.28000e+00,
548,1.24000e+00,
549,1.40000e+00,
550,1.40000e+00,
551,1.16000e+00,
552,1.24000e+00,
553,8.40000e-01,
554,8.80000e-01,
555,3.20000e-01,
556,3.20000e-01,
557,-2.80000e-01,
558,-2.40000e-01,
559,-8.00000e-01,
560,-7.60000e-01,
561,-1.16000e+00,
562,-1.16000e+00,
563,-1.36000e+00,
564,-1.36000e+00,
565,-1.20000e+00,
566,-1.24000e+00,
567,-8.40000e-01,
568,-8.80000e-01,
569,-3.20000e-01,
570,-3.60000e-01,
571,2.40000e-01,
572,2.40000e-01,
573,8.00000e-01,
574,7.60000e-01,
575,1.20000e+00,
576,1.12000e+00,
577,1.40000e+00,
578,1.40000e+00,
579,1.24000e+00,
580,1.32000e+00,
581,9.60000e-01,
582,1.00000e+00,
583,4.80000e-01,
584,4.80000e-01,
585,-8.00000e-02,
586,-4.00000e-02,
587,-6.80000e-01,
588,-6.40000e-01,
589,-1.08000e+00,
590,-1.08000e+00,
591,-1.32000e+00,
592,-1.36000e+00,
593,-1.24000e+00,
594,-1.28000e+00,
595,-9.60000e-01,
596,-1.00000e+00,
597,-4.80000e-01,
598,-5.20000e-01,
599,8.00000e-02,
600,4.00000e-02,
601,6.80000e-01,
602,6.00000e-01,
603,1.12000e+00,
604,1.04000e+00,
605,1.36000e+00,
606,1.28000e+00,
607,1.40000e+00,
608,1.36000e+00,
609,1.04000e+00,
610,1.12000e+00,
611,6.00000e-01,
612,6.40000e-01,
613,4.00000e-02,
614,8.00000e-02,
615,-5.20000e-01,
616,-4.40000e-01,
617,-9.60000e-01,
618,-9.60000e-01,
619,-1.28000e+00,
620,-1.24000e+00,
621,-1.36000e+00,
622,-1.32000e+00,
623,-1.08000e+00,
624,-1.12000e+00,
625,-6.00000e-01,
626,-6.40000e-01,
627,-8.00000e-02,
628,-1.60000e-01,
629,5.20000e-01,
630,4.80000e-01,
631,1.00000e+00,
632,9.20000e-01,
633,1.32000e+00,
634,1.24000e+00,
635,1.40000e+00,
636,1.40000e+00,
637,1.12000e+00,
638,1.20000e+00,
639,7.60000e-01,
640,8.40000e-01,
641,2.40000e-01,
642,2.80000e-01,
643,-3.60000e-01,
644,-3.20000e-01,
645,-8.80000e-01,
646,-8.40000e-01,
647,-1.24000e+00,
648,-1.16000e+00,
649,-1.36000e+00,
650,-1.36000e+00,
651,-1.16000e+00,
652,-1.20000e+00,
653,-7.60000e-01,
654,-8.00000e-01,
655,-2.40000e-01,
656,-3.20000e-01,
657,3.60000e-01,
658,2.80000e-01,
659,8.80000e-01,
660,8.00000e-01,
661,1.24000e+00,
662,1.16000e+00,
663,1.40000e+00,
664,1.40000e+00,
665,1.20000e+00,
666,1.28000e+00,
667,8.80000e-01,
668,9.60000e-01,
669,4.00000e-01,
670,4.00000e-01,
671,-2.00000e-01,
672,-1.60000e-01,
673,-7.60000e-01,
674,-7.20000e-01,
675,-1.12000e+00,
676,-1.12000e+00,
677,-1.36000e+00,
678,-1.36000e+00,
679,-1.20000e+00,
680,-1.28000e+00,
681,-9.20000e-01,
682,-9.20000e-01,
683,-4.00000e-01,
684,-4.40000e-01,
685,1.60000e-01,
686,1.20000e-01,
687,7.20000e-01,
688,6.80000e-01,
689,1.16000e+00,
690,1.08000e+00,
691,1.36000e+00,
692,1.28000e+00,
693,1.40000e+00,
694,1.32000e+00,
695,1.00000e+00,
696,1.08000e+00,
697,5.20000e-01,
698,5.60000e-01,
699,-8.00000e-02,
700,0.00000e+00,
701,-6.00000e-01,
702,-5.20000e-01,
703,-1.08000e+00,
704,-1.00000e+00,
705,-1.32000e+00,
706,-1.36000e+00,
707,-1.24000e+00,
708,-1.32000e+00,
709,-1.04000e+00,
710,-1.00000e+00,
711,-5.60000e-01,
712,-6.00000e-01,
713,0.00000e+00,
714,-8.00000e-02,
715,6.00000e-01,
716,5.60000e-01,
717,1.04000e+00,
718,1.00000e+00,
719,1.32000e+00,
720,1.28000e+00,
721,1.40000e+00,
722,1.36000e+00,
723,1.12000e+00,
724,1.16000e+00,
725,6.80000e-01,
726,7.60000e-01,
727,1.20000e-01,
728,2.00000e-01,
729,-4.40000e-01,
730,-3.60000e-01,
731,-9.20000e-01,
732,-9.20000e-01,
733,-1.28000e+00,
734,-1.20000e+00,
735,-1.36000e+00,
736,-1.36000e+00,
737,-1.12000e+00,
738,-1.12000e+00,
739,-7.20000e-01,
740,-7.60000e-01,
741,-1.60000e-01,
742,-2.00000e-01,
743,4.00000e-01,
744,3.60000e-01,
745,9.60000e-01,
746,8.80000e-01,
747,1.28000e+00,
748,1.20000e+00,
749,1.40000e+00,
750,1.40000e+00,
751,1.20000e+00,
752,1.24000e+00,
753,8.40000e-01,
754,8.80000e-01,
755,3.20000e-01,
756,3.60000e-01,
757,-2.80000e-01,
758,-2.40000e-01,
759,-8.00000e-01,
760,-7.60000e-01,
761,-1.16000e+00,
762,-1.12000e+00,
763,-1.36000e+00,
764,-1.36000e+00,
765,-1.16000e+00,
766,-1.24000e+00,
767,-8.00000e-01,
768,-8.80000e-01,
769,-3.20000e-01,
770,-3.60000e-01,
771,2.40000e-01,
772,2.40000e-01,
773,8.00000e-01,
774,7.60000e-01,
775,1.20000e+00,
776,1.12000e+00,
777,1.40000e+00,
778,1.40000e+00,
779,1.24000e+00,
780,1.32000e+00,
781,9.60000e-01,
782,1.00000e+00,
783,4.80000e-01,
784,5.20000e-01,
785,-1.20000e-01,
786,-8.00000e-02,
787,-6.80000e-01,
788,-6.40000e-01,
789,-1.12000e+00,
790,-1.08000e+00,
791,-1.36000e+00,
792,-1.36000e+00,
793,-1.24000e+00,
794,-1.32000e+00,
795,-9.60000e-01,
796,-1.00000e+00,
797,-4.80000e-01,
798,-5.60000e-01,
799,8.00000e-02,
800,0.00000e+00,
801,6.80000e-01,
802,6.00000e-01,
803,1.12000e+00,
804,1.04000e+00,
805,1.36000e+00,
806,1.28000e+00,
807,1.40000e+00,
808,1.36000e+00,
809,1.04000e+00,
810,1.12000e+00,
811,6.00000e-01,
812,6.80000e-01,
813,8.00000e-02,
814,8.00000e-02,
815,-5.20000e-01,
816,-4.80000e-01,
817,-1.00000e+00,
818,-9.60000e-01,
819,-1.28000e+00,
820,-1.24000e+00,
821,-1.36000e+00,
822,-1.32000e+00,
823,-1.08000e+00,
824,-1.08000e+00,
825,-6.40000e-01,
826,-6.40000e-01,
827,-8.00000e-02,
828,-1.60000e-01,
829,5.20000e-01,
830,4.80000e-01,
831,1.00000e+00,
832,9.20000e-01,
833,1.32000e+00,
834,1.24000e+00,
835,1.40000e+00,
836,1.40000e+00,
837,1.16000e+00,
838,1.20000e+00,
839,7.60000e-01,
840,8.00000e-01,
841,2.40000e-01,
842,2.40000e-01,
843,-3.60000e-01,
844,-3.20000e-01,
845,-8.80000e-01,
846,-8.40000e-01,
847,-1.20000e+00,
848,-1.16000e+00,
849,-1.36000e+00,
850,-1.36000e+00,
851,-1.16000e+00,
852,-1.20000e+00,
853,-7.60000e-01,
854,-8.00000e-01,
855,-2.40000e-01,
856,-3.20000e-01,
857,3.20000e-01,
858,2.80000e-01,
859,8.80000e-01,
860,8.00000e-01,
861,1.24000e+00,
862,1.16000e+00,
863,1.40000e+00,
864,1.40000e+00,
865,1.24000e+00,
866,1.28000e+00,
867,8.80000e-01,
868,9.60000e-01,
869,4.00000e-01,
870,4.00000e-01,
871,-2.00000e-01,
872,-1.60000e-01,
873,-7.60000e-01,
874,-7.20000e-01,
875,-1.16000e+00,
876,-1.08000e+00,
877,-1.36000e+00,
878,-1.36000e+00,
879,-1.20000e+00,
880,-1.28000e+00,
881,-9.20000e-01,
882,-9.60000e-01,
883,-4.00000e-01,
884,-4.40000e-01,
885,1.60000e-01,
886,1.20000e-01,
887,6.80000e-01,
888,6.80000e-01,
889,1.16000e+00,
890,1.08000e+00,
891,1.36000e+00,
892,1.28000e+00,
893,1.40000e+00,
894,1.32000e+00,
895,1.00000e+00,
896,1.08000e+00,
897,5.20000e-01,
898,5.60000e-01,
899,-4.00000e-02,
900,0.00000e+00,
901,-6.00000e-01,
902,-5.60000e-01,
903,-1.04000e+00,
904,-1.00000e+00,
905,-1.32000e+00,
906,-1.28000e+00,
907,-1.36000e+00,
908,-1.32000e+00,
909,-1.04000e+00,
910,-1.04000e+00,
911,-5.60000e-01,
912,-6.00000e-01,
913,0.00000e+00,
914,-8.00000e-02,
915,6.00000e-01,
916,5.20000e-01,
917,1.00000e+00,
918,1.00000e+00,
919,1.32000e+00,
920,1.28000e+00,
921,1.40000e+00,
922,1.36000e+00,
923,1.12000e+00,
924,1.16000e+00,
925,6.80000e-01,
926,7.60000e-01,
927,1.60000e-01,
928,2.00000e-01,
929,-4.40000e-01,
930,-4.00000e-01,
931,-9.20000e-01,
932,-8.80000e-01,
933,-1.28000e+00,
934,-1.20000e+00,
935,-1.36000e+00,
936,-1.36000e+00,
937,-1.12000e+00,
938,-1.16000e+00,
939,-6.80000e-01,
940,-7.60000e-01,
941,-1.60000e-01,
942,-2.00000e-01,
943,4.40000e-01,
944,3.60000e-01,
945,9.60000e-01,
946,8.80000e-01,
947,1.28000e+00,
948,1.20000e+00,
949,1.40000e+00,
950,1.40000e+00,
951,1.20000e+00,
952,1.24000e+00,
953,8.40000e-01,
954,9.20000e-01,
955,3.20000e-01,
956,3.60000e-01,
957,-2.80000e-01,
958,-2.00000e-01,
959,-8.00000e-01,
960,-7.20000e-01,
961,-1.20000e+00,
962,-1.12000e+00,
963,-1.36000e+00,
964,-1.36000e+00,
965,-1.16000e+00,
966,-1.24000e+00,
967,-8.40000e-01,
968,-8.80000e-01,
969,-3.20000e-01,
970,-3.60000e-01,
971,2.40000e-01,
972,2.40000e-01,
973,8.00000e-01,
974,7.60000e-01,
975,1.20000e+00,
976,1.16000e+00,
977,1.40000e+00,
978,1.40000e+00,
979,1.24000e+00,
980,1.32000e+00,
981,9.60000e-01,
982,1.00000e+00,
983,4.80000e-01,
984,5.20000e-01,
985,-8.00000e-02,
986,-4.00000e-02,
987,-6.80000e-01,
988,-6.00000e-01,
989,-1.08000e+00,
990,-1.04000e+00,
991,-1.32000e+00,
992,-1.36000e+00,
993,-1.24000e+00,
994,-1.32000e+00,
995,-9.60000e-01,
996,-1.00000e+00,
997,-4.80000e-01,
998,-5.60000e-01,
999,8.00000e-02,
1000,0.00000e+00,
1001,6.40000e-01,
1002,6.00000e-01,
1003,1.12000e+00,
1004,1.08000e+00,
1005,1.36000e+00,
1006,1.28000e+00,
1007,1.40000e+00,
1008,1.36000e+00,
1009,1.04000e+00,
1010,1.12000e+00,
1011,6.00000e-01,
1012,6.80000e-01,
1013,8.00000e-02,
1014,8.00000e-02,
1015,-5.20000e-01,
1016,-4.40000e-01,
1017,-9.60000e-01,
1018,-9.60000e-01,
1019,-1.28000e+00,
1020,-1.24000e+00,
1021,-1.36000e+00,
1022,-1.32000e+00,
1023,-1.08000e+00,
1024,-1.12000e+00,
1025,-6.40000e-01,
1026,-6.80000e-01,
1027,-8.00000e-02,
1028,-1.20000e-01,
1029,5.20000e-01,
1030,4.80000e-01,
1031,1.00000e+00,
1032,9.60000e-01,
1033,1.32000e+00,
1034,1.28000e+00,
1035,1.40000e+00,
1036,1.40000e+00,
1037,1.16000e+00,
1038,1.20000e+00,
1039,7.60000e-01,
1040,8.40000e-01,
1041,2.40000e-01,
1042,2.80000e-01,
1043,-3.60000e-01,
1044,-2.80000e-01,
1045,-8.80000e-01,
1046,-8.40000e-01,
1047,-1.24000e+00,
1048,-1.16000e+00,
1049,-1.36000e+00,
1050,-1.36000e+00,
1051,-1.16000e+00,
1052,-1.20000e+00,
1053,-7.60000e-01,
1054,-8.00000e-01,
1055,-2.40000e-01,
1056,-3.20000e-01,
1057,3.20000e-01,
1058,2.80000e-01,
1059,8.80000e-01,
1060,8.00000e-01,
1061,1.24000e+00,
1062,1.16000e+00,
1063,1.40000e+00,
1064,1.40000e+00,
1065,1.24000e+00,
1066,1.28000e+00,
1067,8.80000e-01,
1068,9.60000e-01,
1069,3.60000e-01,
1070,4.00000e-01,
1071,-2.00000e-01,
1072,-1.60000e-01,
1073,-7.60000e-01,
1074,-7.20000e-01,
1075,-1.16000e+00,
1076,-1.12000e+00,
1077,-1.36000e+00,
1078,-1.36000e+00,
1079,-1.20000e+00,
1080,-1.28000e+00,
1081,-9.20000e-01,
1082,-9.20000e-01,
1083,-4.40000e-01,
1084,-4.80000e-01,
1085,1.60000e-01,
1086,1.20000e-01,
1087,7.20000e-01,
1088,6.80000e-01,
1089,1.16000e+00,
1090,1.08000e+00,
1091,1.36000e+00,
1092,1.28000e+00,
1093,1.40000e+00,
1094,1.32000e+00,
1095,1.00000e+00,
1096,1.08000e+00,
1097,5.60000e-01,
1098,5.60000e-01,
1099,-4.00000e-02,
1100,0.00000e+00,
1101,-6.00000e-01,
1102,-5.20000e-01,
1103,-1.08000e+00,
1104,-1.00000e+00,
1105,-1.32000e+00,
1106,-1.24000e+00,
1107,-1.36000e+00,
1108,-1.32000e+00,
1109,-1.00000e+00,
1110,-1.04000e+00,
1111,-5.60000e-01,
1112,-6.00000e-01,
1113,0.00000e+00,
1114,-8.00000e-02,
1115,5.60000e-01,
1116,5.20000e-01,
1117,1.04000e+00,
1118,9.60000e-01,
1119,1.32000e+00,
1120,1.28000e+00,
1121,1.40000e+00,
1122,1.36000e+00,
1123,1.08000e+00,
1124,1.16000e+00,
1125,6.80000e-01,
1126,7.60000e-01,
1127,1.20000e-01,
1128,1.60000e-01,
1129,-4.40000e-01,
1130,-4.00000e-01,
1131,-9.20000e-01,
1132,-8.80000e-01,
1133,-1.24000e+00,
1134,-1.20000e+00,
1135,-1.36000e+00,
1136,-1.36000e+00,
1137,-1.12000e+00,
