DataAnalysis/Johnson_noise/2017_johnson_noise/data_MUIC_nop_anan/NewFile22.csv

X,CH1,Start,Increment,
Sequence,Volt,-3.60000e-03,1.00000e-05
0,5.20000e-01,
1,1.60000e-01,
2,1.60000e-01,
3,-2.00000e-01,
4,-1.20000e-01,
5,-4.80000e-01,
6,-4.00000e-01,
7,-7.60000e-01,
8,-7.20000e-01,
9,-1.04000e+00,
10,-1.04000e+00,
11,-1.36000e+00,
12,-1.28000e+00,
13,-1.64000e+00,
14,-1.60000e+00,
15,-1.88000e+00,
16,-1.84000e+00,
17,-2.12000e+00,
18,-2.12000e+00,
19,-2.36000e+00,
20,-2.32000e+00,
21,-2.64000e+00,
22,-2.56000e+00,
23,-2.80000e+00,
24,-2.72000e+00,
25,-2.96000e+00,
26,-2.92000e+00,
27,-3.12000e+00,
28,-3.04000e+00,
29,-3.24000e+00,
30,-3.16000e+00,
31,-3.36000e+00,
32,-3.32000e+00,
33,-3.48000e+00,
34,-3.40000e+00,
35,-3.52000e+00,
36,-3.44000e+00,
37,-3.52000e+00,
38,-3.44000e+00,
39,-3.48000e+00,
40,-3.52000e+00,
41,-3.40000e+00,
42,-3.36000e+00,
43,-3.48000e+00,
44,-3.44000e+00,
45,-3.28000e+00,
46,-3.32000e+00,
47,-3.16000e+00,
48,-3.20000e+00,
49,-3.00000e+00,
50,-3.08000e+00,
51,-2.84000e+00,
52,-2.92000e+00,
53,-2.68000e+00,
54,-2.76000e+00,
55,-2.48000e+00,
56,-2.56000e+00,
57,-2.24000e+00,
58,-2.32000e+00,
59,-2.00000e+00,
60,-2.04000e+00,
61,-1.76000e+00,
62,-1.80000e+00,
63,-1.48000e+00,
64,-1.56000e+00,
65,-1.20000e+00,
66,-1.28000e+00,
67,-9.20000e-01,
68,-9.60000e-01,
69,-6.00000e-01,
70,-6.80000e-01,
71,-3.20000e-01,
72,-3.60000e-01,
73,0.00000e+00,
74,-8.00000e-02,
75,2.80000e-01,
76,2.40000e-01,
77,6.00000e-01,
78,5.60000e-01,
79,9.20000e-01,
80,8.40000e-01,
81,1.20000e+00,
82,1.12000e+00,
83,1.48000e+00,
84,1.44000e+00,
85,1.72000e+00,
86,1.72000e+00,
87,2.04000e+00,
88,1.96000e+00,
89,2.24000e+00,
90,2.20000e+00,
91,2.48000e+00,
92,2.40000e+00,
93,2.72000e+00,
94,2.64000e+00,
95,2.88000e+00,
96,2.80000e+00,
97,3.04000e+00,
98,2.96000e+00,
99,3.20000e+00,
100,3.12000e+00,
101,3.32000e+00,
102,3.24000e+00,
103,3.40000e+00,
104,3.32000e+00,
105,3.48000e+00,
106,3.36000e+00,
107,3.52000e+00,
108,3.40000e+00,
109,3.52000e+00,
110,3.52000e+00,
111,3.40000e+00,
112,3.48000e+00,
113,3.36000e+00,
114,3.48000e+00,
115,3.32000e+00,
116,3.40000e+00,
117,3.24000e+00,
118,3.32000e+00,
119,3.12000e+00,
120,3.20000e+00,
121,3.00000e+00,
122,3.08000e+00,
123,2.84000e+00,
124,2.92000e+00,
125,2.64000e+00,
126,2.72000e+00,
127,2.44000e+00,
128,2.48000e+00,
129,2.20000e+00,
130,2.28000e+00,
131,1.96000e+00,
132,2.04000e+00,
133,1.72000e+00,
134,1.76000e+00,
135,1.44000e+00,
136,1.48000e+00,
137,1.16000e+00,
138,1.20000e+00,
139,8.80000e-01,
140,9.60000e-01,
141,5.60000e-01,
142,6.40000e-01,
143,2.80000e-01,
144,3.20000e-01,
145,-4.00000e-02,
146,0.00000e+00,
147,-3.60000e-01,
148,-2.80000e-01,
149,-6.40000e-01,
150,-6.00000e-01,
151,-9.20000e-01,
152,-9.20000e-01,
153,-1.24000e+00,
154,-1.20000e+00,
155,-1.52000e+00,
156,-1.48000e+00,
157,-1.80000e+00,
158,-1.72000e+00,
159,-2.04000e+00,
160,-2.00000e+00,
161,-2.32000e+00,
162,-2.24000e+00,
163,-2.52000e+00,
164,-2.44000e+00,
165,-2.72000e+00,
166,-2.64000e+00,
167,-2.92000e+00,
168,-2.84000e+00,
169,-3.08000e+00,
170,-3.00000e+00,
171,-3.20000e+00,
172,-3.12000e+00,
173,-3.32000e+00,
174,-3.28000e+00,
175,-3.44000e+00,
176,-3.36000e+00,
177,-3.48000e+00,
178,-3.40000e+00,
179,-3.52000e+00,
180,-3.44000e+00,
181,-3.56000e+00,
182,-3.44000e+00,
183,-3.52000e+00,
184,-3.52000e+00,
185,-3.40000e+00,
186,-3.48000e+00,
187,-3.32000e+00,
188,-3.40000e+00,
189,-3.20000e+00,
190,-3.24000e+00,
191,-3.08000e+00,
192,-3.16000e+00,
193,-2.92000e+00,
194,-3.00000e+00,
195,-2.76000e+00,
196,-2.80000e+00,
197,-2.56000e+00,
198,-2.64000e+00,
199,-2.36000e+00,
200,-2.44000e+00,
201,-2.12000e+00,
202,-2.16000e+00,
203,-1.84000e+00,
204,-1.92000e+00,
205,-1.60000e+00,
206,-1.68000e+00,
207,-1.32000e+00,
208,-1.40000e+00,
209,-1.04000e+00,
210,-1.08000e+00,
211,-7.20000e-01,
212,-8.00000e-01,
213,-4.40000e-01,
214,-4.80000e-01,
215,-1.20000e-01,
216,-2.00000e-01,
217,1.60000e-01,
218,1.20000e-01,
219,4.80000e-01,
220,4.40000e-01,
221,8.00000e-01,
222,7.20000e-01,
223,1.08000e+00,
224,1.00000e+00,
225,1.36000e+00,
226,1.28000e+00,
227,1.64000e+00,
228,1.60000e+00,
229,1.92000e+00,
230,1.84000e+00,
231,2.16000e+00,
232,2.08000e+00,
233,2.36000e+00,
234,2.32000e+00,
235,2.60000e+00,
236,2.56000e+00,
237,2.84000e+00,
238,2.76000e+00,
239,3.00000e+00,
240,2.92000e+00,
241,3.12000e+00,
242,3.04000e+00,
243,3.28000e+00,
244,3.20000e+00,
245,3.36000e+00,
246,3.28000e+00,
247,3.44000e+00,
248,3.36000e+00,
249,3.48000e+00,
250,3.40000e+00,
251,3.52000e+00,
252,3.52000e+00,
253,3.44000e+00,
254,3.40000e+00,
255,3.52000e+00,
256,3.48000e+00,
257,3.36000e+00,
258,3.44000e+00,
259,3.28000e+00,
260,3.36000e+00,
261,3.16000e+00,
262,3.24000e+00,
263,3.04000e+00,
264,3.12000e+00,
265,2.88000e+00,
266,2.96000e+00,
267,2.72000e+00,
268,2.80000e+00,
269,2.48000e+00,
270,2.56000e+00,
271,2.28000e+00,
272,2.36000e+00,
273,2.08000e+00,
274,2.16000e+00,
275,1.84000e+00,
276,1.88000e+00,
277,1.56000e+00,
278,1.60000e+00,
279,1.28000e+00,
280,1.32000e+00,
281,9.60000e-01,
282,1.04000e+00,
283,6.80000e-01,
284,7.60000e-01,
285,4.00000e-01,
286,4.40000e-01,
287,1.20000e-01,
288,1.20000e-01,
289,-2.40000e-01,
290,-1.60000e-01,
291,-5.20000e-01,
292,-4.40000e-01,
293,-8.00000e-01,
294,-7.60000e-01,
295,-1.12000e+00,
296,-1.08000e+00,
297,-1.40000e+00,
298,-1.36000e+00,
299,-1.68000e+00,
300,-1.60000e+00,
301,-1.92000e+00,
302,-1.88000e+00,
303,-2.20000e+00,
304,-2.16000e+00,
305,-2.40000e+00,
306,-2.36000e+00,
307,-2.64000e+00,
308,-2.60000e+00,
309,-2.84000e+00,
310,-2.76000e+00,
311,-3.00000e+00,
312,-2.92000e+00,
313,-3.16000e+00,
314,-3.08000e+00,
315,-3.24000e+00,
316,-3.24000e+00,
317,-3.40000e+00,
318,-3.32000e+00,
319,-3.48000e+00,
320,-3.40000e+00,
321,-3.52000e+00,
322,-3.44000e+00,
323,-3.52000e+00,
324,-3.44000e+00,
325,-3.56000e+00,
326,-3.52000e+00,
327,-3.40000e+00,
328,-3.44000e+00,
329,-3.36000e+00,
330,-3.44000e+00,
331,-3.28000e+00,
332,-3.32000e+00,
333,-3.12000e+00,
334,-3.20000e+00,
335,-3.00000e+00,
336,-3.04000e+00,
337,-2.84000e+00,
338,-2.92000e+00,
339,-2.64000e+00,
340,-2.72000e+00,
341,-2.44000e+00,
342,-2.52000e+00,
343,-2.24000e+00,
344,-2.28000e+00,
345,-1.96000e+00,
346,-2.04000e+00,
347,-1.72000e+00,
348,-1.76000e+00,
349,-1.44000e+00,
350,-1.48000e+00,
351,-1.16000e+00,
352,-1.24000e+00,
353,-8.80000e-01,
354,-9.20000e-01,
355,-5.60000e-01,
356,-6.40000e-01,
357,-2.80000e-01,
358,-3.20000e-01,
359,4.00000e-02,
360,-4.00000e-02,
361,3.20000e-01,
362,3.20000e-01,
363,6.80000e-01,
364,6.00000e-01,
365,9.60000e-01,
366,8.80000e-01,
367,1.24000e+00,
368,1.16000e+00,
369,1.52000e+00,
370,1.48000e+00,
371,1.80000e+00,
372,1.72000e+00,
373,2.04000e+00,
374,1.96000e+00,
375,2.28000e+00,
376,2.20000e+00,
377,2.52000e+00,
378,2.44000e+00,
379,2.72000e+00,
380,2.64000e+00,
381,2.92000e+00,
382,2.84000e+00,
383,3.08000e+00,
384,3.00000e+00,
385,3.20000e+00,
386,3.12000e+00,
387,3.32000e+00,
388,3.24000e+00,
389,3.40000e+00,
390,3.32000e+00,
391,3.48000e+00,
392,3.36000e+00,
393,3.52000e+00,
394,3.52000e+00,
395,3.44000e+00,
396,3.52000e+00,
397,3.40000e+00,
398,3.52000e+00,
399,3.36000e+00,
400,3.48000e+00,
401,3.32000e+00,
402,3.40000e+00,
403,3.20000e+00,
404,3.28000e+00,
405,3.08000e+00,
406,3.20000e+00,
407,2.96000e+00,
408,3.04000e+00,
409,2.80000e+00,
410,2.88000e+00,
411,2.64000e+00,
412,2.68000e+00,
413,2.40000e+00,
414,2.44000e+00,
415,2.16000e+00,
416,2.24000e+00,
417,1.92000e+00,
418,2.00000e+00,
419,1.68000e+00,
420,1.72000e+00,
421,1.40000e+00,
422,1.44000e+00,
423,1.12000e+00,
424,1.16000e+00,
425,8.40000e-01,
426,8.80000e-01,
427,5.20000e-01,
428,6.00000e-01,
429,2.40000e-01,
430,2.80000e-01,
431,-8.00000e-02,
432,-4.00000e-02,
433,-4.00000e-01,
434,-3.20000e-01,
435,-6.80000e-01,
436,-6.80000e-01,
437,-9.60000e-01,
438,-9.60000e-01,
439,-1.24000e+00,
440,-1.24000e+00,
441,-1.56000e+00,
442,-1.52000e+00,
443,-1.84000e+00,
444,-1.80000e+00,
445,-2.08000e+00,
446,-2.00000e+00,
447,-2.36000e+00,
448,-2.28000e+00,
449,-2.56000e+00,
450,-2.48000e+00,
451,-2.76000e+00,
452,-2.72000e+00,
453,-2.92000e+00,
454,-2.84000e+00,
455,-3.08000e+00,
456,-3.00000e+00,
457,-3.24000e+00,
458,-3.16000e+00,
459,-3.32000e+00,
460,-3.28000e+00,
461,-3.40000e+00,
462,-3.36000e+00,
463,-3.48000e+00,
464,-3.44000e+00,
465,-3.56000e+00,
466,-3.56000e+00,
467,-3.44000e+00,
468,-3.44000e+00,
469,-3.56000e+00,
470,-3.52000e+00,
471,-3.36000e+00,
472,-3.44000e+00,
473,-3.28000e+00,
474,-3.32000e+00,
475,-3.16000e+00,
476,-3.24000e+00,
477,-3.04000e+00,
478,-3.12000e+00,
479,-2.92000e+00,
480,-2.96000e+00,
481,-2.72000e+00,
482,-2.80000e+00,
483,-2.56000e+00,
484,-2.60000e+00,
485,-2.32000e+00,
486,-2.40000e+00,
487,-2.12000e+00,
488,-2.12000e+00,
489,-1.84000e+00,
490,-1.92000e+00,
491,-1.56000e+00,
492,-1.64000e+00,
493,-1.28000e+00,
494,-1.36000e+00,
495,-1.04000e+00,
496,-1.04000e+00,
497,-7.20000e-01,
498,-7.60000e-01,
499,-4.00000e-01,
500,-4.80000e-01,
501,-8.00000e-02,
502,-1.60000e-01,
503,2.00000e-01,
504,1.60000e-01,
505,5.20000e-01,
506,4.80000e-01,
507,8.00000e-01,
508,7.60000e-01,
509,1.12000e+00,
510,1.04000e+00,
511,1.40000e+00,
512,1.36000e+00,
513,1.68000e+00,
514,1.60000e+00,
515,1.96000e+00,
516,1.88000e+00,
517,2.20000e+00,
518,2.12000e+00,
519,2.40000e+00,
520,2.32000e+00,
521,2.60000e+00,
522,2.56000e+00,
523,2.84000e+00,
524,2.76000e+00,
525,3.00000e+00,
526,2.92000e+00,
527,3.16000e+00,
528,3.08000e+00,
529,3.28000e+00,
530,3.20000e+00,
531,3.40000e+00,
532,3.28000e+00,
533,3.44000e+00,
534,3.36000e+00,
535,3.48000e+00,
536,3.40000e+00,
537,3.52000e+00,
538,3.52000e+00,
539,3.40000e+00,
540,3.52000e+00,
541,3.40000e+00,
542,3.48000e+00,
543,3.36000e+00,
544,3.44000e+00,
545,3.24000e+00,
546,3.32000e+00,
547,3.16000e+00,
548,3.24000e+00,
549,3.00000e+00,
550,3.08000e+00,
551,2.84000e+00,
552,2.92000e+00,
553,2.68000e+00,
554,2.76000e+00,
555,2.52000e+00,
556,2.56000e+00,
557,2.28000e+00,
558,2.32000e+00,
559,2.00000e+00,
560,2.08000e+00,
561,1.80000e+00,
562,1.84000e+00,
563,1.52000e+00,
564,1.56000e+00,
565,1.24000e+00,
566,1.28000e+00,
567,9.20000e-01,
568,1.00000e+00,
569,6.40000e-01,
570,7.20000e-01,
571,3.60000e-01,
572,4.00000e-01,
573,8.00000e-02,
574,8.00000e-02,
575,-2.80000e-01,
576,-2.00000e-01,
577,-5.60000e-01,
578,-4.80000e-01,
579,-8.40000e-01,
580,-8.00000e-01,
581,-1.16000e+00,
582,-1.12000e+00,
583,-1.44000e+00,
584,-1.40000e+00,
585,-1.72000e+00,
586,-1.64000e+00,
587,-1.96000e+00,
588,-1.88000e+00,
589,-2.20000e+00,
590,-2.16000e+00,
591,-2.44000e+00,
592,-2.40000e+00,
593,-2.68000e+00,
594,-2.60000e+00,
595,-2.84000e+00,
596,-2.80000e+00,
597,-3.04000e+00,
598,-2.96000e+00,
599,-3.16000e+00,
600,-3.12000e+00,
601,-3.28000e+00,
602,-3.20000e+00,
603,-3.40000e+00,
604,-3.32000e+00,
605,-3.48000e+00,
606,-3.40000e+00,
607,-3.52000e+00,
608,-3.44000e+00,
609,-3.52000e+00,
610,-3.44000e+00,
611,-3.48000e+00,
612,-3.52000e+00,
613,-3.40000e+00,
614,-3.44000e+00,
615,-3.36000e+00,
616,-3.44000e+00,
617,-3.24000e+00,
618,-3.28000e+00,
619,-3.08000e+00,
620,-3.16000e+00,
621,-2.96000e+00,
622,-3.04000e+00,
623,-2.80000e+00,
624,-2.88000e+00,
625,-2.60000e+00,
626,-2.68000e+00,
627,-2.40000e+00,
628,-2.48000e+00,
629,-2.20000e+00,
630,-2.24000e+00,
631,-1.92000e+00,
632,-2.00000e+00,
633,-1.68000e+00,
634,-1.72000e+00,
635,-1.36000e+00,
636,-1.44000e+00,
637,-1.12000e+00,
638,-1.20000e+00,
639,-8.40000e-01,
640,-8.80000e-01,
641,-5.20000e-01,
642,-6.00000e-01,
643,-2.40000e-01,
644,-3.20000e-01,
645,8.00000e-02,
646,0.00000e+00,
647,4.00000e-01,
648,3.20000e-01,
649,6.80000e-01,
650,6.00000e-01,
651,1.00000e+00,
652,9.20000e-01,
653,1.24000e+00,
654,1.16000e+00,
655,1.56000e+00,
656,1.52000e+00,
657,1.80000e+00,
658,1.72000e+00,
659,2.08000e+00,
660,2.04000e+00,
661,2.28000e+00,
662,2.20000e+00,
663,2.52000e+00,
664,2.48000e+00,
665,2.76000e+00,
666,2.68000e+00,
667,2.92000e+00,
668,2.84000e+00,
669,3.12000e+00,
670,3.04000e+00,
671,3.24000e+00,
672,3.16000e+00,
673,3.32000e+00,
674,3.24000e+00,
675,3.44000e+00,
676,3.36000e+00,
677,3.48000e+00,
678,3.36000e+00,
679,3.48000e+00,
680,3.40000e+00,
681,3.56000e+00,
682,3.52000e+00,
683,3.36000e+00,
684,3.36000e+00,
685,3.48000e+00,
686,3.48000e+00,
687,3.28000e+00,
688,3.36000e+00,
689,3.16000e+00,
690,3.28000e+00,
691,3.12000e+00,
692,3.16000e+00,
693,2.92000e+00,
694,2.92000e+00,
695,2.80000e+00,
696,2.88000e+00,
697,2.60000e+00,
698,2.64000e+00,
699,2.32000e+00,
700,2.40000e+00,
701,2.12000e+00,
702,2.20000e+00,
703,1.88000e+00,
704,1.96000e+00,
705,1.64000e+00,
706,1.68000e+00,
707,1.40000e+00,
708,1.44000e+00,
709,1.04000e+00,
710,1.12000e+00,
711,7.60000e-01,
712,8.00000e-01,
713,5.20000e-01,
714,5.60000e-01,
715,2.00000e-01,
716,2.40000e-01,
717,-1.20000e-01,
718,-8.00000e-02,
719,-4.40000e-01,
720,-3.60000e-01,
721,-7.60000e-01,
722,-7.20000e-01,
723,-1.00000e+00,
724,-9.60000e-01,
725,-1.32000e+00,
726,-1.24000e+00,
727,-1.64000e+00,
728,-1.56000e+00,
729,-1.84000e+00,
730,-1.80000e+00,
731,-2.08000e+00,
732,-2.04000e+00,
733,-2.36000e+00,
734,-2.32000e+00,
735,-2.56000e+00,
736,-2.52000e+00,
737,-2.76000e+00,
738,-2.72000e+00,
739,-2.96000e+00,
740,-2.88000e+00,
741,-3.08000e+00,
742,-3.04000e+00,
743,-3.24000e+00,
744,-3.16000e+00,
745,-3.36000e+00,
746,-3.32000e+00,
747,-3.44000e+00,
748,-3.36000e+00,
749,-3.44000e+00,
750,-3.40000e+00,
751,-3.56000e+00,
752,-3.56000e+00,
753,-3.44000e+00,
754,-3.56000e+00,
755,-3.40000e+00,
756,-3.48000e+00,
757,-3.36000e+00,
758,-3.48000e+00,
759,-3.32000e+00,
760,-3.40000e+00,
761,-3.16000e+00,
762,-3.24000e+00,
763,-3.04000e+00,
764,-3.08000e+00,
765,-2.88000e+00,
766,-2.96000e+00,
767,-2.72000e+00,
768,-2.76000e+00,
769,-2.48000e+00,
770,-2.56000e+00,
771,-2.32000e+00,
772,-2.36000e+00,
773,-2.08000e+00,
774,-2.08000e+00,
775,-1.76000e+00,
776,-1.84000e+00,
777,-1.52000e+00,
778,-1.60000e+00,
779,-1.24000e+00,
780,-1.32000e+00,
781,-9.60000e-01,
782,-1.00000e+00,
783,-6.80000e-01,
784,-7.20000e-01,
785,-3.60000e-01,
786,-4.40000e-01,
787,-4.00000e-02,
788,-1.20000e-01,
789,2.80000e-01,
790,2.40000e-01,
791,5.20000e-01,
792,4.80000e-01,
793,8.80000e-01,
794,8.00000e-01,
795,1.16000e+00,
796,1.12000e+00,
797,1.44000e+00,
798,1.40000e+00,
799,1.72000e+00,
800,1.64000e+00,
801,1.96000e+00,
802,1.92000e+00,
803,2.24000e+00,
804,2.16000e+00,
805,2.44000e+00,
806,2.40000e+00,
807,2.64000e+00,
808,2.60000e+00,
809,2.88000e+00,
810,2.80000e+00,
811,3.04000e+00,
812,2.96000e+00,
813,3.16000e+00,
814,3.08000e+00,
815,3.28000e+00,
816,3.20000e+00,
817,3.40000e+00,
818,3.32000e+00,
819,3.44000e+00,
820,3.36000e+00,
821,3.48000e+00,
822,3.40000e+00,
823,3.56000e+00,
824,3.56000e+00,
825,3.44000e+00,
826,3.52000e+00,
827,3.40000e+00,
828,3.48000e+00,
829,3.32000e+00,
830,3.40000e+00,
831,3.24000e+00,
832,3.32000e+00,
833,3.12000e+00,
834,3.20000e+00,
835,3.00000e+00,
836,3.08000e+00,
837,2.84000e+00,
838,2.92000e+00,
839,2.68000e+00,
840,2.72000e+00,
841,2.44000e+00,
842,2.52000e+00,
843,2.24000e+00,
844,2.32000e+00,
845,2.00000e+00,
846,2.08000e+00,
847,1.72000e+00,
848,1.80000e+00,
849,1.52000e+00,
850,1.52000e+00,
851,1.20000e+00,
852,1.28000e+00,
853,9.20000e-01,
854,9.60000e-01,
855,6.00000e-01,
856,6.80000e-01,
857,3.20000e-01,
858,3.60000e-01,
859,4.00000e-02,
860,8.00000e-02,
861,-2.80000e-01,
862,-2.40000e-01,
863,-6.00000e-01,
864,-5.60000e-01,
865,-8.80000e-01,
866,-8.40000e-01,
867,-1.20000e+00,
868,-1.12000e+00,
869,-1.48000e+00,
870,-1.40000e+00,
871,-1.76000e+00,
872,-1.68000e+00,
873,-2.00000e+00,
874,-1.96000e+00,
875,-2.28000e+00,
876,-2.20000e+00,
877,-2.52000e+00,
878,-2.44000e+00,
879,-2.68000e+00,
880,-2.60000e+00,
881,-2.88000e+00,
882,-2.80000e+00,
883,-3.04000e+00,
884,-2.96000e+00,
885,-3.20000e+00,
886,-3.12000e+00,
887,-3.28000e+00,
888,-3.24000e+00,
889,-3.36000e+00,
890,-3.32000e+00,
891,-3.44000e+00,
892,-3.40000e+00,
893,-3.52000e+00,
894,-3.52000e+00,
895,-3.40000e+00,
896,-3.36000e+00,
897,-3.60000e+00,
898,-3.56000e+00,
899,-3.36000e+00,
900,-3.44000e+00,
901,-3.32000e+00,
902,-3.36000e+00,
903,-3.20000e+00,
904,-3.28000e+00,
905,-3.12000e+00,
906,-3.16000e+00,
907,-2.96000e+00,
908,-3.00000e+00,
909,-2.76000e+00,
910,-2.84000e+00,
911,-2.60000e+00,
912,-2.64000e+00,
913,-2.40000e+00,
914,-2.44000e+00,
915,-2.16000e+00,
916,-2.20000e+00,
917,-1.88000e+00,
918,-1.96000e+00,
919,-1.64000e+00,
920,-1.72000e+00,
921,-1.36000e+00,
922,-1.40000e+00,
923,-1.08000e+00,
924,-1.12000e+00,
925,-7.60000e-01,
926,-8.40000e-01,
927,-4.80000e-01,
928,-5.20000e-01,
929,-1.60000e-01,
930,-2.40000e-01,
931,1.20000e-01,
932,4.00000e-02,
933,4.40000e-01,
934,3.60000e-01,
935,7.60000e-01,
936,6.80000e-01,
937,1.04000e+00,
938,9.60000e-01,
939,1.32000e+00,
940,1.28000e+00,
941,1.64000e+00,
942,1.56000e+00,
943,1.88000e+00,
944,1.80000e+00,
945,2.12000e+00,
946,2.04000e+00,
947,2.36000e+00,
948,2.28000e+00,
949,2.56000e+00,
950,2.48000e+00,
951,2.80000e+00,
952,2.72000e+00,
953,2.96000e+00,
954,2.88000e+00,
955,3.12000e+00,
956,3.04000e+00,
957,3.24000e+00,
958,3.16000e+00,
959,3.36000e+00,
960,3.28000e+00,
961,3.44000e+00,
962,3.36000e+00,
963,3.48000e+00,
964,3.40000e+00,
965,3.52000e+00,
966,3.52000e+00,
967,3.40000e+00,
968,3.52000e+00,
969,3.40000e+00,
970,3.52000e+00,
971,3.36000e+00,
972,3.44000e+00,
973,3.28000e+00,
974,3.36000e+00,
975,3.20000e+00,
976,3.28000e+00,
977,3.08000e+00,
978,3.16000e+00,
979,2.92000e+00,
980,3.00000e+00,
981,2.76000e+00,
982,2.80000e+00,
983,2.56000e+00,
984,2.60000e+00,
985,2.32000e+00,
986,2.40000e+00,
987,2.08000e+00,
988,2.16000e+00,
989,1.84000e+00,
990,1.92000e+00,
991,1.60000e+00,
992,1.64000e+00,
993,1.32000e+00,
994,1.36000e+00,
995,1.00000e+00,
996,1.08000e+00,
997,7.20000e-01,
998,8.00000e-01,
999,4.40000e-01,
1000,5.20000e-01,
1001,1.20000e-01,
1002,1.60000e-01,
1003,-1.60000e-01,
1004,-1.20000e-01,
1005,-4.80000e-01,
1006,-4.00000e-01,
1007,-7.60000e-01,
1008,-7.20000e-01,
1009,-1.08000e+00,
1010,-1.04000e+00,
1011,-1.36000e+00,
1012,-1.32000e+00,
1013,-1.64000e+00,
1014,-1.56000e+00,
1015,-1.88000e+00,
1016,-1.84000e+00,
1017,-2.16000e+00,
1018,-2.12000e+00,
1019,-2.40000e+00,
1020,-2.32000e+00,
1021,-2.64000e+00,
1022,-2.56000e+00,
1023,-2.80000e+00,
1024,-2.72000e+00,
1025,-2.96000e+00,
1026,-2.92000e+00,
1027,-3.12000e+00,
1028,-3.04000e+00,
1029,-3.24000e+00,
1030,-3.20000e+00,
1031,-3.40000e+00,
1032,-3.32000e+00,
1033,-3.44000e+00,
1034,-3.36000e+00,
1035,-3.52000e+00,
1036,-3.44000e+00,
1037,-3.52000e+00,
1038,-3.44000e+00,
1039,-3.56000e+00,
1040,-3.52000e+00,
1041,-3.40000e+00,
1042,-3.48000e+00,
1043,-3.36000e+00,
1044,-3.40000e+00,
1045,-3.24000e+00,
1046,-3.32000e+00,
1047,-3.12000e+00,
1048,-3.20000e+00,
1049,-3.00000e+00,
1050,-3.08000e+00,
1051,-2.84000e+00,
1052,-2.92000e+00,
1053,-2.68000e+00,
1054,-2.76000e+00,
1055,-2.48000e+00,
1056,-2.56000e+00,
1057,-2.24000e+00,
1058,-2.32000e+00,
1059,-2.00000e+00,
1060,-2.04000e+00,
1061,-1.76000e+00,
1062,-1.80000e+00,
1063,-1.48000e+00,
1064,-1.56000e+00,
1065,-1.20000e+00,
1066,-1.24000e+00,
1067,-9.20000e-01,
1068,-9.60000e-01,
1069,-6.00000e-01,
1070,-6.40000e-01,
1071,-3.20000e-01,
1072,-3.60000e-01,
1073,0.00000e+00,
1074,-8.00000e-02,
1075,3.20000e-01,
1076,2.80000e-01,
1077,6.00000e-01,
1078,5.60000e-01,
1079,9.20000e-01,
1080,8.40000e-01,
1081,1.20000e+00,
1082,1.12000e+00,
1083,1.52000e+00,
1084,1.44000e+00,
1085,1.76000e+00,
1086,1.72000e+00,
1087,2.00000e+00,
1088,1.92000e+00,
1089,2.24000e+00,
1090,2.16000e+00,
1091,2.48000e+00,
1092,2.40000e+00,
1093,2.72000e+00,
1094,2.64000e+00,
1095,2.88000e+00,
1096,2.80000e+00,
1097,3.08000e+00,
1098,2.96000e+00,
1099,3.20000e+00,
1100,3.12000e+00,
1101,3.32000e+00,
1102,3.24000e+00,
1103,3.40000e+00,
1104,3.32000e+00,
1105,3.48000e+00,
1106,3.36000e+00,
1107,3.48000e+00,
1108,3.52000e+00,
1109,3.40000e+00,
1110,3.52000e+00,
1111,3.44000e+00,
1112,3.52000e+00,
1113,3.36000e+00,
1114,3.48000e+00,
1115,3.32000e+00,
1116,3.40000e+00,
1117,3.24000e+00,
1118,3.32000e+00,
1119,3.12000e+00,
1120,3.20000e+00,
1121,2.96000e+00,
1122,3.04000e+00,
1123,2.84000e+00,
1124,2.88000e+00,
1125,2.64000e+00,
1126,2.68000e+00,
1127,2.44000e+00,
1128,2.48000e+00,
1129,2.20000e+00,
1130,2.24000e+00,
1131,1.96000e+00,
1132,2.04000e+00,
1133,1.72000e+00,
1134,1.76000e+00,
1135,1.44000e+00,
1136,1.48000e+00,
