DataAnalysis/Johnson_noise/2017_johnson_noise/data_MUIC_nop_anan/NewFile33.csv

X,CH1,Start,Increment,
Sequence,Volt,-3.60000e-03,1.00000e-05
0,-2.12000e+00,
1,-2.64000e+00,
2,-2.60000e+00,
3,-3.12000e+00,
4,-3.08000e+00,
5,-3.48000e+00,
6,-3.40000e+00,
7,-3.68000e+00,
8,-3.56000e+00,
9,-3.76000e+00,
10,-3.76000e+00,
11,-3.60000e+00,
12,-3.68000e+00,
13,-3.44000e+00,
14,-3.48000e+00,
15,-3.08000e+00,
16,-3.16000e+00,
17,-2.68000e+00,
18,-2.72000e+00,
19,-2.16000e+00,
20,-2.20000e+00,
21,-1.56000e+00,
22,-1.60000e+00,
23,-9.20000e-01,
24,-9.20000e-01,
25,-2.00000e-01,
26,-2.40000e-01,
27,5.20000e-01,
28,4.40000e-01,
29,1.20000e+00,
30,1.16000e+00,
31,1.84000e+00,
32,1.80000e+00,
33,2.40000e+00,
34,2.32000e+00,
35,2.88000e+00,
36,2.84000e+00,
37,3.32000e+00,
38,3.24000e+00,
39,3.60000e+00,
40,3.48000e+00,
41,3.76000e+00,
42,3.68000e+00,
43,3.84000e+00,
44,3.80000e+00,
45,3.60000e+00,
46,3.68000e+00,
47,3.40000e+00,
48,3.44000e+00,
49,3.04000e+00,
50,3.12000e+00,
51,2.60000e+00,
52,2.60000e+00,
53,2.00000e+00,
54,2.08000e+00,
55,1.40000e+00,
56,1.44000e+00,
57,7.20000e-01,
58,8.00000e-01,
59,8.00000e-02,
60,8.00000e-02,
61,-6.40000e-01,
62,-6.00000e-01,
63,-1.36000e+00,
64,-1.28000e+00,
65,-1.96000e+00,
66,-1.92000e+00,
67,-2.52000e+00,
68,-2.44000e+00,
69,-2.96000e+00,
70,-2.92000e+00,
71,-3.36000e+00,
72,-3.32000e+00,
73,-3.60000e+00,
74,-3.56000e+00,
75,-3.72000e+00,
76,-3.64000e+00,
77,-3.76000e+00,
78,-3.72000e+00,
79,-3.52000e+00,
80,-3.60000e+00,
81,-3.24000e+00,
82,-3.28000e+00,
83,-2.80000e+00,
84,-2.88000e+00,
85,-2.36000e+00,
86,-2.40000e+00,
87,-1.76000e+00,
88,-1.80000e+00,
89,-1.12000e+00,
90,-1.16000e+00,
91,-4.40000e-01,
92,-4.80000e-01,
93,2.40000e-01,
94,2.40000e-01,
95,9.60000e-01,
96,9.20000e-01,
97,1.64000e+00,
98,1.60000e+00,
99,2.24000e+00,
100,2.16000e+00,
101,2.80000e+00,
102,2.72000e+00,
103,3.20000e+00,
104,3.12000e+00,
105,3.52000e+00,
106,3.44000e+00,
107,3.68000e+00,
108,3.64000e+00,
109,3.76000e+00,
110,3.76000e+00,
111,3.60000e+00,
112,3.72000e+00,
113,3.44000e+00,
114,3.52000e+00,
115,3.16000e+00,
116,3.24000e+00,
117,2.72000e+00,
118,2.80000e+00,
119,2.24000e+00,
120,2.28000e+00,
121,1.64000e+00,
122,1.68000e+00,
123,9.60000e-01,
124,1.04000e+00,
125,2.80000e-01,
126,3.20000e-01,
127,-4.40000e-01,
128,-3.60000e-01,
129,-1.08000e+00,
130,-1.08000e+00,
131,-1.76000e+00,
132,-1.68000e+00,
133,-2.36000e+00,
134,-2.28000e+00,
135,-2.84000e+00,
136,-2.76000e+00,
137,-3.24000e+00,
138,-3.16000e+00,
139,-3.56000e+00,
140,-3.48000e+00,
141,-3.72000e+00,
142,-3.64000e+00,
143,-3.76000e+00,
144,-3.76000e+00,
145,-3.56000e+00,
146,-3.64000e+00,
147,-3.36000e+00,
148,-3.36000e+00,
149,-2.96000e+00,
150,-3.04000e+00,
151,-2.52000e+00,
152,-2.60000e+00,
153,-1.96000e+00,
154,-2.00000e+00,
155,-1.36000e+00,
156,-1.40000e+00,
157,-6.40000e-01,
158,-7.20000e-01,
159,4.00000e-02,
160,-4.00000e-02,
161,7.60000e-01,
162,6.80000e-01,
163,1.40000e+00,
164,1.32000e+00,
165,2.04000e+00,
166,1.96000e+00,
167,2.60000e+00,
168,2.52000e+00,
169,3.08000e+00,
170,3.00000e+00,
171,3.40000e+00,
172,3.40000e+00,
173,3.64000e+00,
174,3.56000e+00,
175,3.76000e+00,
176,3.80000e+00,
177,3.68000e+00,
178,3.76000e+00,
179,3.52000e+00,
180,3.60000e+00,
181,3.24000e+00,
182,3.36000e+00,
183,2.88000e+00,
184,2.96000e+00,
185,2.36000e+00,
186,2.44000e+00,
187,1.80000e+00,
188,1.88000e+00,
189,1.16000e+00,
190,1.24000e+00,
191,5.20000e-01,
192,6.00000e-01,
193,-1.60000e-01,
194,-1.20000e-01,
195,-8.80000e-01,
196,-8.40000e-01,
197,-1.56000e+00,
198,-1.48000e+00,
199,-2.12000e+00,
200,-2.08000e+00,
201,-2.68000e+00,
202,-2.60000e+00,
203,-3.12000e+00,
204,-3.04000e+00,
205,-3.48000e+00,
206,-3.40000e+00,
207,-3.68000e+00,
208,-3.60000e+00,
209,-3.76000e+00,
210,-3.76000e+00,
211,-3.60000e+00,
212,-3.68000e+00,
213,-3.44000e+00,
214,-3.48000e+00,
215,-3.12000e+00,
216,-3.16000e+00,
217,-2.68000e+00,
218,-2.76000e+00,
219,-2.16000e+00,
220,-2.20000e+00,
221,-1.56000e+00,
222,-1.60000e+00,
223,-9.20000e-01,
224,-9.20000e-01,
225,-2.00000e-01,
226,-2.40000e-01,
227,5.20000e-01,
228,4.40000e-01,
229,1.20000e+00,
230,1.16000e+00,
231,1.84000e+00,
232,1.80000e+00,
233,2.40000e+00,
234,2.36000e+00,
235,2.92000e+00,
236,2.84000e+00,
237,3.32000e+00,
238,3.24000e+00,
239,3.60000e+00,
240,3.52000e+00,
241,3.76000e+00,
242,3.64000e+00,
243,3.80000e+00,
244,3.84000e+00,
245,3.60000e+00,
246,3.68000e+00,
247,3.36000e+00,
248,3.44000e+00,
249,3.04000e+00,
250,3.08000e+00,
251,2.56000e+00,
252,2.60000e+00,
253,2.00000e+00,
254,2.08000e+00,
255,1.40000e+00,
256,1.44000e+00,
257,7.20000e-01,
258,8.00000e-01,
259,4.00000e-02,
260,8.00000e-02,
261,-6.40000e-01,
262,-6.00000e-01,
263,-1.36000e+00,
264,-1.28000e+00,
265,-1.92000e+00,
266,-1.92000e+00,
267,-2.48000e+00,
268,-2.48000e+00,
269,-3.00000e+00,
270,-2.96000e+00,
271,-3.36000e+00,
272,-3.32000e+00,
273,-3.60000e+00,
274,-3.56000e+00,
275,-3.76000e+00,
276,-3.76000e+00,
277,-3.64000e+00,
278,-3.72000e+00,
279,-3.52000e+00,
280,-3.56000e+00,
281,-3.24000e+00,
282,-3.28000e+00,
283,-2.84000e+00,
284,-2.88000e+00,
285,-2.36000e+00,
286,-2.36000e+00,
287,-1.76000e+00,
288,-1.80000e+00,
289,-1.12000e+00,
290,-1.16000e+00,
291,-4.00000e-01,
292,-4.80000e-01,
293,2.80000e-01,
294,2.40000e-01,
295,9.60000e-01,
296,9.20000e-01,
297,1.64000e+00,
298,1.56000e+00,
299,2.24000e+00,
300,2.16000e+00,
301,2.76000e+00,
302,2.72000e+00,
303,3.20000e+00,
304,3.12000e+00,
305,3.52000e+00,
306,3.44000e+00,
307,3.72000e+00,
308,3.64000e+00,
309,3.76000e+00,
310,3.80000e+00,
311,3.68000e+00,
312,3.72000e+00,
313,3.44000e+00,
314,3.52000e+00,
315,3.16000e+00,
316,3.24000e+00,
317,2.72000e+00,
318,2.76000e+00,
319,2.20000e+00,
320,2.28000e+00,
321,1.64000e+00,
322,1.68000e+00,
323,9.60000e-01,
324,1.00000e+00,
325,2.80000e-01,
326,3.60000e-01,
327,-4.40000e-01,
328,-3.60000e-01,
329,-1.08000e+00,
330,-1.08000e+00,
331,-1.76000e+00,
332,-1.68000e+00,
333,-2.36000e+00,
334,-2.28000e+00,
335,-2.84000e+00,
336,-2.80000e+00,
337,-3.24000e+00,
338,-3.20000e+00,
339,-3.56000e+00,
340,-3.48000e+00,
341,-3.72000e+00,
342,-3.64000e+00,
343,-3.76000e+00,
344,-3.76000e+00,
345,-3.56000e+00,
346,-3.64000e+00,
347,-3.32000e+00,
348,-3.40000e+00,
349,-2.96000e+00,
350,-3.04000e+00,
351,-2.52000e+00,
352,-2.56000e+00,
353,-1.96000e+00,
354,-2.00000e+00,
355,-1.36000e+00,
356,-1.36000e+00,
357,-6.40000e-01,
358,-7.20000e-01,
359,4.00000e-02,
360,0.00000e+00,
361,7.60000e-01,
362,6.80000e-01,
363,1.40000e+00,
364,1.36000e+00,
365,2.04000e+00,
366,1.96000e+00,
367,2.60000e+00,
368,2.60000e+00,
369,3.08000e+00,
370,3.00000e+00,
371,3.44000e+00,
372,3.36000e+00,
373,3.68000e+00,
374,3.60000e+00,
375,3.76000e+00,
376,3.80000e+00,
377,3.64000e+00,
378,3.76000e+00,
379,3.52000e+00,
380,3.60000e+00,
381,3.28000e+00,
382,3.36000e+00,
383,2.88000e+00,
384,2.96000e+00,
385,2.40000e+00,
386,2.44000e+00,
387,1.84000e+00,
388,1.88000e+00,
389,1.16000e+00,
390,1.24000e+00,
391,5.20000e-01,
392,6.00000e-01,
393,-2.00000e-01,
394,-1.20000e-01,
395,-8.80000e-01,
396,-8.00000e-01,
397,-1.56000e+00,
398,-1.48000e+00,
399,-2.12000e+00,
400,-2.12000e+00,
401,-2.68000e+00,
402,-2.64000e+00,
403,-3.12000e+00,
404,-3.08000e+00,
405,-3.48000e+00,
406,-3.40000e+00,
407,-3.68000e+00,
408,-3.60000e+00,
409,-3.76000e+00,
410,-3.76000e+00,
411,-3.60000e+00,
412,-3.68000e+00,
413,-3.44000e+00,
414,-3.44000e+00,
415,-3.12000e+00,
416,-3.16000e+00,
417,-2.68000e+00,
418,-2.72000e+00,
419,-2.16000e+00,
420,-2.24000e+00,
421,-1.56000e+00,
422,-1.60000e+00,
423,-8.80000e-01,
424,-8.80000e-01,
425,-2.00000e-01,
426,-2.80000e-01,
427,4.80000e-01,
428,4.40000e-01,
429,1.20000e+00,
430,1.16000e+00,
431,1.84000e+00,
432,1.76000e+00,
433,2.40000e+00,
434,2.36000e+00,
435,2.88000e+00,
436,2.84000e+00,
437,3.32000e+00,
438,3.28000e+00,
439,3.60000e+00,
440,3.52000e+00,
441,3.76000e+00,
442,3.64000e+00,
443,3.80000e+00,
444,3.76000e+00,
445,3.60000e+00,
446,3.68000e+00,
447,3.36000e+00,
448,3.44000e+00,
449,3.00000e+00,
450,3.04000e+00,
451,2.56000e+00,
452,2.60000e+00,
453,2.00000e+00,
454,2.08000e+00,
455,1.40000e+00,
456,1.44000e+00,
457,7.20000e-01,
458,8.00000e-01,
459,4.00000e-02,
460,8.00000e-02,
461,-6.40000e-01,
462,-6.00000e-01,
463,-1.32000e+00,
464,-1.28000e+00,
465,-1.96000e+00,
466,-1.88000e+00,
467,-2.52000e+00,
468,-2.48000e+00,
469,-3.00000e+00,
470,-2.92000e+00,
471,-3.36000e+00,
472,-3.32000e+00,
473,-3.64000e+00,
474,-3.56000e+00,
475,-3.72000e+00,
476,-3.64000e+00,
477,-3.76000e+00,
478,-3.72000e+00,
479,-3.48000e+00,
480,-3.56000e+00,
481,-3.24000e+00,
482,-3.28000e+00,
483,-2.84000e+00,
484,-2.88000e+00,
485,-2.36000e+00,
486,-2.36000e+00,
487,-1.76000e+00,
488,-1.80000e+00,
489,-1.12000e+00,
490,-1.16000e+00,
491,-4.40000e-01,
492,-4.80000e-01,
493,2.80000e-01,
494,2.40000e-01,
495,9.60000e-01,
496,8.80000e-01,
497,1.64000e+00,
498,1.56000e+00,
499,2.24000e+00,
500,2.16000e+00,
501,2.76000e+00,
502,2.68000e+00,
503,3.20000e+00,
504,3.12000e+00,
505,3.52000e+00,
506,3.44000e+00,
507,3.72000e+00,
508,3.64000e+00,
509,3.80000e+00,
510,3.84000e+00,
511,3.64000e+00,
512,3.72000e+00,
513,3.44000e+00,
514,3.52000e+00,
515,3.16000e+00,
516,3.24000e+00,
517,2.72000e+00,
518,2.76000e+00,
519,2.20000e+00,
520,2.28000e+00,
521,1.64000e+00,
522,1.68000e+00,
523,9.60000e-01,
524,1.04000e+00,
525,2.80000e-01,
526,3.20000e-01,
527,-4.40000e-01,
528,-3.60000e-01,
529,-1.08000e+00,
530,-1.08000e+00,
531,-1.76000e+00,
532,-1.72000e+00,
533,-2.36000e+00,
534,-2.28000e+00,
535,-2.84000e+00,
536,-2.76000e+00,
537,-3.24000e+00,
538,-3.16000e+00,
539,-3.52000e+00,
540,-3.48000e+00,
541,-3.72000e+00,
542,-3.64000e+00,
543,-3.76000e+00,
544,-3.76000e+00,
545,-3.56000e+00,
546,-3.64000e+00,
547,-3.32000e+00,
548,-3.36000e+00,
549,-2.96000e+00,
550,-3.04000e+00,
551,-2.52000e+00,
552,-2.56000e+00,
553,-1.96000e+00,
554,-2.00000e+00,
555,-1.32000e+00,
556,-1.40000e+00,
557,-6.40000e-01,
558,-6.80000e-01,
559,4.00000e-02,
560,0.00000e+00,
561,7.60000e-01,
562,6.80000e-01,
563,1.40000e+00,
564,1.36000e+00,
565,2.00000e+00,
566,1.96000e+00,
567,2.60000e+00,
568,2.56000e+00,
569,3.08000e+00,
570,3.00000e+00,
571,3.40000e+00,
572,3.36000e+00,
573,3.68000e+00,
574,3.60000e+00,
575,3.76000e+00,
576,3.68000e+00,
577,3.80000e+00,
578,3.76000e+00,
579,3.52000e+00,
580,3.60000e+00,
581,3.24000e+00,
582,3.32000e+00,
583,2.88000e+00,
584,2.96000e+00,
585,2.40000e+00,
586,2.44000e+00,
587,1.80000e+00,
588,1.88000e+00,
589,1.16000e+00,
590,1.24000e+00,
591,5.20000e-01,
592,6.00000e-01,
593,-2.00000e-01,
594,-1.20000e-01,
595,-8.80000e-01,
596,-8.40000e-01,
597,-1.56000e+00,
598,-1.48000e+00,
599,-2.12000e+00,
600,-2.12000e+00,
601,-2.68000e+00,
602,-2.64000e+00,
603,-3.12000e+00,
604,-3.08000e+00,
605,-3.48000e+00,
606,-3.40000e+00,
607,-3.68000e+00,
608,-3.60000e+00,
609,-3.76000e+00,
610,-3.76000e+00,
611,-3.60000e+00,
612,-3.68000e+00,
613,-3.44000e+00,
614,-3.48000e+00,
615,-3.12000e+00,
616,-3.16000e+00,
617,-2.68000e+00,
618,-2.72000e+00,
619,-2.16000e+00,
620,-2.24000e+00,
621,-1.52000e+00,
622,-1.56000e+00,
623,-9.20000e-01,
624,-9.20000e-01,
625,-2.00000e-01,
626,-2.80000e-01,
627,4.80000e-01,
628,4.40000e-01,
629,1.20000e+00,
630,1.16000e+00,
631,1.88000e+00,
632,1.80000e+00,
633,2.40000e+00,
634,2.32000e+00,
635,2.88000e+00,
636,2.84000e+00,
637,3.32000e+00,
638,3.24000e+00,
639,3.60000e+00,
640,3.52000e+00,
641,3.72000e+00,
642,3.68000e+00,
643,3.80000e+00,
644,3.76000e+00,
645,3.60000e+00,
646,3.68000e+00,
647,3.36000e+00,
648,3.44000e+00,
649,3.04000e+00,
650,3.08000e+00,
651,2.56000e+00,
652,2.60000e+00,
653,2.00000e+00,
654,2.08000e+00,
655,1.40000e+00,
656,1.48000e+00,
657,7.60000e-01,
658,8.00000e-01,
659,4.00000e-02,
660,8.00000e-02,
661,-6.40000e-01,
662,-6.00000e-01,
663,-1.32000e+00,
664,-1.28000e+00,
665,-1.92000e+00,
666,-1.92000e+00,
667,-2.56000e+00,
668,-2.48000e+00,
669,-3.00000e+00,
670,-2.92000e+00,
671,-3.40000e+00,
672,-3.32000e+00,
673,-3.64000e+00,
674,-3.56000e+00,
675,-3.76000e+00,
676,-3.76000e+00,
677,-3.64000e+00,
678,-3.72000e+00,
679,-3.52000e+00,
680,-3.60000e+00,
681,-3.24000e+00,
682,-3.28000e+00,
683,-2.80000e+00,
684,-2.88000e+00,
685,-2.32000e+00,
686,-2.36000e+00,
687,-1.76000e+00,
688,-1.80000e+00,
689,-1.12000e+00,
690,-1.16000e+00,
691,-4.40000e-01,
692,-4.80000e-01,
693,2.40000e-01,
694,2.80000e-01,
695,9.60000e-01,
696,8.80000e-01,
697,1.64000e+00,
698,1.60000e+00,
699,2.24000e+00,
700,2.16000e+00,
701,2.76000e+00,
702,2.72000e+00,
703,3.20000e+00,
704,3.12000e+00,
705,3.52000e+00,
706,3.44000e+00,
707,3.68000e+00,
708,3.60000e+00,
709,3.80000e+00,
710,3.80000e+00,
711,3.64000e+00,
712,3.72000e+00,
713,3.44000e+00,
714,3.52000e+00,
715,3.16000e+00,
716,3.24000e+00,
717,2.76000e+00,
718,2.84000e+00,
719,2.24000e+00,
720,2.28000e+00,
721,1.64000e+00,
722,1.64000e+00,
723,9.60000e-01,
724,1.04000e+00,
725,2.80000e-01,
726,3.60000e-01,
727,-4.40000e-01,
728,-3.60000e-01,
729,-1.12000e+00,
730,-1.08000e+00,
731,-1.76000e+00,
732,-1.68000e+00,
733,-2.36000e+00,
734,-2.28000e+00,
735,-2.84000e+00,
736,-2.80000e+00,
737,-3.24000e+00,
738,-3.16000e+00,
739,-3.56000e+00,
740,-3.48000e+00,
741,-3.72000e+00,
742,-3.64000e+00,
743,-3.76000e+00,
744,-3.76000e+00,
745,-3.56000e+00,
746,-3.64000e+00,
747,-3.36000e+00,
748,-3.40000e+00,
749,-3.00000e+00,
750,-3.04000e+00,
751,-2.52000e+00,
752,-2.60000e+00,
753,-1.96000e+00,
754,-2.00000e+00,
755,-1.32000e+00,
756,-1.36000e+00,
757,-6.80000e-01,
758,-7.20000e-01,
759,4.00000e-02,
760,0.00000e+00,
761,7.60000e-01,
762,6.80000e-01,
763,1.40000e+00,
764,1.32000e+00,
765,2.00000e+00,
766,1.92000e+00,
767,2.56000e+00,
768,2.52000e+00,
769,3.08000e+00,
770,3.00000e+00,
771,3.44000e+00,
772,3.36000e+00,
773,3.64000e+00,
774,3.60000e+00,
775,3.76000e+00,
776,3.68000e+00,
777,3.80000e+00,
778,3.76000e+00,
779,3.52000e+00,
780,3.60000e+00,
781,3.24000e+00,
782,3.32000e+00,
783,2.88000e+00,
784,2.92000e+00,
785,2.40000e+00,
786,2.44000e+00,
787,1.84000e+00,
788,1.88000e+00,
789,1.16000e+00,
790,1.24000e+00,
791,4.80000e-01,
792,5.20000e-01,
793,-2.00000e-01,
794,-1.20000e-01,
795,-8.80000e-01,
796,-8.40000e-01,
797,-1.56000e+00,
798,-1.52000e+00,
799,-2.12000e+00,
800,-2.08000e+00,
801,-2.72000e+00,
802,-2.64000e+00,
803,-3.12000e+00,
804,-3.04000e+00,
805,-3.44000e+00,
806,-3.40000e+00,
807,-3.68000e+00,
808,-3.60000e+00,
809,-3.76000e+00,
810,-3.76000e+00,
811,-3.60000e+00,
812,-3.68000e+00,
813,-3.44000e+00,
814,-3.52000e+00,
815,-3.08000e+00,
816,-3.16000e+00,
817,-2.68000e+00,
818,-2.76000e+00,
819,-2.16000e+00,
820,-2.24000e+00,
821,-1.60000e+00,
822,-1.60000e+00,
823,-8.80000e-01,
824,-9.20000e-01,
825,-2.00000e-01,
826,-2.40000e-01,
827,5.20000e-01,
828,4.80000e-01,
829,1.20000e+00,
830,1.16000e+00,
831,1.80000e+00,
832,1.76000e+00,
833,2.40000e+00,
834,2.32000e+00,
835,2.92000e+00,
836,2.84000e+00,
837,3.32000e+00,
838,3.24000e+00,
839,3.56000e+00,
840,3.48000e+00,
841,3.76000e+00,
842,3.64000e+00,
843,3.80000e+00,
844,3.76000e+00,
845,3.60000e+00,
846,3.68000e+00,
847,3.36000e+00,
848,3.44000e+00,
849,3.00000e+00,
850,3.04000e+00,
851,2.60000e+00,
852,2.64000e+00,
853,2.00000e+00,
854,2.04000e+00,
855,1.40000e+00,
856,1.44000e+00,
857,7.20000e-01,
858,8.00000e-01,
859,8.00000e-02,
860,8.00000e-02,
861,-6.40000e-01,
862,-6.00000e-01,
863,-1.36000e+00,
864,-1.28000e+00,
865,-1.96000e+00,
866,-1.92000e+00,
867,-2.52000e+00,
868,-2.48000e+00,
869,-2.96000e+00,
870,-2.96000e+00,
871,-3.40000e+00,
872,-3.32000e+00,
873,-3.64000e+00,
874,-3.56000e+00,
875,-3.76000e+00,
876,-3.64000e+00,
877,-3.76000e+00,
878,-3.72000e+00,
879,-3.52000e+00,
880,-3.60000e+00,
881,-3.24000e+00,
882,-3.28000e+00,
883,-2.80000e+00,
884,-2.88000e+00,
885,-2.32000e+00,
886,-2.40000e+00,
887,-1.76000e+00,
888,-1.80000e+00,
889,-1.12000e+00,
890,-1.20000e+00,
891,-4.00000e-01,
892,-4.80000e-01,
893,2.40000e-01,
894,2.40000e-01,
895,9.60000e-01,
896,8.80000e-01,
897,1.64000e+00,
898,1.56000e+00,
899,2.20000e+00,
900,2.16000e+00,
901,2.72000e+00,
902,2.68000e+00,
903,3.24000e+00,
904,3.16000e+00,
905,3.52000e+00,
906,3.48000e+00,
907,3.68000e+00,
908,3.60000e+00,
909,3.80000e+00,
910,3.80000e+00,
911,3.64000e+00,
912,3.68000e+00,
913,3.44000e+00,
914,3.52000e+00,
915,3.16000e+00,
916,3.24000e+00,
917,2.72000e+00,
918,2.80000e+00,
919,2.20000e+00,
920,2.24000e+00,
921,1.64000e+00,
922,1.68000e+00,
923,9.60000e-01,
924,1.00000e+00,
925,2.80000e-01,
926,3.20000e-01,
927,-4.00000e-01,
928,-3.60000e-01,
929,-1.08000e+00,
930,-1.08000e+00,
931,-1.76000e+00,
932,-1.72000e+00,
933,-2.32000e+00,
934,-2.28000e+00,
935,-2.84000e+00,
936,-2.84000e+00,
937,-3.24000e+00,
938,-3.20000e+00,
939,-3.56000e+00,
940,-3.48000e+00,
941,-3.72000e+00,
942,-3.64000e+00,
943,-3.76000e+00,
944,-3.76000e+00,
945,-3.56000e+00,
946,-3.64000e+00,
947,-3.36000e+00,
948,-3.40000e+00,
949,-2.96000e+00,
950,-3.00000e+00,
951,-2.52000e+00,
952,-2.52000e+00,
953,-1.96000e+00,
954,-2.00000e+00,
955,-1.32000e+00,
956,-1.40000e+00,
957,-6.80000e-01,
958,-7.20000e-01,
959,4.00000e-02,
960,-4.00000e-02,
961,7.20000e-01,
962,6.80000e-01,
963,1.40000e+00,
964,1.32000e+00,
965,2.04000e+00,
966,2.04000e+00,
967,2.60000e+00,
968,2.56000e+00,
969,3.08000e+00,
970,3.00000e+00,
971,3.48000e+00,
972,3.36000e+00,
973,3.64000e+00,
974,3.60000e+00,
975,3.80000e+00,
976,3.68000e+00,
977,3.84000e+00,
978,3.76000e+00,
979,3.52000e+00,
980,3.60000e+00,
981,3.24000e+00,
982,3.32000e+00,
983,2.88000e+00,
984,2.96000e+00,
985,2.36000e+00,
986,2.44000e+00,
987,1.80000e+00,
988,1.88000e+00,
989,1.20000e+00,
990,1.24000e+00,
991,4.80000e-01,
992,5.60000e-01,
993,-2.00000e-01,
994,-1.60000e-01,
995,-8.80000e-01,
996,-8.80000e-01,
997,-1.56000e+00,
998,-1.48000e+00,
999,-2.16000e+00,
1000,-2.12000e+00,
1001,-2.72000e+00,
1002,-2.64000e+00,
1003,-3.12000e+00,
1004,-3.04000e+00,
1005,-3.48000e+00,
1006,-3.40000e+00,
1007,-3.68000e+00,
1008,-3.60000e+00,
1009,-3.76000e+00,
1010,-3.76000e+00,
1011,-3.64000e+00,
1012,-3.68000e+00,
1013,-3.44000e+00,
1014,-3.48000e+00,
1015,-3.12000e+00,
1016,-3.16000e+00,
1017,-2.68000e+00,
1018,-2.76000e+00,
1019,-2.16000e+00,
1020,-2.16000e+00,
1021,-1.56000e+00,
1022,-1.60000e+00,
1023,-9.20000e-01,
1024,-9.20000e-01,
1025,-2.00000e-01,
1026,-2.80000e-01,
1027,5.20000e-01,
1028,4.80000e-01,
1029,1.16000e+00,
1030,1.12000e+00,
1031,1.84000e+00,
1032,1.76000e+00,
1033,2.40000e+00,
1034,2.32000e+00,
1035,2.92000e+00,
1036,2.84000e+00,
1037,3.32000e+00,
1038,3.24000e+00,
1039,3.60000e+00,
1040,3.48000e+00,
1041,3.72000e+00,
1042,3.76000e+00,
1043,3.64000e+00,
1044,3.76000e+00,
1045,3.60000e+00,
1046,3.64000e+00,
1047,3.36000e+00,
1048,3.44000e+00,
1049,3.00000e+00,
1050,3.08000e+00,
1051,2.56000e+00,
1052,2.60000e+00,
1053,2.00000e+00,
1054,2.08000e+00,
1055,1.40000e+00,
1056,1.44000e+00,
1057,7.20000e-01,
1058,8.00000e-01,
1059,0.00000e+00,
1060,8.00000e-02,
1061,-6.80000e-01,
1062,-6.40000e-01,
1063,-1.36000e+00,
1064,-1.28000e+00,
1065,-1.96000e+00,
1066,-1.92000e+00,
1067,-2.52000e+00,
1068,-2.48000e+00,
1069,-3.00000e+00,
1070,-2.92000e+00,
1071,-3.36000e+00,
1072,-3.32000e+00,
1073,-3.60000e+00,
1074,-3.56000e+00,
1075,-3.76000e+00,
1076,-3.76000e+00,
1077,-3.64000e+00,
1078,-3.72000e+00,
1079,-3.52000e+00,
1080,-3.56000e+00,
1081,-3.24000e+00,
1082,-3.28000e+00,
1083,-2.84000e+00,
1084,-2.88000e+00,
1085,-2.36000e+00,
1086,-2.40000e+00,
1087,-1.76000e+00,
1088,-1.80000e+00,
1089,-1.16000e+00,
1090,-1.20000e+00,
1091,-4.40000e-01,
1092,-4.80000e-01,
1093,2.40000e-01,
1094,2.40000e-01,
1095,9.60000e-01,
1096,8.80000e-01,
1097,1.60000e+00,
1098,1.56000e+00,
1099,2.24000e+00,
1100,2.16000e+00,
1101,2.76000e+00,
1102,2.68000e+00,
1103,3.20000e+00,
1104,3.12000e+00,
1105,3.52000e+00,
1106,3.48000e+00,
1107,3.72000e+00,
1108,3.60000e+00,
1109,3.80000e+00,
1110,3.76000e+00,
1111,3.64000e+00,
1112,3.72000e+00,
1113,3.44000e+00,
1114,3.56000e+00,
1115,3.12000e+00,
1116,3.20000e+00,
1117,2.72000e+00,
1118,2.80000e+00,
1119,2.20000e+00,
1120,2.28000e+00,
1121,1.64000e+00,
1122,1.64000e+00,
1123,1.00000e+00,
1124,1.00000e+00,
1125,2.80000e-01,
1126,2.80000e-01,
1127,-4.40000e-01,
1128,-3.60000e-01,
1129,-1.12000e+00,
1130,-1.08000e+00,
1131,-1.76000e+00,
1132,-1.72000e+00,
1133,-2.32000e+00,
1134,-2.28000e+00,
1135,-2.84000e+00,
1136,-2.80000e+00,
1137,-3.24000e+00,
