DataAnalysis/Johnson_noise/2017_johnson_noise/data_MUIC_nop_anan/NewFile25.csv

X,CH1,Start,Increment,
Sequence,Volt,-3.60000e-03,1.00000e-05
0,-1.36000e+00,
1,-9.60000e-01,
2,-9.60000e-01,
3,-5.60000e-01,
4,-6.00000e-01,
5,-2.00000e-01,
6,-2.40000e-01,
7,2.00000e-01,
8,1.60000e-01,
9,6.00000e-01,
10,5.20000e-01,
11,9.60000e-01,
12,8.80000e-01,
13,1.32000e+00,
14,1.28000e+00,
15,1.68000e+00,
16,1.60000e+00,
17,2.00000e+00,
18,1.92000e+00,
19,2.32000e+00,
20,2.28000e+00,
21,2.56000e+00,
22,2.52000e+00,
23,2.84000e+00,
24,2.80000e+00,
25,3.08000e+00,
26,3.00000e+00,
27,3.28000e+00,
28,3.16000e+00,
29,3.40000e+00,
30,3.32000e+00,
31,3.52000e+00,
32,3.44000e+00,
33,3.60000e+00,
34,3.48000e+00,
35,3.64000e+00,
36,3.64000e+00,
37,3.52000e+00,
38,3.60000e+00,
39,3.48000e+00,
40,3.56000e+00,
41,3.40000e+00,
42,3.48000e+00,
43,3.24000e+00,
44,3.32000e+00,
45,3.12000e+00,
46,3.20000e+00,
47,2.92000e+00,
48,2.96000e+00,
49,2.68000e+00,
50,2.72000e+00,
51,2.40000e+00,
52,2.48000e+00,
53,2.12000e+00,
54,2.20000e+00,
55,1.80000e+00,
56,1.88000e+00,
57,1.48000e+00,
58,1.52000e+00,
59,1.12000e+00,
60,1.16000e+00,
61,7.60000e-01,
62,8.00000e-01,
63,3.60000e-01,
64,4.40000e-01,
65,0.00000e+00,
66,4.00000e-02,
67,-4.00000e-01,
68,-3.20000e-01,
69,-7.60000e-01,
70,-7.20000e-01,
71,-1.16000e+00,
72,-1.08000e+00,
73,-1.52000e+00,
74,-1.44000e+00,
75,-1.84000e+00,
76,-1.76000e+00,
77,-2.20000e+00,
78,-2.12000e+00,
79,-2.48000e+00,
80,-2.40000e+00,
81,-2.72000e+00,
82,-2.64000e+00,
83,-2.96000e+00,
84,-2.88000e+00,
85,-3.16000e+00,
86,-3.08000e+00,
87,-3.32000e+00,
88,-3.24000e+00,
89,-3.48000e+00,
90,-3.40000e+00,
91,-3.60000e+00,
92,-3.60000e+00,
93,-3.52000e+00,
94,-3.64000e+00,
95,-3.52000e+00,
96,-3.64000e+00,
97,-3.52000e+00,
98,-3.60000e+00,
99,-3.44000e+00,
100,-3.52000e+00,
101,-3.36000e+00,
102,-3.40000e+00,
103,-3.16000e+00,
104,-3.24000e+00,
105,-3.00000e+00,
106,-3.04000e+00,
107,-2.76000e+00,
108,-2.84000e+00,
109,-2.52000e+00,
110,-2.56000e+00,
111,-2.24000e+00,
112,-2.28000e+00,
113,-1.92000e+00,
114,-1.96000e+00,
115,-1.60000e+00,
116,-1.64000e+00,
117,-1.24000e+00,
118,-1.28000e+00,
119,-8.80000e-01,
120,-9.20000e-01,
121,-4.80000e-01,
122,-5.60000e-01,
123,-1.20000e-01,
124,-1.60000e-01,
125,2.80000e-01,
126,2.40000e-01,
127,6.40000e-01,
128,6.00000e-01,
129,1.00000e+00,
130,9.60000e-01,
131,1.36000e+00,
132,1.32000e+00,
133,1.76000e+00,
134,1.68000e+00,
135,2.04000e+00,
136,2.00000e+00,
137,2.36000e+00,
138,2.28000e+00,
139,2.64000e+00,
140,2.60000e+00,
141,2.92000e+00,
142,2.84000e+00,
143,3.12000e+00,
144,3.04000e+00,
145,3.28000e+00,
146,3.20000e+00,
147,3.44000e+00,
148,3.32000e+00,
149,3.52000e+00,
150,3.44000e+00,
151,3.60000e+00,
152,3.60000e+00,
153,3.52000e+00,
154,3.60000e+00,
155,3.52000e+00,
156,3.60000e+00,
157,3.44000e+00,
158,3.56000e+00,
159,3.36000e+00,
160,3.44000e+00,
161,3.24000e+00,
162,3.32000e+00,
163,3.08000e+00,
164,3.16000e+00,
165,2.88000e+00,
166,2.96000e+00,
167,2.64000e+00,
168,2.68000e+00,
169,2.36000e+00,
170,2.40000e+00,
171,2.08000e+00,
172,2.12000e+00,
173,1.76000e+00,
174,1.84000e+00,
175,1.40000e+00,
176,1.44000e+00,
177,1.08000e+00,
178,1.12000e+00,
179,6.80000e-01,
180,7.20000e-01,
181,3.20000e-01,
182,3.60000e-01,
183,-8.00000e-02,
184,-4.00000e-02,
185,-4.80000e-01,
186,-4.40000e-01,
187,-8.00000e-01,
188,-7.60000e-01,
189,-1.20000e+00,
190,-1.16000e+00,
191,-1.56000e+00,
192,-1.48000e+00,
193,-1.88000e+00,
194,-1.80000e+00,
195,-2.24000e+00,
196,-2.16000e+00,
197,-2.52000e+00,
198,-2.44000e+00,
199,-2.76000e+00,
200,-2.68000e+00,
201,-3.00000e+00,
202,-2.92000e+00,
203,-3.20000e+00,
204,-3.12000e+00,
205,-3.36000e+00,
206,-3.32000e+00,
207,-3.48000e+00,
208,-3.44000e+00,
209,-3.60000e+00,
210,-3.52000e+00,
211,-3.64000e+00,
212,-3.52000e+00,
213,-3.64000e+00,
214,-3.64000e+00,
215,-3.52000e+00,
216,-3.60000e+00,
217,-3.44000e+00,
218,-3.52000e+00,
219,-3.32000e+00,
220,-3.40000e+00,
221,-3.16000e+00,
222,-3.20000e+00,
223,-2.96000e+00,
224,-3.04000e+00,
225,-2.72000e+00,
226,-2.80000e+00,
227,-2.48000e+00,
228,-2.56000e+00,
229,-2.20000e+00,
230,-2.20000e+00,
231,-1.84000e+00,
232,-1.92000e+00,
233,-1.52000e+00,
234,-1.60000e+00,
235,-1.16000e+00,
236,-1.20000e+00,
237,-8.00000e-01,
238,-8.80000e-01,
239,-4.00000e-01,
240,-4.80000e-01,
241,-4.00000e-02,
242,-1.20000e-01,
243,3.20000e-01,
244,2.80000e-01,
245,7.20000e-01,
246,6.80000e-01,
247,1.08000e+00,
248,1.04000e+00,
249,1.44000e+00,
250,1.40000e+00,
251,1.80000e+00,
252,1.72000e+00,
253,2.12000e+00,
254,2.04000e+00,
255,2.40000e+00,
256,2.36000e+00,
257,2.72000e+00,
258,2.64000e+00,
259,2.96000e+00,
260,2.88000e+00,
261,3.16000e+00,
262,3.08000e+00,
263,3.32000e+00,
264,3.24000e+00,
265,3.44000e+00,
266,3.36000e+00,
267,3.52000e+00,
268,3.44000e+00,
269,3.60000e+00,
270,3.64000e+00,
271,3.52000e+00,
272,3.60000e+00,
273,3.52000e+00,
274,3.60000e+00,
275,3.44000e+00,
276,3.52000e+00,
277,3.36000e+00,
278,3.44000e+00,
279,3.20000e+00,
280,3.28000e+00,
281,3.04000e+00,
282,3.12000e+00,
283,2.84000e+00,
284,2.88000e+00,
285,2.60000e+00,
286,2.64000e+00,
287,2.32000e+00,
288,2.36000e+00,
289,2.00000e+00,
290,2.08000e+00,
291,1.68000e+00,
292,1.76000e+00,
293,1.32000e+00,
294,1.40000e+00,
295,1.00000e+00,
296,1.04000e+00,
297,6.00000e-01,
298,6.80000e-01,
299,2.40000e-01,
300,2.80000e-01,
301,-1.60000e-01,
302,-8.00000e-02,
303,-5.20000e-01,
304,-4.80000e-01,
305,-8.80000e-01,
306,-8.40000e-01,
307,-1.28000e+00,
308,-1.20000e+00,
309,-1.60000e+00,
310,-1.56000e+00,
311,-1.92000e+00,
312,-1.92000e+00,
313,-2.28000e+00,
314,-2.24000e+00,
315,-2.56000e+00,
316,-2.48000e+00,
317,-2.84000e+00,
318,-2.76000e+00,
319,-3.04000e+00,
320,-2.96000e+00,
321,-3.20000e+00,
322,-3.16000e+00,
323,-3.40000e+00,
324,-3.32000e+00,
325,-3.52000e+00,
326,-3.44000e+00,
327,-3.60000e+00,
328,-3.52000e+00,
329,-3.64000e+00,
330,-3.64000e+00,
331,-3.56000e+00,
332,-3.64000e+00,
333,-3.48000e+00,
334,-3.60000e+00,
335,-3.44000e+00,
336,-3.52000e+00,
337,-3.28000e+00,
338,-3.32000e+00,
339,-3.12000e+00,
340,-3.16000e+00,
341,-2.92000e+00,
342,-2.96000e+00,
343,-2.68000e+00,
344,-2.76000e+00,
345,-2.40000e+00,
346,-2.48000e+00,
347,-2.12000e+00,
348,-2.16000e+00,
349,-1.84000e+00,
350,-1.84000e+00,
351,-1.48000e+00,
352,-1.52000e+00,
353,-1.12000e+00,
354,-1.16000e+00,
355,-7.60000e-01,
356,-8.00000e-01,
357,-3.60000e-01,
358,-4.00000e-01,
359,4.00000e-02,
360,-4.00000e-02,
361,4.40000e-01,
362,3.60000e-01,
363,8.00000e-01,
364,7.20000e-01,
365,1.16000e+00,
366,1.08000e+00,
367,1.48000e+00,
368,1.48000e+00,
369,1.84000e+00,
370,1.80000e+00,
371,2.16000e+00,
372,2.08000e+00,
373,2.44000e+00,
374,2.40000e+00,
375,2.76000e+00,
376,2.68000e+00,
377,2.96000e+00,
378,2.88000e+00,
379,3.16000e+00,
380,3.08000e+00,
381,3.36000e+00,
382,3.28000e+00,
383,3.48000e+00,
384,3.40000e+00,
385,3.56000e+00,
386,3.48000e+00,
387,3.64000e+00,
388,3.64000e+00,
389,3.52000e+00,
390,3.64000e+00,
391,3.48000e+00,
392,3.60000e+00,
393,3.44000e+00,
394,3.52000e+00,
395,3.36000e+00,
396,3.44000e+00,
397,3.16000e+00,
398,3.24000e+00,
399,3.00000e+00,
400,3.08000e+00,
401,2.76000e+00,
402,2.84000e+00,
403,2.56000e+00,
404,2.60000e+00,
405,2.24000e+00,
406,2.32000e+00,
407,1.92000e+00,
408,2.00000e+00,
409,1.64000e+00,
410,1.68000e+00,
411,1.24000e+00,
412,1.28000e+00,
413,9.20000e-01,
414,1.00000e+00,
415,5.60000e-01,
416,6.40000e-01,
417,1.60000e-01,
418,2.00000e-01,
419,-2.00000e-01,
420,-1.60000e-01,
421,-6.00000e-01,
422,-5.20000e-01,
423,-9.60000e-01,
424,-9.20000e-01,
425,-1.32000e+00,
426,-1.28000e+00,
427,-1.68000e+00,
428,-1.64000e+00,
429,-2.00000e+00,
430,-1.92000e+00,
431,-2.32000e+00,
432,-2.24000e+00,
433,-2.64000e+00,
434,-2.56000e+00,
435,-2.88000e+00,
436,-2.80000e+00,
437,-3.04000e+00,
438,-3.00000e+00,
439,-3.28000e+00,
440,-3.24000e+00,
441,-3.44000e+00,
442,-3.36000e+00,
443,-3.56000e+00,
444,-3.48000e+00,
445,-3.60000e+00,
446,-3.48000e+00,
447,-3.64000e+00,
448,-3.64000e+00,
449,-3.56000e+00,
450,-3.64000e+00,
451,-3.48000e+00,
452,-3.56000e+00,
453,-3.40000e+00,
454,-3.44000e+00,
455,-3.24000e+00,
456,-3.32000e+00,
457,-3.08000e+00,
458,-3.12000e+00,
459,-2.88000e+00,
460,-2.96000e+00,
461,-2.64000e+00,
462,-2.72000e+00,
463,-2.40000e+00,
464,-2.44000e+00,
465,-2.04000e+00,
466,-2.12000e+00,
467,-1.76000e+00,
468,-1.80000e+00,
469,-1.40000e+00,
470,-1.48000e+00,
471,-1.04000e+00,
472,-1.08000e+00,
473,-6.80000e-01,
474,-7.20000e-01,
475,-2.80000e-01,
476,-3.60000e-01,
477,8.00000e-02,
478,0.00000e+00,
479,4.80000e-01,
480,4.00000e-01,
481,8.80000e-01,
482,8.00000e-01,
483,1.20000e+00,
484,1.12000e+00,
485,1.56000e+00,
486,1.52000e+00,
487,1.88000e+00,
488,1.84000e+00,
489,2.20000e+00,
490,2.16000e+00,
491,2.52000e+00,
492,2.48000e+00,
493,2.80000e+00,
494,2.72000e+00,
495,3.00000e+00,
496,2.92000e+00,
497,3.20000e+00,
498,3.16000e+00,
499,3.36000e+00,
500,3.28000e+00,
501,3.48000e+00,
502,3.40000e+00,
503,3.56000e+00,
504,3.48000e+00,
505,3.60000e+00,
506,3.52000e+00,
507,3.64000e+00,
508,3.64000e+00,
509,3.48000e+00,
510,3.60000e+00,
511,3.40000e+00,
512,3.48000e+00,
513,3.32000e+00,
514,3.40000e+00,
515,3.16000e+00,
516,3.24000e+00,
517,2.96000e+00,
518,3.08000e+00,
519,2.76000e+00,
520,2.84000e+00,
521,2.48000e+00,
522,2.56000e+00,
523,2.20000e+00,
524,2.28000e+00,
525,1.92000e+00,
526,1.96000e+00,
527,1.56000e+00,
528,1.64000e+00,
529,1.20000e+00,
530,1.28000e+00,
531,8.40000e-01,
532,9.20000e-01,
533,4.80000e-01,
534,5.60000e-01,
535,1.20000e-01,
536,1.60000e-01,
537,-2.80000e-01,
538,-2.00000e-01,
539,-6.80000e-01,
540,-6.00000e-01,
541,-1.00000e+00,
542,-9.60000e-01,
543,-1.40000e+00,
544,-1.32000e+00,
545,-1.76000e+00,
546,-1.68000e+00,
547,-2.04000e+00,
548,-2.04000e+00,
549,-2.36000e+00,
550,-2.28000e+00,
551,-2.64000e+00,
552,-2.56000e+00,
553,-2.88000e+00,
554,-2.84000e+00,
555,-3.08000e+00,
556,-3.00000e+00,
557,-3.28000e+00,
558,-3.24000e+00,
559,-3.44000e+00,
560,-3.40000e+00,
561,-3.52000e+00,
562,-3.44000e+00,
563,-3.60000e+00,
564,-3.52000e+00,
565,-3.64000e+00,
566,-3.64000e+00,
567,-3.52000e+00,
568,-3.60000e+00,
569,-3.48000e+00,
570,-3.56000e+00,
571,-3.36000e+00,
572,-3.44000e+00,
573,-3.24000e+00,
574,-3.28000e+00,
575,-3.04000e+00,
576,-3.08000e+00,
577,-2.84000e+00,
578,-2.92000e+00,
579,-2.56000e+00,
580,-2.64000e+00,
581,-2.32000e+00,
582,-2.40000e+00,
583,-2.04000e+00,
584,-2.08000e+00,
585,-1.68000e+00,
586,-1.76000e+00,
587,-1.32000e+00,
588,-1.40000e+00,
589,-1.00000e+00,
590,-1.04000e+00,
591,-6.00000e-01,
592,-6.80000e-01,
593,-2.00000e-01,
594,-2.80000e-01,
595,1.60000e-01,
596,8.00000e-02,
597,5.60000e-01,
598,4.80000e-01,
599,9.20000e-01,
600,8.40000e-01,
601,1.32000e+00,
602,1.24000e+00,
603,1.64000e+00,
604,1.56000e+00,
605,2.04000e+00,
606,1.96000e+00,
607,2.24000e+00,
608,2.16000e+00,
609,2.56000e+00,
610,2.52000e+00,
611,2.84000e+00,
612,2.76000e+00,
613,3.04000e+00,
614,2.96000e+00,
615,3.24000e+00,
616,3.16000e+00,
617,3.40000e+00,
618,3.32000e+00,
619,3.48000e+00,
620,3.40000e+00,
621,3.56000e+00,
622,3.48000e+00,
623,3.60000e+00,
624,3.60000e+00,
625,3.52000e+00,
626,3.60000e+00,
627,3.48000e+00,
628,3.56000e+00,
629,3.40000e+00,
630,3.48000e+00,
631,3.28000e+00,
632,3.36000e+00,
633,3.12000e+00,
634,3.20000e+00,
635,2.92000e+00,
636,3.00000e+00,
637,2.72000e+00,
638,2.76000e+00,
639,2.48000e+00,
640,2.48000e+00,
641,2.12000e+00,
642,2.20000e+00,
643,1.84000e+00,
644,1.88000e+00,
645,1.52000e+00,
646,1.60000e+00,
647,1.16000e+00,
648,1.20000e+00,
649,7.60000e-01,
650,8.40000e-01,
651,4.00000e-01,
652,4.80000e-01,
653,4.00000e-02,
654,8.00000e-02,
655,-3.60000e-01,
656,-2.80000e-01,
657,-7.20000e-01,
658,-6.80000e-01,
659,-1.08000e+00,
660,-1.08000e+00,
661,-1.48000e+00,
662,-1.40000e+00,
663,-1.80000e+00,
664,-1.72000e+00,
665,-2.12000e+00,
666,-2.08000e+00,
667,-2.44000e+00,
668,-2.36000e+00,
669,-2.72000e+00,
670,-2.64000e+00,
671,-2.92000e+00,
672,-2.88000e+00,
673,-3.16000e+00,
674,-3.08000e+00,
675,-3.32000e+00,
676,-3.28000e+00,
677,-3.48000e+00,
678,-3.40000e+00,
679,-3.56000e+00,
680,-3.48000e+00,
681,-3.60000e+00,
682,-3.52000e+00,
683,-3.64000e+00,
684,-3.64000e+00,
685,-3.52000e+00,
686,-3.60000e+00,
687,-3.44000e+00,
688,-3.52000e+00,
689,-3.36000e+00,
690,-3.40000e+00,
691,-3.20000e+00,
692,-3.24000e+00,
693,-3.00000e+00,
694,-3.08000e+00,
695,-2.80000e+00,
696,-2.88000e+00,
697,-2.56000e+00,
698,-2.64000e+00,
699,-2.28000e+00,
700,-2.36000e+00,
701,-1.92000e+00,
702,-2.00000e+00,
703,-1.64000e+00,
704,-1.68000e+00,
705,-1.28000e+00,
706,-1.36000e+00,
707,-9.60000e-01,
708,-9.60000e-01,
709,-5.20000e-01,
710,-6.00000e-01,
711,-1.60000e-01,
712,-2.40000e-01,
713,2.00000e-01,
714,1.60000e-01,
715,6.00000e-01,
716,5.60000e-01,
717,1.00000e+00,
718,9.20000e-01,
719,1.32000e+00,
720,1.32000e+00,
721,1.72000e+00,
722,1.64000e+00,
723,2.04000e+00,
724,1.96000e+00,
725,2.32000e+00,
726,2.24000e+00,
727,2.60000e+00,
728,2.56000e+00,
729,2.88000e+00,
730,2.80000e+00,
731,3.08000e+00,
732,3.00000e+00,
733,3.28000e+00,
734,3.16000e+00,
735,3.40000e+00,
736,3.32000e+00,
737,3.52000e+00,
738,3.44000e+00,
739,3.60000e+00,
740,3.60000e+00,
741,3.48000e+00,
742,3.52000e+00,
743,3.64000e+00,
744,3.60000e+00,
745,3.44000e+00,
746,3.56000e+00,
747,3.40000e+00,
748,3.48000e+00,
749,3.24000e+00,
750,3.32000e+00,
751,3.08000e+00,
752,3.20000e+00,
753,2.88000e+00,
754,2.96000e+00,
755,2.64000e+00,
756,2.72000e+00,
757,2.40000e+00,
758,2.44000e+00,
759,2.08000e+00,
760,2.16000e+00,
761,1.80000e+00,
762,1.84000e+00,
763,1.48000e+00,
764,1.48000e+00,
765,1.08000e+00,
766,1.16000e+00,
767,7.20000e-01,
768,8.00000e-01,
769,3.60000e-01,
770,4.40000e-01,
771,0.00000e+00,
772,4.00000e-02,
773,-4.00000e-01,
774,-3.60000e-01,
775,-7.60000e-01,
776,-7.20000e-01,
777,-1.20000e+00,
778,-1.12000e+00,
779,-1.52000e+00,
780,-1.48000e+00,
781,-1.84000e+00,
782,-1.80000e+00,
783,-2.20000e+00,
784,-2.12000e+00,
785,-2.48000e+00,
786,-2.40000e+00,
787,-2.76000e+00,
788,-2.68000e+00,
789,-2.96000e+00,
790,-2.92000e+00,
791,-3.16000e+00,
792,-3.16000e+00,
793,-3.32000e+00,
794,-3.24000e+00,
795,-3.48000e+00,
796,-3.44000e+00,
797,-3.60000e+00,
798,-3.48000e+00,
799,-3.64000e+00,
800,-3.64000e+00,
801,-3.56000e+00,
802,-3.64000e+00,
803,-3.52000e+00,
804,-3.60000e+00,
805,-3.44000e+00,
806,-3.52000e+00,
807,-3.32000e+00,
808,-3.40000e+00,
809,-3.16000e+00,
810,-3.24000e+00,
811,-3.00000e+00,
812,-3.04000e+00,
813,-2.76000e+00,
814,-2.84000e+00,
815,-2.52000e+00,
816,-2.56000e+00,
817,-2.24000e+00,
818,-2.24000e+00,
819,-1.88000e+00,
820,-1.96000e+00,
821,-1.56000e+00,
822,-1.64000e+00,
823,-1.24000e+00,
824,-1.28000e+00,
825,-8.80000e-01,
826,-8.80000e-01,
827,-4.80000e-01,
828,-5.20000e-01,
829,-8.00000e-02,
830,-1.60000e-01,
831,2.80000e-01,
832,2.40000e-01,
833,6.80000e-01,
834,6.40000e-01,
835,1.04000e+00,
836,9.60000e-01,
837,1.40000e+00,
838,1.36000e+00,
839,1.76000e+00,
840,1.68000e+00,
841,2.08000e+00,
842,2.00000e+00,
843,2.36000e+00,
844,2.32000e+00,
845,2.64000e+00,
846,2.60000e+00,
847,2.92000e+00,
848,2.84000e+00,
849,3.12000e+00,
850,3.04000e+00,
851,3.28000e+00,
852,3.20000e+00,
853,3.44000e+00,
854,3.36000e+00,
855,3.52000e+00,
856,3.44000e+00,
857,3.60000e+00,
858,3.52000e+00,
859,3.64000e+00,
860,3.52000e+00,
861,3.60000e+00,
862,3.60000e+00,
863,3.44000e+00,
864,3.52000e+00,
865,3.36000e+00,
866,3.44000e+00,
867,3.20000e+00,
868,3.32000e+00,
869,3.04000e+00,
870,3.12000e+00,
871,2.84000e+00,
872,2.92000e+00,
873,2.64000e+00,
874,2.68000e+00,
875,2.32000e+00,
876,2.40000e+00,
877,2.04000e+00,
878,2.12000e+00,
879,1.72000e+00,
880,1.80000e+00,
881,1.40000e+00,
882,1.48000e+00,
883,1.04000e+00,
884,1.08000e+00,
885,6.40000e-01,
886,7.20000e-01,
887,2.80000e-01,
888,3.60000e-01,
889,-1.20000e-01,
890,-4.00000e-02,
891,-4.80000e-01,
892,-4.40000e-01,
893,-8.40000e-01,
894,-8.00000e-01,
895,-1.24000e+00,
896,-1.16000e+00,
897,-1.60000e+00,
898,-1.52000e+00,
899,-1.92000e+00,
900,-1.84000e+00,
901,-2.24000e+00,
902,-2.20000e+00,
903,-2.52000e+00,
904,-2.48000e+00,
905,-2.80000e+00,
906,-2.72000e+00,
907,-3.00000e+00,
908,-2.92000e+00,
909,-3.20000e+00,
910,-3.12000e+00,
911,-3.40000e+00,
912,-3.32000e+00,
913,-3.52000e+00,
914,-3.44000e+00,
915,-3.60000e+00,
916,-3.52000e+00,
917,-3.64000e+00,
918,-3.64000e+00,
919,-3.56000e+00,
920,-3.64000e+00,
921,-3.52000e+00,
922,-3.60000e+00,
923,-3.44000e+00,
924,-3.52000e+00,
925,-3.32000e+00,
926,-3.40000e+00,
927,-3.16000e+00,
928,-3.20000e+00,
929,-2.96000e+00,
930,-3.04000e+00,
931,-2.72000e+00,
932,-2.80000e+00,
933,-2.44000e+00,
934,-2.52000e+00,
935,-2.16000e+00,
936,-2.20000e+00,
937,-1.84000e+00,
938,-1.92000e+00,
939,-1.52000e+00,
940,-1.56000e+00,
941,-1.16000e+00,
942,-1.20000e+00,
943,-7.60000e-01,
944,-8.40000e-01,
945,-4.00000e-01,
946,-4.80000e-01,
947,-4.00000e-02,
948,-8.00000e-02,
949,3.20000e-01,
950,3.20000e-01,
951,7.60000e-01,
952,6.80000e-01,
953,1.12000e+00,
954,1.04000e+00,
955,1.44000e+00,
956,1.40000e+00,
957,1.80000e+00,
958,1.76000e+00,
959,2.12000e+00,
960,2.04000e+00,
961,2.40000e+00,
962,2.36000e+00,
963,2.72000e+00,
964,2.64000e+00,
965,2.92000e+00,
966,2.88000e+00,
967,3.16000e+00,
968,3.08000e+00,
969,3.32000e+00,
970,3.24000e+00,
971,3.44000e+00,
972,3.36000e+00,
973,3.56000e+00,
974,3.44000e+00,
975,3.60000e+00,
976,3.60000e+00,
977,3.52000e+00,
978,3.60000e+00,
979,3.48000e+00,
980,3.60000e+00,
981,3.44000e+00,
982,3.52000e+00,
983,3.32000e+00,
984,3.40000e+00,
985,3.20000e+00,
986,3.28000e+00,
987,3.04000e+00,
988,3.12000e+00,
989,2.80000e+00,
990,2.88000e+00,
991,2.60000e+00,
992,2.64000e+00,
993,2.28000e+00,
994,2.36000e+00,
995,2.00000e+00,
996,2.04000e+00,
997,1.68000e+00,
998,1.72000e+00,
999,1.32000e+00,
1000,1.36000e+00,
1001,9.60000e-01,
1002,1.04000e+00,
1003,6.00000e-01,
1004,6.40000e-01,
1005,2.40000e-01,
1006,2.80000e-01,
1007,-2.00000e-01,
1008,-1.20000e-01,
1009,-5.60000e-01,
1010,-4.80000e-01,
1011,-9.20000e-01,
1012,-8.40000e-01,
1013,-1.28000e+00,
1014,-1.24000e+00,
1015,-1.64000e+00,
1016,-1.60000e+00,
1017,-1.96000e+00,
1018,-1.92000e+00,
1019,-2.32000e+00,
1020,-2.24000e+00,
1021,-2.56000e+00,
1022,-2.52000e+00,
1023,-2.80000e+00,
1024,-2.76000e+00,
1025,-3.04000e+00,
1026,-2.96000e+00,
1027,-3.24000e+00,
1028,-3.20000e+00,
1029,-3.36000e+00,
1030,-3.32000e+00,
1031,-3.52000e+00,
1032,-3.44000e+00,
1033,-3.60000e+00,
1034,-3.52000e+00,
1035,-3.64000e+00,
1036,-3.56000e+00,
1037,-3.64000e+00,
1038,-3.64000e+00,
1039,-3.52000e+00,
1040,-3.60000e+00,
1041,-3.40000e+00,
1042,-3.48000e+00,
1043,-3.28000e+00,
1044,-3.36000e+00,
1045,-3.12000e+00,
1046,-3.16000e+00,
1047,-2.88000e+00,
1048,-2.96000e+00,
1049,-2.64000e+00,
1050,-2.72000e+00,
1051,-2.40000e+00,
1052,-2.48000e+00,
1053,-2.12000e+00,
1054,-2.16000e+00,
1055,-1.76000e+00,
1056,-1.84000e+00,
1057,-1.44000e+00,
1058,-1.52000e+00,
1059,-1.12000e+00,
1060,-1.16000e+00,
1061,-7.20000e-01,
1062,-7.60000e-01,
1063,-3.20000e-01,
1064,-4.00000e-01,
1065,4.00000e-02,
1066,0.00000e+00,
1067,4.40000e-01,
1068,3.60000e-01,
1069,8.00000e-01,
1070,7.20000e-01,
1071,1.16000e+00,
1072,1.12000e+00,
1073,1.52000e+00,
1074,1.48000e+00,
1075,1.88000e+00,
1076,1.80000e+00,
1077,2.20000e+00,
1078,2.12000e+00,
1079,2.48000e+00,
1080,2.44000e+00,
1081,2.72000e+00,
1082,2.68000e+00,
1083,3.00000e+00,
1084,2.92000e+00,
1085,3.20000e+00,
1086,3.12000e+00,
1087,3.36000e+00,
1088,3.28000e+00,
1089,3.48000e+00,
1090,3.36000e+00,
1091,3.56000e+00,
1092,3.60000e+00,
1093,3.48000e+00,
1094,3.60000e+00,
1095,3.52000e+00,
1096,3.60000e+00,
1097,3.48000e+00,
1098,3.60000e+00,
1099,3.44000e+00,
1100,3.52000e+00,
1101,3.32000e+00,
1102,3.40000e+00,
1103,3.16000e+00,
1104,3.24000e+00,
1105,3.00000e+00,
1106,3.08000e+00,
1107,2.80000e+00,
1108,2.88000e+00,
1109,2.52000e+00,
1110,2.56000e+00,
1111,2.24000e+00,
1112,2.28000e+00,
1113,1.92000e+00,
1114,2.00000e+00,
1115,1.64000e+00,
1116,1.64000e+00,
1117,1.28000e+00,
1118,1.32000e+00,
1119,8.80000e-01,
1120,9.60000e-01,
1121,5.20000e-01,
1122,5.60000e-01,
1123,1.60000e-01,
1124,2.00000e-01,
1125,-2.40000e-01,
1126,-1.60000e-01,
1127,-6.00000e-01,
1128,-5.20000e-01,
1129,-9.60000e-01,
1130,-9.60000e-01,
1131,-1.36000e+00,
1132,-1.32000e+00,
1133,-1.72000e+00,
1134,-1.64000e+00,
1135,-2.00000e+00,
1136,-2.00000e+00,
1137,-2.36000e+00,
