DataAnalysis/Johnson_noise/2017_johnson_noise/data_MUIC_nop_anan/NewFile26.csv

X,CH1,Start,Increment,
Sequence,Volt,-3.60000e-03,1.00000e-05
0,-3.64000e+00,
1,-3.52000e+00,
2,-3.60000e+00,
3,-3.44000e+00,
4,-3.48000e+00,
5,-3.32000e+00,
6,-3.36000e+00,
7,-3.08000e+00,
8,-3.16000e+00,
9,-2.88000e+00,
10,-2.96000e+00,
11,-2.64000e+00,
12,-2.72000e+00,
13,-2.36000e+00,
14,-2.44000e+00,
15,-2.00000e+00,
16,-2.08000e+00,
17,-1.68000e+00,
18,-1.72000e+00,
19,-1.32000e+00,
20,-1.32000e+00,
21,-9.20000e-01,
22,-9.60000e-01,
23,-5.20000e-01,
24,-5.60000e-01,
25,-1.20000e-01,
26,-1.60000e-01,
27,2.80000e-01,
28,2.40000e-01,
29,7.20000e-01,
30,6.40000e-01,
31,1.08000e+00,
32,1.04000e+00,
33,1.44000e+00,
34,1.40000e+00,
35,1.84000e+00,
36,1.80000e+00,
37,2.16000e+00,
38,2.12000e+00,
39,2.48000e+00,
40,2.40000e+00,
41,2.80000e+00,
42,2.72000e+00,
43,3.04000e+00,
44,2.96000e+00,
45,3.24000e+00,
46,3.16000e+00,
47,3.40000e+00,
48,3.32000e+00,
49,3.52000e+00,
50,3.44000e+00,
51,3.60000e+00,
52,3.52000e+00,
53,3.64000e+00,
54,3.64000e+00,
55,3.60000e+00,
56,3.64000e+00,
57,3.48000e+00,
58,3.56000e+00,
59,3.40000e+00,
60,3.48000e+00,
61,3.24000e+00,
62,3.32000e+00,
63,3.08000e+00,
64,3.16000e+00,
65,2.84000e+00,
66,2.92000e+00,
67,2.60000e+00,
68,2.64000e+00,
69,2.28000e+00,
70,2.36000e+00,
71,1.96000e+00,
72,2.04000e+00,
73,1.60000e+00,
74,1.68000e+00,
75,1.24000e+00,
76,1.28000e+00,
77,8.40000e-01,
78,9.20000e-01,
79,4.80000e-01,
80,5.20000e-01,
81,4.00000e-02,
82,8.00000e-02,
83,-3.60000e-01,
84,-2.80000e-01,
85,-7.20000e-01,
86,-6.80000e-01,
87,-1.16000e+00,
88,-1.08000e+00,
89,-1.56000e+00,
90,-1.48000e+00,
91,-1.88000e+00,
92,-1.84000e+00,
93,-2.24000e+00,
94,-2.16000e+00,
95,-2.52000e+00,
96,-2.48000e+00,
97,-2.80000e+00,
98,-2.76000e+00,
99,-3.08000e+00,
100,-3.00000e+00,
101,-3.24000e+00,
102,-3.20000e+00,
103,-3.44000e+00,
104,-3.36000e+00,
105,-3.56000e+00,
106,-3.48000e+00,
107,-3.64000e+00,
108,-3.56000e+00,
109,-3.68000e+00,
110,-3.56000e+00,
111,-3.68000e+00,
112,-3.64000e+00,
113,-3.48000e+00,
114,-3.56000e+00,
115,-3.36000e+00,
116,-3.44000e+00,
117,-3.24000e+00,
118,-3.28000e+00,
119,-3.04000e+00,
120,-3.08000e+00,
121,-2.76000e+00,
122,-2.84000e+00,
123,-2.52000e+00,
124,-2.60000e+00,
125,-2.20000e+00,
126,-2.24000e+00,
127,-1.88000e+00,
128,-1.92000e+00,
129,-1.52000e+00,
130,-1.56000e+00,
131,-1.16000e+00,
132,-1.20000e+00,
133,-7.60000e-01,
134,-7.60000e-01,
135,-3.20000e-01,
136,-4.00000e-01,
137,8.00000e-02,
138,4.00000e-02,
139,5.20000e-01,
140,4.40000e-01,
141,8.80000e-01,
142,8.40000e-01,
143,1.24000e+00,
144,1.24000e+00,
145,1.64000e+00,
146,1.60000e+00,
147,2.00000e+00,
148,1.92000e+00,
149,2.32000e+00,
150,2.24000e+00,
151,2.60000e+00,
152,2.52000e+00,
153,2.92000e+00,
154,2.84000e+00,
155,3.12000e+00,
156,3.04000e+00,
157,3.32000e+00,
158,3.24000e+00,
159,3.48000e+00,
160,3.36000e+00,
161,3.56000e+00,
162,3.48000e+00,
163,3.64000e+00,
164,3.64000e+00,
165,3.52000e+00,
166,3.64000e+00,
167,3.52000e+00,
168,3.60000e+00,
169,3.44000e+00,
170,3.52000e+00,
171,3.32000e+00,
172,3.40000e+00,
173,3.16000e+00,
174,3.24000e+00,
175,2.96000e+00,
176,3.04000e+00,
177,2.76000e+00,
178,2.80000e+00,
179,2.44000e+00,
180,2.52000e+00,
181,2.12000e+00,
182,2.20000e+00,
183,1.80000e+00,
184,1.88000e+00,
185,1.48000e+00,
186,1.52000e+00,
187,1.08000e+00,
188,1.12000e+00,
189,6.80000e-01,
190,7.60000e-01,
191,2.80000e-01,
192,3.20000e-01,
193,-1.20000e-01,
194,-8.00000e-02,
195,-5.20000e-01,
196,-4.80000e-01,
197,-9.20000e-01,
198,-8.80000e-01,
199,-1.32000e+00,
200,-1.28000e+00,
201,-1.68000e+00,
202,-1.64000e+00,
203,-2.04000e+00,
204,-2.00000e+00,
205,-2.40000e+00,
206,-2.32000e+00,
207,-2.68000e+00,
208,-2.60000e+00,
209,-2.92000e+00,
210,-2.84000e+00,
211,-3.16000e+00,
212,-3.12000e+00,
213,-3.32000e+00,
214,-3.28000e+00,
215,-3.48000e+00,
216,-3.44000e+00,
217,-3.60000e+00,
218,-3.52000e+00,
219,-3.64000e+00,
220,-3.56000e+00,
221,-3.68000e+00,
222,-3.68000e+00,
223,-3.56000e+00,
224,-3.64000e+00,
225,-3.44000e+00,
226,-3.52000e+00,
227,-3.32000e+00,
228,-3.40000e+00,
229,-3.12000e+00,
230,-3.16000e+00,
231,-2.92000e+00,
232,-3.00000e+00,
233,-2.68000e+00,
234,-2.76000e+00,
235,-2.40000e+00,
236,-2.44000e+00,
237,-2.08000e+00,
238,-2.12000e+00,
239,-1.72000e+00,
240,-1.76000e+00,
241,-1.36000e+00,
242,-1.40000e+00,
243,-9.60000e-01,
244,-1.00000e+00,
245,-5.60000e-01,
246,-5.60000e-01,
247,-1.60000e-01,
248,-2.00000e-01,
249,2.40000e-01,
250,2.00000e-01,
251,6.80000e-01,
252,6.00000e-01,
253,1.04000e+00,
254,9.60000e-01,
255,1.40000e+00,
256,1.32000e+00,
257,1.80000e+00,
258,1.76000e+00,
259,2.16000e+00,
260,2.08000e+00,
261,2.44000e+00,
262,2.36000e+00,
263,2.72000e+00,
264,2.68000e+00,
265,3.00000e+00,
266,2.92000e+00,
267,3.20000e+00,
268,3.12000e+00,
269,3.40000e+00,
270,3.28000e+00,
271,3.52000e+00,
272,3.40000e+00,
273,3.60000e+00,
274,3.48000e+00,
275,3.64000e+00,
276,3.64000e+00,
277,3.52000e+00,
278,3.64000e+00,
279,3.48000e+00,
280,3.60000e+00,
281,3.40000e+00,
282,3.48000e+00,
283,3.24000e+00,
284,3.36000e+00,
285,3.08000e+00,
286,3.16000e+00,
287,2.88000e+00,
288,2.96000e+00,
289,2.64000e+00,
290,2.64000e+00,
291,2.32000e+00,
292,2.40000e+00,
293,2.00000e+00,
294,2.04000e+00,
295,1.64000e+00,
296,1.72000e+00,
297,1.32000e+00,
298,1.36000e+00,
299,8.80000e-01,
300,9.60000e-01,
301,5.20000e-01,
302,5.20000e-01,
303,8.00000e-02,
304,1.20000e-01,
305,-3.20000e-01,
306,-2.40000e-01,
307,-7.20000e-01,
308,-6.40000e-01,
309,-1.08000e+00,
310,-1.08000e+00,
311,-1.52000e+00,
312,-1.44000e+00,
313,-1.84000e+00,
314,-1.76000e+00,
315,-2.20000e+00,
316,-2.16000e+00,
317,-2.48000e+00,
318,-2.44000e+00,
319,-2.80000e+00,
320,-2.72000e+00,
321,-3.04000e+00,
322,-2.96000e+00,
323,-3.24000e+00,
324,-3.16000e+00,
325,-3.44000e+00,
326,-3.36000e+00,
327,-3.56000e+00,
328,-3.48000e+00,
329,-3.64000e+00,
330,-3.56000e+00,
331,-3.68000e+00,
332,-3.68000e+00,
333,-3.56000e+00,
334,-3.64000e+00,
335,-3.48000e+00,
336,-3.56000e+00,
337,-3.40000e+00,
338,-3.48000e+00,
339,-3.24000e+00,
340,-3.28000e+00,
341,-3.04000e+00,
342,-3.12000e+00,
343,-2.80000e+00,
344,-2.88000e+00,
345,-2.56000e+00,
346,-2.60000e+00,
347,-2.24000e+00,
348,-2.32000e+00,
349,-1.92000e+00,
350,-1.96000e+00,
351,-1.56000e+00,
352,-1.60000e+00,
353,-1.20000e+00,
354,-1.20000e+00,
355,-8.00000e-01,
356,-8.40000e-01,
357,-3.60000e-01,
358,-4.00000e-01,
359,4.00000e-02,
360,0.00000e+00,
361,4.40000e-01,
362,4.00000e-01,
363,8.40000e-01,
364,7.60000e-01,
365,1.20000e+00,
366,1.16000e+00,
367,1.64000e+00,
368,1.56000e+00,
369,1.96000e+00,
370,1.92000e+00,
371,2.28000e+00,
372,2.20000e+00,
373,2.60000e+00,
374,2.56000e+00,
375,2.84000e+00,
376,2.80000e+00,
377,3.12000e+00,
378,3.04000e+00,
379,3.28000e+00,
380,3.20000e+00,
381,3.48000e+00,
382,3.36000e+00,
383,3.56000e+00,
384,3.44000e+00,
385,3.60000e+00,
386,3.52000e+00,
387,3.64000e+00,
388,3.64000e+00,
389,3.52000e+00,
390,3.60000e+00,
391,3.44000e+00,
392,3.56000e+00,
393,3.36000e+00,
394,3.44000e+00,
395,3.20000e+00,
396,3.28000e+00,
397,3.00000e+00,
398,3.08000e+00,
399,2.76000e+00,
400,2.84000e+00,
401,2.48000e+00,
402,2.52000e+00,
403,2.16000e+00,
404,2.24000e+00,
405,1.84000e+00,
406,1.92000e+00,
407,1.52000e+00,
408,1.56000e+00,
409,1.12000e+00,
410,1.16000e+00,
411,7.20000e-01,
412,8.00000e-01,
413,3.20000e-01,
414,4.00000e-01,
415,-8.00000e-02,
416,-4.00000e-02,
417,-5.20000e-01,
418,-4.40000e-01,
419,-8.80000e-01,
420,-8.00000e-01,
421,-1.28000e+00,
422,-1.24000e+00,
423,-1.64000e+00,
424,-1.60000e+00,
425,-2.00000e+00,
426,-1.96000e+00,
427,-2.36000e+00,
428,-2.28000e+00,
429,-2.64000e+00,
430,-2.56000e+00,
431,-2.88000e+00,
432,-2.84000e+00,
433,-3.12000e+00,
434,-3.04000e+00,
435,-3.32000e+00,
436,-3.24000e+00,
437,-3.48000e+00,
438,-3.40000e+00,
439,-3.60000e+00,
440,-3.52000e+00,
441,-3.64000e+00,
442,-3.56000e+00,
443,-3.68000e+00,
444,-3.68000e+00,
445,-3.52000e+00,
446,-3.60000e+00,
447,-3.44000e+00,
448,-3.52000e+00,
449,-3.32000e+00,
450,-3.40000e+00,
451,-3.12000e+00,
452,-3.24000e+00,
453,-2.92000e+00,
454,-3.00000e+00,
455,-2.68000e+00,
456,-2.76000e+00,
457,-2.40000e+00,
458,-2.48000e+00,
459,-2.12000e+00,
460,-2.16000e+00,
461,-1.76000e+00,
462,-1.80000e+00,
463,-1.40000e+00,
464,-1.44000e+00,
465,-1.00000e+00,
466,-1.04000e+00,
467,-6.00000e-01,
468,-6.80000e-01,
469,-2.00000e-01,
470,-2.40000e-01,
471,2.00000e-01,
472,1.60000e-01,
473,6.40000e-01,
474,5.60000e-01,
475,1.00000e+00,
476,9.60000e-01,
477,1.40000e+00,
478,1.32000e+00,
479,1.76000e+00,
480,1.72000e+00,
481,2.12000e+00,
482,2.04000e+00,
483,2.44000e+00,
484,2.32000e+00,
485,2.76000e+00,
486,2.68000e+00,
487,3.00000e+00,
488,2.92000e+00,
489,3.20000e+00,
490,3.12000e+00,
491,3.36000e+00,
492,3.28000e+00,
493,3.48000e+00,
494,3.44000e+00,
495,3.60000e+00,
496,3.48000e+00,
497,3.64000e+00,
498,3.56000e+00,
499,3.64000e+00,
500,3.64000e+00,
501,3.48000e+00,
502,3.60000e+00,
503,3.40000e+00,
504,3.48000e+00,
505,3.28000e+00,
506,3.36000e+00,
507,3.12000e+00,
508,3.20000e+00,
509,2.92000e+00,
510,2.96000e+00,
511,2.64000e+00,
512,2.72000e+00,
513,2.36000e+00,
514,2.40000e+00,
515,2.04000e+00,
516,2.12000e+00,
517,1.72000e+00,
518,1.76000e+00,
519,1.36000e+00,
520,1.40000e+00,
521,9.60000e-01,
522,1.00000e+00,
523,5.60000e-01,
524,6.00000e-01,
525,1.60000e-01,
526,2.00000e-01,
527,-2.80000e-01,
528,-2.00000e-01,
529,-6.80000e-01,
530,-6.00000e-01,
531,-1.04000e+00,
532,-1.00000e+00,
533,-1.44000e+00,
534,-1.36000e+00,
535,-1.80000e+00,
536,-1.76000e+00,
537,-2.12000e+00,
538,-2.12000e+00,
539,-2.44000e+00,
540,-2.40000e+00,
541,-2.76000e+00,
542,-2.68000e+00,
543,-3.00000e+00,
544,-2.92000e+00,
545,-3.20000e+00,
546,-3.16000e+00,
547,-3.36000e+00,
548,-3.32000e+00,
549,-3.52000e+00,
550,-3.44000e+00,
551,-3.60000e+00,
552,-3.52000e+00,
553,-3.68000e+00,
554,-3.68000e+00,
555,-3.56000e+00,
556,-3.64000e+00,
557,-3.48000e+00,
558,-3.56000e+00,
559,-3.44000e+00,
560,-3.52000e+00,
561,-3.28000e+00,
562,-3.32000e+00,
563,-3.04000e+00,
564,-3.12000e+00,
565,-2.88000e+00,
566,-2.96000e+00,
567,-2.56000e+00,
568,-2.64000e+00,
569,-2.28000e+00,
570,-2.36000e+00,
571,-2.00000e+00,
572,-2.00000e+00,
573,-1.60000e+00,
574,-1.64000e+00,
575,-1.24000e+00,
576,-1.28000e+00,
577,-8.40000e-01,
578,-8.80000e-01,
579,-4.00000e-01,
580,-4.80000e-01,
581,-4.00000e-02,
582,-8.00000e-02,
583,3.20000e-01,
584,2.80000e-01,
585,8.00000e-01,
586,7.20000e-01,
587,1.20000e+00,
588,1.16000e+00,
589,1.56000e+00,
590,1.48000e+00,
591,1.92000e+00,
592,1.84000e+00,
593,2.24000e+00,
594,2.16000e+00,
595,2.52000e+00,
596,2.48000e+00,
597,2.84000e+00,
598,2.76000e+00,
599,3.08000e+00,
600,3.00000e+00,
601,3.24000e+00,
602,3.16000e+00,
603,3.44000e+00,
604,3.36000e+00,
605,3.52000e+00,
606,3.44000e+00,
607,3.64000e+00,
608,3.64000e+00,
609,3.52000e+00,
610,3.64000e+00,
611,3.48000e+00,
612,3.64000e+00,
613,3.48000e+00,
614,3.56000e+00,
615,3.36000e+00,
616,3.44000e+00,
617,3.20000e+00,
618,3.28000e+00,
619,3.04000e+00,
620,3.12000e+00,
621,2.76000e+00,
622,2.84000e+00,
623,2.48000e+00,
624,2.56000e+00,
625,2.20000e+00,
626,2.28000e+00,
627,1.88000e+00,
628,1.96000e+00,
629,1.52000e+00,
630,1.60000e+00,
631,1.16000e+00,
632,1.20000e+00,
633,7.60000e-01,
634,8.40000e-01,
635,3.60000e-01,
636,4.40000e-01,
637,-4.00000e-02,
638,0.00000e+00,
639,-4.80000e-01,
640,-4.00000e-01,
641,-8.40000e-01,
642,-7.60000e-01,
643,-1.24000e+00,
644,-1.16000e+00,
645,-1.60000e+00,
646,-1.56000e+00,
647,-1.96000e+00,
648,-1.92000e+00,
649,-2.28000e+00,
650,-2.24000e+00,
651,-2.60000e+00,
652,-2.52000e+00,
653,-2.88000e+00,
654,-2.80000e+00,
655,-3.12000e+00,
656,-3.04000e+00,
657,-3.28000e+00,
658,-3.24000e+00,
659,-3.48000e+00,
660,-3.40000e+00,
661,-3.60000e+00,
662,-3.52000e+00,
663,-3.64000e+00,
664,-3.56000e+00,
665,-3.68000e+00,
666,-3.68000e+00,
667,-3.52000e+00,
668,-3.60000e+00,
669,-3.48000e+00,
670,-3.56000e+00,
671,-3.36000e+00,
672,-3.44000e+00,
673,-3.20000e+00,
674,-3.24000e+00,
675,-2.96000e+00,
676,-3.04000e+00,
677,-2.72000e+00,
678,-2.80000e+00,
679,-2.44000e+00,
680,-2.52000e+00,
681,-2.12000e+00,
682,-2.16000e+00,
683,-1.80000e+00,
684,-1.84000e+00,
685,-1.44000e+00,
686,-1.48000e+00,
687,-1.04000e+00,
688,-1.08000e+00,
689,-6.40000e-01,
690,-7.20000e-01,
691,-2.40000e-01,
692,-3.20000e-01,
693,1.60000e-01,
694,1.20000e-01,
695,6.00000e-01,
696,5.20000e-01,
697,9.60000e-01,
698,9.20000e-01,
699,1.32000e+00,
700,1.32000e+00,
701,1.76000e+00,
702,1.68000e+00,
703,2.08000e+00,
704,2.00000e+00,
705,2.40000e+00,
706,2.32000e+00,
707,2.72000e+00,
708,2.64000e+00,
709,2.96000e+00,
710,2.92000e+00,
711,3.20000e+00,
712,3.08000e+00,
713,3.36000e+00,
714,3.28000e+00,
715,3.52000e+00,
716,3.40000e+00,
717,3.60000e+00,
718,3.48000e+00,
719,3.64000e+00,
720,3.52000e+00,
721,3.64000e+00,
722,3.64000e+00,
723,3.52000e+00,
724,3.60000e+00,
725,3.40000e+00,
726,3.52000e+00,
727,3.28000e+00,
728,3.40000e+00,
729,3.16000e+00,
730,3.24000e+00,
731,2.92000e+00,
732,3.00000e+00,
733,2.68000e+00,
734,2.76000e+00,
735,2.40000e+00,
736,2.48000e+00,
737,2.08000e+00,
738,2.12000e+00,
739,1.76000e+00,
740,1.80000e+00,
741,1.40000e+00,
742,1.44000e+00,
743,9.60000e-01,
744,1.04000e+00,
745,6.00000e-01,
746,6.80000e-01,
747,2.00000e-01,
748,2.40000e-01,
749,-2.40000e-01,
750,-1.60000e-01,
751,-6.00000e-01,
752,-5.60000e-01,
753,-1.00000e+00,
754,-9.60000e-01,
755,-1.40000e+00,
756,-1.36000e+00,
757,-1.76000e+00,
758,-1.68000e+00,
759,-2.08000e+00,
760,-2.04000e+00,
761,-2.44000e+00,
762,-2.40000e+00,
763,-2.72000e+00,
764,-2.64000e+00,
765,-2.92000e+00,
766,-2.84000e+00,
767,-3.24000e+00,
768,-3.20000e+00,
769,-3.40000e+00,
770,-3.32000e+00,
771,-3.48000e+00,
772,-3.44000e+00,
773,-3.60000e+00,
774,-3.52000e+00,
775,-3.68000e+00,
776,-3.56000e+00,
777,-3.68000e+00,
778,-3.64000e+00,
779,-3.52000e+00,
780,-3.60000e+00,
781,-3.44000e+00,
782,-3.52000e+00,
783,-3.32000e+00,
784,-3.40000e+00,
785,-3.08000e+00,
786,-3.16000e+00,
787,-2.88000e+00,
788,-2.96000e+00,
789,-2.60000e+00,
790,-2.64000e+00,
791,-2.32000e+00,
792,-2.40000e+00,
793,-2.00000e+00,
794,-2.04000e+00,
795,-1.64000e+00,
796,-1.72000e+00,
797,-1.28000e+00,
798,-1.32000e+00,
799,-8.40000e-01,
800,-9.20000e-01,
801,-4.80000e-01,
802,-5.20000e-01,
803,-8.00000e-02,
804,-1.20000e-01,
805,3.20000e-01,
806,2.80000e-01,
807,7.60000e-01,
808,6.80000e-01,
809,1.12000e+00,
810,1.12000e+00,
811,1.52000e+00,
812,1.48000e+00,
813,1.88000e+00,
814,1.84000e+00,
815,2.24000e+00,
816,2.16000e+00,
817,2.52000e+00,
818,2.44000e+00,
819,2.84000e+00,
820,2.76000e+00,
821,3.08000e+00,
822,2.96000e+00,
823,3.28000e+00,
824,3.16000e+00,
825,3.40000e+00,
826,3.32000e+00,
827,3.56000e+00,
828,3.44000e+00,
829,3.60000e+00,
830,3.52000e+00,
831,3.64000e+00,
832,3.64000e+00,
833,3.56000e+00,
834,3.64000e+00,
835,3.48000e+00,
836,3.56000e+00,
837,3.36000e+00,
838,3.48000e+00,
839,3.20000e+00,
840,3.28000e+00,
841,3.04000e+00,
842,3.12000e+00,
843,2.80000e+00,
844,2.88000e+00,
845,2.56000e+00,
846,2.60000e+00,
847,2.24000e+00,
848,2.32000e+00,
849,1.92000e+00,
850,2.00000e+00,
851,1.60000e+00,
852,1.64000e+00,
853,1.20000e+00,
854,1.24000e+00,
855,8.00000e-01,
856,8.80000e-01,
857,4.40000e-01,
858,5.20000e-01,
859,4.00000e-02,
860,8.00000e-02,
861,-4.00000e-01,
862,-3.20000e-01,
863,-7.60000e-01,
864,-7.20000e-01,
865,-1.20000e+00,
866,-1.16000e+00,
867,-1.60000e+00,
868,-1.52000e+00,
869,-1.92000e+00,
870,-1.84000e+00,
871,-2.24000e+00,
872,-2.20000e+00,
873,-2.56000e+00,
874,-2.52000e+00,
875,-2.84000e+00,
876,-2.76000e+00,
877,-3.08000e+00,
878,-3.00000e+00,
879,-3.28000e+00,
880,-3.24000e+00,
881,-3.44000e+00,
882,-3.40000e+00,
883,-3.56000e+00,
884,-3.48000e+00,
885,-3.64000e+00,
886,-3.56000e+00,
887,-3.68000e+00,
888,-3.68000e+00,
889,-3.56000e+00,
890,-3.64000e+00,
891,-3.48000e+00,
892,-3.56000e+00,
893,-3.36000e+00,
894,-3.40000e+00,
895,-3.20000e+00,
896,-3.24000e+00,
897,-3.00000e+00,
898,-3.08000e+00,
899,-2.76000e+00,
900,-2.84000e+00,
901,-2.48000e+00,
902,-2.56000e+00,
903,-2.16000e+00,
904,-2.20000e+00,
905,-1.80000e+00,
906,-1.84000e+00,
907,-1.48000e+00,
908,-1.52000e+00,
909,-1.12000e+00,
910,-1.12000e+00,
911,-6.80000e-01,
912,-7.60000e-01,
913,-2.80000e-01,
914,-3.60000e-01,
915,1.20000e-01,
916,4.00000e-02,
917,4.80000e-01,
918,4.80000e-01,
919,9.20000e-01,
920,8.80000e-01,
921,1.32000e+00,
922,1.24000e+00,
923,1.68000e+00,
924,1.64000e+00,
925,2.04000e+00,
926,1.96000e+00,
927,2.32000e+00,
928,2.28000e+00,
929,2.68000e+00,
930,2.60000e+00,
931,2.92000e+00,
932,2.84000e+00,
933,3.16000e+00,
934,3.08000e+00,
935,3.36000e+00,
936,3.24000e+00,
937,3.48000e+00,
938,3.40000e+00,
939,3.56000e+00,
940,3.48000e+00,
941,3.64000e+00,
942,3.52000e+00,
943,3.64000e+00,
944,3.64000e+00,
945,3.52000e+00,
946,3.60000e+00,
947,3.44000e+00,
948,3.52000e+00,
949,3.32000e+00,
950,3.40000e+00,
951,3.16000e+00,
952,3.24000e+00,
953,2.96000e+00,
954,3.00000e+00,
955,2.72000e+00,
956,2.76000e+00,
957,2.40000e+00,
958,2.48000e+00,
959,2.12000e+00,
960,2.20000e+00,
961,1.76000e+00,
962,1.84000e+00,
963,1.44000e+00,
964,1.48000e+00,
965,1.08000e+00,
966,1.08000e+00,
967,6.40000e-01,
968,7.20000e-01,
969,2.40000e-01,
970,3.20000e-01,
971,-1.60000e-01,
972,-1.20000e-01,
973,-5.60000e-01,
974,-5.20000e-01,
975,-9.60000e-01,
976,-9.20000e-01,
977,-1.32000e+00,
978,-1.32000e+00,
979,-1.72000e+00,
980,-1.68000e+00,
981,-2.04000e+00,
982,-2.00000e+00,
983,-2.40000e+00,
984,-2.36000e+00,
985,-2.68000e+00,
986,-2.64000e+00,
987,-2.96000e+00,
988,-2.88000e+00,
989,-3.16000e+00,
990,-3.08000e+00,
991,-3.36000e+00,
992,-3.32000e+00,
993,-3.52000e+00,
994,-3.44000e+00,
995,-3.60000e+00,
996,-3.52000e+00,
997,-3.64000e+00,
998,-3.56000e+00,
999,-3.68000e+00,
1000,-3.68000e+00,
1001,-3.52000e+00,
1002,-3.60000e+00,
1003,-3.44000e+00,
1004,-3.48000e+00,
1005,-3.32000e+00,
1006,-3.36000e+00,
1007,-3.12000e+00,
1008,-3.16000e+00,
1009,-2.92000e+00,
1010,-2.96000e+00,
1011,-2.64000e+00,
1012,-2.72000e+00,
1013,-2.36000e+00,
1014,-2.44000e+00,
1015,-2.04000e+00,
1016,-2.08000e+00,
1017,-1.68000e+00,
1018,-1.72000e+00,
1019,-1.32000e+00,
1020,-1.40000e+00,
1021,-9.20000e-01,
1022,-9.60000e-01,
1023,-5.20000e-01,
1024,-5.60000e-01,
1025,-1.20000e-01,
1026,-1.60000e-01,
1027,2.80000e-01,
1028,2.80000e-01,
1029,7.20000e-01,
1030,6.80000e-01,
1031,1.12000e+00,
1032,1.04000e+00,
1033,1.48000e+00,
1034,1.44000e+00,
1035,1.84000e+00,
1036,1.76000e+00,
1037,2.20000e+00,
1038,2.12000e+00,
1039,2.48000e+00,
1040,2.44000e+00,
1041,2.80000e+00,
1042,2.72000e+00,
1043,3.04000e+00,
1044,2.96000e+00,
1045,3.24000e+00,
1046,3.16000e+00,
1047,3.40000e+00,
1048,3.32000e+00,
1049,3.52000e+00,
1050,3.44000e+00,
1051,3.60000e+00,
1052,3.48000e+00,
1053,3.64000e+00,
1054,3.64000e+00,
1055,3.52000e+00,
1056,3.64000e+00,
1057,3.48000e+00,
1058,3.56000e+00,
1059,3.40000e+00,
1060,3.48000e+00,
1061,3.24000e+00,
1062,3.32000e+00,
1063,3.08000e+00,
1064,3.16000e+00,
1065,2.84000e+00,
1066,2.88000e+00,
1067,2.60000e+00,
1068,2.64000e+00,
1069,2.28000e+00,
1070,2.36000e+00,
1071,1.96000e+00,
1072,2.04000e+00,
1073,1.64000e+00,
1074,1.68000e+00,
1075,1.28000e+00,
1076,1.28000e+00,
1077,8.80000e-01,
1078,9.20000e-01,
1079,4.80000e-01,
1080,4.80000e-01,
1081,4.00000e-02,
1082,1.20000e-01,
1083,-3.60000e-01,
1084,-2.80000e-01,
1085,-7.60000e-01,
1086,-7.20000e-01,
1087,-1.16000e+00,
1088,-1.08000e+00,
1089,-1.52000e+00,
1090,-1.48000e+00,
1091,-1.88000e+00,
1092,-1.84000e+00,
1093,-2.24000e+00,
1094,-2.20000e+00,
1095,-2.56000e+00,
1096,-2.48000e+00,
1097,-2.84000e+00,
1098,-2.76000e+00,
1099,-3.04000e+00,
1100,-2.96000e+00,
1101,-3.24000e+00,
1102,-3.24000e+00,
1103,-3.48000e+00,
1104,-3.40000e+00,
1105,-3.56000e+00,
1106,-3.48000e+00,
1107,-3.64000e+00,
1108,-3.56000e+00,
1109,-3.68000e+00,
1110,-3.68000e+00,
1111,-3.56000e+00,
1112,-3.64000e+00,
1113,-3.48000e+00,
1114,-3.56000e+00,
1115,-3.40000e+00,
1116,-3.48000e+00,
1117,-3.24000e+00,
1118,-3.28000e+00,
1119,-3.00000e+00,
1120,-3.08000e+00,
1121,-2.80000e+00,
1122,-2.84000e+00,
1123,-2.52000e+00,
1124,-2.60000e+00,
1125,-2.20000e+00,
1126,-2.28000e+00,
1127,-1.84000e+00,
1128,-1.92000e+00,
1129,-1.52000e+00,
1130,-1.52000e+00,
1131,-1.16000e+00,
1132,-1.16000e+00,
1133,-7.20000e-01,
1134,-7.60000e-01,
1135,-3.20000e-01,
1136,-4.00000e-01,
