DataAnalysis/Johnson_noise/2017_johnson_noise/data_MUIC_nop_anan/NewFile42.csv

X,CH1,Start,Increment,
Sequence,Volt,-3.60000e-03,1.00000e-05
0,-1.80000e+00,
1,-5.20000e-01,
2,-5.60000e-01,
3,8.00000e-01,
4,8.00000e-01,
5,2.04000e+00,
6,2.00000e+00,
7,3.00000e+00,
8,2.92000e+00,
9,3.60000e+00,
10,3.56000e+00,
11,3.80000e+00,
12,3.80000e+00,
13,3.40000e+00,
14,3.48000e+00,
15,2.76000e+00,
16,2.80000e+00,
17,1.72000e+00,
18,1.76000e+00,
19,4.80000e-01,
20,5.20000e-01,
21,-8.00000e-01,
22,-8.00000e-01,
23,-2.00000e+00,
24,-2.00000e+00,
25,-3.00000e+00,
26,-2.96000e+00,
27,-3.60000e+00,
28,-3.52000e+00,
29,-3.76000e+00,
30,-3.72000e+00,
31,-3.36000e+00,
32,-3.40000e+00,
33,-2.60000e+00,
34,-2.68000e+00,
35,-1.56000e+00,
36,-1.60000e+00,
37,-2.80000e-01,
38,-3.60000e-01,
39,1.00000e+00,
40,9.60000e-01,
41,2.16000e+00,
42,2.16000e+00,
43,3.08000e+00,
44,3.08000e+00,
45,3.64000e+00,
46,3.60000e+00,
47,3.80000e+00,
48,3.76000e+00,
49,3.36000e+00,
50,3.44000e+00,
51,2.64000e+00,
52,2.64000e+00,
53,1.56000e+00,
54,1.64000e+00,
55,3.20000e-01,
56,3.60000e-01,
57,-1.04000e+00,
58,-9.60000e-01,
59,-2.16000e+00,
60,-2.16000e+00,
61,-3.08000e+00,
62,-3.04000e+00,
63,-3.64000e+00,
64,-3.56000e+00,
65,-3.76000e+00,
66,-3.72000e+00,
67,-3.28000e+00,
68,-3.32000e+00,
69,-2.48000e+00,
70,-2.56000e+00,
71,-1.40000e+00,
72,-1.40000e+00,
73,-1.20000e-01,
74,-2.00000e-01,
75,1.16000e+00,
76,1.20000e+00,
77,2.32000e+00,
78,2.28000e+00,
79,3.20000e+00,
80,3.20000e+00,
81,3.72000e+00,
82,3.64000e+00,
83,3.80000e+00,
84,3.76000e+00,
85,3.28000e+00,
86,3.32000e+00,
87,2.44000e+00,
88,2.52000e+00,
89,1.40000e+00,
90,1.40000e+00,
91,8.00000e-02,
92,8.00000e-02,
93,-1.20000e+00,
94,-1.20000e+00,
95,-2.36000e+00,
96,-2.32000e+00,
97,-3.20000e+00,
98,-3.16000e+00,
99,-3.68000e+00,
100,-3.60000e+00,
101,-3.76000e+00,
102,-3.68000e+00,
103,-3.16000e+00,
104,-3.24000e+00,
105,-2.36000e+00,
106,-2.44000e+00,
107,-1.24000e+00,
108,-1.28000e+00,
109,4.00000e-02,
110,4.00000e-02,
111,1.32000e+00,
112,1.36000e+00,
113,2.48000e+00,
114,2.40000e+00,
115,3.32000e+00,
116,3.24000e+00,
117,3.72000e+00,
118,3.64000e+00,
119,3.76000e+00,
120,3.72000e+00,
121,3.16000e+00,
122,3.24000e+00,
123,2.32000e+00,
124,2.40000e+00,
125,1.20000e+00,
126,1.24000e+00,
127,-8.00000e-02,
128,-4.00000e-02,
129,-1.32000e+00,
130,-1.32000e+00,
131,-2.48000e+00,
132,-2.44000e+00,
133,-3.28000e+00,
134,-3.24000e+00,
135,-3.72000e+00,
136,-3.76000e+00,
137,-3.60000e+00,
138,-3.68000e+00,
139,-3.12000e+00,
140,-3.16000e+00,
141,-2.24000e+00,
142,-2.24000e+00,
143,-1.04000e+00,
144,-1.08000e+00,
145,2.40000e-01,
146,2.40000e-01,
147,1.52000e+00,
148,1.52000e+00,
149,2.60000e+00,
150,2.60000e+00,
151,3.40000e+00,
152,3.32000e+00,
153,3.76000e+00,
154,3.84000e+00,
155,3.64000e+00,
156,3.68000e+00,
157,3.08000e+00,
158,3.16000e+00,
159,2.16000e+00,
160,2.24000e+00,
161,1.04000e+00,
162,1.08000e+00,
163,-2.80000e-01,
164,-2.40000e-01,
165,-1.52000e+00,
166,-1.52000e+00,
167,-2.64000e+00,
168,-2.56000e+00,
169,-3.36000e+00,
170,-3.36000e+00,
171,-3.72000e+00,
172,-3.76000e+00,
173,-3.56000e+00,
174,-3.64000e+00,
175,-2.96000e+00,
176,-3.04000e+00,
177,-2.08000e+00,
178,-2.08000e+00,
179,-8.80000e-01,
180,-8.80000e-01,
181,4.00000e-01,
182,4.40000e-01,
183,1.68000e+00,
184,1.68000e+00,
185,2.72000e+00,
186,2.68000e+00,
187,3.48000e+00,
188,3.40000e+00,
189,3.76000e+00,
190,3.80000e+00,
191,3.60000e+00,
192,3.64000e+00,
193,3.00000e+00,
194,3.04000e+00,
195,2.04000e+00,
196,2.08000e+00,
197,8.40000e-01,
198,8.80000e-01,
199,-4.80000e-01,
200,-4.00000e-01,
201,-1.68000e+00,
202,-1.68000e+00,
203,-2.76000e+00,
204,-2.68000e+00,
205,-3.44000e+00,
206,-3.40000e+00,
207,-3.76000e+00,
208,-3.76000e+00,
209,-3.52000e+00,
210,-3.56000e+00,
211,-2.88000e+00,
212,-2.92000e+00,
213,-1.88000e+00,
214,-1.92000e+00,
215,-6.80000e-01,
216,-7.20000e-01,
217,6.00000e-01,
218,5.60000e-01,
219,1.88000e+00,
220,1.84000e+00,
221,2.88000e+00,
222,2.80000e+00,
223,3.52000e+00,
224,3.44000e+00,
225,3.80000e+00,
226,3.84000e+00,
227,3.48000e+00,
228,3.56000e+00,
229,2.88000e+00,
230,2.92000e+00,
231,1.88000e+00,
232,1.96000e+00,
233,6.40000e-01,
234,7.20000e-01,
235,-6.40000e-01,
236,-6.40000e-01,
237,-1.84000e+00,
238,-1.80000e+00,
239,-2.88000e+00,
240,-2.80000e+00,
241,-3.52000e+00,
242,-3.44000e+00,
243,-3.76000e+00,
244,-3.76000e+00,
245,-3.44000e+00,
246,-3.48000e+00,
247,-2.76000e+00,
248,-2.80000e+00,
249,-1.72000e+00,
250,-1.80000e+00,
251,-4.80000e-01,
252,-5.60000e-01,
253,8.00000e-01,
254,8.00000e-01,
255,2.04000e+00,
256,2.00000e+00,
257,3.00000e+00,
258,2.92000e+00,
259,3.60000e+00,
260,3.56000e+00,
261,3.80000e+00,
262,3.80000e+00,
263,3.48000e+00,
264,3.48000e+00,
265,2.76000e+00,
266,2.76000e+00,
267,1.72000e+00,
268,1.76000e+00,
269,4.80000e-01,
270,5.20000e-01,
271,-8.40000e-01,
272,-8.40000e-01,
273,-2.00000e+00,
274,-2.04000e+00,
275,-3.00000e+00,
276,-2.96000e+00,
277,-3.60000e+00,
278,-3.52000e+00,
279,-3.76000e+00,
280,-3.76000e+00,
281,-3.36000e+00,
282,-3.44000e+00,
283,-2.64000e+00,
284,-2.68000e+00,
285,-1.56000e+00,
286,-1.60000e+00,
287,-3.20000e-01,
288,-3.60000e-01,
289,1.00000e+00,
290,9.20000e-01,
291,2.20000e+00,
292,2.16000e+00,
293,3.12000e+00,
294,3.08000e+00,
295,3.64000e+00,
296,3.60000e+00,
297,3.80000e+00,
298,3.76000e+00,
299,3.40000e+00,
300,3.44000e+00,
301,2.60000e+00,
302,2.64000e+00,
303,1.56000e+00,
304,1.56000e+00,
305,2.80000e-01,
306,3.60000e-01,
307,-1.00000e+00,
308,-9.60000e-01,
309,-2.16000e+00,
310,-2.16000e+00,
311,-3.08000e+00,
312,-3.04000e+00,
313,-3.64000e+00,
314,-3.60000e+00,
315,-3.76000e+00,
316,-3.72000e+00,
317,-3.28000e+00,
318,-3.32000e+00,
319,-2.52000e+00,
320,-2.56000e+00,
321,-1.40000e+00,
322,-1.40000e+00,
323,-1.20000e-01,
324,-1.20000e-01,
325,1.16000e+00,
326,1.16000e+00,
327,2.32000e+00,
328,2.32000e+00,
329,3.20000e+00,
330,3.12000e+00,
331,3.68000e+00,
332,3.64000e+00,
333,3.80000e+00,
334,3.72000e+00,
335,3.24000e+00,
336,3.32000e+00,
337,2.44000e+00,
338,2.52000e+00,
339,1.40000e+00,
340,1.40000e+00,
341,1.20000e-01,
342,1.20000e-01,
343,-1.16000e+00,
344,-1.16000e+00,
345,-2.36000e+00,
346,-2.28000e+00,
347,-3.20000e+00,
348,-3.16000e+00,
349,-3.68000e+00,
350,-3.60000e+00,
351,-3.76000e+00,
352,-3.68000e+00,
353,-3.20000e+00,
354,-3.24000e+00,
355,-2.36000e+00,
356,-2.44000e+00,
357,-1.28000e+00,
358,-1.28000e+00,
359,4.00000e-02,
360,4.00000e-02,
361,1.32000e+00,
362,1.32000e+00,
363,2.48000e+00,
364,2.48000e+00,
365,3.32000e+00,
366,3.28000e+00,
367,3.72000e+00,
368,3.64000e+00,
369,3.80000e+00,
370,3.72000e+00,
371,3.16000e+00,
372,3.24000e+00,
373,2.36000e+00,
374,2.40000e+00,
375,1.20000e+00,
376,1.24000e+00,
377,-8.00000e-02,
378,-8.00000e-02,
379,-1.40000e+00,
380,-1.32000e+00,
381,-2.44000e+00,
382,-2.44000e+00,
383,-3.28000e+00,
384,-3.24000e+00,
385,-3.72000e+00,
386,-3.76000e+00,
387,-3.56000e+00,
388,-3.64000e+00,
389,-3.08000e+00,
390,-3.12000e+00,
391,-2.20000e+00,
392,-2.24000e+00,
393,-1.04000e+00,
394,-1.08000e+00,
395,2.40000e-01,
396,2.80000e-01,
397,1.52000e+00,
398,1.48000e+00,
399,2.60000e+00,
400,2.60000e+00,
401,3.40000e+00,
402,3.36000e+00,
403,3.76000e+00,
404,3.80000e+00,
405,3.60000e+00,
406,3.68000e+00,
407,3.08000e+00,
408,3.16000e+00,
409,2.16000e+00,
410,2.24000e+00,
411,1.00000e+00,
412,1.08000e+00,
413,-2.80000e-01,
414,-2.40000e-01,
415,-1.52000e+00,
416,-1.52000e+00,
417,-2.64000e+00,
418,-2.56000e+00,
419,-3.36000e+00,
420,-3.32000e+00,
421,-3.76000e+00,
422,-3.76000e+00,
423,-3.56000e+00,
424,-3.60000e+00,
425,-3.00000e+00,
426,-3.04000e+00,
427,-2.08000e+00,
428,-2.08000e+00,
429,-8.80000e-01,
430,-8.80000e-01,
431,4.00000e-01,
432,4.40000e-01,
433,1.72000e+00,
434,1.64000e+00,
435,2.72000e+00,
436,2.72000e+00,
437,3.48000e+00,
438,3.40000e+00,
439,3.76000e+00,
440,3.76000e+00,
441,3.52000e+00,
442,3.60000e+00,
443,3.04000e+00,
444,3.04000e+00,
445,2.00000e+00,
446,2.08000e+00,
447,8.40000e-01,
448,9.20000e-01,
449,-4.80000e-01,
450,-4.80000e-01,
451,-1.72000e+00,
452,-1.68000e+00,
453,-2.76000e+00,
454,-2.68000e+00,
455,-3.48000e+00,
456,-3.40000e+00,
457,-3.76000e+00,
458,-3.76000e+00,
459,-3.52000e+00,
460,-3.60000e+00,
461,-2.88000e+00,
462,-2.92000e+00,
463,-1.92000e+00,
464,-1.92000e+00,
465,-6.80000e-01,
466,-6.80000e-01,
467,6.40000e-01,
468,5.60000e-01,
469,1.88000e+00,
470,1.84000e+00,
471,2.88000e+00,
472,2.84000e+00,
473,3.56000e+00,
474,3.48000e+00,
475,3.76000e+00,
476,3.76000e+00,
477,3.52000e+00,
478,3.56000e+00,
479,2.92000e+00,
480,2.92000e+00,
481,1.88000e+00,
482,1.92000e+00,
483,6.40000e-01,
484,6.80000e-01,
485,-6.40000e-01,
486,-6.00000e-01,
487,-1.88000e+00,
488,-1.84000e+00,
489,-2.88000e+00,
490,-2.84000e+00,
491,-3.52000e+00,
492,-3.48000e+00,
493,-3.76000e+00,
494,-3.76000e+00,
495,-3.44000e+00,
496,-3.52000e+00,
497,-2.80000e+00,
498,-2.80000e+00,
499,-1.72000e+00,
500,-1.80000e+00,
501,-4.80000e-01,
502,-5.60000e-01,
503,8.00000e-01,
504,8.00000e-01,
505,2.04000e+00,
506,1.96000e+00,
507,3.00000e+00,
508,2.96000e+00,
509,3.60000e+00,
510,3.56000e+00,
511,3.80000e+00,
512,3.76000e+00,
513,3.48000e+00,
514,3.48000e+00,
515,2.76000e+00,
516,2.76000e+00,
517,1.72000e+00,
518,1.76000e+00,
519,4.80000e-01,
520,5.60000e-01,
521,-8.40000e-01,
522,-8.00000e-01,
523,-2.04000e+00,
524,-2.00000e+00,
525,-3.00000e+00,
526,-2.92000e+00,
527,-3.60000e+00,
528,-3.52000e+00,
529,-3.76000e+00,
530,-3.76000e+00,
531,-3.36000e+00,
532,-3.44000e+00,
533,-2.64000e+00,
534,-2.68000e+00,
535,-1.56000e+00,
536,-1.64000e+00,
537,-3.20000e-01,
538,-3.20000e-01,
539,1.00000e+00,
540,9.60000e-01,
541,2.16000e+00,
542,2.16000e+00,
543,3.12000e+00,
544,3.08000e+00,
545,3.64000e+00,
546,3.64000e+00,
547,3.76000e+00,
548,3.76000e+00,
549,3.36000e+00,
550,3.44000e+00,
551,2.64000e+00,
552,2.68000e+00,
553,1.56000e+00,
554,1.56000e+00,
555,2.80000e-01,
556,3.20000e-01,
557,-1.00000e+00,
558,-9.60000e-01,
559,-2.16000e+00,
560,-2.20000e+00,
561,-3.08000e+00,
562,-3.04000e+00,
563,-3.64000e+00,
564,-3.60000e+00,
565,-3.76000e+00,
566,-3.72000e+00,
567,-3.28000e+00,
568,-3.32000e+00,
569,-2.48000e+00,
570,-2.56000e+00,
571,-1.36000e+00,
572,-1.40000e+00,
573,-1.20000e-01,
574,-1.60000e-01,
575,1.16000e+00,
576,1.12000e+00,
577,2.32000e+00,
578,2.28000e+00,
579,3.20000e+00,
580,3.20000e+00,
581,3.68000e+00,
582,3.64000e+00,
583,3.76000e+00,
584,3.76000e+00,
585,3.32000e+00,
586,3.36000e+00,
587,2.48000e+00,
588,2.52000e+00,
589,1.40000e+00,
590,1.40000e+00,
591,1.20000e-01,
592,1.20000e-01,
593,-1.20000e+00,
594,-1.20000e+00,
595,-2.36000e+00,
596,-2.32000e+00,
597,-3.20000e+00,
598,-3.20000e+00,
599,-3.68000e+00,
600,-3.60000e+00,
601,-3.76000e+00,
602,-3.68000e+00,
603,-3.20000e+00,
604,-3.24000e+00,
605,-2.36000e+00,
606,-2.44000e+00,
607,-1.24000e+00,
608,-1.28000e+00,
609,0.00000e+00,
610,4.00000e-02,
611,1.32000e+00,
612,1.28000e+00,
613,2.48000e+00,
614,2.48000e+00,
615,3.28000e+00,
616,3.28000e+00,
617,3.72000e+00,
618,3.76000e+00,
619,3.60000e+00,
620,3.68000e+00,
621,3.20000e+00,
622,3.24000e+00,
623,2.32000e+00,
624,2.36000e+00,
625,1.24000e+00,
626,1.24000e+00,
627,-8.00000e-02,
628,-4.00000e-02,
629,-1.40000e+00,
630,-1.36000e+00,
631,-2.44000e+00,
632,-2.44000e+00,
633,-3.28000e+00,
634,-3.28000e+00,
635,-3.72000e+00,
636,-3.76000e+00,
637,-3.60000e+00,
638,-3.68000e+00,
639,-3.08000e+00,
640,-3.16000e+00,
641,-2.20000e+00,
642,-2.24000e+00,
643,-1.04000e+00,
644,-1.12000e+00,
645,2.40000e-01,
646,1.60000e-01,
647,1.52000e+00,
648,1.48000e+00,
649,2.60000e+00,
650,2.56000e+00,
651,3.40000e+00,
652,3.32000e+00,
653,3.72000e+00,
654,3.76000e+00,
655,3.60000e+00,
656,3.68000e+00,
657,3.08000e+00,
658,3.16000e+00,
659,2.20000e+00,
660,2.24000e+00,
661,1.04000e+00,
662,1.04000e+00,
663,-2.40000e-01,
664,-2.00000e-01,
665,-1.56000e+00,
666,-1.48000e+00,
667,-2.60000e+00,
668,-2.60000e+00,
669,-3.40000e+00,
670,-3.36000e+00,
671,-3.76000e+00,
672,-3.76000e+00,
673,-3.56000e+00,
674,-3.64000e+00,
675,-3.04000e+00,
676,-3.08000e+00,
677,-2.08000e+00,
678,-2.12000e+00,
679,-8.80000e-01,
680,-8.40000e-01,
681,4.40000e-01,
682,4.00000e-01,
683,1.64000e+00,
684,1.60000e+00,
685,2.76000e+00,
686,2.68000e+00,
687,3.44000e+00,
688,3.40000e+00,
689,3.80000e+00,
690,3.80000e+00,
691,3.52000e+00,
692,3.60000e+00,
693,2.96000e+00,
694,3.04000e+00,
695,2.00000e+00,
696,2.08000e+00,
697,8.40000e-01,
698,8.80000e-01,
699,-4.40000e-01,
700,-4.40000e-01,
701,-1.72000e+00,
702,-1.72000e+00,
703,-2.76000e+00,
704,-2.68000e+00,
705,-3.52000e+00,
706,-3.44000e+00,
707,-3.76000e+00,
708,-3.76000e+00,
709,-3.52000e+00,
710,-3.60000e+00,
711,-2.88000e+00,
712,-2.96000e+00,
713,-1.92000e+00,
714,-1.96000e+00,
715,-7.20000e-01,
716,-6.80000e-01,
717,6.00000e-01,
718,6.00000e-01,
719,1.84000e+00,
720,1.84000e+00,
721,2.88000e+00,
722,2.88000e+00,
723,3.52000e+00,
724,3.48000e+00,
725,3.84000e+00,
726,3.80000e+00,
727,3.48000e+00,
728,3.56000e+00,
729,2.84000e+00,
730,2.88000e+00,
731,1.88000e+00,
732,1.96000e+00,
733,6.40000e-01,
734,7.20000e-01,
735,-6.40000e-01,
736,-6.40000e-01,
737,-1.84000e+00,
738,-1.84000e+00,
739,-2.88000e+00,
740,-2.80000e+00,
741,-3.56000e+00,
742,-3.48000e+00,
743,-3.76000e+00,
744,-3.76000e+00,
745,-3.48000e+00,
746,-3.52000e+00,
747,-2.76000e+00,
748,-2.80000e+00,
749,-1.76000e+00,
750,-1.80000e+00,
751,-5.20000e-01,
752,-5.20000e-01,
753,8.00000e-01,
754,7.60000e-01,
755,2.04000e+00,
756,2.00000e+00,
757,3.00000e+00,
758,2.92000e+00,
759,3.60000e+00,
760,3.52000e+00,
761,3.80000e+00,
762,3.80000e+00,
763,3.44000e+00,
764,3.48000e+00,
765,2.76000e+00,
766,2.80000e+00,
767,1.72000e+00,
768,1.72000e+00,
769,4.80000e-01,
770,4.80000e-01,
771,-8.00000e-01,
772,-8.40000e-01,
773,-2.04000e+00,
774,-2.00000e+00,
775,-3.00000e+00,
776,-2.96000e+00,
777,-3.60000e+00,
778,-3.52000e+00,
779,-3.76000e+00,
780,-3.72000e+00,
781,-3.40000e+00,
782,-3.44000e+00,
783,-2.64000e+00,
784,-2.72000e+00,
785,-1.56000e+00,
786,-1.60000e+00,
787,-3.20000e-01,
788,-3.60000e-01,
789,1.00000e+00,
790,1.00000e+00,
791,2.16000e+00,
792,2.16000e+00,
793,3.12000e+00,
794,3.08000e+00,
795,3.64000e+00,
796,3.60000e+00,
797,3.76000e+00,
798,3.76000e+00,
799,3.32000e+00,
800,3.40000e+00,
801,2.64000e+00,
802,2.64000e+00,
803,1.56000e+00,
804,1.60000e+00,
805,2.80000e-01,
806,3.20000e-01,
807,-1.00000e+00,
808,-1.00000e+00,
809,-2.16000e+00,
810,-2.16000e+00,
811,-3.08000e+00,
812,-3.04000e+00,
813,-3.64000e+00,
814,-3.56000e+00,
815,-3.76000e+00,
816,-3.72000e+00,
817,-3.28000e+00,
818,-3.32000e+00,
819,-2.48000e+00,
820,-2.56000e+00,
821,-1.40000e+00,
822,-1.40000e+00,
823,-1.20000e-01,
824,-1.60000e-01,
825,1.16000e+00,
826,1.20000e+00,
827,2.32000e+00,
828,2.28000e+00,
829,3.20000e+00,
830,3.16000e+00,
831,3.72000e+00,
832,3.60000e+00,
833,3.76000e+00,
834,3.72000e+00,
835,3.28000e+00,
836,3.32000e+00,
837,2.48000e+00,
838,2.52000e+00,
839,1.40000e+00,
840,1.44000e+00,
841,1.20000e-01,
842,1.20000e-01,
843,-1.20000e+00,
844,-1.16000e+00,
845,-2.32000e+00,
846,-2.28000e+00,
847,-3.20000e+00,
848,-3.20000e+00,
849,-3.68000e+00,
850,-3.64000e+00,
851,-3.76000e+00,
852,-3.72000e+00,
853,-3.20000e+00,
854,-3.20000e+00,
855,-2.36000e+00,
856,-2.36000e+00,
857,-1.24000e+00,
858,-1.24000e+00,
859,4.00000e-02,
860,4.00000e-02,
861,1.36000e+00,
862,1.32000e+00,
863,2.48000e+00,
864,2.44000e+00,
865,3.28000e+00,
866,3.32000e+00,
867,3.76000e+00,
868,3.76000e+00,
869,3.64000e+00,
870,3.72000e+00,
871,3.16000e+00,
872,3.24000e+00,
873,2.36000e+00,
874,2.40000e+00,
875,1.20000e+00,
876,1.28000e+00,
877,-8.00000e-02,
878,-8.00000e-02,
879,-1.36000e+00,
880,-1.32000e+00,
881,-2.48000e+00,
882,-2.48000e+00,
883,-3.28000e+00,
884,-3.24000e+00,
885,-3.72000e+00,
886,-3.76000e+00,
887,-3.60000e+00,
888,-3.68000e+00,
889,-3.08000e+00,
890,-3.12000e+00,
891,-2.20000e+00,
892,-2.24000e+00,
893,-1.04000e+00,
894,-1.08000e+00,
895,2.40000e-01,
896,2.40000e-01,
897,1.52000e+00,
898,1.52000e+00,
899,2.60000e+00,
900,2.60000e+00,
901,3.40000e+00,
902,3.28000e+00,
903,3.76000e+00,
904,3.80000e+00,
905,3.60000e+00,
906,3.64000e+00,
907,3.08000e+00,
908,3.16000e+00,
909,2.20000e+00,
910,2.24000e+00,
911,1.00000e+00,
912,1.04000e+00,
913,-2.40000e-01,
914,-2.40000e-01,
915,-1.56000e+00,
916,-1.52000e+00,
917,-2.64000e+00,
918,-2.64000e+00,
919,-3.40000e+00,
920,-3.36000e+00,
921,-3.76000e+00,
922,-3.76000e+00,
923,-3.56000e+00,
924,-3.64000e+00,
925,-3.00000e+00,
926,-3.04000e+00,
927,-2.08000e+00,
928,-2.12000e+00,
929,-8.80000e-01,
930,-9.20000e-01,
931,4.00000e-01,
932,4.40000e-01,
933,1.68000e+00,
934,1.64000e+00,
935,2.72000e+00,
936,2.76000e+00,
937,3.48000e+00,
938,3.40000e+00,
939,3.76000e+00,
940,3.76000e+00,
941,3.52000e+00,
942,3.60000e+00,
943,2.96000e+00,
944,3.04000e+00,
945,2.04000e+00,
946,2.08000e+00,
947,8.40000e-01,
948,8.80000e-01,
949,-4.80000e-01,
950,-4.40000e-01,
951,-1.72000e+00,
952,-1.68000e+00,
953,-2.76000e+00,
954,-2.72000e+00,
955,-3.44000e+00,
956,-3.40000e+00,
957,-3.76000e+00,
958,-3.76000e+00,
959,-3.52000e+00,
960,-3.56000e+00,
961,-2.92000e+00,
962,-2.92000e+00,
963,-1.88000e+00,
964,-1.96000e+00,
965,-6.80000e-01,
966,-7.20000e-01,
967,6.00000e-01,
968,5.60000e-01,
969,1.84000e+00,
970,1.84000e+00,
971,2.88000e+00,
972,2.84000e+00,
973,3.52000e+00,
974,3.48000e+00,
975,3.80000e+00,
976,3.80000e+00,
977,3.48000e+00,
978,3.56000e+00,
979,2.88000e+00,
980,2.92000e+00,
981,1.88000e+00,
982,1.88000e+00,
983,6.40000e-01,
984,7.20000e-01,
985,-6.40000e-01,
986,-5.60000e-01,
987,-1.84000e+00,
988,-1.84000e+00,
989,-2.88000e+00,
990,-2.84000e+00,
991,-3.52000e+00,
992,-3.48000e+00,
993,-3.76000e+00,
994,-3.76000e+00,
995,-3.44000e+00,
996,-3.52000e+00,
997,-2.72000e+00,
998,-2.80000e+00,
999,-1.76000e+00,
1000,-1.76000e+00,
1001,-5.20000e-01,
1002,-5.60000e-01,
1003,8.00000e-01,
1004,7.60000e-01,
1005,2.04000e+00,
1006,2.00000e+00,
1007,2.96000e+00,
1008,2.92000e+00,
1009,3.60000e+00,
1010,3.56000e+00,
1011,3.84000e+00,
1012,3.76000e+00,
1013,3.44000e+00,
1014,3.48000e+00,
1015,2.76000e+00,
1016,2.80000e+00,
1017,1.72000e+00,
1018,1.76000e+00,
1019,4.80000e-01,
1020,5.20000e-01,
1021,-8.00000e-01,
1022,-8.40000e-01,
1023,-2.04000e+00,
1024,-2.00000e+00,
1025,-3.00000e+00,
1026,-3.00000e+00,
1027,-3.60000e+00,
1028,-3.52000e+00,
1029,-3.76000e+00,
1030,-3.76000e+00,
1031,-3.36000e+00,
1032,-3.40000e+00,
1033,-2.60000e+00,
1034,-2.68000e+00,
1035,-1.56000e+00,
1036,-1.60000e+00,
1037,-3.20000e-01,
1038,-3.20000e-01,
1039,1.00000e+00,
1040,9.60000e-01,
1041,2.16000e+00,
1042,2.16000e+00,
1043,3.12000e+00,
1044,3.04000e+00,
1045,3.64000e+00,
1046,3.56000e+00,
1047,3.80000e+00,
1048,3.76000e+00,
1049,3.32000e+00,
1050,3.40000e+00,
1051,2.64000e+00,
1052,2.64000e+00,
1053,1.56000e+00,
1054,1.56000e+00,
1055,2.80000e-01,
1056,3.20000e-01,
1057,-1.00000e+00,
1058,-9.60000e-01,
1059,-2.16000e+00,
1060,-2.20000e+00,
1061,-3.08000e+00,
1062,-3.00000e+00,
1063,-3.64000e+00,
1064,-3.56000e+00,
1065,-3.76000e+00,
1066,-3.72000e+00,
1067,-3.28000e+00,
1068,-3.32000e+00,
1069,-2.52000e+00,
1070,-2.52000e+00,
1071,-1.40000e+00,
1072,-1.44000e+00,
1073,-1.20000e-01,
1074,-2.00000e-01,
1075,1.16000e+00,
1076,1.16000e+00,
1077,2.32000e+00,
1078,2.32000e+00,
1079,3.20000e+00,
1080,3.20000e+00,
1081,3.68000e+00,
1082,3.64000e+00,
1083,3.80000e+00,
1084,3.72000e+00,
1085,3.24000e+00,
1086,3.32000e+00,
1087,2.48000e+00,
1088,2.52000e+00,
1089,1.40000e+00,
1090,1.40000e+00,
1091,8.00000e-02,
1092,1.20000e-01,
1093,-1.16000e+00,
1094,-1.16000e+00,
1095,-2.32000e+00,
1096,-2.28000e+00,
1097,-3.20000e+00,
1098,-3.16000e+00,
1099,-3.68000e+00,
1100,-3.60000e+00,
1101,-3.76000e+00,
1102,-3.72000e+00,
1103,-3.16000e+00,
1104,-3.24000e+00,
1105,-2.36000e+00,
1106,-2.40000e+00,
1107,-1.20000e+00,
1108,-1.24000e+00,
1109,8.00000e-02,
1110,0.00000e+00,
1111,1.32000e+00,
1112,1.32000e+00,
1113,2.44000e+00,
1114,2.40000e+00,
1115,3.28000e+00,
1116,3.28000e+00,
1117,3.72000e+00,
1118,3.64000e+00,
1119,3.80000e+00,
1120,3.68000e+00,
1121,3.20000e+00,
1122,3.24000e+00,
1123,2.36000e+00,
1124,2.40000e+00,
1125,1.16000e+00,
1126,1.24000e+00,
1127,-8.00000e-02,
1128,-4.00000e-02,
1129,-1.36000e+00,
1130,-1.32000e+00,
1131,-2.48000e+00,
1132,-2.44000e+00,
1133,-3.28000e+00,
1134,-3.24000e+00,
1135,-3.72000e+00,
1136,-3.76000e+00,
1137,-3.60000e+00,
