DataAnalysis/Johnson_noise/2017_johnson_noise/data_MUIC_nop_anan/NewFile44.csv

X,CH1,Start,Increment,
Sequence,Volt,-3.60000e-03,1.00000e-05
0,2.24000e+00,
1,7.20000e-01,
2,7.20000e-01,
3,-8.80000e-01,
4,-8.80000e-01,
5,-2.32000e+00,
6,-2.36000e+00,
7,-3.32000e+00,
8,-3.32000e+00,
9,-3.72000e+00,
10,-3.72000e+00,
11,-3.32000e+00,
12,-3.32000e+00,
13,-2.32000e+00,
14,-2.32000e+00,
15,-8.80000e-01,
16,-8.80000e-01,
17,7.20000e-01,
18,7.20000e-01,
19,2.24000e+00,
20,2.20000e+00,
21,3.32000e+00,
22,3.28000e+00,
23,3.76000e+00,
24,3.76000e+00,
25,3.40000e+00,
26,3.52000e+00,
27,2.56000e+00,
28,2.56000e+00,
29,1.16000e+00,
30,1.20000e+00,
31,-4.00000e-01,
32,-4.00000e-01,
33,-1.96000e+00,
34,-1.92000e+00,
35,-3.12000e+00,
36,-3.04000e+00,
37,-3.64000e+00,
38,-3.72000e+00,
39,-3.48000e+00,
40,-3.52000e+00,
41,-2.64000e+00,
42,-2.64000e+00,
43,-1.32000e+00,
44,-1.32000e+00,
45,2.80000e-01,
46,2.80000e-01,
47,1.84000e+00,
48,1.80000e+00,
49,3.04000e+00,
50,3.00000e+00,
51,3.68000e+00,
52,3.76000e+00,
53,3.60000e+00,
54,3.64000e+00,
55,2.88000e+00,
56,2.92000e+00,
57,1.60000e+00,
58,1.64000e+00,
59,4.00000e-02,
60,8.00000e-02,
61,-1.56000e+00,
62,-1.52000e+00,
63,-2.84000e+00,
64,-2.80000e+00,
65,-3.60000e+00,
66,-3.52000e+00,
67,-3.72000e+00,
68,-3.68000e+00,
69,-2.92000e+00,
70,-2.96000e+00,
71,-1.72000e+00,
72,-1.76000e+00,
73,-2.00000e-01,
74,-2.00000e-01,
75,1.44000e+00,
76,1.40000e+00,
77,2.80000e+00,
78,2.72000e+00,
79,3.60000e+00,
80,3.52000e+00,
81,3.76000e+00,
82,3.72000e+00,
83,3.12000e+00,
84,3.20000e+00,
85,2.00000e+00,
86,2.04000e+00,
87,4.80000e-01,
88,5.60000e-01,
89,-1.12000e+00,
90,-1.08000e+00,
91,-2.48000e+00,
92,-2.48000e+00,
93,-3.40000e+00,
94,-3.40000e+00,
95,-3.72000e+00,
96,-3.72000e+00,
97,-3.16000e+00,
98,-3.20000e+00,
99,-2.12000e+00,
100,-2.12000e+00,
101,-6.40000e-01,
102,-6.40000e-01,
103,1.00000e+00,
104,9.60000e-01,
105,2.40000e+00,
106,2.36000e+00,
107,3.44000e+00,
108,3.40000e+00,
109,3.76000e+00,
110,3.76000e+00,
111,3.36000e+00,
112,3.44000e+00,
113,2.40000e+00,
114,2.40000e+00,
115,9.20000e-01,
116,9.60000e-01,
117,-6.40000e-01,
118,-6.00000e-01,
119,-2.16000e+00,
120,-2.12000e+00,
121,-3.24000e+00,
122,-3.20000e+00,
123,-3.72000e+00,
124,-3.72000e+00,
125,-3.40000e+00,
126,-3.40000e+00,
127,-2.48000e+00,
128,-2.52000e+00,
129,-1.08000e+00,
130,-1.08000e+00,
131,5.20000e-01,
132,5.20000e-01,
133,2.04000e+00,
134,2.00000e+00,
135,3.16000e+00,
136,3.12000e+00,
137,3.72000e+00,
138,3.76000e+00,
139,3.48000e+00,
140,3.60000e+00,
141,2.72000e+00,
142,2.76000e+00,
143,1.40000e+00,
144,1.36000e+00,
145,-2.00000e-01,
146,-1.60000e-01,
147,-1.76000e+00,
148,-1.72000e+00,
149,-3.00000e+00,
150,-2.92000e+00,
151,-3.64000e+00,
152,-3.72000e+00,
153,-3.52000e+00,
154,-3.56000e+00,
155,-2.80000e+00,
156,-2.80000e+00,
157,-1.56000e+00,
158,-1.52000e+00,
159,8.00000e-02,
160,4.00000e-02,
161,1.64000e+00,
162,1.60000e+00,
163,2.88000e+00,
164,2.88000e+00,
165,3.64000e+00,
166,3.56000e+00,
167,3.76000e+00,
168,3.68000e+00,
169,3.00000e+00,
170,3.04000e+00,
171,1.80000e+00,
172,1.84000e+00,
173,2.80000e-01,
174,2.80000e-01,
175,-1.36000e+00,
176,-1.32000e+00,
177,-2.68000e+00,
178,-2.64000e+00,
179,-3.56000e+00,
180,-3.48000e+00,
181,-3.72000e+00,
182,-3.68000e+00,
183,-3.04000e+00,
184,-3.08000e+00,
185,-1.96000e+00,
186,-1.96000e+00,
187,-4.40000e-01,
188,-4.00000e-01,
189,1.20000e+00,
190,1.24000e+00,
191,2.60000e+00,
192,2.56000e+00,
193,3.52000e+00,
194,3.44000e+00,
195,3.76000e+00,
196,3.76000e+00,
197,3.24000e+00,
198,3.32000e+00,
199,2.16000e+00,
200,2.24000e+00,
201,7.20000e-01,
202,7.60000e-01,
203,-8.80000e-01,
204,-8.80000e-01,
205,-2.32000e+00,
206,-2.32000e+00,
207,-3.28000e+00,
208,-3.32000e+00,
209,-3.72000e+00,
210,-3.72000e+00,
211,-3.32000e+00,
212,-3.32000e+00,
213,-2.32000e+00,
214,-2.32000e+00,
215,-8.80000e-01,
216,-8.80000e-01,
217,7.20000e-01,
218,7.20000e-01,
219,2.24000e+00,
220,2.20000e+00,
221,3.32000e+00,
222,3.24000e+00,
223,3.76000e+00,
224,3.76000e+00,
225,3.40000e+00,
226,3.48000e+00,
227,2.56000e+00,
228,2.60000e+00,
229,1.16000e+00,
230,1.16000e+00,
231,-4.40000e-01,
232,-4.40000e-01,
233,-1.96000e+00,
234,-1.88000e+00,
235,-3.12000e+00,
236,-3.08000e+00,
237,-3.64000e+00,
238,-3.72000e+00,
239,-3.48000e+00,
240,-3.52000e+00,
241,-2.64000e+00,
242,-2.68000e+00,
243,-1.32000e+00,
244,-1.32000e+00,
245,2.80000e-01,
246,2.80000e-01,
247,1.88000e+00,
248,1.84000e+00,
249,3.08000e+00,
250,3.00000e+00,
251,3.68000e+00,
252,3.76000e+00,
253,3.56000e+00,
254,3.64000e+00,
255,2.84000e+00,
256,2.88000e+00,
257,1.64000e+00,
258,1.64000e+00,
259,4.00000e-02,
260,8.00000e-02,
261,-1.56000e+00,
262,-1.52000e+00,
263,-2.84000e+00,
264,-2.76000e+00,
265,-3.56000e+00,
266,-3.52000e+00,
267,-3.72000e+00,
268,-3.60000e+00,
269,-2.96000e+00,
270,-3.00000e+00,
271,-1.72000e+00,
272,-1.72000e+00,
273,-1.60000e-01,
274,-2.00000e-01,
275,1.40000e+00,
276,1.40000e+00,
277,2.76000e+00,
278,2.72000e+00,
279,3.60000e+00,
280,3.48000e+00,
281,3.76000e+00,
282,3.72000e+00,
283,3.12000e+00,
284,3.16000e+00,
285,2.00000e+00,
286,2.00000e+00,
287,5.20000e-01,
288,5.60000e-01,
289,-1.12000e+00,
290,-1.08000e+00,
291,-2.56000e+00,
292,-2.48000e+00,
293,-3.44000e+00,
294,-3.40000e+00,
295,-3.72000e+00,
296,-3.72000e+00,
297,-3.20000e+00,
298,-3.20000e+00,
299,-2.12000e+00,
300,-2.12000e+00,
301,-6.40000e-01,
302,-6.40000e-01,
303,9.60000e-01,
304,9.60000e-01,
305,2.44000e+00,
306,2.40000e+00,
307,3.44000e+00,
308,3.36000e+00,
309,3.76000e+00,
310,3.76000e+00,
311,3.36000e+00,
312,3.44000e+00,
313,2.40000e+00,
314,2.40000e+00,
315,9.20000e-01,
316,1.00000e+00,
317,-6.40000e-01,
318,-6.40000e-01,
319,-2.16000e+00,
320,-2.12000e+00,
321,-3.24000e+00,
322,-3.20000e+00,
323,-3.72000e+00,
324,-3.72000e+00,
325,-3.40000e+00,
326,-3.44000e+00,
327,-2.48000e+00,
328,-2.52000e+00,
329,-1.08000e+00,
330,-1.08000e+00,
331,5.20000e-01,
332,5.20000e-01,
333,2.04000e+00,
334,2.04000e+00,
335,3.20000e+00,
336,3.12000e+00,
337,3.72000e+00,
338,3.76000e+00,
339,3.52000e+00,
340,3.56000e+00,
341,2.72000e+00,
342,2.72000e+00,
343,1.40000e+00,
344,1.40000e+00,
345,-1.60000e-01,
346,-1.60000e-01,
347,-1.76000e+00,
348,-1.76000e+00,
349,-3.00000e+00,
350,-2.92000e+00,
351,-3.64000e+00,
352,-3.72000e+00,
353,-3.56000e+00,
354,-3.56000e+00,
355,-2.80000e+00,
356,-2.80000e+00,
357,-1.52000e+00,
358,-1.56000e+00,
359,8.00000e-02,
360,8.00000e-02,
361,1.60000e+00,
362,1.64000e+00,
363,2.92000e+00,
364,2.88000e+00,
365,3.64000e+00,
366,3.60000e+00,
367,3.76000e+00,
368,3.68000e+00,
369,3.00000e+00,
370,3.00000e+00,
371,1.80000e+00,
372,1.76000e+00,
373,2.80000e-01,
374,2.80000e-01,
375,-1.32000e+00,
376,-1.32000e+00,
377,-2.68000e+00,
378,-2.64000e+00,
379,-3.52000e+00,
380,-3.48000e+00,
381,-3.72000e+00,
382,-3.68000e+00,
383,-3.04000e+00,
384,-3.12000e+00,
385,-1.92000e+00,
386,-1.96000e+00,
387,-4.40000e-01,
388,-4.40000e-01,
389,1.20000e+00,
390,1.20000e+00,
391,2.60000e+00,
392,2.56000e+00,
393,3.52000e+00,
394,3.44000e+00,
395,3.76000e+00,
396,3.76000e+00,
397,3.24000e+00,
398,3.28000e+00,
399,2.16000e+00,
400,2.24000e+00,
401,6.80000e-01,
402,6.80000e-01,
403,-8.80000e-01,
404,-8.80000e-01,
405,-2.36000e+00,
406,-2.32000e+00,
407,-3.32000e+00,
408,-3.32000e+00,
409,-3.72000e+00,
410,-3.72000e+00,
411,-3.32000e+00,
412,-3.36000e+00,
413,-2.32000e+00,
414,-2.32000e+00,
415,-8.80000e-01,
416,-9.20000e-01,
417,7.60000e-01,
418,7.20000e-01,
419,2.24000e+00,
420,2.16000e+00,
421,3.32000e+00,
422,3.24000e+00,
423,3.76000e+00,
424,3.76000e+00,
425,3.44000e+00,
426,3.48000e+00,
427,2.56000e+00,
428,2.60000e+00,
429,1.12000e+00,
430,1.20000e+00,
431,-4.40000e-01,
432,-4.40000e-01,
433,-1.96000e+00,
434,-1.92000e+00,
435,-3.12000e+00,
436,-3.08000e+00,
437,-3.68000e+00,
438,-3.72000e+00,
439,-3.48000e+00,
440,-3.52000e+00,
441,-2.64000e+00,
442,-2.72000e+00,
443,-1.32000e+00,
444,-1.32000e+00,
445,2.80000e-01,
446,2.80000e-01,
447,1.80000e+00,
448,1.80000e+00,
449,3.08000e+00,
450,3.00000e+00,
451,3.68000e+00,
452,3.76000e+00,
453,3.56000e+00,
454,3.64000e+00,
455,2.84000e+00,
456,2.88000e+00,
457,1.60000e+00,
458,1.60000e+00,
459,4.00000e-02,
460,0.00000e+00,
461,-1.60000e+00,
462,-1.52000e+00,
463,-2.84000e+00,
464,-2.80000e+00,
465,-3.60000e+00,
466,-3.56000e+00,
467,-3.76000e+00,
468,-3.68000e+00,
469,-2.96000e+00,
470,-3.00000e+00,
471,-1.72000e+00,
472,-1.76000e+00,
473,-1.60000e-01,
474,-2.00000e-01,
475,1.40000e+00,
476,1.40000e+00,
477,2.76000e+00,
478,2.72000e+00,
479,3.56000e+00,
480,3.48000e+00,
481,3.76000e+00,
482,3.72000e+00,
483,3.12000e+00,
484,3.20000e+00,
485,2.00000e+00,
486,2.04000e+00,
487,4.80000e-01,
488,4.80000e-01,
489,-1.16000e+00,
490,-1.12000e+00,
491,-2.48000e+00,
492,-2.52000e+00,
493,-3.44000e+00,
494,-3.44000e+00,
495,-3.76000e+00,
496,-3.72000e+00,
497,-3.20000e+00,
498,-3.24000e+00,
499,-2.12000e+00,
500,-2.16000e+00,
501,-6.40000e-01,
502,-6.80000e-01,
503,1.00000e+00,
504,9.20000e-01,
505,2.40000e+00,
506,2.40000e+00,
507,3.40000e+00,
508,3.36000e+00,
509,3.76000e+00,
510,3.76000e+00,
511,3.32000e+00,
512,3.40000e+00,
513,2.40000e+00,
514,2.40000e+00,
515,9.20000e-01,
516,9.60000e-01,
517,-6.80000e-01,
518,-6.40000e-01,
519,-2.16000e+00,
520,-2.12000e+00,
521,-3.24000e+00,
522,-3.20000e+00,
523,-3.72000e+00,
524,-3.72000e+00,
525,-3.40000e+00,
526,-3.44000e+00,
527,-2.48000e+00,
528,-2.56000e+00,
529,-1.12000e+00,
530,-1.12000e+00,
531,5.20000e-01,
532,5.20000e-01,
533,2.04000e+00,
534,1.96000e+00,
535,3.20000e+00,
536,3.12000e+00,
537,3.72000e+00,
538,3.76000e+00,
539,3.52000e+00,
540,3.60000e+00,
541,2.72000e+00,
542,2.72000e+00,
543,1.40000e+00,
544,1.40000e+00,
545,-2.40000e-01,
546,-2.00000e-01,
547,-1.76000e+00,
548,-1.72000e+00,
549,-3.00000e+00,
550,-2.92000e+00,
551,-3.68000e+00,
552,-3.76000e+00,
553,-3.52000e+00,
554,-3.60000e+00,
555,-2.80000e+00,
556,-2.84000e+00,
557,-1.52000e+00,
558,-1.60000e+00,
559,4.00000e-02,
560,4.00000e-02,
561,1.60000e+00,
562,1.60000e+00,
563,2.92000e+00,
564,2.84000e+00,
565,3.64000e+00,
566,3.56000e+00,
567,3.76000e+00,
568,3.68000e+00,
569,3.00000e+00,
570,3.08000e+00,
571,1.84000e+00,
572,1.84000e+00,
573,2.80000e-01,
574,2.80000e-01,
575,-1.36000e+00,
576,-1.32000e+00,
577,-2.72000e+00,
578,-2.68000e+00,
579,-3.56000e+00,
580,-3.48000e+00,
581,-3.76000e+00,
582,-3.68000e+00,
583,-3.12000e+00,
584,-3.12000e+00,
585,-1.96000e+00,
586,-1.96000e+00,
587,-4.00000e-01,
588,-4.00000e-01,
589,1.20000e+00,
590,1.16000e+00,
591,2.56000e+00,
592,2.52000e+00,
593,3.44000e+00,
594,3.36000e+00,
595,3.80000e+00,
596,3.76000e+00,
597,3.24000e+00,
598,3.32000e+00,
599,2.16000e+00,
600,2.16000e+00,
601,6.80000e-01,
602,7.60000e-01,
603,-9.20000e-01,
604,-9.20000e-01,
605,-2.36000e+00,
606,-2.32000e+00,
607,-3.36000e+00,
608,-3.32000e+00,
609,-3.76000e+00,
610,-3.76000e+00,
611,-3.32000e+00,
612,-3.32000e+00,
613,-2.32000e+00,
614,-2.32000e+00,
615,-8.80000e-01,
616,-9.20000e-01,
617,7.60000e-01,
618,7.60000e-01,
619,2.24000e+00,
620,2.16000e+00,
621,3.28000e+00,
622,3.20000e+00,
623,3.80000e+00,
624,3.80000e+00,
625,3.44000e+00,
626,3.48000e+00,
627,2.52000e+00,
628,2.56000e+00,
629,1.16000e+00,
630,1.20000e+00,
631,-4.40000e-01,
632,-4.40000e-01,
633,-1.96000e+00,
634,-1.96000e+00,
635,-3.12000e+00,
636,-3.04000e+00,
637,-3.68000e+00,
638,-3.76000e+00,
639,-3.48000e+00,
640,-3.52000e+00,
641,-2.64000e+00,
642,-2.68000e+00,
643,-1.32000e+00,
644,-1.36000e+00,
645,2.80000e-01,
646,2.40000e-01,
647,1.88000e+00,
648,1.80000e+00,
649,3.08000e+00,
650,3.00000e+00,
651,3.64000e+00,
652,3.56000e+00,
653,3.72000e+00,
654,3.64000e+00,
655,2.84000e+00,
656,2.88000e+00,
657,1.56000e+00,
658,1.56000e+00,
659,4.00000e-02,
660,4.00000e-02,
661,-1.56000e+00,
662,-1.52000e+00,
663,-2.84000e+00,
664,-2.80000e+00,
665,-3.56000e+00,
666,-3.56000e+00,
667,-3.76000e+00,
668,-3.64000e+00,
669,-2.92000e+00,
670,-2.96000e+00,
671,-1.76000e+00,
672,-1.80000e+00,
673,-1.60000e-01,
674,-1.60000e-01,
675,1.40000e+00,
676,1.36000e+00,
677,2.72000e+00,
678,2.72000e+00,
679,3.60000e+00,
680,3.52000e+00,
681,3.76000e+00,
682,3.72000e+00,
683,3.12000e+00,
684,3.16000e+00,
685,1.96000e+00,
686,2.04000e+00,
687,4.80000e-01,
688,5.20000e-01,
689,-1.12000e+00,
690,-1.12000e+00,
691,-2.52000e+00,
692,-2.48000e+00,
693,-3.44000e+00,
694,-3.40000e+00,
695,-3.76000e+00,
696,-3.72000e+00,
697,-3.20000e+00,
698,-3.20000e+00,
699,-2.12000e+00,
700,-2.12000e+00,
701,-6.80000e-01,
702,-6.40000e-01,
703,1.00000e+00,
704,1.00000e+00,
705,2.40000e+00,
706,2.40000e+00,
707,3.40000e+00,
708,3.36000e+00,
709,3.76000e+00,
710,3.76000e+00,
711,3.32000e+00,
712,3.40000e+00,
713,2.36000e+00,
714,2.40000e+00,
715,9.60000e-01,
716,1.00000e+00,
717,-6.40000e-01,
718,-6.40000e-01,
719,-2.16000e+00,
720,-2.12000e+00,
721,-3.24000e+00,
722,-3.20000e+00,
723,-3.72000e+00,
724,-3.76000e+00,
725,-3.40000e+00,
726,-3.44000e+00,
727,-2.48000e+00,
728,-2.48000e+00,
729,-1.12000e+00,
730,-1.12000e+00,
731,5.20000e-01,
732,5.20000e-01,
733,2.04000e+00,
734,2.08000e+00,
735,3.20000e+00,
736,3.12000e+00,
737,3.72000e+00,
738,3.76000e+00,
739,3.52000e+00,
740,3.56000e+00,
741,2.72000e+00,
742,2.72000e+00,
743,1.40000e+00,
744,1.44000e+00,
745,-2.40000e-01,
746,-2.00000e-01,
747,-1.80000e+00,
748,-1.76000e+00,
749,-3.00000e+00,
750,-2.92000e+00,
751,-3.64000e+00,
752,-3.56000e+00,
753,-3.72000e+00,
754,-3.60000e+00,
755,-2.80000e+00,
756,-2.84000e+00,
757,-1.48000e+00,
758,-1.52000e+00,
759,4.00000e-02,
760,4.00000e-02,
761,1.60000e+00,
762,1.60000e+00,
763,2.92000e+00,
764,2.84000e+00,
765,3.64000e+00,
766,3.56000e+00,
767,3.76000e+00,
768,3.68000e+00,
769,3.00000e+00,
770,3.00000e+00,
771,1.80000e+00,
772,1.84000e+00,
773,2.40000e-01,
774,2.80000e-01,
775,-1.36000e+00,
776,-1.28000e+00,
777,-2.68000e+00,
778,-2.64000e+00,
779,-3.52000e+00,
780,-3.48000e+00,
781,-3.72000e+00,
782,-3.68000e+00,
783,-3.08000e+00,
784,-3.12000e+00,
785,-1.96000e+00,
786,-1.96000e+00,
787,-4.00000e-01,
788,-4.00000e-01,
789,1.20000e+00,
790,1.20000e+00,
791,2.60000e+00,
792,2.60000e+00,
793,3.52000e+00,
794,3.44000e+00,
795,3.80000e+00,
796,3.80000e+00,
797,3.20000e+00,
798,3.24000e+00,
799,2.20000e+00,
800,2.24000e+00,
801,6.80000e-01,
802,7.60000e-01,
803,-9.20000e-01,
804,-8.80000e-01,
805,-2.36000e+00,
806,-2.36000e+00,
807,-3.36000e+00,
808,-3.32000e+00,
809,-3.76000e+00,
810,-3.72000e+00,
811,-3.32000e+00,
812,-3.36000e+00,
813,-2.32000e+00,
814,-2.40000e+00,
815,-8.80000e-01,
816,-8.80000e-01,
817,7.60000e-01,
818,6.80000e-01,
819,2.24000e+00,
820,2.20000e+00,
821,3.28000e+00,
822,3.24000e+00,
823,3.72000e+00,
824,3.76000e+00,
825,3.40000e+00,
826,3.48000e+00,
827,2.56000e+00,
828,2.56000e+00,
829,1.12000e+00,
830,1.20000e+00,
831,-4.80000e-01,
832,-4.40000e-01,
833,-1.96000e+00,
834,-1.96000e+00,
835,-3.12000e+00,
836,-3.08000e+00,
837,-3.72000e+00,
838,-3.76000e+00,
839,-3.48000e+00,
840,-3.48000e+00,
841,-2.64000e+00,
842,-2.72000e+00,
843,-1.32000e+00,
844,-1.32000e+00,
845,2.80000e-01,
846,2.80000e-01,
847,1.80000e+00,
848,1.80000e+00,
849,3.08000e+00,
850,3.00000e+00,
851,3.68000e+00,
852,3.76000e+00,
853,3.56000e+00,
854,3.64000e+00,
855,2.84000e+00,
856,2.88000e+00,
857,1.60000e+00,
858,1.60000e+00,
859,0.00000e+00,
860,4.00000e-02,
861,-1.56000e+00,
862,-1.52000e+00,
863,-2.84000e+00,
864,-2.80000e+00,
865,-3.56000e+00,
866,-3.56000e+00,
867,-3.76000e+00,
868,-3.68000e+00,
869,-2.96000e+00,
870,-3.00000e+00,
871,-1.72000e+00,
872,-1.72000e+00,
873,-1.60000e-01,
874,-2.00000e-01,
875,1.40000e+00,
876,1.40000e+00,
877,2.76000e+00,
878,2.72000e+00,
879,3.56000e+00,
880,3.52000e+00,
881,3.76000e+00,
882,3.72000e+00,
883,3.12000e+00,
884,3.12000e+00,
885,1.96000e+00,
886,2.04000e+00,
887,4.80000e-01,
888,4.80000e-01,
889,-1.08000e+00,
890,-1.08000e+00,
891,-2.56000e+00,
892,-2.48000e+00,
893,-3.48000e+00,
894,-3.40000e+00,
895,-3.68000e+00,
896,-3.72000e+00,
897,-3.16000e+00,
898,-3.24000e+00,
899,-2.12000e+00,
900,-2.16000e+00,
901,-6.40000e-01,
902,-6.40000e-01,
903,9.60000e-01,
904,9.60000e-01,
905,2.40000e+00,
906,2.40000e+00,
907,3.40000e+00,
908,3.36000e+00,
909,3.76000e+00,
910,3.76000e+00,
911,3.32000e+00,
912,3.40000e+00,
913,2.36000e+00,
914,2.40000e+00,
915,9.20000e-01,
916,9.20000e-01,
917,-6.80000e-01,
918,-6.80000e-01,
919,-2.16000e+00,
920,-2.16000e+00,
921,-3.24000e+00,
922,-3.20000e+00,
923,-3.72000e+00,
924,-3.72000e+00,
925,-3.40000e+00,
926,-3.40000e+00,
927,-2.48000e+00,
928,-2.52000e+00,
929,-1.08000e+00,
930,-1.08000e+00,
931,5.20000e-01,
932,4.80000e-01,
933,2.04000e+00,
934,1.96000e+00,
935,3.20000e+00,
936,3.12000e+00,
937,3.72000e+00,
938,3.76000e+00,
939,3.48000e+00,
940,3.56000e+00,
941,2.72000e+00,
942,2.72000e+00,
943,1.40000e+00,
944,1.40000e+00,
945,-2.00000e-01,
946,-1.60000e-01,
947,-1.80000e+00,
948,-1.72000e+00,
949,-2.96000e+00,
950,-2.92000e+00,
951,-3.68000e+00,
952,-3.72000e+00,
953,-3.52000e+00,
954,-3.56000e+00,
955,-2.80000e+00,
956,-2.84000e+00,
957,-1.52000e+00,
958,-1.56000e+00,
959,4.00000e-02,
960,8.00000e-02,
961,1.64000e+00,
962,1.60000e+00,
963,2.92000e+00,
964,2.84000e+00,
965,3.64000e+00,
966,3.56000e+00,
967,3.76000e+00,
968,3.68000e+00,
969,3.00000e+00,
970,3.00000e+00,
971,1.80000e+00,
972,1.80000e+00,
973,2.40000e-01,
974,2.80000e-01,
975,-1.36000e+00,
976,-1.32000e+00,
977,-2.72000e+00,
978,-2.64000e+00,
979,-3.56000e+00,
980,-3.48000e+00,
981,-3.76000e+00,
982,-3.68000e+00,
983,-3.04000e+00,
984,-3.12000e+00,
985,-1.96000e+00,
986,-1.96000e+00,
987,-4.00000e-01,
988,-4.80000e-01,
989,1.20000e+00,
990,1.16000e+00,
991,2.60000e+00,
992,2.56000e+00,
993,3.48000e+00,
994,3.44000e+00,
995,3.76000e+00,
996,3.72000e+00,
997,3.24000e+00,
998,3.32000e+00,
999,2.16000e+00,
1000,2.24000e+00,
1001,6.80000e-01,
1002,7.60000e-01,
1003,-8.80000e-01,
1004,-8.80000e-01,
1005,-2.36000e+00,
1006,-2.32000e+00,
1007,-3.36000e+00,
1008,-3.32000e+00,
1009,-3.72000e+00,
1010,-3.72000e+00,
1011,-3.32000e+00,
1012,-3.28000e+00,
1013,-2.32000e+00,
1014,-2.36000e+00,
1015,-8.80000e-01,
1016,-8.80000e-01,
1017,7.60000e-01,
1018,7.20000e-01,
1019,2.24000e+00,
1020,2.16000e+00,
1021,3.28000e+00,
1022,3.24000e+00,
1023,3.76000e+00,
1024,3.76000e+00,
1025,3.40000e+00,
1026,3.48000e+00,
1027,2.52000e+00,
1028,2.60000e+00,
1029,1.12000e+00,
1030,1.16000e+00,
1031,-4.40000e-01,
1032,-4.00000e-01,
1033,-2.00000e+00,
1034,-1.96000e+00,
1035,-3.12000e+00,
1036,-3.04000e+00,
1037,-3.72000e+00,
1038,-3.72000e+00,
1039,-3.48000e+00,
1040,-3.52000e+00,
1041,-2.64000e+00,
1042,-2.68000e+00,
1043,-1.32000e+00,
1044,-1.36000e+00,
1045,2.80000e-01,
1046,2.80000e-01,
1047,1.80000e+00,
1048,1.80000e+00,
1049,3.08000e+00,
1050,3.00000e+00,
1051,3.68000e+00,
1052,3.76000e+00,
1053,3.56000e+00,
1054,3.64000e+00,
1055,2.84000e+00,
1056,2.92000e+00,
1057,1.60000e+00,
1058,1.60000e+00,
1059,0.00000e+00,
1060,4.00000e-02,
1061,-1.60000e+00,
1062,-1.52000e+00,
1063,-2.84000e+00,
1064,-2.80000e+00,
1065,-3.60000e+00,
1066,-3.56000e+00,
1067,-3.72000e+00,
1068,-3.64000e+00,
1069,-2.96000e+00,
1070,-3.00000e+00,
1071,-1.72000e+00,
1072,-1.72000e+00,
1073,-1.60000e-01,
1074,-2.00000e-01,
1075,1.40000e+00,
1076,1.40000e+00,
1077,2.76000e+00,
1078,2.76000e+00,
1079,3.60000e+00,
1080,3.56000e+00,
1081,3.76000e+00,
1082,3.72000e+00,
1083,3.12000e+00,
1084,3.20000e+00,
1085,1.96000e+00,
1086,2.04000e+00,
1087,4.80000e-01,
1088,5.20000e-01,
1089,-1.12000e+00,
1090,-1.08000e+00,
1091,-2.56000e+00,
1092,-2.48000e+00,
1093,-3.44000e+00,
1094,-3.40000e+00,
1095,-3.76000e+00,
1096,-3.72000e+00,
1097,-3.24000e+00,
1098,-3.20000e+00,
1099,-2.12000e+00,
1100,-2.12000e+00,
1101,-6.00000e-01,
1102,-6.80000e-01,
1103,9.60000e-01,
1104,1.00000e+00,
1105,2.40000e+00,
1106,2.32000e+00,
1107,3.40000e+00,
1108,3.32000e+00,
1109,3.76000e+00,
1110,3.76000e+00,
1111,3.32000e+00,
1112,3.40000e+00,
1113,2.32000e+00,
1114,2.40000e+00,
1115,9.20000e-01,
1116,9.60000e-01,
1117,-6.80000e-01,
1118,-6.80000e-01,
1119,-2.16000e+00,
1120,-2.12000e+00,
1121,-3.24000e+00,
1122,-3.20000e+00,
1123,-3.72000e+00,
1124,-3.76000e+00,
1125,-3.40000e+00,
1126,-3.40000e+00,
1127,-2.48000e+00,
1128,-2.52000e+00,
1129,-1.08000e+00,
1130,-1.16000e+00,
1131,5.20000e-01,
1132,5.20000e-01,
1133,2.04000e+00,
1134,2.00000e+00,
1135,3.20000e+00,
1136,3.12000e+00,
1137,3.72000e+00,
