DataAnalysis/Johnson_noise/2017_johnson_noise/data_MUIC_nop_anan/NewFile48.csv

X,CH1,Start,Increment,
Sequence,Volt,1.80000e-03,1.00000e-06
0,-2.12000e+00,
1,-1.84000e+00,
2,-1.88000e+00,
3,-1.60000e+00,
4,-1.68000e+00,
5,-1.40000e+00,
6,-1.48000e+00,
7,-1.16000e+00,
8,-1.20000e+00,
9,-9.60000e-01,
10,-9.60000e-01,
11,-6.80000e-01,
12,-7.20000e-01,
13,-4.40000e-01,
14,-5.20000e-01,
15,-2.00000e-01,
16,-2.80000e-01,
17,4.00000e-02,
18,0.00000e+00,
19,2.80000e-01,
20,2.80000e-01,
21,5.60000e-01,
22,4.80000e-01,
23,8.00000e-01,
24,7.20000e-01,
25,1.04000e+00,
26,9.60000e-01,
27,1.28000e+00,
28,1.20000e+00,
29,1.48000e+00,
30,1.44000e+00,
31,1.76000e+00,
32,1.68000e+00,
33,1.96000e+00,
34,1.88000e+00,
35,2.16000e+00,
36,2.08000e+00,
37,2.32000e+00,
38,2.24000e+00,
39,2.52000e+00,
40,2.48000e+00,
41,2.72000e+00,
42,2.64000e+00,
43,2.88000e+00,
44,2.80000e+00,
45,3.04000e+00,
46,2.96000e+00,
47,3.16000e+00,
48,3.08000e+00,
49,3.28000e+00,
50,3.20000e+00,
51,3.40000e+00,
52,3.28000e+00,
53,3.48000e+00,
54,3.36000e+00,
55,3.52000e+00,
56,3.44000e+00,
57,3.60000e+00,
58,3.52000e+00,
59,3.64000e+00,
60,3.64000e+00,
61,3.52000e+00,
62,3.56000e+00,
63,3.68000e+00,
64,3.56000e+00,
65,3.68000e+00,
66,3.64000e+00,
67,3.52000e+00,
68,3.60000e+00,
69,3.48000e+00,
70,3.56000e+00,
71,3.44000e+00,
72,3.52000e+00,
73,3.36000e+00,
74,3.44000e+00,
75,3.28000e+00,
76,3.32000e+00,
77,3.16000e+00,
78,3.24000e+00,
79,3.04000e+00,
80,3.12000e+00,
81,2.88000e+00,
82,2.96000e+00,
83,2.76000e+00,
84,2.80000e+00,
85,2.56000e+00,
86,2.64000e+00,
87,2.40000e+00,
88,2.44000e+00,
89,2.20000e+00,
90,2.28000e+00,
91,2.00000e+00,
92,2.08000e+00,
93,1.80000e+00,
94,1.84000e+00,
95,1.56000e+00,
96,1.64000e+00,
97,1.32000e+00,
98,1.40000e+00,
99,1.08000e+00,
100,1.16000e+00,
101,8.80000e-01,
102,9.20000e-01,
103,6.40000e-01,
104,7.20000e-01,
105,4.00000e-01,
106,4.40000e-01,
107,1.60000e-01,
108,1.60000e-01,
109,-1.20000e-01,
110,-8.00000e-02,
111,-3.60000e-01,
112,-3.20000e-01,
113,-6.00000e-01,
114,-5.60000e-01,
115,-8.40000e-01,
116,-8.00000e-01,
117,-1.12000e+00,
118,-1.04000e+00,
119,-1.36000e+00,
120,-1.28000e+00,
121,-1.56000e+00,
122,-1.48000e+00,
123,-1.80000e+00,
124,-1.72000e+00,
125,-2.00000e+00,
126,-1.92000e+00,
127,-2.24000e+00,
128,-2.16000e+00,
129,-2.40000e+00,
130,-2.32000e+00,
131,-2.60000e+00,
132,-2.52000e+00,
133,-2.76000e+00,
134,-2.68000e+00,
135,-2.92000e+00,
136,-2.84000e+00,
137,-3.04000e+00,
138,-3.00000e+00,
139,-3.16000e+00,
140,-3.12000e+00,
141,-3.28000e+00,
142,-3.20000e+00,
143,-3.40000e+00,
144,-3.32000e+00,
145,-3.44000e+00,
146,-3.40000e+00,
147,-3.56000e+00,
148,-3.44000e+00,
149,-3.60000e+00,
150,-3.52000e+00,
151,-3.64000e+00,
152,-3.64000e+00,
153,-3.52000e+00,
154,-3.56000e+00,
155,-3.64000e+00,
156,-3.64000e+00,
157,-3.52000e+00,
158,-3.52000e+00,
159,-3.60000e+00,
160,-3.60000e+00,
161,-3.44000e+00,
162,-3.52000e+00,
163,-3.36000e+00,
164,-3.44000e+00,
165,-3.28000e+00,
166,-3.32000e+00,
167,-3.16000e+00,
168,-3.24000e+00,
169,-3.04000e+00,
170,-3.12000e+00,
171,-2.92000e+00,
172,-2.96000e+00,
173,-2.76000e+00,
174,-2.84000e+00,
175,-2.60000e+00,
176,-2.68000e+00,
177,-2.44000e+00,
178,-2.48000e+00,
179,-2.24000e+00,
180,-2.28000e+00,
181,-2.04000e+00,
182,-2.08000e+00,
183,-1.84000e+00,
184,-1.88000e+00,
185,-1.60000e+00,
186,-1.68000e+00,
187,-1.40000e+00,
188,-1.44000e+00,
189,-1.16000e+00,
190,-1.24000e+00,
191,-9.20000e-01,
192,-9.60000e-01,
193,-6.40000e-01,
194,-7.20000e-01,
195,-4.40000e-01,
196,-4.80000e-01,
197,-1.60000e-01,
198,-2.40000e-01,
199,8.00000e-02,
200,4.00000e-02,
201,3.60000e-01,
202,2.80000e-01,
203,6.00000e-01,
204,5.20000e-01,
205,8.00000e-01,
206,7.60000e-01,
207,1.04000e+00,
208,1.00000e+00,
209,1.28000e+00,
210,1.24000e+00,
211,1.56000e+00,
212,1.48000e+00,
213,1.76000e+00,
214,1.68000e+00,
215,1.96000e+00,
216,1.92000e+00,
217,2.20000e+00,
218,2.12000e+00,
219,2.36000e+00,
220,2.28000e+00,
221,2.56000e+00,
222,2.48000e+00,
223,2.72000e+00,
224,2.68000e+00,
225,2.92000e+00,
226,2.84000e+00,
227,3.04000e+00,
228,2.96000e+00,
229,3.20000e+00,
230,3.08000e+00,
231,3.28000e+00,
232,3.20000e+00,
233,3.40000e+00,
234,3.32000e+00,
235,3.48000e+00,
236,3.40000e+00,
237,3.52000e+00,
238,3.44000e+00,
239,3.60000e+00,
240,3.48000e+00,
241,3.64000e+00,
242,3.64000e+00,
243,3.52000e+00,
244,3.60000e+00,
245,3.56000e+00,
246,3.56000e+00,
247,3.64000e+00,
248,3.64000e+00,
249,3.52000e+00,
250,3.48000e+00,
251,3.60000e+00,
252,3.56000e+00,
253,3.40000e+00,
254,3.48000e+00,
255,3.36000e+00,
256,3.44000e+00,
257,3.24000e+00,
258,3.32000e+00,
259,3.12000e+00,
260,3.20000e+00,
261,3.00000e+00,
262,3.08000e+00,
263,2.88000e+00,
264,2.96000e+00,
265,2.72000e+00,
266,2.80000e+00,
267,2.56000e+00,
268,2.60000e+00,
269,2.36000e+00,
270,2.44000e+00,
271,2.16000e+00,
272,2.24000e+00,
273,1.96000e+00,
274,2.04000e+00,
275,1.76000e+00,
276,1.84000e+00,
277,1.56000e+00,
278,1.64000e+00,
279,1.28000e+00,
280,1.36000e+00,
281,1.08000e+00,
282,1.16000e+00,
283,8.40000e-01,
284,9.20000e-01,
285,6.00000e-01,
286,6.80000e-01,
287,4.00000e-01,
288,4.40000e-01,
289,1.60000e-01,
290,1.60000e-01,
291,-1.20000e-01,
292,-8.00000e-02,
293,-3.60000e-01,
294,-3.20000e-01,
295,-6.00000e-01,
296,-5.60000e-01,
297,-8.40000e-01,
298,-8.40000e-01,
299,-1.08000e+00,
300,-1.08000e+00,
301,-1.36000e+00,
302,-1.28000e+00,
303,-1.56000e+00,
304,-1.52000e+00,
305,-1.80000e+00,
306,-1.72000e+00,
307,-2.00000e+00,
308,-1.96000e+00,
309,-2.20000e+00,
310,-2.16000e+00,
311,-2.44000e+00,
312,-2.36000e+00,
313,-2.60000e+00,
314,-2.52000e+00,
315,-2.76000e+00,
316,-2.68000e+00,
317,-2.92000e+00,
318,-2.84000e+00,
319,-3.04000e+00,
320,-3.00000e+00,
321,-3.16000e+00,
322,-3.12000e+00,
323,-3.28000e+00,
324,-3.20000e+00,
325,-3.40000e+00,
326,-3.32000e+00,
327,-3.48000e+00,
328,-3.40000e+00,
329,-3.56000e+00,
330,-3.48000e+00,
331,-3.60000e+00,
332,-3.52000e+00,
333,-3.60000e+00,
334,-3.64000e+00,
335,-3.52000e+00,
336,-3.64000e+00,
337,-3.52000e+00,
338,-3.52000e+00,
339,-3.64000e+00,
340,-3.60000e+00,
341,-3.48000e+00,
342,-3.56000e+00,
343,-3.44000e+00,
344,-3.52000e+00,
345,-3.36000e+00,
346,-3.40000e+00,
347,-3.28000e+00,
348,-3.32000e+00,
349,-3.12000e+00,
350,-3.20000e+00,
351,-3.00000e+00,
352,-3.08000e+00,
353,-2.88000e+00,
354,-2.96000e+00,
355,-2.72000e+00,
356,-2.80000e+00,
357,-2.56000e+00,
358,-2.64000e+00,
359,-2.40000e+00,
360,-2.44000e+00,
361,-2.24000e+00,
362,-2.24000e+00,
363,-2.04000e+00,
364,-2.08000e+00,
365,-1.80000e+00,
366,-1.84000e+00,
367,-1.56000e+00,
368,-1.64000e+00,
369,-1.36000e+00,
370,-1.40000e+00,
371,-1.12000e+00,
372,-1.16000e+00,
373,-9.20000e-01,
374,-9.20000e-01,
375,-6.40000e-01,
376,-6.80000e-01,
377,-4.00000e-01,
378,-4.40000e-01,
379,-1.60000e-01,
380,-2.00000e-01,
381,8.00000e-02,
382,4.00000e-02,
383,3.20000e-01,
384,3.20000e-01,
385,6.00000e-01,
386,5.60000e-01,
387,8.40000e-01,
388,7.60000e-01,
389,1.08000e+00,
390,1.00000e+00,
391,1.28000e+00,
392,1.24000e+00,
393,1.52000e+00,
394,1.48000e+00,
395,1.76000e+00,
396,1.72000e+00,
397,2.00000e+00,
398,1.92000e+00,
399,2.20000e+00,
400,2.12000e+00,
401,2.36000e+00,
402,2.28000e+00,
403,2.56000e+00,
404,2.48000e+00,
405,2.76000e+00,
406,2.68000e+00,
407,2.92000e+00,
408,2.84000e+00,
409,3.08000e+00,
410,2.96000e+00,
411,3.20000e+00,
412,3.12000e+00,
413,3.32000e+00,
414,3.24000e+00,
415,3.40000e+00,
416,3.32000e+00,
417,3.48000e+00,
418,3.40000e+00,
419,3.56000e+00,
420,3.48000e+00,
421,3.60000e+00,
422,3.52000e+00,
423,3.64000e+00,
424,3.56000e+00,
425,3.68000e+00,
426,3.68000e+00,
427,3.56000e+00,
428,3.68000e+00,
429,3.56000e+00,
430,3.64000e+00,
431,3.52000e+00,
432,3.60000e+00,
433,3.48000e+00,
434,3.56000e+00,
435,3.40000e+00,
436,3.48000e+00,
437,3.32000e+00,
438,3.40000e+00,
439,3.24000e+00,
440,3.32000e+00,
441,3.12000e+00,
442,3.20000e+00,
443,3.00000e+00,
444,3.08000e+00,
445,2.88000e+00,
446,2.92000e+00,
447,2.72000e+00,
448,2.76000e+00,
449,2.56000e+00,
450,2.60000e+00,
451,2.32000e+00,
452,2.40000e+00,
453,2.16000e+00,
454,2.24000e+00,
455,1.96000e+00,
456,2.04000e+00,
457,1.76000e+00,
458,1.84000e+00,
459,1.56000e+00,
460,1.60000e+00,
461,1.28000e+00,
462,1.36000e+00,
463,1.08000e+00,
464,1.12000e+00,
465,8.00000e-01,
466,8.80000e-01,
467,5.60000e-01,
468,6.40000e-01,
469,3.20000e-01,
470,3.60000e-01,
471,8.00000e-02,
472,1.20000e-01,
473,-1.60000e-01,
474,-1.20000e-01,
475,-4.00000e-01,
476,-3.60000e-01,
477,-6.40000e-01,
478,-6.00000e-01,
479,-8.80000e-01,
480,-8.40000e-01,
481,-1.16000e+00,
482,-1.08000e+00,
483,-1.40000e+00,
484,-1.32000e+00,
485,-1.60000e+00,
486,-1.56000e+00,
487,-1.80000e+00,
488,-1.76000e+00,
489,-2.00000e+00,
490,-1.96000e+00,
491,-2.20000e+00,
492,-2.16000e+00,
493,-2.44000e+00,
494,-2.36000e+00,
495,-2.60000e+00,
496,-2.52000e+00,
497,-2.76000e+00,
498,-2.68000e+00,
499,-2.92000e+00,
500,-2.84000e+00,
501,-3.08000e+00,
502,-3.00000e+00,
503,-3.16000e+00,
504,-3.12000e+00,
505,-3.28000e+00,
506,-3.20000e+00,
507,-3.40000e+00,
508,-3.32000e+00,
509,-3.48000e+00,
510,-3.40000e+00,
511,-3.56000e+00,
512,-3.48000e+00,
513,-3.60000e+00,
514,-3.52000e+00,
515,-3.64000e+00,
516,-3.64000e+00,
517,-3.56000e+00,
518,-3.56000e+00,
519,-3.64000e+00,
520,-3.64000e+00,
521,-3.52000e+00,
522,-3.60000e+00,
523,-3.48000e+00,
524,-3.56000e+00,
525,-3.44000e+00,
526,-3.52000e+00,
527,-3.36000e+00,
528,-3.44000e+00,
529,-3.24000e+00,
530,-3.32000e+00,
531,-3.12000e+00,
532,-3.20000e+00,
533,-3.00000e+00,
534,-3.08000e+00,
535,-2.88000e+00,
536,-2.92000e+00,
537,-2.72000e+00,
538,-2.80000e+00,
539,-2.56000e+00,
540,-2.64000e+00,
541,-2.40000e+00,
542,-2.44000e+00,
543,-2.20000e+00,
544,-2.24000e+00,
545,-2.00000e+00,
546,-2.04000e+00,
547,-1.76000e+00,
548,-1.84000e+00,
549,-1.56000e+00,
550,-1.64000e+00,
551,-1.36000e+00,
552,-1.40000e+00,
553,-1.12000e+00,
554,-1.16000e+00,
555,-8.80000e-01,
556,-9.20000e-01,
557,-6.40000e-01,
558,-6.80000e-01,
559,-3.60000e-01,
560,-4.40000e-01,
561,-1.20000e-01,
562,-2.00000e-01,
563,1.20000e-01,
564,4.00000e-02,
565,3.60000e-01,
566,3.20000e-01,
567,6.00000e-01,
568,5.60000e-01,
569,8.80000e-01,
570,8.00000e-01,
571,1.12000e+00,
572,1.04000e+00,
573,1.32000e+00,
574,1.28000e+00,
575,1.60000e+00,
576,1.52000e+00,
577,1.80000e+00,
578,1.72000e+00,
579,2.00000e+00,
580,1.96000e+00,
581,2.20000e+00,
582,2.12000e+00,
583,2.40000e+00,
584,2.32000e+00,
585,2.56000e+00,
586,2.56000e+00,
587,2.80000e+00,
588,2.68000e+00,
589,2.92000e+00,
590,2.84000e+00,
591,3.08000e+00,
592,3.00000e+00,
593,3.20000e+00,
594,3.12000e+00,
595,3.32000e+00,
596,3.24000e+00,
597,3.40000e+00,
598,3.32000e+00,
599,3.48000e+00,
600,3.40000e+00,
601,3.56000e+00,
602,3.48000e+00,
603,3.60000e+00,
604,3.52000e+00,
605,3.64000e+00,
606,3.56000e+00,
607,3.68000e+00,
608,3.56000e+00,
609,3.68000e+00,
610,3.68000e+00,
611,3.56000e+00,
612,3.64000e+00,
613,3.52000e+00,
614,3.60000e+00,
615,3.48000e+00,
616,3.56000e+00,
617,3.40000e+00,
618,3.48000e+00,
619,3.32000e+00,
620,3.40000e+00,
621,3.24000e+00,
622,3.32000e+00,
623,3.12000e+00,
624,3.20000e+00,
625,3.00000e+00,
626,3.08000e+00,
627,2.84000e+00,
628,2.96000e+00,
629,2.72000e+00,
630,2.76000e+00,
631,2.52000e+00,
632,2.56000e+00,
633,2.32000e+00,
634,2.40000e+00,
635,2.12000e+00,
636,2.20000e+00,
637,1.92000e+00,
638,2.00000e+00,
639,1.72000e+00,
640,1.80000e+00,
641,1.52000e+00,
642,1.56000e+00,
643,1.24000e+00,
644,1.32000e+00,
645,1.04000e+00,
646,1.12000e+00,
647,8.00000e-01,
648,8.80000e-01,
649,5.60000e-01,
650,6.00000e-01,
651,3.20000e-01,
652,4.00000e-01,
653,4.00000e-02,
654,1.20000e-01,
655,-2.00000e-01,
656,-1.20000e-01,
657,-4.40000e-01,
658,-3.60000e-01,
659,-6.80000e-01,
660,-6.00000e-01,
661,-9.20000e-01,
662,-8.80000e-01,
663,-1.16000e+00,
664,-1.12000e+00,
665,-1.40000e+00,
666,-1.36000e+00,
667,-1.64000e+00,
668,-1.56000e+00,
669,-1.84000e+00,
670,-1.80000e+00,
671,-2.04000e+00,
672,-2.00000e+00,
673,-2.28000e+00,
674,-2.20000e+00,
675,-2.44000e+00,
676,-2.40000e+00,
677,-2.64000e+00,
678,-2.56000e+00,
679,-2.80000e+00,
680,-2.72000e+00,
681,-2.96000e+00,
682,-2.88000e+00,
683,-3.08000e+00,
684,-3.00000e+00,
685,-3.20000e+00,
686,-3.12000e+00,
687,-3.32000e+00,
688,-3.28000e+00,
689,-3.44000e+00,
690,-3.36000e+00,
691,-3.48000e+00,
692,-3.44000e+00,
693,-3.56000e+00,
694,-3.48000e+00,
695,-3.60000e+00,
696,-3.52000e+00,
697,-3.64000e+00,
698,-3.64000e+00,
699,-3.56000e+00,
700,-3.64000e+00,
701,-3.52000e+00,
702,-3.64000e+00,
703,-3.52000e+00,
704,-3.60000e+00,
705,-3.48000e+00,
706,-3.56000e+00,
707,-3.40000e+00,
708,-3.48000e+00,
709,-3.32000e+00,
710,-3.40000e+00,
711,-3.24000e+00,
712,-3.28000e+00,
713,-3.12000e+00,
714,-3.20000e+00,
715,-3.00000e+00,
716,-3.08000e+00,
717,-2.84000e+00,
718,-2.92000e+00,
719,-2.72000e+00,
720,-2.80000e+00,
721,-2.56000e+00,
722,-2.60000e+00,
723,-2.36000e+00,
724,-2.44000e+00,
725,-2.20000e+00,
726,-2.24000e+00,
727,-2.00000e+00,
728,-2.00000e+00,
729,-1.76000e+00,
730,-1.80000e+00,
731,-1.56000e+00,
732,-1.60000e+00,
733,-1.32000e+00,
734,-1.40000e+00,
735,-1.08000e+00,
736,-1.12000e+00,
737,-8.40000e-01,
738,-8.80000e-01,
739,-6.00000e-01,
740,-6.40000e-01,
741,-3.60000e-01,
742,-4.00000e-01,
743,-1.20000e-01,
744,-1.60000e-01,
745,1.20000e-01,
746,8.00000e-02,
747,3.60000e-01,
748,3.20000e-01,
749,6.40000e-01,
750,5.60000e-01,
751,8.80000e-01,
752,8.00000e-01,
753,1.12000e+00,
754,1.04000e+00,
755,1.36000e+00,
756,1.32000e+00,
757,1.60000e+00,
758,1.52000e+00,
759,1.84000e+00,
760,1.76000e+00,
761,2.04000e+00,
762,1.96000e+00,
763,2.24000e+00,
764,2.16000e+00,
765,2.40000e+00,
766,2.36000e+00,
767,2.60000e+00,
768,2.52000e+00,
769,2.80000e+00,
770,2.72000e+00,
771,2.96000e+00,
772,2.84000e+00,
773,3.08000e+00,
774,3.00000e+00,
775,3.20000e+00,
776,3.12000e+00,
777,3.32000e+00,
778,3.24000e+00,
779,3.44000e+00,
780,3.32000e+00,
781,3.48000e+00,
782,3.40000e+00,
783,3.56000e+00,
784,3.48000e+00,
785,3.60000e+00,
786,3.52000e+00,
787,3.64000e+00,
788,3.56000e+00,
789,3.68000e+00,
790,3.68000e+00,
791,3.56000e+00,
792,3.56000e+00,
793,3.68000e+00,
794,3.64000e+00,
795,3.52000e+00,
796,3.60000e+00,
797,3.44000e+00,
798,3.56000e+00,
799,3.40000e+00,
800,3.48000e+00,
801,3.32000e+00,
802,3.40000e+00,
803,3.20000e+00,
804,3.28000e+00,
805,3.12000e+00,
806,3.20000e+00,
807,2.96000e+00,
808,3.08000e+00,
809,2.84000e+00,
810,2.92000e+00,
811,2.68000e+00,
812,2.76000e+00,
813,2.48000e+00,
814,2.56000e+00,
815,2.32000e+00,
816,2.40000e+00,
817,2.12000e+00,
818,2.20000e+00,
819,1.92000e+00,
820,2.00000e+00,
821,1.72000e+00,
822,1.76000e+00,
823,1.48000e+00,
824,1.56000e+00,
825,1.24000e+00,
826,1.32000e+00,
827,1.00000e+00,
828,1.08000e+00,
829,7.60000e-01,
830,8.40000e-01,
831,5.60000e-01,
832,6.00000e-01,
833,2.80000e-01,
834,3.20000e-01,
835,4.00000e-02,
836,8.00000e-02,
837,-2.40000e-01,
838,-1.60000e-01,
839,-4.80000e-01,
840,-4.00000e-01,
841,-7.20000e-01,
842,-6.40000e-01,
843,-9.20000e-01,
844,-9.20000e-01,
845,-1.20000e+00,
846,-1.12000e+00,
847,-1.44000e+00,
848,-1.36000e+00,
849,-1.64000e+00,
850,-1.60000e+00,
851,-1.88000e+00,
852,-1.80000e+00,
853,-2.08000e+00,
854,-2.04000e+00,
855,-2.28000e+00,
856,-2.24000e+00,
857,-2.48000e+00,
858,-2.40000e+00,
859,-2.64000e+00,
860,-2.56000e+00,
861,-2.80000e+00,
862,-2.72000e+00,
863,-2.96000e+00,
864,-2.88000e+00,
865,-3.08000e+00,
866,-3.00000e+00,
867,-3.20000e+00,
868,-3.12000e+00,
869,-3.32000e+00,
870,-3.28000e+00,
871,-3.40000e+00,
872,-3.36000e+00,
873,-3.52000e+00,
874,-3.44000e+00,
875,-3.56000e+00,
876,-3.48000e+00,
877,-3.60000e+00,
878,-3.52000e+00,
879,-3.64000e+00,
880,-3.64000e+00,
881,-3.56000e+00,
882,-3.56000e+00,
883,-3.64000e+00,
884,-3.64000e+00,
885,-3.52000e+00,
886,-3.60000e+00,
887,-3.48000e+00,
888,-3.56000e+00,
889,-3.40000e+00,
890,-3.48000e+00,
891,-3.32000e+00,
892,-3.40000e+00,
893,-3.20000e+00,
894,-3.28000e+00,
895,-3.08000e+00,
896,-3.16000e+00,
897,-2.96000e+00,
898,-3.04000e+00,
899,-2.84000e+00,
900,-2.92000e+00,
901,-2.68000e+00,
902,-2.76000e+00,
903,-2.52000e+00,
904,-2.60000e+00,
905,-2.36000e+00,
906,-2.40000e+00,
907,-2.16000e+00,
908,-2.24000e+00,
909,-1.96000e+00,
910,-2.00000e+00,
911,-1.72000e+00,
912,-1.80000e+00,
913,-1.52000e+00,
914,-1.60000e+00,
915,-1.28000e+00,
916,-1.32000e+00,
917,-1.08000e+00,
918,-1.08000e+00,
919,-8.00000e-01,
920,-8.80000e-01,
921,-5.60000e-01,
922,-6.40000e-01,
923,-3.20000e-01,
924,-4.00000e-01,
925,-8.00000e-02,
926,-1.60000e-01,
927,1.60000e-01,
928,1.20000e-01,
929,4.40000e-01,
930,3.60000e-01,
931,6.80000e-01,
932,6.00000e-01,
933,9.20000e-01,
934,8.40000e-01,
935,1.12000e+00,
936,1.08000e+00,
937,1.36000e+00,
938,1.32000e+00,
939,1.64000e+00,
940,1.56000e+00,
941,1.84000e+00,
942,1.76000e+00,
943,2.04000e+00,
944,1.96000e+00,
945,2.24000e+00,
946,2.16000e+00,
947,2.44000e+00,
948,2.36000e+00,
949,2.60000e+00,
950,2.52000e+00,
951,2.80000e+00,
952,2.72000e+00,
953,2.96000e+00,
954,2.88000e+00,
955,3.08000e+00,
956,3.00000e+00,
957,3.24000e+00,
958,3.16000e+00,
959,3.32000e+00,
960,3.24000e+00,
961,3.44000e+00,
962,3.36000e+00,
963,3.52000e+00,
964,3.40000e+00,
965,3.56000e+00,
966,3.48000e+00,
967,3.60000e+00,
968,3.52000e+00,
969,3.64000e+00,
970,3.56000e+00,
971,3.64000e+00,
972,3.60000e+00,
973,3.56000e+00,
974,3.64000e+00,
975,3.52000e+00,
976,3.64000e+00,
977,3.52000e+00,
978,3.60000e+00,
979,3.44000e+00,
980,3.56000e+00,
981,3.40000e+00,
982,3.48000e+00,
983,3.32000e+00,
984,3.40000e+00,
985,3.20000e+00,
986,3.28000e+00,
987,3.08000e+00,
988,3.16000e+00,
989,2.96000e+00,
990,3.04000e+00,
991,2.84000e+00,
992,2.88000e+00,
993,2.68000e+00,
994,2.72000e+00,
995,2.48000e+00,
996,2.52000e+00,
997,2.28000e+00,
998,2.36000e+00,
999,2.08000e+00,
1000,2.16000e+00,
1001,1.92000e+00,
1002,1.96000e+00,
1003,1.68000e+00,
1004,1.76000e+00,
1005,1.48000e+00,
1006,1.56000e+00,
1007,1.20000e+00,
1008,1.28000e+00,
1009,1.00000e+00,
1010,1.08000e+00,
1011,7.60000e-01,
1012,8.40000e-01,
1013,5.20000e-01,
1014,6.00000e-01,
1015,2.80000e-01,
1016,3.20000e-01,
1017,0.00000e+00,
1018,8.00000e-02,
1019,-2.40000e-01,
1020,-1.60000e-01,
1021,-4.80000e-01,
1022,-4.00000e-01,
1023,-7.20000e-01,
1024,-6.80000e-01,
1025,-9.60000e-01,
1026,-9.20000e-01,
1027,-1.20000e+00,
1028,-1.16000e+00,
1029,-1.44000e+00,
1030,-1.40000e+00,
1031,-1.64000e+00,
1032,-1.60000e+00,
1033,-1.88000e+00,
1034,-1.80000e+00,
1035,-2.08000e+00,
1036,-2.04000e+00,
1037,-2.32000e+00,
1038,-2.24000e+00,
1039,-2.48000e+00,
1040,-2.44000e+00,
1041,-2.68000e+00,
1042,-2.60000e+00,
1043,-2.84000e+00,
1044,-2.76000e+00,
1045,-2.96000e+00,
1046,-2.88000e+00,
1047,-3.08000e+00,
1048,-3.00000e+00,
1049,-3.24000e+00,
1050,-3.16000e+00,
1051,-3.36000e+00,
1052,-3.28000e+00,
1053,-3.44000e+00,
1054,-3.36000e+00,
1055,-3.48000e+00,
1056,-3.44000e+00,
1057,-3.56000e+00,
1058,-3.48000e+00,
1059,-3.60000e+00,
1060,-3.52000e+00,
1061,-3.64000e+00,
1062,-3.64000e+00,
1063,-3.56000e+00,
1064,-3.64000e+00,
1065,-3.56000e+00,
1066,-3.64000e+00,
1067,-3.52000e+00,
1068,-3.60000e+00,
1069,-3.48000e+00,
1070,-3.56000e+00,
1071,-3.40000e+00,
1072,-3.48000e+00,
1073,-3.32000e+00,
1074,-3.40000e+00,
1075,-3.20000e+00,
1076,-3.28000e+00,
1077,-3.12000e+00,
1078,-3.16000e+00,
1079,-2.96000e+00,
1080,-3.04000e+00,
1081,-2.84000e+00,
1082,-2.92000e+00,
1083,-2.68000e+00,
1084,-2.76000e+00,
1085,-2.52000e+00,
1086,-2.60000e+00,
1087,-2.36000e+00,
1088,-2.40000e+00,
1089,-2.16000e+00,
1090,-2.20000e+00,
1091,-1.92000e+00,
1092,-2.00000e+00,
1093,-1.72000e+00,
1094,-1.76000e+00,
1095,-1.48000e+00,
1096,-1.56000e+00,
1097,-1.28000e+00,
1098,-1.36000e+00,
1099,-1.08000e+00,
1100,-1.12000e+00,
1101,-8.00000e-01,
1102,-8.40000e-01,
1103,-5.60000e-01,
1104,-6.00000e-01,
1105,-3.20000e-01,
1106,-3.60000e-01,
1107,-8.00000e-02,
1108,-1.20000e-01,
1109,1.60000e-01,
1110,1.20000e-01,
1111,4.40000e-01,
1112,4.00000e-01,
1113,6.80000e-01,
1114,6.40000e-01,
1115,9.20000e-01,
1116,8.80000e-01,
1117,1.16000e+00,
1118,1.08000e+00,
1119,1.40000e+00,
1120,1.32000e+00,
1121,1.60000e+00,
1122,1.56000e+00,
1123,1.88000e+00,
1124,1.80000e+00,
1125,2.08000e+00,
1126,2.00000e+00,
1127,2.28000e+00,
1128,2.20000e+00,
1129,2.44000e+00,
1130,2.36000e+00,
1131,2.64000e+00,
1132,2.60000e+00,
1133,2.84000e+00,
1134,2.76000e+00,
1135,2.96000e+00,
1136,2.88000e+00,
1137,3.12000e+00,
