DataAnalysis/Johnson_noise/2017_johnson_noise/data_MUIC_nop_anan/NewFile61.csv

X,CH1,Start,Increment,
Sequence,Volt,1.80000e-03,1.00000e-06
0,1.48000e+00,
1,9.60000e-01,
2,1.00000e+00,
3,4.40000e-01,
4,4.80000e-01,
5,-1.60000e-01,
6,-8.00000e-02,
7,-6.80000e-01,
8,-6.40000e-01,
9,-1.24000e+00,
10,-1.16000e+00,
11,-1.68000e+00,
12,-1.60000e+00,
13,-2.04000e+00,
14,-2.00000e+00,
15,-2.36000e+00,
16,-2.28000e+00,
17,-2.48000e+00,
18,-2.40000e+00,
19,-2.52000e+00,
20,-2.52000e+00,
21,-2.32000e+00,
22,-2.40000e+00,
23,-2.12000e+00,
24,-2.16000e+00,
25,-1.76000e+00,
26,-1.80000e+00,
27,-1.36000e+00,
28,-1.40000e+00,
29,-8.40000e-01,
30,-8.80000e-01,
31,-3.20000e-01,
32,-3.60000e-01,
33,2.40000e-01,
34,2.40000e-01,
35,8.40000e-01,
36,7.60000e-01,
37,1.32000e+00,
38,1.28000e+00,
39,1.80000e+00,
40,1.72000e+00,
41,2.16000e+00,
42,2.08000e+00,
43,2.40000e+00,
44,2.32000e+00,
45,2.52000e+00,
46,2.44000e+00,
47,2.52000e+00,
48,2.52000e+00,
49,2.32000e+00,
50,2.40000e+00,
51,2.08000e+00,
52,2.16000e+00,
53,1.76000e+00,
54,1.80000e+00,
55,1.36000e+00,
56,1.40000e+00,
57,8.40000e-01,
58,9.20000e-01,
59,2.80000e-01,
60,3.20000e-01,
61,-2.80000e-01,
62,-2.40000e-01,
63,-8.00000e-01,
64,-7.60000e-01,
65,-1.36000e+00,
66,-1.28000e+00,
67,-1.76000e+00,
68,-1.68000e+00,
69,-2.12000e+00,
70,-2.04000e+00,
71,-2.36000e+00,
72,-2.32000e+00,
73,-2.52000e+00,
74,-2.52000e+00,
75,-2.40000e+00,
76,-2.48000e+00,
77,-2.32000e+00,
78,-2.36000e+00,
79,-2.04000e+00,
80,-2.08000e+00,
81,-1.68000e+00,
82,-1.72000e+00,
83,-1.24000e+00,
84,-1.28000e+00,
85,-7.20000e-01,
86,-7.60000e-01,
87,-2.00000e-01,
88,-2.40000e-01,
89,3.60000e-01,
90,3.60000e-01,
91,8.80000e-01,
92,8.80000e-01,
93,1.40000e+00,
94,1.40000e+00,
95,1.88000e+00,
96,1.80000e+00,
97,2.20000e+00,
98,2.12000e+00,
99,2.44000e+00,
100,2.36000e+00,
101,2.52000e+00,
102,2.52000e+00,
103,2.44000e+00,
104,2.52000e+00,
105,2.28000e+00,
106,2.36000e+00,
107,2.04000e+00,
108,2.12000e+00,
109,1.68000e+00,
110,1.76000e+00,
111,1.24000e+00,
112,1.28000e+00,
113,7.20000e-01,
114,8.00000e-01,
115,2.00000e-01,
116,2.00000e-01,
117,-4.00000e-01,
118,-3.20000e-01,
119,-9.20000e-01,
120,-8.80000e-01,
121,-1.44000e+00,
122,-1.36000e+00,
123,-1.84000e+00,
124,-1.80000e+00,
125,-2.20000e+00,
126,-2.12000e+00,
127,-2.40000e+00,
128,-2.36000e+00,
129,-2.52000e+00,
130,-2.52000e+00,
131,-2.40000e+00,
132,-2.48000e+00,
133,-2.24000e+00,
134,-2.32000e+00,
135,-2.00000e+00,
136,-2.00000e+00,
137,-1.60000e+00,
138,-1.64000e+00,
139,-1.12000e+00,
140,-1.16000e+00,
141,-6.00000e-01,
142,-6.40000e-01,
143,-4.00000e-02,
144,-1.20000e-01,
145,5.20000e-01,
146,4.80000e-01,
147,1.04000e+00,
148,1.00000e+00,
149,1.56000e+00,
150,1.48000e+00,
151,1.96000e+00,
152,1.88000e+00,
153,2.28000e+00,
154,2.20000e+00,
155,2.48000e+00,
156,2.36000e+00,
157,2.56000e+00,
158,2.56000e+00,
159,2.40000e+00,
160,2.48000e+00,
161,2.24000e+00,
162,2.32000e+00,
163,1.96000e+00,
164,2.04000e+00,
165,1.60000e+00,
166,1.68000e+00,
167,1.12000e+00,
168,1.20000e+00,
169,6.00000e-01,
170,6.40000e-01,
171,4.00000e-02,
172,8.00000e-02,
173,-5.20000e-01,
174,-4.80000e-01,
175,-1.04000e+00,
176,-1.00000e+00,
177,-1.52000e+00,
178,-1.48000e+00,
179,-1.92000e+00,
180,-1.88000e+00,
181,-2.24000e+00,
182,-2.20000e+00,
183,-2.44000e+00,
184,-2.40000e+00,
185,-2.52000e+00,
186,-2.52000e+00,
187,-2.40000e+00,
188,-2.44000e+00,
189,-2.20000e+00,
190,-2.24000e+00,
191,-1.88000e+00,
192,-1.92000e+00,
193,-1.48000e+00,
194,-1.56000e+00,
195,-1.04000e+00,
196,-1.04000e+00,
197,-4.80000e-01,
198,-5.20000e-01,
199,8.00000e-02,
200,4.00000e-02,
201,6.40000e-01,
202,6.00000e-01,
203,1.16000e+00,
204,1.08000e+00,
205,1.64000e+00,
206,1.60000e+00,
207,2.04000e+00,
208,1.96000e+00,
209,2.32000e+00,
210,2.24000e+00,
211,2.52000e+00,
212,2.40000e+00,
213,2.56000e+00,
214,2.56000e+00,
215,2.40000e+00,
216,2.48000e+00,
217,2.20000e+00,
218,2.28000e+00,
219,1.88000e+00,
220,1.96000e+00,
221,1.48000e+00,
222,1.52000e+00,
223,1.00000e+00,
224,1.04000e+00,
225,4.80000e-01,
226,5.60000e-01,
227,-8.00000e-02,
228,-4.00000e-02,
229,-6.40000e-01,
230,-6.00000e-01,
231,-1.16000e+00,
232,-1.12000e+00,
233,-1.60000e+00,
234,-1.56000e+00,
235,-2.00000e+00,
236,-1.96000e+00,
237,-2.28000e+00,
238,-2.24000e+00,
239,-2.48000e+00,
240,-2.40000e+00,
241,-2.52000e+00,
242,-2.52000e+00,
243,-2.36000e+00,
244,-2.40000e+00,
245,-2.16000e+00,
246,-2.20000e+00,
247,-1.80000e+00,
248,-1.88000e+00,
249,-1.40000e+00,
250,-1.44000e+00,
251,-9.20000e-01,
252,-9.20000e-01,
253,-3.60000e-01,
254,-4.00000e-01,
255,2.00000e-01,
256,1.60000e-01,
257,7.60000e-01,
258,6.80000e-01,
259,1.28000e+00,
260,1.24000e+00,
261,1.76000e+00,
262,1.68000e+00,
263,2.12000e+00,
264,2.04000e+00,
265,2.36000e+00,
266,2.28000e+00,
267,2.52000e+00,
268,2.44000e+00,
269,2.56000e+00,
270,2.52000e+00,
271,2.36000e+00,
272,2.44000e+00,
273,2.16000e+00,
274,2.20000e+00,
275,1.80000e+00,
276,1.84000e+00,
277,1.40000e+00,
278,1.44000e+00,
279,8.80000e-01,
280,9.20000e-01,
281,3.60000e-01,
282,4.40000e-01,
283,-2.00000e-01,
284,-1.60000e-01,
285,-7.60000e-01,
286,-7.20000e-01,
287,-1.28000e+00,
288,-1.24000e+00,
289,-1.72000e+00,
290,-1.64000e+00,
291,-2.08000e+00,
292,-2.04000e+00,
293,-2.36000e+00,
294,-2.28000e+00,
295,-2.48000e+00,
296,-2.40000e+00,
297,-2.52000e+00,
298,-2.48000e+00,
299,-2.32000e+00,
300,-2.36000e+00,
301,-2.04000e+00,
302,-2.12000e+00,
303,-1.72000e+00,
304,-1.76000e+00,
305,-1.28000e+00,
306,-1.36000e+00,
307,-7.60000e-01,
308,-8.40000e-01,
309,-2.40000e-01,
310,-2.80000e-01,
311,3.20000e-01,
312,2.80000e-01,
313,8.80000e-01,
314,8.40000e-01,
315,1.36000e+00,
316,1.36000e+00,
317,1.84000e+00,
318,1.76000e+00,
319,2.16000e+00,
320,2.08000e+00,
321,2.40000e+00,
322,2.32000e+00,
323,2.52000e+00,
324,2.52000e+00,
325,2.44000e+00,
326,2.52000e+00,
327,2.32000e+00,
328,2.40000e+00,
329,2.08000e+00,
330,2.16000e+00,
331,1.72000e+00,
332,1.80000e+00,
333,1.28000e+00,
334,1.32000e+00,
335,8.00000e-01,
336,8.40000e-01,
337,2.40000e-01,
338,2.80000e-01,
339,-3.60000e-01,
340,-2.80000e-01,
341,-8.80000e-01,
342,-8.80000e-01,
343,-1.40000e+00,
344,-1.32000e+00,
345,-1.80000e+00,
346,-1.76000e+00,
347,-2.16000e+00,
348,-2.12000e+00,
349,-2.40000e+00,
350,-2.32000e+00,
351,-2.52000e+00,
352,-2.52000e+00,
353,-2.40000e+00,
354,-2.48000e+00,
355,-2.28000e+00,
356,-2.36000e+00,
357,-2.00000e+00,
358,-2.04000e+00,
359,-1.68000e+00,
360,-1.68000e+00,
361,-1.20000e+00,
362,-1.20000e+00,
363,-6.80000e-01,
364,-7.20000e-01,
365,-1.20000e-01,
366,-1.60000e-01,
367,4.40000e-01,
368,4.40000e-01,
369,1.00000e+00,
370,9.20000e-01,
371,1.48000e+00,
372,1.44000e+00,
373,1.92000e+00,
374,1.84000e+00,
375,2.24000e+00,
376,2.16000e+00,
377,2.44000e+00,
378,2.36000e+00,
379,2.52000e+00,
380,2.56000e+00,
381,2.40000e+00,
382,2.48000e+00,
383,2.28000e+00,
384,2.36000e+00,
385,2.00000e+00,
386,2.04000e+00,
387,1.64000e+00,
388,1.72000e+00,
389,1.20000e+00,
390,1.24000e+00,
391,6.40000e-01,
392,7.20000e-01,
393,1.20000e-01,
394,1.60000e-01,
395,-4.40000e-01,
396,-4.00000e-01,
397,-9.60000e-01,
398,-9.60000e-01,
399,-1.48000e+00,
400,-1.44000e+00,
401,-1.88000e+00,
402,-1.84000e+00,
403,-2.24000e+00,
404,-2.16000e+00,
405,-2.44000e+00,
406,-2.36000e+00,
407,-2.52000e+00,
408,-2.52000e+00,
409,-2.40000e+00,
410,-2.44000e+00,
411,-2.24000e+00,
412,-2.28000e+00,
413,-1.92000e+00,
414,-1.96000e+00,
415,-1.56000e+00,
416,-1.60000e+00,
417,-1.08000e+00,
418,-1.12000e+00,
419,-5.20000e-01,
420,-6.00000e-01,
421,0.00000e+00,
422,-4.00000e-02,
423,6.00000e-01,
424,5.20000e-01,
425,1.08000e+00,
426,1.08000e+00,
427,1.60000e+00,
428,1.52000e+00,
429,2.00000e+00,
430,1.92000e+00,
431,2.28000e+00,
432,2.20000e+00,
433,2.48000e+00,
434,2.40000e+00,
435,2.56000e+00,
436,2.56000e+00,
437,2.40000e+00,
438,2.48000e+00,
439,2.20000e+00,
440,2.32000e+00,
441,1.92000e+00,
442,2.00000e+00,
443,1.56000e+00,
444,1.60000e+00,
445,1.04000e+00,
446,1.12000e+00,
447,5.20000e-01,
448,6.00000e-01,
449,-4.00000e-02,
450,4.00000e-02,
451,-5.60000e-01,
452,-5.20000e-01,
453,-1.12000e+00,
454,-1.08000e+00,
455,-1.60000e+00,
456,-1.52000e+00,
457,-1.96000e+00,
458,-1.92000e+00,
459,-2.24000e+00,
460,-2.20000e+00,
461,-2.48000e+00,
462,-2.40000e+00,
463,-2.52000e+00,
464,-2.52000e+00,
465,-2.36000e+00,
466,-2.44000e+00,
467,-2.16000e+00,
468,-2.20000e+00,
469,-1.84000e+00,
470,-1.88000e+00,
471,-1.48000e+00,
472,-1.48000e+00,
473,-9.60000e-01,
474,-1.00000e+00,
475,-4.00000e-01,
476,-4.80000e-01,
477,1.20000e-01,
478,8.00000e-02,
479,6.80000e-01,
480,6.40000e-01,
481,1.20000e+00,
482,1.16000e+00,
483,1.68000e+00,
484,1.64000e+00,
485,2.08000e+00,
486,2.00000e+00,
487,2.36000e+00,
488,2.24000e+00,
489,2.48000e+00,
490,2.40000e+00,
491,2.56000e+00,
492,2.52000e+00,
493,2.36000e+00,
494,2.44000e+00,
495,2.16000e+00,
496,2.24000e+00,
497,1.84000e+00,
498,1.92000e+00,
499,1.48000e+00,
500,1.48000e+00,
501,9.60000e-01,
502,1.00000e+00,
503,4.40000e-01,
504,5.20000e-01,
505,-1.60000e-01,
506,-8.00000e-02,
507,-6.80000e-01,
508,-6.80000e-01,
509,-1.24000e+00,
510,-1.16000e+00,
511,-1.64000e+00,
512,-1.60000e+00,
513,-2.04000e+00,
514,-2.00000e+00,
515,-2.28000e+00,
516,-2.24000e+00,
517,-2.48000e+00,
518,-2.40000e+00,
519,-2.52000e+00,
520,-2.52000e+00,
521,-2.32000e+00,
522,-2.40000e+00,
523,-2.12000e+00,
524,-2.12000e+00,
525,-1.76000e+00,
526,-1.80000e+00,
527,-1.32000e+00,
528,-1.40000e+00,
529,-8.40000e-01,
530,-8.40000e-01,
531,-2.80000e-01,
532,-3.20000e-01,
533,2.40000e-01,
534,2.40000e-01,
535,8.40000e-01,
536,7.60000e-01,
537,1.32000e+00,
538,1.28000e+00,
539,1.80000e+00,
540,1.72000e+00,
541,2.12000e+00,
542,2.08000e+00,
543,2.40000e+00,
544,2.32000e+00,
545,2.52000e+00,
546,2.44000e+00,
547,2.56000e+00,
548,2.52000e+00,
549,2.32000e+00,
550,2.40000e+00,
551,2.12000e+00,
552,2.16000e+00,
553,1.76000e+00,
554,1.84000e+00,
555,1.36000e+00,
556,1.36000e+00,
557,8.00000e-01,
558,8.80000e-01,
559,3.20000e-01,
560,3.20000e-01,
561,-2.40000e-01,
562,-2.00000e-01,
563,-8.00000e-01,
564,-8.00000e-01,
565,-1.36000e+00,
566,-1.28000e+00,
567,-1.76000e+00,
568,-1.72000e+00,
569,-2.12000e+00,
570,-2.08000e+00,
571,-2.36000e+00,
572,-2.32000e+00,
573,-2.48000e+00,
574,-2.40000e+00,
575,-2.52000e+00,
576,-2.48000e+00,
577,-2.28000e+00,
578,-2.36000e+00,
579,-2.04000e+00,
580,-2.08000e+00,
581,-1.68000e+00,
582,-1.72000e+00,
583,-1.24000e+00,
584,-1.24000e+00,
585,-7.20000e-01,
586,-7.60000e-01,
587,-1.60000e-01,
588,-2.40000e-01,
589,4.00000e-01,
590,3.60000e-01,
591,9.20000e-01,
592,8.80000e-01,
593,1.40000e+00,
594,1.40000e+00,
595,1.88000e+00,
596,1.80000e+00,
597,2.20000e+00,
598,2.12000e+00,
599,2.44000e+00,
600,2.40000e+00,
601,2.52000e+00,
602,2.44000e+00,
603,2.56000e+00,
604,2.52000e+00,
605,2.28000e+00,
606,2.36000e+00,
607,2.04000e+00,
608,2.12000e+00,
609,1.68000e+00,
610,1.72000e+00,
611,1.20000e+00,
612,1.28000e+00,
613,7.20000e-01,
614,7.60000e-01,
615,1.60000e-01,
616,2.00000e-01,
617,-4.00000e-01,
618,-3.20000e-01,
619,-9.20000e-01,
620,-9.20000e-01,
621,-1.44000e+00,
622,-1.36000e+00,
623,-1.84000e+00,
624,-1.80000e+00,
625,-2.16000e+00,
626,-2.12000e+00,
627,-2.40000e+00,
628,-2.36000e+00,
629,-2.52000e+00,
630,-2.52000e+00,
631,-2.40000e+00,
632,-2.48000e+00,
633,-2.24000e+00,
634,-2.32000e+00,
635,-1.96000e+00,
636,-2.00000e+00,
637,-1.56000e+00,
638,-1.64000e+00,
639,-1.12000e+00,
640,-1.16000e+00,
641,-6.00000e-01,
642,-6.40000e-01,
643,-4.00000e-02,
644,-4.00000e-02,
645,5.60000e-01,
646,4.80000e-01,
647,1.08000e+00,
648,1.04000e+00,
649,1.52000e+00,
650,1.48000e+00,
651,1.96000e+00,
652,1.88000e+00,
653,2.28000e+00,
654,2.20000e+00,
655,2.48000e+00,
656,2.36000e+00,
657,2.52000e+00,
658,2.56000e+00,
659,2.40000e+00,
660,2.48000e+00,
661,2.28000e+00,
662,2.32000e+00,
663,1.96000e+00,
664,2.04000e+00,
665,1.60000e+00,
666,1.68000e+00,
667,1.12000e+00,
668,1.16000e+00,
669,6.00000e-01,
670,6.40000e-01,
671,8.00000e-02,
672,8.00000e-02,
673,-5.20000e-01,
674,-4.80000e-01,
675,-1.04000e+00,
676,-1.00000e+00,
677,-1.52000e+00,
678,-1.48000e+00,
679,-1.92000e+00,
680,-1.88000e+00,
681,-2.24000e+00,
682,-2.20000e+00,
683,-2.44000e+00,
684,-2.36000e+00,
685,-2.52000e+00,
686,-2.52000e+00,
687,-2.40000e+00,
688,-2.44000e+00,
689,-2.20000e+00,
690,-2.28000e+00,
691,-1.92000e+00,
692,-1.92000e+00,
693,-1.48000e+00,
694,-1.52000e+00,
695,-1.04000e+00,
696,-1.04000e+00,
697,-4.40000e-01,
698,-5.20000e-01,
699,8.00000e-02,
700,8.00000e-02,
701,6.40000e-01,
702,6.00000e-01,
703,1.16000e+00,
704,1.08000e+00,
705,1.60000e+00,
706,1.60000e+00,
707,2.04000e+00,
708,1.96000e+00,
709,2.32000e+00,
710,2.24000e+00,
711,2.48000e+00,
712,2.40000e+00,
713,2.56000e+00,
714,2.56000e+00,
715,2.40000e+00,
716,2.48000e+00,
717,2.20000e+00,
718,2.28000e+00,
719,1.88000e+00,
720,1.96000e+00,
721,1.52000e+00,
722,1.52000e+00,
723,1.00000e+00,
724,1.08000e+00,
725,4.80000e-01,
726,5.60000e-01,
727,-8.00000e-02,
728,-4.00000e-02,
729,-6.40000e-01,
730,-5.60000e-01,
731,-1.16000e+00,
732,-1.12000e+00,
733,-1.64000e+00,
734,-1.56000e+00,
735,-2.00000e+00,
736,-1.96000e+00,
737,-2.32000e+00,
738,-2.24000e+00,
739,-2.48000e+00,
740,-2.40000e+00,
741,-2.52000e+00,
742,-2.52000e+00,
743,-2.36000e+00,
744,-2.44000e+00,
745,-2.16000e+00,
746,-2.16000e+00,
747,-1.80000e+00,
748,-1.84000e+00,
749,-1.40000e+00,
750,-1.44000e+00,
751,-9.20000e-01,
752,-9.20000e-01,
753,-3.60000e-01,
754,-4.00000e-01,
755,2.00000e-01,
756,1.60000e-01,
757,7.60000e-01,
758,7.20000e-01,
759,1.28000e+00,
760,1.20000e+00,
761,1.72000e+00,
762,1.68000e+00,
763,2.12000e+00,
764,2.04000e+00,
765,2.36000e+00,
766,2.28000e+00,
767,2.52000e+00,
768,2.44000e+00,
769,2.56000e+00,
770,2.52000e+00,
771,2.36000e+00,
772,2.44000e+00,
773,2.12000e+00,
774,2.20000e+00,
775,1.80000e+00,
776,1.88000e+00,
777,1.40000e+00,
778,1.44000e+00,
779,8.80000e-01,
780,9.60000e-01,
781,3.60000e-01,
782,4.00000e-01,
783,-2.40000e-01,
784,-1.60000e-01,
785,-7.20000e-01,
786,-7.20000e-01,
787,-1.28000e+00,
788,-1.24000e+00,
789,-1.72000e+00,
790,-1.68000e+00,
791,-2.08000e+00,
792,-2.04000e+00,
793,-2.36000e+00,
794,-2.28000e+00,
795,-2.48000e+00,
796,-2.40000e+00,
797,-2.52000e+00,
798,-2.52000e+00,
799,-2.32000e+00,
800,-2.36000e+00,
801,-2.08000e+00,
802,-2.12000e+00,
803,-1.72000e+00,
804,-1.76000e+00,
805,-1.28000e+00,
806,-1.32000e+00,
807,-8.00000e-01,
808,-8.00000e-01,
809,-2.40000e-01,
810,-2.80000e-01,
811,3.20000e-01,
812,2.80000e-01,
813,8.80000e-01,
814,8.40000e-01,
815,1.36000e+00,
816,1.36000e+00,
817,1.84000e+00,
818,1.76000e+00,
819,2.16000e+00,
820,2.12000e+00,
821,2.40000e+00,
822,2.32000e+00,
823,2.52000e+00,
824,2.44000e+00,
825,2.56000e+00,
826,2.52000e+00,
827,2.32000e+00,
828,2.36000e+00,
829,2.04000e+00,
830,2.16000e+00,
831,1.72000e+00,
832,1.80000e+00,
833,1.28000e+00,
834,1.32000e+00,
835,7.60000e-01,
836,8.40000e-01,
837,2.40000e-01,
838,2.80000e-01,
839,-3.20000e-01,
840,-2.80000e-01,
841,-8.40000e-01,
842,-8.40000e-01,
843,-1.40000e+00,
844,-1.32000e+00,
845,-1.80000e+00,
846,-1.76000e+00,
847,-2.12000e+00,
848,-2.12000e+00,
849,-2.40000e+00,
850,-2.32000e+00,
851,-2.52000e+00,
852,-2.52000e+00,
853,-2.40000e+00,
854,-2.48000e+00,
855,-2.28000e+00,
856,-2.32000e+00,
857,-2.00000e+00,
858,-2.04000e+00,
859,-1.64000e+00,
860,-1.68000e+00,
861,-1.20000e+00,
862,-1.24000e+00,
863,-6.40000e-01,
864,-7.20000e-01,
865,-1.20000e-01,
866,-1.20000e-01,
867,4.80000e-01,
868,4.00000e-01,
869,1.00000e+00,
870,9.20000e-01,
871,1.48000e+00,
872,1.44000e+00,
873,1.92000e+00,
874,1.84000e+00,
875,2.24000e+00,
876,2.16000e+00,
877,2.44000e+00,
878,2.40000e+00,
879,2.56000e+00,
880,2.56000e+00,
881,2.40000e+00,
882,2.52000e+00,
883,2.28000e+00,
884,2.36000e+00,
885,2.00000e+00,
886,2.08000e+00,
887,1.64000e+00,
888,1.72000e+00,
889,1.16000e+00,
890,1.20000e+00,
891,6.80000e-01,
892,7.20000e-01,
893,1.20000e-01,
894,1.60000e-01,
895,-4.40000e-01,
896,-4.40000e-01,
897,-9.60000e-01,
898,-9.60000e-01,
899,-1.48000e+00,
900,-1.40000e+00,
901,-1.88000e+00,
902,-1.80000e+00,
903,-2.20000e+00,
904,-2.16000e+00,
905,-2.44000e+00,
906,-2.36000e+00,
907,-2.52000e+00,
908,-2.52000e+00,
909,-2.40000e+00,
910,-2.44000e+00,
911,-2.24000e+00,
912,-2.24000e+00,
913,-1.92000e+00,
914,-1.96000e+00,
915,-1.52000e+00,
916,-1.60000e+00,
917,-1.08000e+00,
918,-1.12000e+00,
919,-5.20000e-01,
920,-6.00000e-01,
921,0.00000e+00,
922,-4.00000e-02,
923,6.00000e-01,
924,5.20000e-01,
925,1.12000e+00,
926,1.04000e+00,
927,1.60000e+00,
928,1.52000e+00,
929,2.00000e+00,
930,1.92000e+00,
931,2.28000e+00,
932,2.20000e+00,
933,2.48000e+00,
934,2.40000e+00,
935,2.56000e+00,
936,2.56000e+00,
937,2.40000e+00,
938,2.48000e+00,
939,2.20000e+00,
940,2.32000e+00,
941,1.92000e+00,
942,2.00000e+00,
943,1.56000e+00,
944,1.60000e+00,
945,1.08000e+00,
946,1.12000e+00,
947,5.60000e-01,
948,6.00000e-01,
949,0.00000e+00,
950,4.00000e-02,
951,-5.60000e-01,
952,-5.20000e-01,
953,-1.08000e+00,
954,-1.04000e+00,
955,-1.60000e+00,
956,-1.52000e+00,
957,-1.96000e+00,
958,-1.92000e+00,
959,-2.28000e+00,
960,-2.20000e+00,
961,-2.44000e+00,
962,-2.40000e+00,
963,-2.52000e+00,
964,-2.52000e+00,
965,-2.36000e+00,
966,-2.44000e+00,
967,-2.16000e+00,
968,-2.20000e+00,
969,-1.84000e+00,
970,-1.88000e+00,
971,-1.44000e+00,
972,-1.48000e+00,
973,-9.60000e-01,
974,-9.60000e-01,
975,-4.00000e-01,
976,-4.80000e-01,
977,1.60000e-01,
978,1.20000e-01,
979,7.20000e-01,
980,6.80000e-01,
981,1.20000e+00,
982,1.16000e+00,
983,1.72000e+00,
984,1.64000e+00,
985,2.08000e+00,
986,2.00000e+00,
987,2.36000e+00,
988,2.28000e+00,
989,2.52000e+00,
990,2.40000e+00,
991,2.56000e+00,
992,2.56000e+00,
993,2.40000e+00,
994,2.44000e+00,
995,2.16000e+00,
996,2.24000e+00,
997,1.84000e+00,
998,1.92000e+00,
999,1.44000e+00,
1000,1.48000e+00,
1001,9.60000e-01,
1002,1.00000e+00,
1003,4.00000e-01,
1004,4.40000e-01,
1005,-1.60000e-01,
1006,-1.20000e-01,
1007,-6.80000e-01,
1008,-6.40000e-01,
1009,-1.24000e+00,
1010,-1.16000e+00,
1011,-1.68000e+00,
1012,-1.64000e+00,
1013,-2.04000e+00,
1014,-1.96000e+00,
1015,-2.36000e+00,
1016,-2.28000e+00,
1017,-2.48000e+00,
1018,-2.40000e+00,
1019,-2.52000e+00,
1020,-2.52000e+00,
1021,-2.32000e+00,
1022,-2.40000e+00,
1023,-2.12000e+00,
1024,-2.16000e+00,
1025,-1.80000e+00,
1026,-1.80000e+00,
1027,-1.36000e+00,
1028,-1.40000e+00,
1029,-8.80000e-01,
1030,-8.80000e-01,
1031,-2.80000e-01,
1032,-3.60000e-01,
1033,2.40000e-01,
1034,2.40000e-01,
1035,8.40000e-01,
1036,7.60000e-01,
1037,1.32000e+00,
1038,1.28000e+00,
1039,1.80000e+00,
1040,1.72000e+00,
1041,2.16000e+00,
1042,2.08000e+00,
1043,2.36000e+00,
1044,2.32000e+00,
1045,2.52000e+00,
1046,2.52000e+00,
1047,2.44000e+00,
1048,2.52000e+00,
1049,2.32000e+00,
1050,2.40000e+00,
1051,2.08000e+00,
1052,2.16000e+00,
1053,1.76000e+00,
1054,1.84000e+00,
1055,1.36000e+00,
1056,1.40000e+00,
1057,8.40000e-01,
1058,9.20000e-01,
1059,3.20000e-01,
1060,3.20000e-01,
1061,-2.80000e-01,
1062,-2.40000e-01,
1063,-8.00000e-01,
1064,-8.00000e-01,
1065,-1.32000e+00,
1066,-1.28000e+00,
1067,-1.76000e+00,
1068,-1.72000e+00,
1069,-2.12000e+00,
1070,-2.08000e+00,
1071,-2.36000e+00,
1072,-2.32000e+00,
1073,-2.52000e+00,
1074,-2.52000e+00,
1075,-2.40000e+00,
1076,-2.48000e+00,
1077,-2.28000e+00,
1078,-2.36000e+00,
1079,-2.00000e+00,
1080,-2.08000e+00,
1081,-1.68000e+00,
1082,-1.72000e+00,
1083,-1.24000e+00,
1084,-1.28000e+00,
1085,-7.20000e-01,
1086,-7.20000e-01,
1087,-1.60000e-01,
1088,-2.40000e-01,
1089,4.00000e-01,
1090,3.60000e-01,
1091,9.20000e-01,
1092,8.80000e-01,
1093,1.40000e+00,
1094,1.40000e+00,
1095,1.88000e+00,
1096,1.80000e+00,
1097,2.20000e+00,
1098,2.12000e+00,
1099,2.44000e+00,
1100,2.36000e+00,
1101,2.56000e+00,
1102,2.56000e+00,
1103,2.44000e+00,
1104,2.52000e+00,
1105,2.28000e+00,
1106,2.36000e+00,
1107,2.04000e+00,
1108,2.12000e+00,
1109,1.68000e+00,
1110,1.76000e+00,
1111,1.24000e+00,
1112,1.28000e+00,
1113,7.20000e-01,
1114,8.00000e-01,
1115,2.00000e-01,
1116,2.00000e-01,
1117,-4.00000e-01,
1118,-3.20000e-01,
1119,-9.20000e-01,
1120,-8.80000e-01,
1121,-1.44000e+00,
1122,-1.36000e+00,
1123,-1.84000e+00,
1124,-1.80000e+00,
1125,-2.20000e+00,
1126,-2.12000e+00,
1127,-2.40000e+00,
1128,-2.36000e+00,
1129,-2.52000e+00,
1130,-2.52000e+00,
1131,-2.40000e+00,
1132,-2.48000e+00,
1133,-2.24000e+00,
1134,-2.32000e+00,
1135,-1.96000e+00,
1136,-2.00000e+00,
