DataAnalysis/Johnson_noise/2017_johnson_noise/data_MUIC_nop_anan/NewFile51.csv

X,CH1,Start,Increment,
Sequence,Volt,1.80000e-03,1.00000e-06
0,-2.00000e+00,
1,-2.32000e+00,
2,-2.24000e+00,
3,-2.52000e+00,
4,-2.44000e+00,
5,-2.72000e+00,
6,-2.64000e+00,
7,-2.92000e+00,
8,-2.84000e+00,
9,-3.08000e+00,
10,-3.00000e+00,
11,-3.20000e+00,
12,-3.12000e+00,
13,-3.36000e+00,
14,-3.28000e+00,
15,-3.44000e+00,
16,-3.36000e+00,
17,-3.48000e+00,
18,-3.40000e+00,
19,-3.52000e+00,
20,-3.44000e+00,
21,-3.52000e+00,
22,-3.44000e+00,
23,-3.52000e+00,
24,-3.52000e+00,
25,-3.40000e+00,
26,-3.48000e+00,
27,-3.32000e+00,
28,-3.36000e+00,
29,-3.20000e+00,
30,-3.24000e+00,
31,-3.08000e+00,
32,-3.12000e+00,
33,-2.96000e+00,
34,-2.96000e+00,
35,-2.72000e+00,
36,-2.80000e+00,
37,-2.56000e+00,
38,-2.64000e+00,
39,-2.36000e+00,
40,-2.40000e+00,
41,-2.12000e+00,
42,-2.16000e+00,
43,-1.88000e+00,
44,-1.88000e+00,
45,-1.56000e+00,
46,-1.64000e+00,
47,-1.28000e+00,
48,-1.36000e+00,
49,-1.00000e+00,
50,-1.04000e+00,
51,-6.80000e-01,
52,-7.60000e-01,
53,-4.00000e-01,
54,-4.80000e-01,
55,-1.20000e-01,
56,-1.60000e-01,
57,1.60000e-01,
58,1.60000e-01,
59,5.20000e-01,
60,4.80000e-01,
61,8.00000e-01,
62,7.60000e-01,
63,1.12000e+00,
64,1.04000e+00,
65,1.40000e+00,
66,1.36000e+00,
67,1.72000e+00,
68,1.64000e+00,
69,1.96000e+00,
70,1.88000e+00,
71,2.20000e+00,
72,2.12000e+00,
73,2.44000e+00,
74,2.36000e+00,
75,2.64000e+00,
76,2.60000e+00,
77,2.88000e+00,
78,2.80000e+00,
79,3.04000e+00,
80,2.96000e+00,
81,3.20000e+00,
82,3.12000e+00,
83,3.32000e+00,
84,3.24000e+00,
85,3.40000e+00,
86,3.32000e+00,
87,3.48000e+00,
88,3.40000e+00,
89,3.56000e+00,
90,3.44000e+00,
91,3.56000e+00,
92,3.56000e+00,
93,3.48000e+00,
94,3.56000e+00,
95,3.44000e+00,
96,3.52000e+00,
97,3.40000e+00,
98,3.48000e+00,
99,3.32000e+00,
100,3.40000e+00,
101,3.20000e+00,
102,3.28000e+00,
103,3.08000e+00,
104,3.16000e+00,
105,2.92000e+00,
106,3.00000e+00,
107,2.76000e+00,
108,2.84000e+00,
109,2.56000e+00,
110,2.60000e+00,
111,2.32000e+00,
112,2.36000e+00,
113,2.08000e+00,
114,2.16000e+00,
115,1.80000e+00,
116,1.88000e+00,
117,1.56000e+00,
118,1.64000e+00,
119,1.28000e+00,
120,1.32000e+00,
121,9.60000e-01,
122,1.04000e+00,
123,6.80000e-01,
124,7.20000e-01,
125,4.00000e-01,
126,4.40000e-01,
127,8.00000e-02,
128,1.20000e-01,
129,-2.40000e-01,
130,-1.60000e-01,
131,-5.20000e-01,
132,-4.80000e-01,
133,-8.40000e-01,
134,-8.00000e-01,
135,-1.12000e+00,
136,-1.08000e+00,
137,-1.44000e+00,
138,-1.36000e+00,
139,-1.68000e+00,
140,-1.64000e+00,
141,-1.96000e+00,
142,-1.88000e+00,
143,-2.20000e+00,
144,-2.16000e+00,
145,-2.44000e+00,
146,-2.40000e+00,
147,-2.64000e+00,
148,-2.60000e+00,
149,-2.84000e+00,
150,-2.76000e+00,
151,-3.00000e+00,
152,-2.92000e+00,
153,-3.16000e+00,
154,-3.08000e+00,
155,-3.28000e+00,
156,-3.20000e+00,
157,-3.40000e+00,
158,-3.32000e+00,
159,-3.44000e+00,
160,-3.40000e+00,
161,-3.52000e+00,
162,-3.44000e+00,
163,-3.52000e+00,
164,-3.44000e+00,
165,-3.52000e+00,
166,-3.52000e+00,
167,-3.40000e+00,
168,-3.48000e+00,
169,-3.32000e+00,
170,-3.40000e+00,
171,-3.20000e+00,
172,-3.28000e+00,
173,-3.08000e+00,
174,-3.16000e+00,
175,-2.96000e+00,
176,-3.04000e+00,
177,-2.80000e+00,
178,-2.88000e+00,
179,-2.64000e+00,
180,-2.68000e+00,
181,-2.40000e+00,
182,-2.48000e+00,
183,-2.20000e+00,
184,-2.24000e+00,
185,-1.96000e+00,
186,-2.00000e+00,
187,-1.68000e+00,
188,-1.72000e+00,
189,-1.40000e+00,
190,-1.48000e+00,
191,-1.12000e+00,
192,-1.20000e+00,
193,-8.40000e-01,
194,-8.80000e-01,
195,-5.20000e-01,
196,-5.60000e-01,
197,-2.00000e-01,
198,-2.80000e-01,
199,8.00000e-02,
200,4.00000e-02,
201,3.60000e-01,
202,3.60000e-01,
203,7.20000e-01,
204,6.40000e-01,
205,1.00000e+00,
206,9.20000e-01,
207,1.28000e+00,
208,1.24000e+00,
209,1.56000e+00,
210,1.52000e+00,
211,1.84000e+00,
212,1.76000e+00,
213,2.12000e+00,
214,2.04000e+00,
215,2.36000e+00,
216,2.28000e+00,
217,2.56000e+00,
218,2.48000e+00,
219,2.80000e+00,
220,2.72000e+00,
221,2.96000e+00,
222,2.88000e+00,
223,3.12000e+00,
224,3.04000e+00,
225,3.24000e+00,
226,3.16000e+00,
227,3.36000e+00,
228,3.28000e+00,
229,3.44000e+00,
230,3.36000e+00,
231,3.52000e+00,
232,3.44000e+00,
233,3.56000e+00,
234,3.44000e+00,
235,3.56000e+00,
236,3.56000e+00,
237,3.44000e+00,
238,3.56000e+00,
239,3.40000e+00,
240,3.48000e+00,
241,3.32000e+00,
242,3.44000e+00,
243,3.24000e+00,
244,3.32000e+00,
245,3.12000e+00,
246,3.24000e+00,
247,2.96000e+00,
248,3.08000e+00,
249,2.84000e+00,
250,2.88000e+00,
251,2.64000e+00,
252,2.68000e+00,
253,2.40000e+00,
254,2.48000e+00,
255,2.16000e+00,
256,2.24000e+00,
257,1.92000e+00,
258,2.00000e+00,
259,1.68000e+00,
260,1.72000e+00,
261,1.40000e+00,
262,1.48000e+00,
263,1.12000e+00,
264,1.16000e+00,
265,8.40000e-01,
266,8.80000e-01,
267,5.20000e-01,
268,6.00000e-01,
269,2.40000e-01,
270,2.40000e-01,
271,-1.20000e-01,
272,-4.00000e-02,
273,-4.00000e-01,
274,-3.60000e-01,
275,-6.80000e-01,
276,-6.40000e-01,
277,-1.00000e+00,
278,-9.60000e-01,
279,-1.32000e+00,
280,-1.24000e+00,
281,-1.60000e+00,
282,-1.52000e+00,
283,-1.84000e+00,
284,-1.76000e+00,
285,-2.08000e+00,
286,-2.08000e+00,
287,-2.36000e+00,
288,-2.28000e+00,
289,-2.56000e+00,
290,-2.52000e+00,
291,-2.76000e+00,
292,-2.72000e+00,
293,-2.96000e+00,
294,-2.88000e+00,
295,-3.08000e+00,
296,-3.00000e+00,
297,-3.20000e+00,
298,-3.12000e+00,
299,-3.36000e+00,
300,-3.28000e+00,
301,-3.44000e+00,
302,-3.36000e+00,
303,-3.52000e+00,
304,-3.52000e+00,
305,-3.44000e+00,
306,-3.44000e+00,
307,-3.56000e+00,
308,-3.44000e+00,
309,-3.56000e+00,
310,-3.52000e+00,
311,-3.36000e+00,
312,-3.48000e+00,
313,-3.28000e+00,
314,-3.40000e+00,
315,-3.16000e+00,
316,-3.24000e+00,
317,-3.04000e+00,
318,-3.12000e+00,
319,-2.92000e+00,
320,-2.96000e+00,
321,-2.72000e+00,
322,-2.76000e+00,
323,-2.52000e+00,
324,-2.60000e+00,
325,-2.32000e+00,
326,-2.36000e+00,
327,-2.04000e+00,
328,-2.08000e+00,
329,-1.80000e+00,
330,-1.84000e+00,
331,-1.52000e+00,
332,-1.60000e+00,
333,-1.24000e+00,
334,-1.32000e+00,
335,-9.60000e-01,
336,-1.00000e+00,
337,-6.40000e-01,
338,-7.20000e-01,
339,-3.60000e-01,
340,-4.00000e-01,
341,-4.00000e-02,
342,-1.20000e-01,
343,2.40000e-01,
344,2.40000e-01,
345,6.00000e-01,
346,5.20000e-01,
347,8.80000e-01,
348,8.00000e-01,
349,1.16000e+00,
350,1.08000e+00,
351,1.48000e+00,
352,1.40000e+00,
353,1.76000e+00,
354,1.68000e+00,
355,2.00000e+00,
356,1.92000e+00,
357,2.24000e+00,
358,2.16000e+00,
359,2.48000e+00,
360,2.40000e+00,
361,2.68000e+00,
362,2.64000e+00,
363,2.88000e+00,
364,2.80000e+00,
365,3.04000e+00,
366,2.96000e+00,
367,3.20000e+00,
368,3.12000e+00,
369,3.32000e+00,
370,3.24000e+00,
371,3.44000e+00,
372,3.32000e+00,
373,3.48000e+00,
374,3.40000e+00,
375,3.56000e+00,
376,3.56000e+00,
377,3.44000e+00,
378,3.56000e+00,
379,3.44000e+00,
380,3.56000e+00,
381,3.44000e+00,
382,3.52000e+00,
383,3.36000e+00,
384,3.48000e+00,
385,3.28000e+00,
386,3.36000e+00,
387,3.16000e+00,
388,3.28000e+00,
389,3.04000e+00,
390,3.16000e+00,
391,2.88000e+00,
392,3.00000e+00,
393,2.72000e+00,
394,2.80000e+00,
395,2.48000e+00,
396,2.56000e+00,
397,2.28000e+00,
398,2.36000e+00,
399,2.04000e+00,
400,2.12000e+00,
401,1.80000e+00,
402,1.84000e+00,
403,1.52000e+00,
404,1.60000e+00,
405,1.24000e+00,
406,1.28000e+00,
407,9.60000e-01,
408,1.00000e+00,
409,6.40000e-01,
410,7.20000e-01,
411,3.60000e-01,
412,4.00000e-01,
413,4.00000e-02,
414,8.00000e-02,
415,-2.80000e-01,
416,-2.00000e-01,
417,-5.60000e-01,
418,-5.20000e-01,
419,-8.80000e-01,
420,-8.00000e-01,
421,-1.20000e+00,
422,-1.12000e+00,
423,-1.48000e+00,
424,-1.40000e+00,
425,-1.72000e+00,
426,-1.68000e+00,
427,-2.00000e+00,
428,-1.92000e+00,
429,-2.24000e+00,
430,-2.20000e+00,
431,-2.48000e+00,
432,-2.40000e+00,
433,-2.68000e+00,
434,-2.64000e+00,
435,-2.88000e+00,
436,-2.80000e+00,
437,-3.04000e+00,
438,-2.96000e+00,
439,-3.16000e+00,
440,-3.12000e+00,
441,-3.28000e+00,
442,-3.24000e+00,
443,-3.40000e+00,
444,-3.32000e+00,
445,-3.48000e+00,
446,-3.40000e+00,
447,-3.52000e+00,
448,-3.44000e+00,
449,-3.56000e+00,
450,-3.44000e+00,
451,-3.52000e+00,
452,-3.52000e+00,
453,-3.40000e+00,
454,-3.48000e+00,
455,-3.32000e+00,
456,-3.36000e+00,
457,-3.20000e+00,
458,-3.28000e+00,
459,-3.08000e+00,
460,-3.16000e+00,
461,-2.92000e+00,
462,-3.00000e+00,
463,-2.80000e+00,
464,-2.84000e+00,
465,-2.60000e+00,
466,-2.64000e+00,
467,-2.40000e+00,
468,-2.44000e+00,
469,-2.16000e+00,
470,-2.24000e+00,
471,-1.88000e+00,
472,-1.96000e+00,
473,-1.64000e+00,
474,-1.72000e+00,
475,-1.36000e+00,
476,-1.44000e+00,
477,-1.08000e+00,
478,-1.12000e+00,
479,-8.00000e-01,
480,-8.40000e-01,
481,-4.80000e-01,
482,-5.20000e-01,
483,-1.60000e-01,
484,-2.40000e-01,
485,1.20000e-01,
486,4.00000e-02,
487,4.00000e-01,
488,4.00000e-01,
489,7.60000e-01,
490,6.80000e-01,
491,1.04000e+00,
492,9.60000e-01,
493,1.32000e+00,
494,1.28000e+00,
495,1.60000e+00,
496,1.56000e+00,
497,1.92000e+00,
498,1.84000e+00,
499,2.16000e+00,
500,2.08000e+00,
501,2.36000e+00,
502,2.32000e+00,
503,2.60000e+00,
504,2.52000e+00,
505,2.80000e+00,
506,2.76000e+00,
507,3.00000e+00,
508,2.92000e+00,
509,3.16000e+00,
510,3.08000e+00,
511,3.28000e+00,
512,3.20000e+00,
513,3.40000e+00,
514,3.32000e+00,
515,3.48000e+00,
516,3.36000e+00,
517,3.52000e+00,
518,3.44000e+00,
519,3.56000e+00,
520,3.56000e+00,
521,3.44000e+00,
522,3.56000e+00,
523,3.44000e+00,
524,3.56000e+00,
525,3.40000e+00,
526,3.48000e+00,
527,3.32000e+00,
528,3.40000e+00,
529,3.24000e+00,
530,3.32000e+00,
531,3.12000e+00,
532,3.20000e+00,
533,2.96000e+00,
534,3.04000e+00,
535,2.80000e+00,
536,2.88000e+00,
537,2.60000e+00,
538,2.64000e+00,
539,2.36000e+00,
540,2.44000e+00,
541,2.16000e+00,
542,2.20000e+00,
543,1.88000e+00,
544,1.96000e+00,
545,1.64000e+00,
546,1.72000e+00,
547,1.36000e+00,
548,1.40000e+00,
549,1.08000e+00,
550,1.12000e+00,
551,7.60000e-01,
552,8.40000e-01,
553,4.80000e-01,
554,5.60000e-01,
555,1.20000e-01,
556,2.00000e-01,
557,-1.60000e-01,
558,-8.00000e-02,
559,-4.40000e-01,
560,-4.00000e-01,
561,-7.20000e-01,
562,-6.80000e-01,
563,-1.04000e+00,
564,-1.00000e+00,
565,-1.36000e+00,
566,-1.28000e+00,
567,-1.60000e+00,
568,-1.56000e+00,
569,-1.88000e+00,
570,-1.80000e+00,
571,-2.12000e+00,
572,-2.08000e+00,
573,-2.40000e+00,
574,-2.32000e+00,
575,-2.60000e+00,
576,-2.52000e+00,
577,-2.80000e+00,
578,-2.72000e+00,
579,-2.96000e+00,
580,-2.88000e+00,
581,-3.12000e+00,
582,-3.08000e+00,
583,-3.24000e+00,
584,-3.20000e+00,
585,-3.40000e+00,
586,-3.28000e+00,
587,-3.44000e+00,
588,-3.36000e+00,
589,-3.52000e+00,
590,-3.40000e+00,
591,-3.52000e+00,
592,-3.44000e+00,
593,-3.52000e+00,
594,-3.52000e+00,
595,-3.40000e+00,
596,-3.52000e+00,
597,-3.36000e+00,
598,-3.44000e+00,
599,-3.28000e+00,
600,-3.32000e+00,
601,-3.12000e+00,
602,-3.20000e+00,
603,-3.00000e+00,
604,-3.08000e+00,
605,-2.84000e+00,
606,-2.92000e+00,
607,-2.68000e+00,
608,-2.76000e+00,
609,-2.48000e+00,
610,-2.56000e+00,
611,-2.28000e+00,
612,-2.32000e+00,
613,-2.04000e+00,
614,-2.08000e+00,
615,-1.76000e+00,
616,-1.84000e+00,
617,-1.52000e+00,
618,-1.56000e+00,
619,-1.24000e+00,
620,-1.24000e+00,
621,-9.60000e-01,
622,-9.60000e-01,
623,-6.00000e-01,
624,-6.80000e-01,
625,-3.20000e-01,
626,-3.60000e-01,
627,-4.00000e-02,
628,-8.00000e-02,
629,2.80000e-01,
630,2.40000e-01,
631,6.00000e-01,
632,5.60000e-01,
633,9.20000e-01,
634,8.40000e-01,
635,1.20000e+00,
636,1.12000e+00,
637,1.48000e+00,
638,1.44000e+00,
639,1.80000e+00,
640,1.72000e+00,
641,2.04000e+00,
642,1.96000e+00,
643,2.28000e+00,
644,2.20000e+00,
645,2.52000e+00,
646,2.44000e+00,
647,2.72000e+00,
648,2.64000e+00,
649,2.92000e+00,
650,2.84000e+00,
651,3.08000e+00,
652,3.00000e+00,
653,3.24000e+00,
654,3.16000e+00,
655,3.36000e+00,
656,3.28000e+00,
657,3.44000e+00,
658,3.36000e+00,
659,3.52000e+00,
660,3.40000e+00,
661,3.56000e+00,
662,3.56000e+00,
663,3.48000e+00,
664,3.56000e+00,
665,3.44000e+00,
666,3.56000e+00,
667,3.44000e+00,
668,3.52000e+00,
669,3.36000e+00,
670,3.48000e+00,
671,3.28000e+00,
672,3.36000e+00,
673,3.16000e+00,
674,3.24000e+00,
675,3.04000e+00,
676,3.12000e+00,
677,2.88000e+00,
678,2.92000e+00,
679,2.68000e+00,
680,2.72000e+00,
681,2.44000e+00,
682,2.56000e+00,
683,2.24000e+00,
684,2.32000e+00,
685,2.00000e+00,
686,2.08000e+00,
687,1.76000e+00,
688,1.84000e+00,
689,1.48000e+00,
690,1.52000e+00,
691,1.20000e+00,
692,1.24000e+00,
693,9.20000e-01,
694,9.60000e-01,
695,6.00000e-01,
696,6.80000e-01,
697,3.20000e-01,
698,3.20000e-01,
699,-4.00000e-02,
700,4.00000e-02,
701,-3.20000e-01,
702,-2.40000e-01,
703,-6.00000e-01,
704,-5.60000e-01,
705,-9.20000e-01,
706,-8.80000e-01,
707,-1.24000e+00,
708,-1.16000e+00,
709,-1.52000e+00,
710,-1.44000e+00,
711,-1.76000e+00,
712,-1.72000e+00,
713,-2.00000e+00,
714,-1.96000e+00,
715,-2.24000e+00,
716,-2.20000e+00,
717,-2.52000e+00,
718,-2.44000e+00,
719,-2.72000e+00,
720,-2.64000e+00,
721,-2.88000e+00,
722,-2.84000e+00,
723,-3.04000e+00,
724,-3.00000e+00,
725,-3.20000e+00,
726,-3.12000e+00,
727,-3.32000e+00,
728,-3.24000e+00,
729,-3.44000e+00,
730,-3.36000e+00,
731,-3.48000e+00,
732,-3.40000e+00,
733,-3.52000e+00,
734,-3.44000e+00,
735,-3.56000e+00,
736,-3.44000e+00,
737,-3.52000e+00,
738,-3.52000e+00,
739,-3.40000e+00,
740,-3.48000e+00,
741,-3.32000e+00,
742,-3.40000e+00,
743,-3.20000e+00,
744,-3.28000e+00,
745,-3.08000e+00,
746,-3.16000e+00,
747,-2.92000e+00,
748,-3.00000e+00,
749,-2.76000e+00,
750,-2.84000e+00,
751,-2.56000e+00,
752,-2.64000e+00,
753,-2.36000e+00,
754,-2.44000e+00,
755,-2.16000e+00,
756,-2.16000e+00,
757,-1.88000e+00,
758,-1.92000e+00,
759,-1.64000e+00,
760,-1.68000e+00,
761,-1.32000e+00,
762,-1.40000e+00,
763,-1.04000e+00,
764,-1.08000e+00,
765,-7.60000e-01,
766,-8.00000e-01,
767,-4.40000e-01,
768,-5.20000e-01,
769,-1.20000e-01,
770,-2.00000e-01,
771,1.60000e-01,
772,8.00000e-02,
773,4.80000e-01,
774,4.40000e-01,
775,8.00000e-01,
776,7.20000e-01,
777,1.08000e+00,
778,1.00000e+00,
779,1.36000e+00,
780,1.32000e+00,
781,1.64000e+00,
782,1.60000e+00,
783,1.92000e+00,
784,1.84000e+00,
785,2.16000e+00,
786,2.08000e+00,
787,2.40000e+00,
788,2.36000e+00,
789,2.68000e+00,
790,2.56000e+00,
791,2.84000e+00,
792,2.76000e+00,
793,3.04000e+00,
794,2.96000e+00,
795,3.16000e+00,
796,3.08000e+00,
797,3.28000e+00,
798,3.20000e+00,
799,3.40000e+00,
800,3.32000e+00,
801,3.48000e+00,
802,3.40000e+00,
803,3.52000e+00,
804,3.44000e+00,
805,3.56000e+00,
806,3.56000e+00,
807,3.48000e+00,
808,3.56000e+00,
809,3.44000e+00,
810,3.56000e+00,
811,3.40000e+00,
812,3.48000e+00,
813,3.32000e+00,
814,3.40000e+00,
815,3.24000e+00,
816,3.32000e+00,
817,3.08000e+00,
818,3.16000e+00,
819,2.96000e+00,
820,3.04000e+00,
821,2.76000e+00,
822,2.84000e+00,
823,2.60000e+00,
824,2.64000e+00,
825,2.36000e+00,
826,2.40000e+00,
827,2.12000e+00,
828,2.20000e+00,
829,1.88000e+00,
830,1.96000e+00,
831,1.60000e+00,
832,1.68000e+00,
833,1.32000e+00,
834,1.36000e+00,
835,1.04000e+00,
836,1.08000e+00,
837,7.60000e-01,
838,8.00000e-01,
839,4.40000e-01,
840,5.20000e-01,
841,1.20000e-01,
842,1.60000e-01,
843,-2.00000e-01,
844,-1.20000e-01,
845,-4.80000e-01,
846,-4.40000e-01,
847,-7.60000e-01,
848,-7.20000e-01,
849,-1.08000e+00,
850,-1.04000e+00,
851,-1.40000e+00,
852,-1.32000e+00,
853,-1.64000e+00,
854,-1.60000e+00,
855,-1.92000e+00,
856,-1.84000e+00,
857,-2.16000e+00,
858,-2.12000e+00,
859,-2.44000e+00,
860,-2.36000e+00,
861,-2.64000e+00,
862,-2.56000e+00,
863,-2.80000e+00,
864,-2.76000e+00,
865,-2.96000e+00,
866,-2.92000e+00,
867,-3.12000e+00,
868,-3.04000e+00,
869,-3.24000e+00,
870,-3.16000e+00,
871,-3.36000e+00,
872,-3.28000e+00,
873,-3.44000e+00,
874,-3.36000e+00,
875,-3.48000e+00,
876,-3.40000e+00,
877,-3.52000e+00,
878,-3.44000e+00,
879,-3.52000e+00,
880,-3.52000e+00,
881,-3.40000e+00,
882,-3.48000e+00,
883,-3.36000e+00,
884,-3.40000e+00,
885,-3.24000e+00,
886,-3.28000e+00,
887,-3.12000e+00,
888,-3.20000e+00,
889,-3.00000e+00,
890,-3.04000e+00,
891,-2.84000e+00,
892,-2.88000e+00,
893,-2.64000e+00,
894,-2.72000e+00,
895,-2.44000e+00,
896,-2.52000e+00,
897,-2.24000e+00,
898,-2.28000e+00,
899,-2.00000e+00,
900,-2.04000e+00,
901,-1.72000e+00,
902,-1.76000e+00,
903,-1.44000e+00,
904,-1.52000e+00,
905,-1.20000e+00,
906,-1.24000e+00,
907,-8.80000e-01,
908,-9.20000e-01,
909,-5.60000e-01,
910,-6.40000e-01,
911,-2.80000e-01,
912,-3.20000e-01,
913,4.00000e-02,
914,-4.00000e-02,
915,3.20000e-01,
916,3.20000e-01,
917,6.80000e-01,
918,6.00000e-01,
919,9.60000e-01,
920,8.80000e-01,
921,1.24000e+00,
922,1.20000e+00,
923,1.52000e+00,
924,1.48000e+00,
925,1.80000e+00,
926,1.76000e+00,
927,2.08000e+00,
928,2.00000e+00,
929,2.32000e+00,
930,2.20000e+00,
931,2.52000e+00,
932,2.44000e+00,
933,2.72000e+00,
934,2.68000e+00,
935,2.96000e+00,
936,2.84000e+00,
937,3.08000e+00,
938,3.00000e+00,
939,3.24000e+00,
940,3.16000e+00,
941,3.36000e+00,
942,3.24000e+00,
943,3.44000e+00,
944,3.36000e+00,
945,3.48000e+00,
946,3.40000e+00,
947,3.56000e+00,
948,3.56000e+00,
949,3.44000e+00,
950,3.56000e+00,
951,3.44000e+00,
952,3.52000e+00,
953,3.40000e+00,
954,3.48000e+00,
955,3.32000e+00,
956,3.44000e+00,
957,3.24000e+00,
958,3.32000e+00,
959,3.12000e+00,
960,3.24000e+00,
961,3.00000e+00,
962,3.08000e+00,
963,2.84000e+00,
964,2.92000e+00,
965,2.64000e+00,
966,2.72000e+00,
967,2.44000e+00,
968,2.52000e+00,
969,2.20000e+00,
970,2.28000e+00,
971,1.96000e+00,
972,2.04000e+00,
973,1.72000e+00,
974,1.80000e+00,
975,1.44000e+00,
976,1.48000e+00,
977,1.16000e+00,
978,1.20000e+00,
979,8.40000e-01,
980,9.20000e-01,
981,5.60000e-01,
982,6.40000e-01,
983,2.80000e-01,
984,3.20000e-01,
985,-4.00000e-02,
986,0.00000e+00,
987,-3.60000e-01,
988,-3.20000e-01,
989,-6.80000e-01,
990,-6.00000e-01,
991,-9.60000e-01,
992,-9.20000e-01,
993,-1.24000e+00,
994,-1.20000e+00,
995,-1.56000e+00,
996,-1.48000e+00,
997,-1.80000e+00,
998,-1.72000e+00,
999,-2.04000e+00,
1000,-2.04000e+00,
1001,-2.32000e+00,
1002,-2.28000e+00,
1003,-2.56000e+00,
1004,-2.48000e+00,
1005,-2.76000e+00,
1006,-2.68000e+00,
1007,-2.92000e+00,
1008,-2.84000e+00,
1009,-3.08000e+00,
1010,-3.00000e+00,
1011,-3.20000e+00,
1012,-3.16000e+00,
1013,-3.32000e+00,
1014,-3.28000e+00,
1015,-3.44000e+00,
1016,-3.36000e+00,
1017,-3.48000e+00,
1018,-3.44000e+00,
1019,-3.56000e+00,
1020,-3.44000e+00,
1021,-3.56000e+00,
1022,-3.44000e+00,
1023,-3.56000e+00,
1024,-3.52000e+00,
1025,-3.36000e+00,
1026,-3.48000e+00,
1027,-3.32000e+00,
1028,-3.40000e+00,
1029,-3.20000e+00,
1030,-3.24000e+00,
1031,-3.04000e+00,
1032,-3.12000e+00,
1033,-2.92000e+00,
1034,-3.00000e+00,
1035,-2.72000e+00,
1036,-2.80000e+00,
1037,-2.56000e+00,
1038,-2.60000e+00,
1039,-2.32000e+00,
1040,-2.40000e+00,
1041,-2.12000e+00,
1042,-2.16000e+00,
1043,-1.84000e+00,
1044,-1.88000e+00,
1045,-1.56000e+00,
1046,-1.64000e+00,
1047,-1.28000e+00,
1048,-1.36000e+00,
1049,-1.04000e+00,
1050,-1.08000e+00,
1051,-6.80000e-01,
1052,-7.60000e-01,
1053,-4.00000e-01,
1054,-4.40000e-01,
1055,-8.00000e-02,
1056,-1.60000e-01,
1057,2.00000e-01,
1058,1.20000e-01,
1059,5.20000e-01,
1060,4.80000e-01,
1061,8.40000e-01,
1062,7.60000e-01,
1063,1.12000e+00,
1064,1.04000e+00,
1065,1.40000e+00,
1066,1.32000e+00,
1067,1.68000e+00,
1068,1.60000e+00,
1069,1.96000e+00,
1070,1.88000e+00,
1071,2.20000e+00,
1072,2.12000e+00,
1073,2.44000e+00,
1074,2.36000e+00,
1075,2.64000e+00,
1076,2.60000e+00,
1077,2.84000e+00,
1078,2.80000e+00,
1079,3.04000e+00,
1080,2.96000e+00,
1081,3.20000e+00,
1082,3.08000e+00,
1083,3.32000e+00,
1084,3.24000e+00,
1085,3.44000e+00,
1086,3.32000e+00,
1087,3.48000e+00,
1088,3.40000e+00,
1089,3.56000e+00,
1090,3.56000e+00,
1091,3.44000e+00,
1092,3.56000e+00,
1093,3.48000e+00,
1094,3.56000e+00,
1095,3.44000e+00,
1096,3.52000e+00,
1097,3.40000e+00,
1098,3.48000e+00,
1099,3.32000e+00,
1100,3.40000e+00,
1101,3.20000e+00,
1102,3.28000e+00,
1103,3.08000e+00,
1104,3.16000e+00,
1105,2.92000e+00,
1106,3.00000e+00,
1107,2.76000e+00,
1108,2.80000e+00,
1109,2.52000e+00,
1110,2.60000e+00,
1111,2.32000e+00,
1112,2.40000e+00,
1113,2.08000e+00,
1114,2.16000e+00,
1115,1.84000e+00,
1116,1.92000e+00,
1117,1.56000e+00,
1118,1.60000e+00,
1119,1.28000e+00,
1120,1.32000e+00,
1121,9.60000e-01,
1122,1.04000e+00,
1123,6.80000e-01,
1124,7.60000e-01,
1125,4.00000e-01,
1126,4.40000e-01,
1127,8.00000e-02,
1128,1.20000e-01,
1129,-2.40000e-01,
1130,-1.60000e-01,
1131,-5.20000e-01,
1132,-4.80000e-01,
1133,-8.40000e-01,
1134,-7.60000e-01,
1135,-1.12000e+00,
1136,-1.08000e+00,
1137,-1.40000e+00,
