DataAnalysis/Johnson_noise/2017_johnson_noise/data_MUIC_nop_anan/NewFile31.csv

X,CH1,Start,Increment,
Sequence,Volt,-3.60000e-03,1.00000e-05
0,3.40000e+00,
1,3.04000e+00,
2,3.08000e+00,
3,2.64000e+00,
4,2.72000e+00,
5,2.20000e+00,
6,2.24000e+00,
7,1.68000e+00,
8,1.76000e+00,
9,1.12000e+00,
10,1.16000e+00,
11,5.60000e-01,
12,6.00000e-01,
13,-4.00000e-02,
14,0.00000e+00,
15,-6.40000e-01,
16,-6.00000e-01,
17,-1.24000e+00,
18,-1.16000e+00,
19,-1.80000e+00,
20,-1.72000e+00,
21,-2.28000e+00,
22,-2.24000e+00,
23,-2.76000e+00,
24,-2.68000e+00,
25,-3.12000e+00,
26,-3.04000e+00,
27,-3.44000e+00,
28,-3.36000e+00,
29,-3.64000e+00,
30,-3.56000e+00,
31,-3.76000e+00,
32,-3.64000e+00,
33,-3.76000e+00,
34,-3.76000e+00,
35,-3.56000e+00,
36,-3.64000e+00,
37,-3.40000e+00,
38,-3.44000e+00,
39,-3.08000e+00,
40,-3.16000e+00,
41,-2.76000e+00,
42,-2.80000e+00,
43,-2.32000e+00,
44,-2.36000e+00,
45,-1.80000e+00,
46,-1.84000e+00,
47,-1.24000e+00,
48,-1.28000e+00,
49,-6.40000e-01,
50,-7.20000e-01,
51,-8.00000e-02,
52,-8.00000e-02,
53,5.60000e-01,
54,4.80000e-01,
55,1.12000e+00,
56,1.12000e+00,
57,1.72000e+00,
58,1.64000e+00,
59,2.24000e+00,
60,2.16000e+00,
61,2.68000e+00,
62,2.64000e+00,
63,3.08000e+00,
64,3.00000e+00,
65,3.36000e+00,
66,3.28000e+00,
67,3.56000e+00,
68,3.48000e+00,
69,3.72000e+00,
70,3.64000e+00,
71,3.72000e+00,
72,3.72000e+00,
73,3.56000e+00,
74,3.64000e+00,
75,3.40000e+00,
76,3.48000e+00,
77,3.16000e+00,
78,3.24000e+00,
79,2.84000e+00,
80,2.92000e+00,
81,2.44000e+00,
82,2.48000e+00,
83,1.92000e+00,
84,2.00000e+00,
85,1.40000e+00,
86,1.44000e+00,
87,8.00000e-01,
88,8.80000e-01,
89,2.40000e-01,
90,3.20000e-01,
91,-4.00000e-01,
92,-3.20000e-01,
93,-9.60000e-01,
94,-9.20000e-01,
95,-1.56000e+00,
96,-1.48000e+00,
97,-2.04000e+00,
98,-2.04000e+00,
99,-2.56000e+00,
100,-2.52000e+00,
101,-2.96000e+00,
102,-2.92000e+00,
103,-3.28000e+00,
104,-3.24000e+00,
105,-3.56000e+00,
106,-3.48000e+00,
107,-3.72000e+00,
108,-3.64000e+00,
109,-3.76000e+00,
110,-3.76000e+00,
111,-3.64000e+00,
112,-3.72000e+00,
113,-3.48000e+00,
114,-3.56000e+00,
115,-3.24000e+00,
116,-3.28000e+00,
117,-2.92000e+00,
118,-2.96000e+00,
119,-2.52000e+00,
120,-2.56000e+00,
121,-2.04000e+00,
122,-2.08000e+00,
123,-1.52000e+00,
124,-1.56000e+00,
125,-9.60000e-01,
126,-9.60000e-01,
127,-3.20000e-01,
128,-4.00000e-01,
129,2.40000e-01,
130,2.40000e-01,
131,8.80000e-01,
132,8.40000e-01,
133,1.44000e+00,
134,1.40000e+00,
135,2.00000e+00,
136,1.92000e+00,
137,2.44000e+00,
138,2.36000e+00,
139,2.88000e+00,
140,2.84000e+00,
141,3.24000e+00,
142,3.16000e+00,
143,3.48000e+00,
144,3.40000e+00,
145,3.64000e+00,
146,3.60000e+00,
147,3.72000e+00,
148,3.72000e+00,
149,3.60000e+00,
150,3.68000e+00,
151,3.48000e+00,
152,3.60000e+00,
153,3.28000e+00,
154,3.36000e+00,
155,3.00000e+00,
156,3.08000e+00,
157,2.60000e+00,
158,2.64000e+00,
159,2.12000e+00,
160,2.20000e+00,
161,1.64000e+00,
162,1.72000e+00,
163,1.12000e+00,
164,1.12000e+00,
165,5.20000e-01,
166,5.60000e-01,
167,-8.00000e-02,
168,-4.00000e-02,
169,-7.20000e-01,
170,-6.40000e-01,
171,-1.32000e+00,
172,-1.24000e+00,
173,-1.80000e+00,
174,-1.76000e+00,
175,-2.36000e+00,
176,-2.28000e+00,
177,-2.76000e+00,
178,-2.72000e+00,
179,-3.16000e+00,
180,-3.12000e+00,
181,-3.40000e+00,
182,-3.36000e+00,
183,-3.64000e+00,
184,-3.56000e+00,
185,-3.76000e+00,
186,-3.68000e+00,
187,-3.76000e+00,
188,-3.76000e+00,
189,-3.56000e+00,
190,-3.64000e+00,
191,-3.36000e+00,
192,-3.40000e+00,
193,-3.04000e+00,
194,-3.12000e+00,
195,-2.68000e+00,
196,-2.76000e+00,
197,-2.28000e+00,
198,-2.32000e+00,
199,-1.76000e+00,
200,-1.76000e+00,
201,-1.20000e+00,
202,-1.20000e+00,
203,-6.00000e-01,
204,-6.80000e-01,
205,-4.00000e-02,
206,-4.00000e-02,
207,6.00000e-01,
208,5.60000e-01,
209,1.20000e+00,
210,1.16000e+00,
211,1.76000e+00,
212,1.68000e+00,
213,2.24000e+00,
214,2.16000e+00,
215,2.68000e+00,
216,2.64000e+00,
217,3.08000e+00,
218,3.00000e+00,
219,3.40000e+00,
220,3.32000e+00,
221,3.60000e+00,
222,3.52000e+00,
223,3.72000e+00,
224,3.60000e+00,
225,3.72000e+00,
226,3.72000e+00,
227,3.60000e+00,
228,3.64000e+00,
229,3.40000e+00,
230,3.48000e+00,
231,3.16000e+00,
232,3.24000e+00,
233,2.80000e+00,
234,2.88000e+00,
235,2.36000e+00,
236,2.44000e+00,
237,1.88000e+00,
238,1.96000e+00,
239,1.36000e+00,
240,1.40000e+00,
241,7.60000e-01,
242,8.40000e-01,
243,2.00000e-01,
244,2.40000e-01,
245,-4.00000e-01,
246,-3.60000e-01,
247,-1.00000e+00,
248,-9.60000e-01,
249,-1.60000e+00,
250,-1.52000e+00,
251,-2.08000e+00,
252,-2.08000e+00,
253,-2.60000e+00,
254,-2.52000e+00,
255,-2.96000e+00,
256,-2.92000e+00,
257,-3.32000e+00,
258,-3.28000e+00,
259,-3.56000e+00,
260,-3.48000e+00,
261,-3.72000e+00,
262,-3.64000e+00,
263,-3.76000e+00,
264,-3.76000e+00,
265,-3.64000e+00,
266,-3.72000e+00,
267,-3.48000e+00,
268,-3.56000e+00,
269,-3.24000e+00,
270,-3.28000e+00,
271,-2.88000e+00,
272,-2.96000e+00,
273,-2.48000e+00,
274,-2.56000e+00,
275,-2.00000e+00,
276,-2.04000e+00,
277,-1.48000e+00,
278,-1.52000e+00,
279,-9.20000e-01,
280,-9.20000e-01,
281,-2.80000e-01,
282,-3.60000e-01,
283,3.20000e-01,
284,2.80000e-01,
285,9.20000e-01,
286,8.40000e-01,
287,1.48000e+00,
288,1.44000e+00,
289,2.04000e+00,
290,1.96000e+00,
291,2.48000e+00,
292,2.44000e+00,
293,2.92000e+00,
294,2.88000e+00,
295,3.28000e+00,
296,3.20000e+00,
297,3.52000e+00,
298,3.44000e+00,
299,3.68000e+00,
300,3.60000e+00,
301,3.72000e+00,
302,3.72000e+00,
303,3.60000e+00,
304,3.68000e+00,
305,3.48000e+00,
306,3.56000e+00,
307,3.28000e+00,
308,3.36000e+00,
309,2.96000e+00,
310,3.04000e+00,
311,2.60000e+00,
312,2.64000e+00,
313,2.12000e+00,
314,2.16000e+00,
315,1.60000e+00,
316,1.68000e+00,
317,1.04000e+00,
318,1.04000e+00,
319,4.80000e-01,
320,5.20000e-01,
321,-1.60000e-01,
322,-8.00000e-02,
323,-7.60000e-01,
324,-6.80000e-01,
325,-1.32000e+00,
326,-1.28000e+00,
327,-1.88000e+00,
328,-1.84000e+00,
329,-2.36000e+00,
330,-2.32000e+00,
331,-2.80000e+00,
332,-2.76000e+00,
333,-3.16000e+00,
334,-3.12000e+00,
335,-3.44000e+00,
336,-3.40000e+00,
337,-3.64000e+00,
338,-3.56000e+00,
339,-3.76000e+00,
340,-3.76000e+00,
341,-3.64000e+00,
342,-3.76000e+00,
343,-3.56000e+00,
344,-3.64000e+00,
345,-3.36000e+00,
346,-3.44000e+00,
347,-3.04000e+00,
348,-3.12000e+00,
349,-2.68000e+00,
350,-2.76000e+00,
351,-2.24000e+00,
352,-2.28000e+00,
353,-1.72000e+00,
354,-1.76000e+00,
355,-1.16000e+00,
356,-1.20000e+00,
357,-5.60000e-01,
358,-6.00000e-01,
359,4.00000e-02,
360,-4.00000e-02,
361,6.40000e-01,
362,5.60000e-01,
363,1.20000e+00,
364,1.16000e+00,
365,1.80000e+00,
366,1.72000e+00,
367,2.28000e+00,
368,2.20000e+00,
369,2.72000e+00,
370,2.68000e+00,
371,3.12000e+00,
372,3.04000e+00,
373,3.40000e+00,
374,3.32000e+00,
375,3.60000e+00,
376,3.52000e+00,
377,3.72000e+00,
378,3.72000e+00,
379,3.64000e+00,
380,3.72000e+00,
381,3.56000e+00,
382,3.64000e+00,
383,3.40000e+00,
384,3.48000e+00,
385,3.12000e+00,
386,3.20000e+00,
387,2.80000e+00,
388,2.84000e+00,
389,2.32000e+00,
390,2.40000e+00,
391,1.84000e+00,
392,1.92000e+00,
393,1.32000e+00,
394,1.36000e+00,
395,7.20000e-01,
396,8.00000e-01,
397,1.60000e-01,
398,1.60000e-01,
399,-4.80000e-01,
400,-4.00000e-01,
401,-1.04000e+00,
402,-1.00000e+00,
403,-1.64000e+00,
404,-1.56000e+00,
405,-2.16000e+00,
406,-2.12000e+00,
407,-2.64000e+00,
408,-2.56000e+00,
409,-3.04000e+00,
410,-2.96000e+00,
411,-3.32000e+00,
412,-3.28000e+00,
413,-3.60000e+00,
414,-3.52000e+00,
415,-3.68000e+00,
416,-3.64000e+00,
417,-3.76000e+00,
418,-3.76000e+00,
419,-3.60000e+00,
420,-3.68000e+00,
421,-3.48000e+00,
422,-3.52000e+00,
423,-3.16000e+00,
424,-3.24000e+00,
425,-2.84000e+00,
426,-2.92000e+00,
427,-2.44000e+00,
428,-2.52000e+00,
429,-1.92000e+00,
430,-2.00000e+00,
431,-1.40000e+00,
432,-1.44000e+00,
433,-8.40000e-01,
434,-8.80000e-01,
435,-2.40000e-01,
436,-2.80000e-01,
437,3.60000e-01,
438,3.20000e-01,
439,9.60000e-01,
440,8.80000e-01,
441,1.52000e+00,
442,1.48000e+00,
443,2.08000e+00,
444,2.00000e+00,
445,2.52000e+00,
446,2.48000e+00,
447,2.96000e+00,
448,2.88000e+00,
449,3.28000e+00,
450,3.20000e+00,
451,3.52000e+00,
452,3.44000e+00,
453,3.68000e+00,
454,3.60000e+00,
455,3.72000e+00,
456,3.76000e+00,
457,3.60000e+00,
458,3.68000e+00,
459,3.48000e+00,
460,3.56000e+00,
461,3.24000e+00,
462,3.32000e+00,
463,2.96000e+00,
464,3.00000e+00,
465,2.56000e+00,
466,2.60000e+00,
467,2.08000e+00,
468,2.16000e+00,
469,1.56000e+00,
470,1.60000e+00,
471,1.00000e+00,
472,1.04000e+00,
473,4.40000e-01,
474,4.40000e-01,
475,-2.00000e-01,
476,-1.20000e-01,
477,-7.60000e-01,
478,-7.20000e-01,
479,-1.36000e+00,
480,-1.32000e+00,
481,-1.92000e+00,
482,-1.88000e+00,
483,-2.44000e+00,
484,-2.36000e+00,
485,-2.84000e+00,
486,-2.76000e+00,
487,-3.20000e+00,
488,-3.16000e+00,
489,-3.48000e+00,
490,-3.44000e+00,
491,-3.68000e+00,
492,-3.60000e+00,
493,-3.72000e+00,
494,-3.64000e+00,
495,-3.76000e+00,
496,-3.72000e+00,
497,-3.52000e+00,
498,-3.60000e+00,
499,-3.32000e+00,
500,-3.36000e+00,
501,-3.04000e+00,
502,-3.08000e+00,
503,-2.64000e+00,
504,-2.72000e+00,
505,-2.20000e+00,
506,-2.20000e+00,
507,-1.68000e+00,
508,-1.72000e+00,
509,-1.12000e+00,
510,-1.16000e+00,
511,-5.20000e-01,
512,-5.60000e-01,
513,8.00000e-02,
514,4.00000e-02,
515,6.80000e-01,
516,6.40000e-01,
517,1.24000e+00,
518,1.20000e+00,
519,1.84000e+00,
520,1.76000e+00,
521,2.32000e+00,
522,2.24000e+00,
523,2.76000e+00,
524,2.72000e+00,
525,3.16000e+00,
526,3.08000e+00,
527,3.44000e+00,
528,3.36000e+00,
529,3.60000e+00,
530,3.52000e+00,
531,3.72000e+00,
532,3.72000e+00,
533,3.68000e+00,
534,3.72000e+00,
535,3.56000e+00,
536,3.64000e+00,
537,3.36000e+00,
538,3.44000e+00,
539,3.08000e+00,
540,3.16000e+00,
541,2.76000e+00,
542,2.80000e+00,
543,2.28000e+00,
544,2.36000e+00,
545,1.80000e+00,
546,1.88000e+00,
547,1.24000e+00,
548,1.32000e+00,
549,6.80000e-01,
550,7.20000e-01,
551,8.00000e-02,
552,1.20000e-01,
553,-5.20000e-01,
554,-4.40000e-01,
555,-1.08000e+00,
556,-1.08000e+00,
557,-1.64000e+00,
558,-1.60000e+00,
559,-2.16000e+00,
560,-2.16000e+00,
561,-2.64000e+00,
562,-2.60000e+00,
563,-3.04000e+00,
564,-2.96000e+00,
565,-3.36000e+00,
566,-3.32000e+00,
567,-3.60000e+00,
568,-3.52000e+00,
569,-3.72000e+00,
570,-3.64000e+00,
571,-3.76000e+00,
572,-3.76000e+00,
573,-3.60000e+00,
574,-3.64000e+00,
575,-3.44000e+00,
576,-3.52000e+00,
577,-3.16000e+00,
578,-3.20000e+00,
579,-2.80000e+00,
580,-2.88000e+00,
581,-2.40000e+00,
582,-2.44000e+00,
583,-1.88000e+00,
584,-1.96000e+00,
585,-1.36000e+00,
586,-1.40000e+00,
587,-8.00000e-01,
588,-8.40000e-01,
589,-2.00000e-01,
590,-2.80000e-01,
591,4.00000e-01,
592,4.00000e-01,
593,1.00000e+00,
594,9.20000e-01,
595,1.60000e+00,
596,1.52000e+00,
597,2.08000e+00,
598,2.04000e+00,
599,2.56000e+00,
600,2.52000e+00,
601,3.00000e+00,
602,2.92000e+00,
603,3.32000e+00,
604,3.24000e+00,
605,3.52000e+00,
606,3.44000e+00,
607,3.68000e+00,
608,3.60000e+00,
609,3.72000e+00,
610,3.72000e+00,
611,3.60000e+00,
612,3.68000e+00,
613,3.44000e+00,
614,3.52000e+00,
615,3.24000e+00,
616,3.32000e+00,
617,2.92000e+00,
618,3.00000e+00,
619,2.52000e+00,
620,2.56000e+00,
621,2.04000e+00,
622,2.12000e+00,
623,1.52000e+00,
624,1.60000e+00,
625,9.60000e-01,
626,1.00000e+00,
627,3.60000e-01,
628,4.40000e-01,
629,-2.40000e-01,
630,-2.00000e-01,
631,-8.00000e-01,
632,-8.00000e-01,
633,-1.44000e+00,
634,-1.36000e+00,
635,-1.96000e+00,
636,-1.88000e+00,
637,-2.44000e+00,
638,-2.40000e+00,
639,-2.88000e+00,
640,-2.84000e+00,
641,-3.20000e+00,
642,-3.16000e+00,
643,-3.52000e+00,
644,-3.44000e+00,
645,-3.68000e+00,
646,-3.60000e+00,
647,-3.76000e+00,
648,-3.76000e+00,
649,-3.64000e+00,
650,-3.72000e+00,
651,-3.52000e+00,
652,-3.60000e+00,
653,-3.32000e+00,
654,-3.40000e+00,
655,-3.00000e+00,
656,-3.04000e+00,
657,-2.60000e+00,
658,-2.64000e+00,
659,-2.16000e+00,
660,-2.20000e+00,
661,-1.64000e+00,
662,-1.68000e+00,
663,-1.08000e+00,
664,-1.12000e+00,
665,-4.80000e-01,
666,-5.20000e-01,
667,1.20000e-01,
668,1.20000e-01,
669,7.20000e-01,
670,6.80000e-01,
671,1.32000e+00,
672,1.28000e+00,
673,1.88000e+00,
674,1.80000e+00,
675,2.36000e+00,
676,2.28000e+00,
677,2.80000e+00,
678,2.72000e+00,
679,3.16000e+00,
680,3.08000e+00,
681,3.44000e+00,
682,3.36000e+00,
683,3.64000e+00,
684,3.56000e+00,
685,3.72000e+00,
686,3.64000e+00,
687,3.76000e+00,
688,3.72000e+00,
689,3.52000e+00,
690,3.60000e+00,
691,3.36000e+00,
692,3.44000e+00,
693,3.08000e+00,
694,3.16000e+00,
695,2.72000e+00,
696,2.80000e+00,
697,2.28000e+00,
698,2.32000e+00,
699,1.76000e+00,
700,1.80000e+00,
701,1.24000e+00,
702,1.28000e+00,
703,6.40000e-01,
704,7.20000e-01,
705,8.00000e-02,
706,8.00000e-02,
707,-5.60000e-01,
708,-5.60000e-01,
709,-1.16000e+00,
710,-1.12000e+00,
711,-1.72000e+00,
712,-1.64000e+00,
713,-2.20000e+00,
714,-2.20000e+00,
715,-2.68000e+00,
716,-2.64000e+00,
717,-3.08000e+00,
718,-3.00000e+00,
719,-3.36000e+00,
720,-3.32000e+00,
721,-3.60000e+00,
722,-3.52000e+00,
723,-3.72000e+00,
724,-3.64000e+00,
725,-3.76000e+00,
726,-3.76000e+00,
727,-3.60000e+00,
728,-3.68000e+00,
729,-3.44000e+00,
730,-3.48000e+00,
731,-3.16000e+00,
732,-3.20000e+00,
733,-2.80000e+00,
734,-2.84000e+00,
735,-2.36000e+00,
736,-2.44000e+00,
737,-1.88000e+00,
738,-1.92000e+00,
739,-1.32000e+00,
740,-1.40000e+00,
741,-7.60000e-01,
742,-7.60000e-01,
743,-1.60000e-01,
744,-2.00000e-01,
745,4.80000e-01,
746,4.00000e-01,
747,1.04000e+00,
748,9.60000e-01,
749,1.64000e+00,
750,1.56000e+00,
751,2.16000e+00,
752,2.08000e+00,
753,2.60000e+00,
754,2.56000e+00,
755,3.04000e+00,
756,2.96000e+00,
757,3.32000e+00,
758,3.24000e+00,
759,3.56000e+00,
760,3.48000e+00,
761,3.68000e+00,
762,3.60000e+00,
763,3.76000e+00,
764,3.76000e+00,
765,3.60000e+00,
766,3.68000e+00,
767,3.44000e+00,
768,3.52000e+00,
769,3.24000e+00,
770,3.32000e+00,
771,2.88000e+00,
772,2.92000e+00,
773,2.44000e+00,
774,2.52000e+00,
775,2.00000e+00,
776,2.08000e+00,
777,1.52000e+00,
778,1.52000e+00,
779,9.20000e-01,
780,1.00000e+00,
781,3.20000e-01,
782,3.60000e-01,
783,-2.40000e-01,
784,-2.00000e-01,
785,-8.80000e-01,
786,-8.80000e-01,
787,-1.48000e+00,
788,-1.40000e+00,
789,-1.96000e+00,
790,-1.92000e+00,
791,-2.48000e+00,
792,-2.44000e+00,
793,-2.88000e+00,
794,-2.84000e+00,
795,-3.24000e+00,
796,-3.20000e+00,
797,-3.52000e+00,
798,-3.44000e+00,
799,-3.68000e+00,
800,-3.60000e+00,
801,-3.72000e+00,
802,-3.64000e+00,
803,-3.76000e+00,
804,-3.72000e+00,
805,-3.52000e+00,
806,-3.60000e+00,
807,-3.28000e+00,
808,-3.36000e+00,
809,-2.96000e+00,
810,-3.04000e+00,
811,-2.60000e+00,
812,-2.64000e+00,
813,-2.12000e+00,
814,-2.12000e+00,
815,-1.60000e+00,
816,-1.64000e+00,
817,-1.04000e+00,
818,-1.04000e+00,
819,-4.40000e-01,
820,-4.80000e-01,
821,1.60000e-01,
822,2.00000e-01,
823,7.60000e-01,
824,6.80000e-01,
825,1.36000e+00,
826,1.32000e+00,
827,1.96000e+00,
828,1.88000e+00,
829,2.36000e+00,
830,2.28000e+00,
831,2.84000e+00,
832,2.76000e+00,
833,3.20000e+00,
834,3.12000e+00,
835,3.44000e+00,
836,3.40000e+00,
837,3.64000e+00,
838,3.56000e+00,
839,3.72000e+00,
840,3.72000e+00,
841,3.64000e+00,
842,3.72000e+00,
843,3.52000e+00,
844,3.60000e+00,
845,3.32000e+00,
846,3.44000e+00,
847,3.04000e+00,
848,3.12000e+00,
849,2.68000e+00,
850,2.72000e+00,
851,2.24000e+00,
852,2.28000e+00,
853,1.72000e+00,
854,1.80000e+00,
855,1.20000e+00,
856,1.20000e+00,
857,6.00000e-01,
858,6.80000e-01,
859,0.00000e+00,
860,4.00000e-02,
861,-6.00000e-01,
862,-5.60000e-01,
863,-1.16000e+00,
864,-1.16000e+00,
865,-1.76000e+00,
866,-1.72000e+00,
867,-2.24000e+00,
868,-2.20000e+00,
869,-2.72000e+00,
870,-2.68000e+00,
871,-3.08000e+00,
872,-3.00000e+00,
873,-3.36000e+00,
874,-3.32000e+00,
875,-3.60000e+00,
876,-3.56000e+00,
877,-3.76000e+00,
878,-3.76000e+00,
879,-3.64000e+00,
880,-3.76000e+00,
881,-3.60000e+00,
882,-3.68000e+00,
883,-3.40000e+00,
884,-3.44000e+00,
885,-3.16000e+00,
886,-3.16000e+00,
887,-2.76000e+00,
888,-2.84000e+00,
889,-2.36000e+00,
890,-2.36000e+00,
891,-1.84000e+00,
892,-1.88000e+00,
893,-1.28000e+00,
894,-1.32000e+00,
895,-7.20000e-01,
896,-7.60000e-01,
897,-1.20000e-01,
898,-1.60000e-01,
899,4.80000e-01,
900,4.40000e-01,
901,1.08000e+00,
902,1.04000e+00,
903,1.68000e+00,
904,1.60000e+00,
905,2.16000e+00,
906,2.12000e+00,
907,2.60000e+00,
908,2.60000e+00,
909,3.04000e+00,
910,2.96000e+00,
911,3.36000e+00,
912,3.28000e+00,
913,3.56000e+00,
914,3.48000e+00,
915,3.72000e+00,
916,3.68000e+00,
917,3.72000e+00,
918,3.72000e+00,
919,3.60000e+00,
920,3.68000e+00,
921,3.44000e+00,
922,3.52000e+00,
923,3.20000e+00,
924,3.28000e+00,
925,2.84000e+00,
926,2.92000e+00,
927,2.44000e+00,
928,2.48000e+00,
929,2.00000e+00,
930,2.04000e+00,
931,1.44000e+00,
932,1.48000e+00,
933,8.40000e-01,
934,9.20000e-01,
935,2.80000e-01,
936,3.20000e-01,
937,-3.20000e-01,
938,-2.40000e-01,
939,-9.20000e-01,
940,-8.80000e-01,
941,-1.52000e+00,
942,-1.44000e+00,
943,-2.00000e+00,
944,-1.96000e+00,
945,-2.52000e+00,
946,-2.44000e+00,
947,-2.96000e+00,
948,-2.88000e+00,
949,-3.24000e+00,
950,-3.20000e+00,
951,-3.52000e+00,
952,-3.44000e+00,
953,-3.72000e+00,
954,-3.64000e+00,
955,-3.76000e+00,
956,-3.76000e+00,
957,-3.64000e+00,
958,-3.68000e+00,
959,-3.52000e+00,
960,-3.60000e+00,
961,-3.32000e+00,
962,-3.32000e+00,
963,-2.92000e+00,
964,-2.96000e+00,
965,-2.56000e+00,
966,-2.60000e+00,
967,-2.12000e+00,
968,-2.16000e+00,
969,-1.52000e+00,
970,-1.56000e+00,
971,-1.00000e+00,
972,-1.04000e+00,
973,-4.80000e-01,
974,-5.20000e-01,
975,2.40000e-01,
976,2.00000e-01,
977,8.80000e-01,
978,8.40000e-01,
979,1.36000e+00,
980,1.32000e+00,
981,1.96000e+00,
982,1.88000e+00,
983,2.44000e+00,
984,2.36000e+00,
985,2.88000e+00,
986,2.80000e+00,
987,3.24000e+00,
988,3.16000e+00,
989,3.48000e+00,
990,3.40000e+00,
991,3.68000e+00,
992,3.60000e+00,
993,3.72000e+00,
994,3.64000e+00,
995,3.76000e+00,
996,3.72000e+00,
997,3.52000e+00,
998,3.60000e+00,
999,3.32000e+00,
1000,3.40000e+00,
1001,3.00000e+00,
1002,3.08000e+00,
1003,2.64000e+00,
1004,2.72000e+00,
1005,2.20000e+00,
1006,2.28000e+00,
1007,1.72000e+00,
1008,1.76000e+00,
1009,1.12000e+00,
1010,1.16000e+00,
1011,5.60000e-01,
1012,6.00000e-01,
1013,0.00000e+00,
1014,0.00000e+00,
1015,-6.40000e-01,
1016,-6.00000e-01,
1017,-1.20000e+00,
1018,-1.16000e+00,
1019,-1.76000e+00,
1020,-1.76000e+00,
1021,-2.28000e+00,
1022,-2.24000e+00,
1023,-2.76000e+00,
1024,-2.68000e+00,
1025,-3.12000e+00,
1026,-3.04000e+00,
1027,-3.40000e+00,
1028,-3.36000e+00,
1029,-3.64000e+00,
1030,-3.56000e+00,
1031,-3.72000e+00,
1032,-3.64000e+00,
1033,-3.76000e+00,
1034,-3.76000e+00,
1035,-3.56000e+00,
1036,-3.64000e+00,
1037,-3.40000e+00,
1038,-3.44000e+00,
1039,-3.12000e+00,
1040,-3.16000e+00,
1041,-2.72000e+00,
1042,-2.80000e+00,
1043,-2.28000e+00,
1044,-2.36000e+00,
1045,-1.80000e+00,
1046,-1.84000e+00,
1047,-1.24000e+00,
1048,-1.32000e+00,
1049,-6.80000e-01,
1050,-7.20000e-01,
1051,-4.00000e-02,
1052,-8.00000e-02,
1053,5.60000e-01,
1054,5.20000e-01,
1055,1.12000e+00,
1056,1.08000e+00,
1057,1.72000e+00,
1058,1.64000e+00,
1059,2.20000e+00,
1060,2.16000e+00,
1061,2.68000e+00,
1062,2.64000e+00,
1063,3.08000e+00,
1064,3.00000e+00,
1065,3.40000e+00,
1066,3.28000e+00,
1067,3.56000e+00,
1068,3.52000e+00,
1069,3.72000e+00,
1070,3.64000e+00,
1071,3.76000e+00,
1072,3.76000e+00,
1073,3.56000e+00,
1074,3.68000e+00,
1075,3.44000e+00,
1076,3.48000e+00,
1077,3.16000e+00,
1078,3.24000e+00,
1079,2.84000e+00,
1080,2.88000e+00,
1081,2.40000e+00,
1082,2.48000e+00,
1083,1.96000e+00,
1084,2.00000e+00,
1085,1.40000e+00,
1086,1.44000e+00,
1087,8.40000e-01,
1088,8.80000e-01,
1089,2.40000e-01,
1090,2.80000e-01,
1091,-3.60000e-01,
1092,-3.60000e-01,
1093,-9.60000e-01,
1094,-9.20000e-01,
1095,-1.52000e+00,
1096,-1.48000e+00,
1097,-2.04000e+00,
1098,-2.04000e+00,
1099,-2.56000e+00,
1100,-2.48000e+00,
1101,-2.96000e+00,
1102,-2.88000e+00,
1103,-3.28000e+00,
1104,-3.24000e+00,
1105,-3.56000e+00,
1106,-3.48000e+00,
1107,-3.68000e+00,
1108,-3.64000e+00,
1109,-3.76000e+00,
1110,-3.76000e+00,
1111,-3.60000e+00,
1112,-3.68000e+00,
1113,-3.48000e+00,
1114,-3.52000e+00,
1115,-3.20000e+00,
1116,-3.28000e+00,
1117,-2.88000e+00,
1118,-2.96000e+00,
1119,-2.52000e+00,
1120,-2.52000e+00,
1121,-2.04000e+00,
1122,-2.08000e+00,
1123,-1.48000e+00,
1124,-1.56000e+00,
1125,-9.60000e-01,
1126,-9.60000e-01,
1127,-3.20000e-01,
1128,-4.00000e-01,
1129,2.40000e-01,
1130,2.40000e-01,
1131,8.80000e-01,
1132,8.00000e-01,
1133,1.44000e+00,
1134,1.40000e+00,
1135,2.00000e+00,
1136,1.92000e+00,
