DataAnalysis/Johnson_noise/2017_johnson_noise/data_MUIC_nop_anan/NewFile67.csv

X,CH1,Start,Increment,
Sequence,Volt,1.80000e-03,1.00000e-06
0,4.00000e-02,
1,6.80000e-01,
2,6.40000e-01,
3,1.16000e+00,
4,1.08000e+00,
5,1.56000e+00,
6,1.48000e+00,
7,1.68000e+00,
8,1.68000e+00,
9,1.52000e+00,
10,1.60000e+00,
11,1.24000e+00,
12,1.28000e+00,
13,7.60000e-01,
14,8.00000e-01,
15,2.00000e-01,
16,2.00000e-01,
17,-4.40000e-01,
18,-3.60000e-01,
19,-9.60000e-01,
20,-9.20000e-01,
21,-1.36000e+00,
22,-1.32000e+00,
23,-1.56000e+00,
24,-1.60000e+00,
25,-1.48000e+00,
26,-1.56000e+00,
27,-1.28000e+00,
28,-1.32000e+00,
29,-8.40000e-01,
30,-8.80000e-01,
31,-3.20000e-01,
32,-3.60000e-01,
33,2.80000e-01,
34,2.40000e-01,
35,8.80000e-01,
36,8.00000e-01,
37,1.32000e+00,
38,1.24000e+00,
39,1.60000e+00,
40,1.52000e+00,
41,1.68000e+00,
42,1.68000e+00,
43,1.44000e+00,
44,1.48000e+00,
45,1.08000e+00,
46,1.12000e+00,
47,5.60000e-01,
48,6.00000e-01,
49,-4.00000e-02,
50,0.00000e+00,
51,-6.00000e-01,
52,-5.60000e-01,
53,-1.12000e+00,
54,-1.08000e+00,
55,-1.48000e+00,
56,-1.40000e+00,
57,-1.60000e+00,
58,-1.60000e+00,
59,-1.44000e+00,
60,-1.52000e+00,
61,-1.16000e+00,
62,-1.24000e+00,
63,-6.80000e-01,
64,-7.60000e-01,
65,-1.20000e-01,
66,-1.60000e-01,
67,5.20000e-01,
68,4.40000e-01,
69,1.04000e+00,
70,9.60000e-01,
71,1.40000e+00,
72,1.36000e+00,
73,1.64000e+00,
74,1.68000e+00,
75,1.56000e+00,
76,1.60000e+00,
77,1.36000e+00,
78,1.40000e+00,
79,9.20000e-01,
80,9.60000e-01,
81,4.00000e-01,
82,4.00000e-01,
83,-2.00000e-01,
84,-1.60000e-01,
85,-8.00000e-01,
86,-7.60000e-01,
87,-1.24000e+00,
88,-1.20000e+00,
89,-1.52000e+00,
90,-1.48000e+00,
91,-1.60000e+00,
92,-1.60000e+00,
93,-1.36000e+00,
94,-1.44000e+00,
95,-1.04000e+00,
96,-1.04000e+00,
97,-4.80000e-01,
98,-5.20000e-01,
99,8.00000e-02,
100,4.00000e-02,
101,6.40000e-01,
102,6.00000e-01,
103,1.16000e+00,
104,1.08000e+00,
105,1.52000e+00,
106,1.48000e+00,
107,1.68000e+00,
108,1.68000e+00,
109,1.52000e+00,
110,1.60000e+00,
111,1.20000e+00,
112,1.28000e+00,
113,7.60000e-01,
114,8.00000e-01,
115,2.00000e-01,
116,2.00000e-01,
117,-4.00000e-01,
118,-3.60000e-01,
119,-9.60000e-01,
120,-9.20000e-01,
121,-1.36000e+00,
122,-1.32000e+00,
123,-1.60000e+00,
124,-1.60000e+00,
125,-1.52000e+00,
126,-1.56000e+00,
127,-1.28000e+00,
128,-1.32000e+00,
129,-8.80000e-01,
130,-8.80000e-01,
131,-3.20000e-01,
132,-3.60000e-01,
133,2.80000e-01,
134,2.40000e-01,
135,8.40000e-01,
136,7.60000e-01,
137,1.28000e+00,
138,1.24000e+00,
139,1.60000e+00,
140,1.52000e+00,
141,1.68000e+00,
142,1.64000e+00,
143,1.44000e+00,
144,1.48000e+00,
145,1.08000e+00,
146,1.12000e+00,
147,5.60000e-01,
148,6.00000e-01,
149,0.00000e+00,
150,0.00000e+00,
151,-6.00000e-01,
152,-5.60000e-01,
153,-1.12000e+00,
154,-1.08000e+00,
155,-1.48000e+00,
156,-1.40000e+00,
157,-1.60000e+00,
158,-1.60000e+00,
159,-1.44000e+00,
160,-1.52000e+00,
161,-1.16000e+00,
162,-1.20000e+00,
163,-7.20000e-01,
164,-7.20000e-01,
165,-1.20000e-01,
166,-1.60000e-01,
167,4.80000e-01,
168,4.40000e-01,
169,1.04000e+00,
170,9.60000e-01,
171,1.44000e+00,
172,1.32000e+00,
173,1.64000e+00,
174,1.60000e+00,
175,1.68000e+00,
176,1.64000e+00,
177,1.36000e+00,
178,1.40000e+00,
179,9.20000e-01,
180,9.60000e-01,
181,4.00000e-01,
182,4.00000e-01,
183,-2.40000e-01,
184,-1.60000e-01,
185,-7.60000e-01,
186,-7.60000e-01,
187,-1.28000e+00,
188,-1.20000e+00,
189,-1.52000e+00,
190,-1.48000e+00,
191,-1.60000e+00,
192,-1.60000e+00,
193,-1.40000e+00,
194,-1.44000e+00,
195,-1.04000e+00,
196,-1.04000e+00,
197,-5.20000e-01,
198,-5.60000e-01,
199,8.00000e-02,
200,4.00000e-02,
201,6.80000e-01,
202,6.00000e-01,
203,1.16000e+00,
204,1.12000e+00,
205,1.52000e+00,
206,1.48000e+00,
207,1.68000e+00,
208,1.68000e+00,
209,1.52000e+00,
210,1.60000e+00,
211,1.24000e+00,
212,1.24000e+00,
213,7.60000e-01,
214,8.00000e-01,
215,1.60000e-01,
216,2.00000e-01,
217,-4.40000e-01,
218,-4.00000e-01,
219,-9.60000e-01,
220,-9.20000e-01,
221,-1.36000e+00,
222,-1.32000e+00,
223,-1.56000e+00,
224,-1.60000e+00,
225,-1.48000e+00,
226,-1.56000e+00,
227,-1.28000e+00,
228,-1.36000e+00,
229,-8.80000e-01,
230,-8.80000e-01,
231,-3.20000e-01,
232,-3.60000e-01,
233,2.80000e-01,
234,2.40000e-01,
235,8.80000e-01,
236,8.00000e-01,
237,1.32000e+00,
238,1.24000e+00,
239,1.60000e+00,
240,1.52000e+00,
241,1.68000e+00,
242,1.68000e+00,
243,1.44000e+00,
244,1.48000e+00,
245,1.08000e+00,
246,1.12000e+00,
247,5.60000e-01,
248,6.40000e-01,
249,0.00000e+00,
250,0.00000e+00,
251,-6.00000e-01,
252,-5.60000e-01,
253,-1.12000e+00,
254,-1.08000e+00,
255,-1.48000e+00,
256,-1.40000e+00,
257,-1.60000e+00,
258,-1.60000e+00,
259,-1.48000e+00,
260,-1.52000e+00,
261,-1.16000e+00,
262,-1.24000e+00,
263,-6.80000e-01,
264,-7.60000e-01,
265,-1.20000e-01,
266,-1.60000e-01,
267,5.20000e-01,
268,4.40000e-01,
269,1.04000e+00,
270,9.60000e-01,
271,1.40000e+00,
272,1.36000e+00,
273,1.64000e+00,
274,1.56000e+00,
275,1.68000e+00,
276,1.64000e+00,
277,1.36000e+00,
278,1.40000e+00,
279,9.20000e-01,
280,9.60000e-01,
281,3.60000e-01,
282,4.40000e-01,
283,-2.00000e-01,
284,-1.60000e-01,
285,-7.60000e-01,
286,-7.60000e-01,
287,-1.24000e+00,
288,-1.20000e+00,
289,-1.52000e+00,
290,-1.48000e+00,
291,-1.60000e+00,
292,-1.60000e+00,
293,-1.36000e+00,
294,-1.44000e+00,
295,-1.04000e+00,
296,-1.12000e+00,
297,-5.20000e-01,
298,-5.60000e-01,
299,8.00000e-02,
300,4.00000e-02,
301,6.80000e-01,
302,6.40000e-01,
303,1.16000e+00,
304,1.12000e+00,
305,1.52000e+00,
306,1.48000e+00,
307,1.68000e+00,
308,1.68000e+00,
309,1.52000e+00,
310,1.56000e+00,
311,1.20000e+00,
312,1.24000e+00,
313,7.60000e-01,
314,8.00000e-01,
315,2.00000e-01,
316,2.40000e-01,
317,-4.00000e-01,
318,-3.60000e-01,
319,-9.60000e-01,
320,-9.20000e-01,
321,-1.36000e+00,
322,-1.32000e+00,
323,-1.56000e+00,
324,-1.60000e+00,
325,-1.52000e+00,
326,-1.56000e+00,
327,-1.28000e+00,
328,-1.36000e+00,
329,-8.40000e-01,
330,-9.20000e-01,
331,-3.20000e-01,
332,-3.60000e-01,
333,2.80000e-01,
334,2.40000e-01,
335,8.40000e-01,
336,8.00000e-01,
337,1.32000e+00,
338,1.28000e+00,
339,1.60000e+00,
340,1.52000e+00,
341,1.68000e+00,
342,1.68000e+00,
343,1.44000e+00,
344,1.48000e+00,
345,1.08000e+00,
346,1.16000e+00,
347,5.60000e-01,
348,6.00000e-01,
349,0.00000e+00,
350,4.00000e-02,
351,-6.00000e-01,
352,-5.60000e-01,
353,-1.08000e+00,
354,-1.08000e+00,
355,-1.44000e+00,
356,-1.40000e+00,
357,-1.60000e+00,
358,-1.60000e+00,
359,-1.44000e+00,
360,-1.52000e+00,
361,-1.16000e+00,
362,-1.24000e+00,
363,-6.80000e-01,
364,-7.20000e-01,
365,-1.20000e-01,
366,-1.60000e-01,
367,4.80000e-01,
368,4.40000e-01,
369,1.04000e+00,
370,9.60000e-01,
371,1.40000e+00,
372,1.36000e+00,
373,1.64000e+00,
374,1.56000e+00,
375,1.68000e+00,
376,1.64000e+00,
377,1.36000e+00,
378,1.40000e+00,
379,9.20000e-01,
380,9.60000e-01,
381,4.00000e-01,
382,4.00000e-01,
383,-2.00000e-01,
384,-1.60000e-01,
385,-7.60000e-01,
386,-7.20000e-01,
387,-1.24000e+00,
388,-1.20000e+00,
389,-1.52000e+00,
390,-1.48000e+00,
391,-1.60000e+00,
392,-1.60000e+00,
393,-1.36000e+00,
394,-1.44000e+00,
395,-1.04000e+00,
396,-1.04000e+00,
397,-5.20000e-01,
398,-5.60000e-01,
399,8.00000e-02,
400,8.00000e-02,
401,6.80000e-01,
402,6.40000e-01,
403,1.16000e+00,
404,1.12000e+00,
405,1.52000e+00,
406,1.48000e+00,
407,1.68000e+00,
408,1.68000e+00,
409,1.52000e+00,
410,1.60000e+00,
411,1.20000e+00,
412,1.28000e+00,
413,7.60000e-01,
414,8.00000e-01,
415,2.00000e-01,
416,2.00000e-01,
417,-4.00000e-01,
418,-3.60000e-01,
419,-9.60000e-01,
420,-9.20000e-01,
421,-1.36000e+00,
422,-1.28000e+00,
423,-1.56000e+00,
424,-1.48000e+00,
425,-1.60000e+00,
426,-1.56000e+00,
427,-1.28000e+00,
428,-1.32000e+00,
429,-8.80000e-01,
430,-8.80000e-01,
431,-3.20000e-01,
432,-3.60000e-01,
433,2.80000e-01,
434,2.40000e-01,
435,8.40000e-01,
436,8.00000e-01,
437,1.28000e+00,
438,1.24000e+00,
439,1.60000e+00,
440,1.52000e+00,
441,1.68000e+00,
442,1.68000e+00,
443,1.44000e+00,
444,1.48000e+00,
445,1.08000e+00,
446,1.12000e+00,
447,5.60000e-01,
448,6.40000e-01,
449,-4.00000e-02,
450,4.00000e-02,
451,-6.00000e-01,
452,-5.60000e-01,
453,-1.08000e+00,
454,-1.04000e+00,
455,-1.44000e+00,
456,-1.40000e+00,
457,-1.60000e+00,
458,-1.60000e+00,
459,-1.44000e+00,
460,-1.52000e+00,
461,-1.16000e+00,
462,-1.20000e+00,
463,-7.20000e-01,
464,-7.20000e-01,
465,-1.20000e-01,
466,-1.60000e-01,
467,4.80000e-01,
468,4.40000e-01,
469,1.04000e+00,
470,1.00000e+00,
471,1.44000e+00,
472,1.40000e+00,
473,1.68000e+00,
474,1.68000e+00,
475,1.56000e+00,
476,1.64000e+00,
477,1.36000e+00,
478,1.40000e+00,
479,9.20000e-01,
480,9.60000e-01,
481,4.00000e-01,
482,4.00000e-01,
483,-2.40000e-01,
484,-2.00000e-01,
485,-7.60000e-01,
486,-7.20000e-01,
487,-1.24000e+00,
488,-1.20000e+00,
489,-1.56000e+00,
490,-1.48000e+00,
491,-1.60000e+00,
492,-1.60000e+00,
493,-1.40000e+00,
494,-1.44000e+00,
495,-1.04000e+00,
496,-1.08000e+00,
497,-5.20000e-01,
498,-5.60000e-01,
499,8.00000e-02,
500,4.00000e-02,
501,6.80000e-01,
502,6.00000e-01,
503,1.16000e+00,
504,1.12000e+00,
505,1.48000e+00,
506,1.48000e+00,
507,1.68000e+00,
508,1.68000e+00,
509,1.52000e+00,
510,1.56000e+00,
511,1.20000e+00,
512,1.28000e+00,
513,7.60000e-01,
514,8.00000e-01,
515,2.00000e-01,
516,2.00000e-01,
517,-4.40000e-01,
518,-3.60000e-01,
519,-9.60000e-01,
520,-9.20000e-01,
521,-1.36000e+00,
522,-1.32000e+00,
523,-1.60000e+00,
524,-1.60000e+00,
525,-1.52000e+00,
526,-1.60000e+00,
527,-1.28000e+00,
528,-1.32000e+00,
529,-8.80000e-01,
530,-9.20000e-01,
531,-3.20000e-01,
532,-3.60000e-01,
533,2.80000e-01,
534,2.40000e-01,
535,8.40000e-01,
536,8.00000e-01,
537,1.28000e+00,
538,1.24000e+00,
539,1.60000e+00,
540,1.52000e+00,
541,1.68000e+00,
542,1.68000e+00,
543,1.44000e+00,
544,1.48000e+00,
545,1.08000e+00,
546,1.12000e+00,
547,5.60000e-01,
548,6.00000e-01,
549,0.00000e+00,
550,4.00000e-02,
551,-6.00000e-01,
552,-6.00000e-01,
553,-1.12000e+00,
554,-1.08000e+00,
555,-1.48000e+00,
556,-1.40000e+00,
557,-1.60000e+00,
558,-1.60000e+00,
559,-1.44000e+00,
560,-1.52000e+00,
561,-1.16000e+00,
562,-1.20000e+00,
563,-7.20000e-01,
564,-7.20000e-01,
565,-1.20000e-01,
566,-1.60000e-01,
567,5.20000e-01,
568,4.40000e-01,
569,1.04000e+00,
570,9.60000e-01,
571,1.40000e+00,
572,1.40000e+00,
573,1.64000e+00,
574,1.56000e+00,
575,1.68000e+00,
576,1.64000e+00,
577,1.32000e+00,
578,1.40000e+00,
579,9.20000e-01,
580,1.00000e+00,
581,4.00000e-01,
582,4.00000e-01,
583,-2.40000e-01,
584,-1.60000e-01,
585,-7.60000e-01,
586,-7.60000e-01,
587,-1.24000e+00,
588,-1.20000e+00,
589,-1.52000e+00,
590,-1.48000e+00,
591,-1.60000e+00,
592,-1.60000e+00,
593,-1.36000e+00,
594,-1.44000e+00,
595,-1.04000e+00,
596,-1.08000e+00,
597,-5.20000e-01,
598,-5.60000e-01,
599,8.00000e-02,
600,0.00000e+00,
601,6.80000e-01,
602,6.40000e-01,
603,1.16000e+00,
604,1.08000e+00,
605,1.52000e+00,
606,1.44000e+00,
607,1.68000e+00,
608,1.68000e+00,
609,1.52000e+00,
610,1.56000e+00,
611,1.20000e+00,
612,1.24000e+00,
613,7.60000e-01,
614,8.00000e-01,
615,1.60000e-01,
616,2.00000e-01,
617,-4.40000e-01,
618,-4.00000e-01,
619,-9.60000e-01,
620,-9.20000e-01,
621,-1.40000e+00,
622,-1.32000e+00,
623,-1.60000e+00,
624,-1.60000e+00,
625,-1.48000e+00,
626,-1.56000e+00,
627,-1.28000e+00,
628,-1.36000e+00,
629,-8.40000e-01,
630,-8.80000e-01,
631,-3.20000e-01,
632,-3.20000e-01,
633,2.80000e-01,
634,2.40000e-01,
635,8.40000e-01,
636,8.00000e-01,
637,1.28000e+00,
638,1.24000e+00,
639,1.60000e+00,
640,1.52000e+00,
641,1.68000e+00,
642,1.68000e+00,
643,1.44000e+00,
644,1.48000e+00,
645,1.08000e+00,
646,1.12000e+00,
647,5.60000e-01,
648,6.40000e-01,
649,0.00000e+00,
650,4.00000e-02,
651,-6.00000e-01,
652,-5.60000e-01,
653,-1.12000e+00,
654,-1.08000e+00,
655,-1.44000e+00,
656,-1.40000e+00,
657,-1.60000e+00,
658,-1.60000e+00,
659,-1.44000e+00,
660,-1.52000e+00,
661,-1.16000e+00,
662,-1.20000e+00,
663,-6.40000e-01,
664,-7.20000e-01,
665,-1.20000e-01,
666,-1.60000e-01,
667,5.20000e-01,
668,4.40000e-01,
669,1.04000e+00,
670,9.60000e-01,
671,1.40000e+00,
672,1.40000e+00,
673,1.68000e+00,
674,1.68000e+00,
675,1.56000e+00,
676,1.64000e+00,
677,1.36000e+00,
678,1.36000e+00,
679,9.20000e-01,
680,1.00000e+00,
681,3.60000e-01,
682,4.40000e-01,
683,-2.40000e-01,
684,-2.00000e-01,
685,-8.00000e-01,
686,-7.60000e-01,
687,-1.24000e+00,
688,-1.20000e+00,
689,-1.52000e+00,
690,-1.48000e+00,
691,-1.60000e+00,
692,-1.60000e+00,
693,-1.36000e+00,
694,-1.44000e+00,
695,-1.04000e+00,
696,-1.08000e+00,
697,-4.80000e-01,
698,-5.60000e-01,
699,8.00000e-02,
700,8.00000e-02,
701,6.80000e-01,
702,6.40000e-01,
703,1.16000e+00,
704,1.08000e+00,
705,1.52000e+00,
706,1.48000e+00,
707,1.68000e+00,
708,1.68000e+00,
709,1.52000e+00,
710,1.56000e+00,
711,1.20000e+00,
712,1.24000e+00,
713,7.60000e-01,
714,8.00000e-01,
715,2.00000e-01,
716,2.00000e-01,
717,-4.40000e-01,
718,-3.60000e-01,
719,-9.60000e-01,
720,-9.20000e-01,
721,-1.36000e+00,
722,-1.32000e+00,
723,-1.60000e+00,
724,-1.52000e+00,
725,-1.60000e+00,
726,-1.56000e+00,
727,-1.28000e+00,
728,-1.36000e+00,
729,-8.80000e-01,
730,-9.20000e-01,
731,-3.20000e-01,
732,-3.60000e-01,
733,3.20000e-01,
734,2.40000e-01,
735,8.80000e-01,
736,8.00000e-01,
737,1.32000e+00,
738,1.24000e+00,
739,1.56000e+00,
740,1.52000e+00,
741,1.68000e+00,
742,1.68000e+00,
743,1.44000e+00,
744,1.52000e+00,
745,1.08000e+00,
746,1.12000e+00,
747,5.60000e-01,
748,6.00000e-01,
749,-4.00000e-02,
750,4.00000e-02,
751,-6.00000e-01,
752,-5.20000e-01,
753,-1.08000e+00,
754,-1.08000e+00,
755,-1.44000e+00,
756,-1.40000e+00,
757,-1.60000e+00,
758,-1.60000e+00,
759,-1.44000e+00,
760,-1.52000e+00,
761,-1.16000e+00,
762,-1.24000e+00,
763,-6.80000e-01,
764,-7.20000e-01,
765,-1.20000e-01,
766,-1.60000e-01,
767,5.20000e-01,
768,4.40000e-01,
769,1.04000e+00,
770,9.60000e-01,
771,1.44000e+00,
772,1.40000e+00,
773,1.68000e+00,
774,1.68000e+00,
775,1.60000e+00,
776,1.64000e+00,
777,1.36000e+00,
778,1.40000e+00,
779,9.20000e-01,
780,1.00000e+00,
781,4.00000e-01,
782,4.40000e-01,
783,-2.40000e-01,
784,-1.60000e-01,
785,-7.60000e-01,
786,-7.60000e-01,
787,-1.24000e+00,
788,-1.20000e+00,
789,-1.52000e+00,
790,-1.48000e+00,
791,-1.60000e+00,
792,-1.60000e+00,
793,-1.36000e+00,
794,-1.44000e+00,
795,-1.04000e+00,
796,-1.08000e+00,
797,-5.20000e-01,
798,-5.60000e-01,
799,8.00000e-02,
800,0.00000e+00,
801,6.80000e-01,
802,6.40000e-01,
803,1.16000e+00,
804,1.16000e+00,
805,1.56000e+00,
806,1.48000e+00,
807,1.68000e+00,
808,1.68000e+00,
809,1.52000e+00,
810,1.56000e+00,
811,1.20000e+00,
812,1.28000e+00,
813,7.60000e-01,
814,8.00000e-01,
815,2.00000e-01,
816,2.00000e-01,
817,-4.40000e-01,
818,-3.60000e-01,
819,-9.20000e-01,
820,-9.20000e-01,
821,-1.36000e+00,
822,-1.32000e+00,
823,-1.56000e+00,
824,-1.60000e+00,
825,-1.48000e+00,
826,-1.56000e+00,
827,-1.28000e+00,
828,-1.32000e+00,
829,-8.80000e-01,
830,-9.20000e-01,
831,-3.20000e-01,
832,-3.60000e-01,
833,2.80000e-01,
834,2.40000e-01,
835,8.40000e-01,
836,8.00000e-01,
837,1.28000e+00,
838,1.28000e+00,
839,1.60000e+00,
840,1.52000e+00,
841,1.68000e+00,
842,1.68000e+00,
843,1.44000e+00,
844,1.48000e+00,
845,1.04000e+00,
846,1.12000e+00,
847,5.60000e-01,
848,6.00000e-01,
849,-4.00000e-02,
850,0.00000e+00,
851,-6.00000e-01,
852,-5.60000e-01,
853,-1.12000e+00,
854,-1.08000e+00,
855,-1.44000e+00,
856,-1.40000e+00,
857,-1.60000e+00,
858,-1.60000e+00,
859,-1.44000e+00,
860,-1.52000e+00,
861,-1.16000e+00,
862,-1.20000e+00,
863,-6.80000e-01,
864,-7.20000e-01,
865,-1.20000e-01,
866,-1.60000e-01,
867,4.40000e-01,
868,4.40000e-01,
869,1.00000e+00,
870,9.60000e-01,
871,1.40000e+00,
872,1.36000e+00,
873,1.64000e+00,
874,1.68000e+00,
875,1.56000e+00,
876,1.64000e+00,
877,1.32000e+00,
878,1.40000e+00,
879,9.20000e-01,
880,9.60000e-01,
881,4.00000e-01,
882,4.00000e-01,
883,-2.40000e-01,
884,-2.00000e-01,
885,-7.60000e-01,
886,-7.20000e-01,
887,-1.24000e+00,
888,-1.20000e+00,
889,-1.52000e+00,
890,-1.48000e+00,
891,-1.60000e+00,
892,-1.60000e+00,
893,-1.36000e+00,
894,-1.44000e+00,
895,-1.04000e+00,
896,-1.04000e+00,
897,-4.80000e-01,
898,-5.60000e-01,
899,8.00000e-02,
900,4.00000e-02,
901,6.80000e-01,
902,6.40000e-01,
903,1.20000e+00,
904,1.16000e+00,
905,1.52000e+00,
906,1.48000e+00,
907,1.68000e+00,
908,1.68000e+00,
909,1.52000e+00,
910,1.56000e+00,
911,1.20000e+00,
912,1.24000e+00,
913,7.20000e-01,
914,7.60000e-01,
915,2.00000e-01,
916,2.00000e-01,
917,-4.40000e-01,
918,-3.60000e-01,
919,-9.60000e-01,
920,-9.20000e-01,
921,-1.40000e+00,
922,-1.32000e+00,
923,-1.60000e+00,
924,-1.60000e+00,
925,-1.52000e+00,
926,-1.56000e+00,
927,-1.28000e+00,
928,-1.36000e+00,
929,-8.80000e-01,
930,-9.20000e-01,
931,-3.20000e-01,
932,-3.60000e-01,
933,2.80000e-01,
934,2.40000e-01,
935,8.80000e-01,
936,8.00000e-01,
937,1.32000e+00,
938,1.28000e+00,
939,1.60000e+00,
940,1.52000e+00,
941,1.68000e+00,
942,1.68000e+00,
943,1.44000e+00,
944,1.48000e+00,
945,1.08000e+00,
946,1.12000e+00,
947,5.60000e-01,
948,6.40000e-01,
949,-4.00000e-02,
950,4.00000e-02,
951,-5.60000e-01,
952,-5.60000e-01,
953,-1.08000e+00,
954,-1.08000e+00,
955,-1.48000e+00,
956,-1.40000e+00,
957,-1.60000e+00,
958,-1.60000e+00,
959,-1.44000e+00,
960,-1.52000e+00,
961,-1.16000e+00,
962,-1.24000e+00,
963,-7.20000e-01,
964,-7.20000e-01,
965,-1.20000e-01,
966,-1.60000e-01,
967,5.20000e-01,
968,4.40000e-01,
969,1.00000e+00,
970,9.60000e-01,
971,1.40000e+00,
972,1.36000e+00,
973,1.64000e+00,
974,1.56000e+00,
975,1.68000e+00,
976,1.64000e+00,
977,1.36000e+00,
978,1.36000e+00,
979,9.20000e-01,
980,9.60000e-01,
981,4.00000e-01,
982,4.00000e-01,
983,-2.40000e-01,
984,-1.60000e-01,
985,-7.60000e-01,
986,-7.60000e-01,
987,-1.24000e+00,
988,-1.20000e+00,
989,-1.52000e+00,
990,-1.48000e+00,
991,-1.60000e+00,
992,-1.60000e+00,
993,-1.36000e+00,
994,-1.44000e+00,
995,-1.00000e+00,
996,-1.04000e+00,
997,-4.80000e-01,
998,-5.20000e-01,
999,8.00000e-02,
1000,8.00000e-02,
1001,6.40000e-01,
1002,6.40000e-01,
1003,1.20000e+00,
1004,1.12000e+00,
1005,1.52000e+00,
1006,1.48000e+00,
1007,1.68000e+00,
1008,1.68000e+00,
1009,1.52000e+00,
1010,1.60000e+00,
1011,1.20000e+00,
1012,1.28000e+00,
1013,7.60000e-01,
1014,8.00000e-01,
1015,1.60000e-01,
1016,2.00000e-01,
1017,-4.40000e-01,
1018,-3.60000e-01,
1019,-9.60000e-01,
1020,-9.20000e-01,
1021,-1.36000e+00,
1022,-1.32000e+00,
1023,-1.60000e+00,
1024,-1.60000e+00,
1025,-1.52000e+00,
1026,-1.56000e+00,
1027,-1.28000e+00,
1028,-1.36000e+00,
1029,-8.40000e-01,
1030,-8.80000e-01,
1031,-3.20000e-01,
1032,-3.60000e-01,
1033,2.80000e-01,
1034,2.40000e-01,
1035,8.40000e-01,
1036,8.00000e-01,
1037,1.28000e+00,
1038,1.24000e+00,
1039,1.60000e+00,
1040,1.52000e+00,
1041,1.68000e+00,
1042,1.68000e+00,
1043,1.44000e+00,
1044,1.52000e+00,
1045,1.04000e+00,
1046,1.12000e+00,
1047,5.60000e-01,
1048,6.00000e-01,
1049,-4.00000e-02,
1050,0.00000e+00,
1051,-6.00000e-01,
1052,-6.00000e-01,
1053,-1.12000e+00,
1054,-1.08000e+00,
1055,-1.48000e+00,
1056,-1.40000e+00,
1057,-1.60000e+00,
1058,-1.60000e+00,
1059,-1.44000e+00,
1060,-1.52000e+00,
1061,-1.16000e+00,
1062,-1.24000e+00,
1063,-6.80000e-01,
1064,-7.20000e-01,
1065,-1.20000e-01,
1066,-1.60000e-01,
1067,5.20000e-01,
1068,4.40000e-01,
1069,1.04000e+00,
1070,9.60000e-01,
1071,1.40000e+00,
1072,1.36000e+00,
1073,1.64000e+00,
1074,1.68000e+00,
1075,1.56000e+00,
1076,1.64000e+00,
1077,1.36000e+00,
1078,1.40000e+00,
1079,9.20000e-01,
1080,9.60000e-01,
1081,4.00000e-01,
1082,4.40000e-01,
1083,-2.40000e-01,
1084,-1.60000e-01,
1085,-7.60000e-01,
1086,-7.60000e-01,
1087,-1.24000e+00,
1088,-1.20000e+00,
1089,-1.52000e+00,
1090,-1.48000e+00,
1091,-1.60000e+00,
1092,-1.60000e+00,
1093,-1.36000e+00,
1094,-1.44000e+00,
1095,-1.04000e+00,
1096,-1.04000e+00,
1097,-5.20000e-01,
1098,-5.60000e-01,
1099,8.00000e-02,
1100,4.00000e-02,
1101,6.80000e-01,
1102,6.00000e-01,
1103,1.16000e+00,
1104,1.12000e+00,
1105,1.52000e+00,
1106,1.48000e+00,
1107,1.68000e+00,
1108,1.68000e+00,
1109,1.52000e+00,
1110,1.60000e+00,
1111,1.20000e+00,
1112,1.28000e+00,
1113,7.60000e-01,
1114,8.00000e-01,
1115,1.60000e-01,
1116,2.00000e-01,
1117,-4.40000e-01,
1118,-4.00000e-01,
1119,-9.60000e-01,
1120,-9.20000e-01,
1121,-1.40000e+00,
1122,-1.32000e+00,
1123,-1.60000e+00,
1124,-1.60000e+00,
1125,-1.52000e+00,
1126,-1.56000e+00,
1127,-1.28000e+00,
1128,-1.36000e+00,
1129,-8.80000e-01,
1130,-8.80000e-01,
1131,-3.20000e-01,
1132,-3.60000e-01,
1133,2.80000e-01,
1134,2.40000e-01,
1135,8.80000e-01,
1136,8.40000e-01,
1137,1.32000e+00,
