DataAnalysis/Johnson_noise/2017_johnson_noise/data_MUIC_nop_anan/NewFile4.csv

X,CH1,Start,Increment,
Sequence,Volt,1.99400e-03,1.00000e-08
0,9.40000e-02,
1,9.00000e-02,
2,9.40000e-02,
3,9.00000e-02,
4,9.20000e-02,
5,9.40000e-02,
6,9.00000e-02,
7,9.60000e-02,
8,9.40000e-02,
9,9.00000e-02,
10,9.40000e-02,
11,9.00000e-02,
12,9.60000e-02,
13,9.00000e-02,
14,9.00000e-02,
15,9.40000e-02,
16,9.40000e-02,
17,9.00000e-02,
18,9.40000e-02,
19,9.00000e-02,
20,9.20000e-02,
21,9.40000e-02,
22,9.00000e-02,
23,9.40000e-02,
24,9.40000e-02,
25,9.00000e-02,
26,9.40000e-02,
27,9.00000e-02,
28,9.40000e-02,
29,9.00000e-02,
30,9.00000e-02,
31,9.40000e-02,
32,9.40000e-02,
33,9.00000e-02,
34,9.40000e-02,
35,9.00000e-02,
36,9.00000e-02,
37,9.40000e-02,
38,9.40000e-02,
39,9.00000e-02,
40,9.40000e-02,
41,9.00000e-02,
42,9.40000e-02,
43,9.00000e-02,
44,9.40000e-02,
45,9.00000e-02,
46,9.40000e-02,
47,9.00000e-02,
48,9.00000e-02,
49,9.40000e-02,
50,9.00000e-02,
51,9.40000e-02,
52,9.00000e-02,
53,9.40000e-02,
54,9.00000e-02,
55,9.40000e-02,
56,9.40000e-02,
57,9.00000e-02,
58,9.40000e-02,
59,9.00000e-02,
60,9.40000e-02,
61,9.00000e-02,
62,9.40000e-02,
63,9.00000e-02,
64,9.40000e-02,
65,9.00000e-02,
66,9.40000e-02,
67,9.00000e-02,
68,9.00000e-02,
69,9.40000e-02,
70,9.00000e-02,
71,9.40000e-02,
72,9.40000e-02,
73,9.00000e-02,
74,9.40000e-02,
75,9.00000e-02,
76,9.40000e-02,
77,9.00000e-02,
78,9.40000e-02,
79,9.00000e-02,
80,9.40000e-02,
81,9.00000e-02,
82,9.40000e-02,
83,9.00000e-02,
84,9.40000e-02,
85,8.80000e-02,
86,9.00000e-02,
87,9.40000e-02,
88,9.00000e-02,
89,9.40000e-02,
90,9.00000e-02,
91,9.40000e-02,
92,9.00000e-02,
93,9.40000e-02,
94,9.00000e-02,
95,9.40000e-02,
96,9.00000e-02,
97,9.40000e-02,
98,9.40000e-02,
99,9.00000e-02,
100,9.40000e-02,
101,9.00000e-02,
102,9.00000e-02,
103,9.40000e-02,
104,9.40000e-02,
105,9.00000e-02,
106,9.20000e-02,
107,9.00000e-02,
108,9.40000e-02,
109,9.00000e-02,
110,9.40000e-02,
111,9.00000e-02,
112,9.40000e-02,
113,9.00000e-02,
114,9.40000e-02,
115,9.00000e-02,
116,9.00000e-02,
117,9.20000e-02,
118,9.00000e-02,
119,9.40000e-02,
120,9.00000e-02,
121,9.40000e-02,
122,9.00000e-02,
123,9.40000e-02,
124,9.00000e-02,
125,9.40000e-02,
126,9.00000e-02,
127,9.40000e-02,
128,9.40000e-02,
129,9.00000e-02,
130,9.40000e-02,
131,9.00000e-02,
132,9.20000e-02,
133,9.00000e-02,
134,9.40000e-02,
135,9.00000e-02,
136,9.40000e-02,
137,9.00000e-02,
138,9.00000e-02,
139,9.40000e-02,
140,9.00000e-02,
141,9.40000e-02,
142,9.40000e-02,
143,9.00000e-02,
144,9.40000e-02,
145,9.00000e-02,
146,9.40000e-02,
147,9.00000e-02,
148,9.00000e-02,
149,9.40000e-02,
150,9.00000e-02,
151,9.40000e-02,
152,9.00000e-02,
153,9.40000e-02,
154,9.00000e-02,
155,9.40000e-02,
156,9.40000e-02,
157,9.00000e-02,
158,9.40000e-02,
159,9.00000e-02,
160,9.40000e-02,
161,9.00000e-02,
162,9.00000e-02,
163,9.40000e-02,
164,9.00000e-02,
165,9.40000e-02,
166,9.00000e-02,
167,9.40000e-02,
168,9.00000e-02,
169,9.40000e-02,
170,9.40000e-02,
171,9.00000e-02,
172,9.00000e-02,
173,9.40000e-02,
174,9.40000e-02,
175,9.00000e-02,
176,9.40000e-02,
177,8.80000e-02,
178,9.40000e-02,
179,9.00000e-02,
180,9.40000e-02,
181,9.00000e-02,
182,9.40000e-02,
183,9.00000e-02,
184,9.00000e-02,
185,9.40000e-02,
186,9.40000e-02,
187,9.00000e-02,
188,9.00000e-02,
189,9.20000e-02,
190,9.00000e-02,
191,9.20000e-02,
192,9.20000e-02,
193,9.00000e-02,
194,9.00000e-02,
195,9.40000e-02,
196,9.00000e-02,
197,9.40000e-02,
198,9.00000e-02,
199,9.40000e-02,
200,9.00000e-02,
201,9.40000e-02,
202,9.40000e-02,
203,9.00000e-02,
204,8.80000e-02,
205,9.40000e-02,
206,9.40000e-02,
207,8.80000e-02,
208,9.40000e-02,
209,9.00000e-02,
210,9.00000e-02,
211,9.40000e-02,
212,9.00000e-02,
213,9.40000e-02,
214,9.00000e-02,
215,9.20000e-02,
216,9.00000e-02,
217,9.20000e-02,
218,9.00000e-02,
219,9.40000e-02,
220,9.00000e-02,
221,9.40000e-02,
222,9.00000e-02,
223,9.40000e-02,
224,9.00000e-02,
225,9.40000e-02,
226,9.00000e-02,
227,9.40000e-02,
228,9.00000e-02,
229,9.40000e-02,
230,9.00000e-02,
231,9.40000e-02,
232,9.00000e-02,
233,9.20000e-02,
234,9.40000e-02,
235,9.00000e-02,
236,9.00000e-02,
237,9.20000e-02,
238,9.00000e-02,
239,9.40000e-02,
240,9.00000e-02,
241,9.20000e-02,
242,9.20000e-02,
243,8.80000e-02,
244,9.40000e-02,
245,9.00000e-02,
246,9.00000e-02,
247,9.40000e-02,
248,9.20000e-02,
249,8.80000e-02,
250,8.80000e-02,
251,9.40000e-02,
252,9.40000e-02,
253,8.80000e-02,
254,9.40000e-02,
255,8.80000e-02,
256,9.40000e-02,
257,8.80000e-02,
258,9.00000e-02,
259,9.40000e-02,
260,9.00000e-02,
261,9.40000e-02,
262,9.00000e-02,
263,9.40000e-02,
264,9.00000e-02,
265,9.20000e-02,
266,9.00000e-02,
267,9.20000e-02,
268,9.00000e-02,
269,9.20000e-02,
270,9.00000e-02,
271,9.40000e-02,
272,9.40000e-02,
273,9.00000e-02,
274,9.40000e-02,
275,9.00000e-02,
276,9.00000e-02,
277,9.40000e-02,
278,9.40000e-02,
279,8.80000e-02,
280,9.00000e-02,
281,9.40000e-02,
282,9.00000e-02,
283,9.40000e-02,
284,9.00000e-02,
285,9.40000e-02,
286,9.20000e-02,
287,9.00000e-02,
288,9.00000e-02,
289,9.40000e-02,
290,9.00000e-02,
291,9.20000e-02,
292,9.20000e-02,
293,8.80000e-02,
294,9.00000e-02,
295,9.20000e-02,
296,9.00000e-02,
297,9.20000e-02,
298,9.40000e-02,
299,8.80000e-02,
300,9.40000e-02,
301,8.80000e-02,
302,8.80000e-02,
303,9.40000e-02,
304,8.80000e-02,
305,9.40000e-02,
306,8.80000e-02,
307,9.20000e-02,
308,8.80000e-02,
309,9.20000e-02,
310,9.20000e-02,
311,8.80000e-02,
312,9.00000e-02,
313,9.20000e-02,
314,9.00000e-02,
315,9.40000e-02,
316,9.00000e-02,
317,9.20000e-02,
318,9.20000e-02,
319,8.80000e-02,
320,9.20000e-02,
321,8.80000e-02,
322,9.40000e-02,
323,8.80000e-02,
324,9.00000e-02,
325,9.40000e-02,
326,9.00000e-02,
327,9.40000e-02,
328,9.20000e-02,
329,9.00000e-02,
330,9.20000e-02,
331,9.00000e-02,
332,9.20000e-02,
333,9.00000e-02,
334,9.00000e-02,
335,9.20000e-02,
336,9.20000e-02,
337,9.00000e-02,
338,9.20000e-02,
339,9.00000e-02,
340,9.20000e-02,
341,9.00000e-02,
342,8.80000e-02,
343,9.20000e-02,
344,9.00000e-02,
345,9.20000e-02,
346,9.20000e-02,
347,9.00000e-02,
348,9.20000e-02,
349,9.00000e-02,
350,9.00000e-02,
351,9.20000e-02,
352,9.00000e-02,
353,9.20000e-02,
354,9.00000e-02,
355,9.20000e-02,
356,9.00000e-02,
357,9.20000e-02,
358,9.00000e-02,
359,9.20000e-02,
360,9.00000e-02,
361,9.20000e-02,
362,9.20000e-02,
363,8.80000e-02,
364,9.00000e-02,
365,9.20000e-02,
366,8.80000e-02,
367,9.20000e-02,
368,9.20000e-02,
369,8.80000e-02,
370,8.80000e-02,
371,9.40000e-02,
372,9.20000e-02,
373,8.80000e-02,
374,9.20000e-02,
375,8.80000e-02,
376,9.20000e-02,
377,8.80000e-02,
378,9.40000e-02,
379,8.80000e-02,
380,8.80000e-02,
381,9.20000e-02,
382,8.80000e-02,
383,9.40000e-02,
384,8.80000e-02,
385,9.20000e-02,
386,8.80000e-02,
387,9.20000e-02,
388,9.40000e-02,
389,8.80000e-02,
390,9.20000e-02,
391,8.80000e-02,
392,8.80000e-02,
393,9.20000e-02,
394,8.80000e-02,
395,9.20000e-02,
396,9.20000e-02,
397,8.80000e-02,
398,9.20000e-02,
399,8.80000e-02,
400,9.20000e-02,
401,8.80000e-02,
402,9.20000e-02,
403,8.80000e-02,
404,8.80000e-02,
405,9.20000e-02,
406,8.80000e-02,
407,9.20000e-02,
408,9.20000e-02,
409,8.80000e-02,
410,9.20000e-02,
411,8.80000e-02,
412,8.80000e-02,
413,9.20000e-02,
414,8.80000e-02,
415,9.20000e-02,
416,9.20000e-02,
417,8.80000e-02,
418,9.20000e-02,
419,8.80000e-02,
420,9.20000e-02,
421,8.60000e-02,
422,9.40000e-02,
423,8.80000e-02,
424,9.00000e-02,
425,8.60000e-02,
426,9.20000e-02,
427,8.80000e-02,
428,8.80000e-02,
429,9.20000e-02,
430,8.80000e-02,
431,9.20000e-02,
432,8.80000e-02,
433,9.20000e-02,
434,8.80000e-02,
435,9.20000e-02,
436,9.20000e-02,
437,8.80000e-02,
438,9.20000e-02,
439,8.80000e-02,
440,9.20000e-02,
441,8.80000e-02,
442,8.80000e-02,
443,9.20000e-02,
444,8.80000e-02,
445,9.20000e-02,
446,8.80000e-02,
447,9.20000e-02,
448,9.00000e-02,
449,8.80000e-02,
450,9.20000e-02,
451,8.80000e-02,
452,8.80000e-02,
453,9.20000e-02,
454,8.80000e-02,
455,9.20000e-02,
456,8.80000e-02,
457,9.20000e-02,
458,8.80000e-02,
459,9.20000e-02,
460,8.80000e-02,
461,9.20000e-02,
462,9.20000e-02,
463,8.80000e-02,
464,9.20000e-02,
465,8.80000e-02,
466,8.80000e-02,
467,9.20000e-02,
468,8.60000e-02,
469,9.20000e-02,
470,8.80000e-02,
471,9.20000e-02,
472,9.00000e-02,
473,8.80000e-02,
474,9.20000e-02,
475,8.80000e-02,
476,9.20000e-02,
477,8.80000e-02,
478,8.80000e-02,
479,9.20000e-02,
480,8.80000e-02,
481,9.20000e-02,
482,8.80000e-02,
483,9.20000e-02,
484,8.80000e-02,
485,9.20000e-02,
486,9.20000e-02,
487,8.80000e-02,
488,9.20000e-02,
489,8.80000e-02,
490,9.20000e-02,
491,8.80000e-02,
492,8.80000e-02,
493,9.20000e-02,
494,9.00000e-02,
495,8.80000e-02,
496,8.80000e-02,
497,9.00000e-02,
498,9.00000e-02,
499,8.80000e-02,
500,8.80000e-02,
501,9.20000e-02,
502,9.00000e-02,
503,8.80000e-02,
504,8.80000e-02,
505,9.00000e-02,
506,9.20000e-02,
507,8.80000e-02,
508,9.00000e-02,
509,8.80000e-02,
510,9.20000e-02,
511,8.80000e-02,
512,8.60000e-02,
513,9.20000e-02,
514,9.20000e-02,
515,8.80000e-02,
516,8.80000e-02,
517,9.20000e-02,
518,9.20000e-02,
519,8.60000e-02,
520,9.20000e-02,
521,8.60000e-02,
522,9.20000e-02,
523,8.60000e-02,
524,9.20000e-02,
525,8.80000e-02,
526,9.00000e-02,
527,8.60000e-02,
528,8.80000e-02,
529,9.20000e-02,
530,8.80000e-02,
531,9.00000e-02,
532,8.80000e-02,
533,9.00000e-02,
534,8.80000e-02,
535,9.20000e-02,
536,8.60000e-02,
537,9.20000e-02,
538,8.80000e-02,
539,9.00000e-02,
540,9.00000e-02,
541,8.60000e-02,
542,8.80000e-02,
543,9.20000e-02,
544,9.20000e-02,
545,8.80000e-02,
546,9.00000e-02,
547,8.60000e-02,
548,9.20000e-02,
549,8.60000e-02,
550,9.20000e-02,
551,8.80000e-02,
552,8.80000e-02,
553,9.00000e-02,
554,8.80000e-02,
555,9.00000e-02,
556,8.80000e-02,
557,9.00000e-02,
558,8.80000e-02,
559,9.00000e-02,
560,9.00000e-02,
561,8.80000e-02,
562,9.00000e-02,
563,8.80000e-02,
564,8.80000e-02,
565,9.00000e-02,
566,9.20000e-02,
567,8.60000e-02,
568,9.20000e-02,
569,8.60000e-02,
570,9.00000e-02,
571,8.80000e-02,
572,9.20000e-02,
573,8.60000e-02,
574,8.60000e-02,
575,9.20000e-02,
576,8.80000e-02,
577,9.20000e-02,
578,8.80000e-02,
579,9.20000e-02,
580,8.80000e-02,
581,9.20000e-02,
582,8.80000e-02,
583,9.20000e-02,
584,9.00000e-02,
585,8.80000e-02,
586,9.00000e-02,
587,8.80000e-02,
588,8.80000e-02,
589,9.20000e-02,
590,9.20000e-02,
591,8.80000e-02,
592,9.20000e-02,
593,8.80000e-02,
594,8.80000e-02,
595,9.20000e-02,
596,8.80000e-02,
597,9.00000e-02,
598,8.80000e-02,
599,9.00000e-02,
600,8.80000e-02,
601,9.20000e-02,
602,8.80000e-02,
603,9.20000e-02,
604,8.80000e-02,
605,9.20000e-02,
606,8.80000e-02,
607,9.20000e-02,
608,8.80000e-02,
609,9.20000e-02,
610,9.20000e-02,
611,8.80000e-02,
612,9.00000e-02,
613,8.80000e-02,
614,8.80000e-02,
615,9.20000e-02,
616,9.20000e-02,
617,8.80000e-02,
618,8.80000e-02,
619,9.20000e-02,
620,8.80000e-02,
621,9.20000e-02,
622,9.20000e-02,
623,8.60000e-02,
624,8.80000e-02,
625,9.20000e-02,
626,8.80000e-02,
627,9.20000e-02,
628,8.80000e-02,
629,9.00000e-02,
630,9.00000e-02,
631,8.80000e-02,
632,9.20000e-02,
633,8.80000e-02,
634,8.80000e-02,
635,9.20000e-02,
636,8.80000e-02,
637,9.20000e-02,
638,8.80000e-02,
639,9.20000e-02,
640,8.80000e-02,
641,9.20000e-02,
642,9.20000e-02,
643,8.60000e-02,
644,8.80000e-02,
645,9.20000e-02,
646,9.20000e-02,
647,8.80000e-02,
648,9.00000e-02,
649,8.80000e-02,
650,8.80000e-02,
651,9.20000e-02,
652,9.20000e-02,
653,8.80000e-02,
654,9.20000e-02,
655,8.80000e-02,
656,9.20000e-02,
657,8.80000e-02,
658,9.20000e-02,
659,8.80000e-02,
660,9.20000e-02,
661,8.80000e-02,
662,8.80000e-02,
663,9.20000e-02,
664,8.80000e-02,
665,9.20000e-02,
666,8.80000e-02,
667,9.20000e-02,
668,8.80000e-02,
669,9.20000e-02,
670,8.80000e-02,
671,9.20000e-02,
672,9.20000e-02,
673,8.80000e-02,
674,9.20000e-02,
675,8.80000e-02,
676,9.20000e-02,
677,8.80000e-02,
678,8.80000e-02,
679,9.20000e-02,
680,8.80000e-02,
681,9.20000e-02,
682,8.80000e-02,
683,9.20000e-02,
684,9.20000e-02,
685,8.80000e-02,
686,9.20000e-02,
687,8.80000e-02,
688,8.80000e-02,
689,9.20000e-02,
690,9.20000e-02,
691,8.80000e-02,
692,9.20000e-02,
693,8.80000e-02,
694,8.80000e-02,
695,9.20000e-02,
696,9.20000e-02,
697,8.80000e-02,
698,9.20000e-02,
699,8.80000e-02,
700,9.20000e-02,
701,8.60000e-02,
702,9.20000e-02,
703,8.80000e-02,
704,8.80000e-02,
705,9.20000e-02,
706,8.80000e-02,
707,9.40000e-02,
708,8.80000e-02,
709,9.20000e-02,
710,8.80000e-02,
711,9.40000e-02,
712,9.20000e-02,
713,8.80000e-02,
714,9.20000e-02,
715,8.80000e-02,
716,8.80000e-02,
717,9.20000e-02,
718,8.80000e-02,
719,9.40000e-02,
720,8.80000e-02,
721,9.20000e-02,
722,9.20000e-02,
723,8.80000e-02,
724,9.20000e-02,
725,8.80000e-02,
726,9.00000e-02,
727,9.20000e-02,
728,9.20000e-02,
729,8.80000e-02,
730,9.20000e-02,
731,8.80000e-02,
732,9.20000e-02,
733,8.80000e-02,
734,9.20000e-02,
735,8.80000e-02,
736,9.40000e-02,
737,8.80000e-02,
738,8.80000e-02,
739,9.40000e-02,
740,8.80000e-02,
741,9.40000e-02,
742,8.80000e-02,
743,9.20000e-02,
744,8.80000e-02,
745,9.40000e-02,
746,8.80000e-02,
747,9.20000e-02,
748,9.00000e-02,
749,9.20000e-02,
750,9.20000e-02,
751,8.80000e-02,
752,9.20000e-02,
753,8.80000e-02,
754,9.20000e-02,
755,9.00000e-02,
756,9.00000e-02,
757,9.20000e-02,
758,9.20000e-02,
759,8.80000e-02,
760,9.20000e-02,
761,8.80000e-02,
762,9.20000e-02,
763,8.80000e-02,
764,9.00000e-02,
765,9.20000e-02,
766,9.20000e-02,
767,8.80000e-02,
768,9.00000e-02,
769,9.20000e-02,
770,9.20000e-02,
771,9.00000e-02,
772,9.20000e-02,
773,8.80000e-02,
774,9.00000e-02,
775,9.20000e-02,
776,9.20000e-02,
777,9.00000e-02,
778,9.20000e-02,
779,9.00000e-02,
780,9.00000e-02,
781,9.40000e-02,
782,9.00000e-02,
783,9.20000e-02,
784,9.20000e-02,
785,9.00000e-02,
786,9.00000e-02,
787,9.20000e-02,
788,9.20000e-02,
789,8.80000e-02,
790,9.00000e-02,
791,9.40000e-02,
792,9.00000e-02,
793,9.40000e-02,
794,9.00000e-02,
795,9.20000e-02,
796,9.20000e-02,
797,8.80000e-02,
798,9.00000e-02,
799,9.40000e-02,
800,9.00000e-02,
801,9.40000e-02,
802,9.20000e-02,
803,9.00000e-02,
804,9.00000e-02,
805,9.20000e-02,
806,9.00000e-02,
807,9.20000e-02,
808,9.00000e-02,
809,9.40000e-02,
810,9.00000e-02,
811,9.40000e-02,
812,9.00000e-02,
813,9.40000e-02,
814,9.20000e-02,
815,9.00000e-02,
816,9.00000e-02,
817,9.20000e-02,
818,9.00000e-02,
819,9.40000e-02,
820,9.40000e-02,
821,9.00000e-02,
822,9.00000e-02,
823,9.40000e-02,
824,8.80000e-02,
825,9.40000e-02,
826,8.80000e-02,
827,9.40000e-02,
828,8.60000e-02,
829,9.80000e-02,
830,8.60000e-02,
831,1.00000e-01,
832,8.40000e-02,
833,9.80000e-02,
834,8.40000e-02,
835,9.60000e-02,
836,8.60000e-02,
837,9.80000e-02,
838,9.60000e-02,
839,8.60000e-02,
840,9.40000e-02,
841,8.80000e-02,
842,9.40000e-02,
843,8.80000e-02,
844,9.60000e-02,
845,8.80000e-02,
846,8.80000e-02,
847,9.60000e-02,
848,9.40000e-02,
849,8.80000e-02,
850,9.00000e-02,
851,9.40000e-02,
852,9.40000e-02,
853,9.00000e-02,
854,8.80000e-02,
855,9.60000e-02,
856,8.60000e-02,
857,9.60000e-02,
858,8.60000e-02,
859,9.60000e-02,
860,8.80000e-02,
861,9.60000e-02,
862,9.60000e-02,
863,8.80000e-02,
864,9.00000e-02,
865,9.40000e-02,
866,9.00000e-02,
867,9.40000e-02,
868,9.40000e-02,
869,8.80000e-02,
870,9.40000e-02,
871,9.00000e-02,
872,9.40000e-02,
873,9.00000e-02,
874,9.40000e-02,
875,9.00000e-02,
876,9.00000e-02,
877,9.40000e-02,
878,9.00000e-02,
879,9.40000e-02,
880,9.40000e-02,
881,9.00000e-02,
882,9.00000e-02,
883,9.40000e-02,
884,9.40000e-02,
885,9.00000e-02,
886,9.40000e-02,
887,8.80000e-02,
888,9.00000e-02,
889,9.60000e-02,
890,9.40000e-02,
891,9.00000e-02,
892,9.00000e-02,
893,9.40000e-02,
894,9.40000e-02,
895,9.00000e-02,
896,9.40000e-02,
897,9.00000e-02,
898,9.40000e-02,
899,9.00000e-02,
900,9.00000e-02,
901,9.40000e-02,
902,9.40000e-02,
903,9.00000e-02,
904,9.20000e-02,
905,9.00000e-02,
906,9.00000e-02,
907,9.40000e-02,
908,9.00000e-02,
909,9.40000e-02,
910,9.40000e-02,
911,9.00000e-02,
912,9.00000e-02,
913,9.40000e-02,
914,9.00000e-02,
915,9.40000e-02,
916,9.00000e-02,
917,9.40000e-02,
918,9.40000e-02,
919,9.00000e-02,
920,9.00000e-02,
921,9.40000e-02,
922,9.00000e-02,
923,9.40000e-02,
924,9.00000e-02,
925,9.20000e-02,
926,9.00000e-02,
927,9.40000e-02,
928,9.40000e-02,
929,9.00000e-02,
930,9.00000e-02,
931,9.40000e-02,
932,9.40000e-02,
933,9.00000e-02,
934,9.40000e-02,
935,9.00000e-02,
936,9.40000e-02,
937,9.00000e-02,
938,9.00000e-02,
939,9.40000e-02,
940,9.00000e-02,
941,9.40000e-02,
942,9.00000e-02,
943,9.40000e-02,
944,9.00000e-02,
945,9.40000e-02,
946,9.00000e-02,
947,9.40000e-02,
948,9.00000e-02,
949,9.40000e-02,
950,9.40000e-02,
951,9.00000e-02,
952,9.40000e-02,
953,9.00000e-02,
954,9.40000e-02,
955,9.00000e-02,
956,9.00000e-02,
957,9.40000e-02,
958,9.40000e-02,
959,9.00000e-02,
960,9.40000e-02,
961,9.00000e-02,
962,9.00000e-02,
963,9.40000e-02,
964,9.40000e-02,
965,9.00000e-02,
966,9.00000e-02,
967,9.40000e-02,
968,9.00000e-02,
969,9.40000e-02,
970,9.00000e-02,
971,9.40000e-02,
972,9.40000e-02,
973,9.00000e-02,
974,9.40000e-02,
975,9.00000e-02,
976,9.40000e-02,
977,9.00000e-02,
978,9.40000e-02,
979,9.00000e-02,
980,9.40000e-02,
981,9.00000e-02,
982,9.40000e-02,
983,9.00000e-02,
984,9.40000e-02,
985,9.00000e-02,
986,9.40000e-02,
987,9.00000e-02,
988,9.40000e-02,
989,9.00000e-02,
990,9.40000e-02,
991,9.00000e-02,
992,9.00000e-02,
993,9.40000e-02,
994,9.00000e-02,
995,9.40000e-02,
996,9.40000e-02,
997,9.00000e-02,
998,9.40000e-02,
999,9.00000e-02,
1000,9.40000e-02,
1001,9.00000e-02,
1002,9.40000e-02,
1003,9.00000e-02,
1004,9.40000e-02,
1005,9.00000e-02,
1006,9.20000e-02,
1007,9.00000e-02,
1008,9.20000e-02,
1009,9.00000e-02,
1010,9.40000e-02,
1011,9.00000e-02,
1012,9.40000e-02,
1013,9.00000e-02,
1014,9.40000e-02,
1015,9.00000e-02,
1016,9.40000e-02,
1017,9.20000e-02,
1018,9.40000e-02,
1019,9.00000e-02,
1020,9.40000e-02,
1021,9.00000e-02,
1022,9.00000e-02,
1023,9.40000e-02,
1024,9.40000e-02,
1025,9.00000e-02,
1026,9.00000e-02,
1027,9.40000e-02,
1028,9.00000e-02,
1029,9.40000e-02,
1030,9.00000e-02,
1031,9.40000e-02,
1032,9.00000e-02,
1033,9.40000e-02,
1034,9.40000e-02,
1035,9.00000e-02,
1036,9.40000e-02,
1037,9.00000e-02,
1038,9.00000e-02,
1039,9.40000e-02,
1040,9.00000e-02,
1041,9.40000e-02,
1042,9.40000e-02,
1043,9.00000e-02,
1044,9.40000e-02,
1045,9.20000e-02,
1046,9.40000e-02,
1047,9.00000e-02,
1048,9.40000e-02,
1049,9.20000e-02,
1050,9.40000e-02,
1051,9.00000e-02,
1052,9.40000e-02,
1053,9.00000e-02,
1054,9.40000e-02,
1055,9.00000e-02,
1056,9.40000e-02,
1057,9.20000e-02,
1058,9.00000e-02,
1059,9.40000e-02,
1060,9.40000e-02,
1061,9.00000e-02,
1062,9.20000e-02,
1063,9.40000e-02,
1064,9.40000e-02,
1065,9.20000e-02,
1066,9.40000e-02,
1067,9.00000e-02,
1068,9.20000e-02,
1069,9.40000e-02,
1070,9.20000e-02,
1071,9.40000e-02,
1072,9.20000e-02,
1073,9.40000e-02,
1074,9.20000e-02,
1075,9.40000e-02,
1076,9.40000e-02,
1077,9.00000e-02,
1078,9.20000e-02,
1079,9.40000e-02,
1080,9.40000e-02,
1081,9.20000e-02,
1082,9.20000e-02,
1083,9.40000e-02,
1084,9.20000e-02,
1085,9.40000e-02,
1086,9.20000e-02,
1087,9.40000e-02,
1088,9.40000e-02,
1089,9.20000e-02,
1090,9.20000e-02,
1091,9.40000e-02,
1092,9.20000e-02,
1093,9.40000e-02,
1094,9.40000e-02,
1095,9.20000e-02,
1096,9.20000e-02,
1097,9.40000e-02,
1098,9.40000e-02,
1099,9.20000e-02,
1100,9.00000e-02,
1101,9.40000e-02,
1102,9.60000e-02,
1103,9.20000e-02,
1104,9.60000e-02,
1105,9.00000e-02,
1106,9.40000e-02,
1107,9.20000e-02,
1108,9.00000e-02,
1109,9.40000e-02,
1110,9.00000e-02,
1111,9.40000e-02,
1112,9.60000e-02,
1113,9.00000e-02,
1114,9.20000e-02,
1115,9.60000e-02,
1116,9.40000e-02,
1117,9.20000e-02,
1118,9.20000e-02,
1119,9.40000e-02,
1120,9.20000e-02,
1121,9.60000e-02,
1122,9.20000e-02,
1123,9.40000e-02,
1124,9.20000e-02,
1125,9.40000e-02,
1126,9.20000e-02,
1127,9.60000e-02,
1128,9.00000e-02,
1129,9.40000e-02,
1130,9.00000e-02,
1131,9.60000e-02,
1132,9.20000e-02,
1133,9.40000e-02,
1134,9.40000e-02,
1135,9.20000e-02,
1136,9.20000e-02,
1137,9.60000e-02,
1138,9.40000e-02,
1139,9.20000e-02,
1140,9.20000e-02,
1141,9.60000e-02,
1142,9.20000e-02,
1143,9.40000e-02,
1144,9.40000e-02,
1145,9.20000e-02,
1146,9.20000e-02,
1147,9.60000e-02,
1148,9.60000e-02,
1149,9.20000e-02,
1150,9.60000e-02,
1151,9.20000e-02,
1152,9.60000e-02,
1153,9.00000e-02,
1154,9.60000e-02,
1155,9.00000e-02,
1156,9.60000e-02,
1157,9.00000e-02,
1158,9.20000e-02,
1159,9.60000e-02,
1160,9.20000e-02,
1161,9.40000e-02,
1162,9.20000e-02,
1163,9.60000e-02,
1164,9.20000e-02,
1165,9.60000e-02,
1166,9.20000e-02,
1167,9.60000e-02,
1168,9.20000e-02,
