DataAnalysis/Johnson_noise/2017_johnson_noise/data_MUIC_nop_anan/NewFile60.csv

X,CH1,Start,Increment,
Sequence,Volt,1.80000e-03,1.00000e-06
0,-2.56000e+00,
1,-2.28000e+00,
2,-2.32000e+00,
3,-1.92000e+00,
4,-1.96000e+00,
5,-1.56000e+00,
6,-1.60000e+00,
7,-1.08000e+00,
8,-1.12000e+00,
9,-5.60000e-01,
10,-6.00000e-01,
11,-8.00000e-02,
12,-8.00000e-02,
13,4.80000e-01,
14,4.40000e-01,
15,1.00000e+00,
16,9.60000e-01,
17,1.48000e+00,
18,1.44000e+00,
19,1.92000e+00,
20,1.84000e+00,
21,2.24000e+00,
22,2.16000e+00,
23,2.52000e+00,
24,2.44000e+00,
25,2.68000e+00,
26,2.60000e+00,
27,2.76000e+00,
28,2.76000e+00,
29,2.64000e+00,
30,2.72000e+00,
31,2.48000e+00,
32,2.52000e+00,
33,2.20000e+00,
34,2.28000e+00,
35,1.88000e+00,
36,1.92000e+00,
37,1.44000e+00,
38,1.48000e+00,
39,9.60000e-01,
40,1.04000e+00,
41,4.40000e-01,
42,4.80000e-01,
43,-8.00000e-02,
44,-4.00000e-02,
45,-6.00000e-01,
46,-5.60000e-01,
47,-1.08000e+00,
48,-1.08000e+00,
49,-1.60000e+00,
50,-1.52000e+00,
51,-1.96000e+00,
52,-1.96000e+00,
53,-2.32000e+00,
54,-2.24000e+00,
55,-2.56000e+00,
56,-2.48000e+00,
57,-2.68000e+00,
58,-2.68000e+00,
59,-2.60000e+00,
60,-2.68000e+00,
61,-2.52000e+00,
62,-2.60000e+00,
63,-2.32000e+00,
64,-2.40000e+00,
65,-2.04000e+00,
66,-2.08000e+00,
67,-1.64000e+00,
68,-1.72000e+00,
69,-1.24000e+00,
70,-1.24000e+00,
71,-7.60000e-01,
72,-7.60000e-01,
73,-2.00000e-01,
74,-2.40000e-01,
75,3.60000e-01,
76,3.20000e-01,
77,8.80000e-01,
78,8.00000e-01,
79,1.36000e+00,
80,1.32000e+00,
81,1.76000e+00,
82,1.76000e+00,
83,2.16000e+00,
84,2.12000e+00,
85,2.44000e+00,
86,2.36000e+00,
87,2.64000e+00,
88,2.56000e+00,
89,2.76000e+00,
90,2.64000e+00,
91,2.76000e+00,
92,2.68000e+00,
93,2.48000e+00,
94,2.56000e+00,
95,2.24000e+00,
96,2.32000e+00,
97,1.96000e+00,
98,2.00000e+00,
99,1.56000e+00,
100,1.60000e+00,
101,1.08000e+00,
102,1.12000e+00,
103,6.00000e-01,
104,6.40000e-01,
105,8.00000e-02,
106,1.20000e-01,
107,-4.80000e-01,
108,-4.00000e-01,
109,-9.60000e-01,
110,-9.60000e-01,
111,-1.44000e+00,
112,-1.40000e+00,
113,-1.88000e+00,
114,-1.84000e+00,
115,-2.20000e+00,
116,-2.20000e+00,
117,-2.48000e+00,
118,-2.44000e+00,
119,-2.64000e+00,
120,-2.56000e+00,
121,-2.68000e+00,
122,-2.68000e+00,
123,-2.56000e+00,
124,-2.60000e+00,
125,-2.40000e+00,
126,-2.44000e+00,
127,-2.12000e+00,
128,-2.16000e+00,
129,-1.76000e+00,
130,-1.80000e+00,
131,-1.32000e+00,
132,-1.40000e+00,
133,-8.80000e-01,
134,-8.40000e-01,
135,-3.20000e-01,
136,-3.60000e-01,
137,2.00000e-01,
138,1.60000e-01,
139,7.60000e-01,
140,6.80000e-01,
141,1.24000e+00,
142,1.20000e+00,
143,1.68000e+00,
144,1.64000e+00,
145,2.08000e+00,
146,2.00000e+00,
147,2.40000e+00,
148,2.32000e+00,
149,2.60000e+00,
150,2.56000e+00,
151,2.76000e+00,
152,2.64000e+00,
153,2.76000e+00,
154,2.72000e+00,
155,2.56000e+00,
156,2.60000e+00,
157,2.32000e+00,
158,2.40000e+00,
159,2.04000e+00,
160,2.12000e+00,
161,1.68000e+00,
162,1.72000e+00,
163,1.20000e+00,
164,1.28000e+00,
165,7.20000e-01,
166,7.60000e-01,
167,2.00000e-01,
168,2.40000e-01,
169,-3.60000e-01,
170,-2.80000e-01,
171,-8.40000e-01,
172,-8.40000e-01,
173,-1.36000e+00,
174,-1.32000e+00,
175,-1.80000e+00,
176,-1.72000e+00,
177,-2.16000e+00,
178,-2.12000e+00,
179,-2.44000e+00,
180,-2.40000e+00,
181,-2.64000e+00,
182,-2.56000e+00,
183,-2.68000e+00,
184,-2.68000e+00,
185,-2.60000e+00,
186,-2.64000e+00,
187,-2.44000e+00,
188,-2.52000e+00,
189,-2.20000e+00,
190,-2.24000e+00,
191,-1.88000e+00,
192,-1.92000e+00,
193,-1.44000e+00,
194,-1.48000e+00,
195,-1.00000e+00,
196,-1.00000e+00,
197,-4.40000e-01,
198,-5.20000e-01,
199,8.00000e-02,
200,0.00000e+00,
201,6.40000e-01,
202,5.60000e-01,
203,1.12000e+00,
204,1.04000e+00,
205,1.60000e+00,
206,1.56000e+00,
207,2.00000e+00,
208,1.92000e+00,
209,2.32000e+00,
210,2.24000e+00,
211,2.56000e+00,
212,2.48000e+00,
213,2.72000e+00,
214,2.64000e+00,
215,2.76000e+00,
216,2.76000e+00,
217,2.60000e+00,
218,2.64000e+00,
219,2.40000e+00,
220,2.48000e+00,
221,2.12000e+00,
222,2.20000e+00,
223,1.76000e+00,
224,1.84000e+00,
225,1.36000e+00,
226,1.36000e+00,
227,8.40000e-01,
228,8.80000e-01,
229,3.20000e-01,
230,3.60000e-01,
231,-2.40000e-01,
232,-1.60000e-01,
233,-7.20000e-01,
234,-6.80000e-01,
235,-1.24000e+00,
236,-1.20000e+00,
237,-1.68000e+00,
238,-1.64000e+00,
239,-2.08000e+00,
240,-2.00000e+00,
241,-2.40000e+00,
242,-2.32000e+00,
243,-2.56000e+00,
244,-2.52000e+00,
245,-2.68000e+00,
246,-2.60000e+00,
247,-2.68000e+00,
248,-2.68000e+00,
249,-2.48000e+00,
250,-2.56000e+00,
251,-2.28000e+00,
252,-2.32000e+00,
253,-1.92000e+00,
254,-2.00000e+00,
255,-1.56000e+00,
256,-1.60000e+00,
257,-1.12000e+00,
258,-1.12000e+00,
259,-6.00000e-01,
260,-6.40000e-01,
261,-4.00000e-02,
262,-8.00000e-02,
263,5.20000e-01,
264,4.40000e-01,
265,1.00000e+00,
266,9.20000e-01,
267,1.48000e+00,
268,1.44000e+00,
269,1.92000e+00,
270,1.84000e+00,
271,2.24000e+00,
272,2.16000e+00,
273,2.52000e+00,
274,2.44000e+00,
275,2.68000e+00,
276,2.60000e+00,
277,2.76000e+00,
278,2.76000e+00,
279,2.60000e+00,
280,2.68000e+00,
281,2.44000e+00,
282,2.52000e+00,
283,2.16000e+00,
284,2.24000e+00,
285,1.84000e+00,
286,1.92000e+00,
287,1.44000e+00,
288,1.48000e+00,
289,9.60000e-01,
290,1.00000e+00,
291,4.80000e-01,
292,4.80000e-01,
293,-8.00000e-02,
294,-4.00000e-02,
295,-6.00000e-01,
296,-5.60000e-01,
297,-1.12000e+00,
298,-1.08000e+00,
299,-1.60000e+00,
300,-1.52000e+00,
301,-1.96000e+00,
302,-1.96000e+00,
303,-2.28000e+00,
304,-2.28000e+00,
305,-2.56000e+00,
306,-2.48000e+00,
307,-2.68000e+00,
308,-2.60000e+00,
309,-2.68000e+00,
310,-2.68000e+00,
311,-2.52000e+00,
312,-2.60000e+00,
313,-2.32000e+00,
314,-2.40000e+00,
315,-2.04000e+00,
316,-2.08000e+00,
317,-1.64000e+00,
318,-1.72000e+00,
319,-1.24000e+00,
320,-1.28000e+00,
321,-7.20000e-01,
322,-7.20000e-01,
323,-2.00000e-01,
324,-2.40000e-01,
325,3.20000e-01,
326,2.80000e-01,
327,8.80000e-01,
328,8.00000e-01,
329,1.36000e+00,
330,1.32000e+00,
331,1.80000e+00,
332,1.72000e+00,
333,2.16000e+00,
334,2.08000e+00,
335,2.44000e+00,
336,2.36000e+00,
337,2.64000e+00,
338,2.56000e+00,
339,2.76000e+00,
340,2.76000e+00,
341,2.64000e+00,
342,2.72000e+00,
343,2.52000e+00,
344,2.56000e+00,
345,2.28000e+00,
346,2.36000e+00,
347,1.96000e+00,
348,2.04000e+00,
349,1.56000e+00,
350,1.64000e+00,
351,1.08000e+00,
352,1.16000e+00,
353,6.00000e-01,
354,6.00000e-01,
355,4.00000e-02,
356,8.00000e-02,
357,-4.80000e-01,
358,-4.80000e-01,
359,-1.00000e+00,
360,-9.60000e-01,
361,-1.48000e+00,
362,-1.44000e+00,
363,-1.88000e+00,
364,-1.84000e+00,
365,-2.20000e+00,
366,-2.20000e+00,
367,-2.48000e+00,
368,-2.40000e+00,
369,-2.64000e+00,
370,-2.56000e+00,
371,-2.68000e+00,
372,-2.68000e+00,
373,-2.56000e+00,
374,-2.64000e+00,
375,-2.40000e+00,
376,-2.44000e+00,
377,-2.12000e+00,
378,-2.16000e+00,
379,-1.76000e+00,
380,-1.80000e+00,
381,-1.32000e+00,
382,-1.40000e+00,
383,-8.40000e-01,
384,-8.80000e-01,
385,-3.20000e-01,
386,-3.60000e-01,
387,2.00000e-01,
388,2.00000e-01,
389,7.60000e-01,
390,7.20000e-01,
391,1.24000e+00,
392,1.16000e+00,
393,1.72000e+00,
394,1.64000e+00,
395,2.12000e+00,
396,2.04000e+00,
397,2.40000e+00,
398,2.32000e+00,
399,2.60000e+00,
400,2.56000e+00,
401,2.76000e+00,
402,2.68000e+00,
403,2.76000e+00,
404,2.76000e+00,
405,2.56000e+00,
406,2.60000e+00,
407,2.32000e+00,
408,2.40000e+00,
409,2.04000e+00,
410,2.12000e+00,
411,1.68000e+00,
412,1.76000e+00,
413,1.24000e+00,
414,1.28000e+00,
415,7.20000e-01,
416,7.60000e-01,
417,2.00000e-01,
418,2.40000e-01,
419,-3.60000e-01,
420,-2.80000e-01,
421,-8.80000e-01,
422,-8.40000e-01,
423,-1.36000e+00,
424,-1.28000e+00,
425,-1.80000e+00,
426,-1.76000e+00,
427,-2.16000e+00,
428,-2.12000e+00,
429,-2.44000e+00,
430,-2.40000e+00,
431,-2.60000e+00,
432,-2.56000e+00,
433,-2.68000e+00,
434,-2.60000e+00,
435,-2.72000e+00,
436,-2.64000e+00,
437,-2.44000e+00,
438,-2.52000e+00,
439,-2.20000e+00,
440,-2.24000e+00,
441,-1.88000e+00,
442,-1.92000e+00,
443,-1.44000e+00,
444,-1.52000e+00,
445,-1.00000e+00,
446,-1.00000e+00,
447,-4.40000e-01,
448,-5.20000e-01,
449,8.00000e-02,
450,0.00000e+00,
451,6.00000e-01,
452,5.60000e-01,
453,1.12000e+00,
454,1.04000e+00,
455,1.56000e+00,
456,1.52000e+00,
457,2.00000e+00,
458,1.92000e+00,
459,2.32000e+00,
460,2.24000e+00,
461,2.56000e+00,
462,2.48000e+00,
463,2.72000e+00,
464,2.64000e+00,
465,2.76000e+00,
466,2.76000e+00,
467,2.60000e+00,
468,2.68000e+00,
469,2.40000e+00,
470,2.44000e+00,
471,2.12000e+00,
472,2.16000e+00,
473,1.76000e+00,
474,1.84000e+00,
475,1.36000e+00,
476,1.36000e+00,
477,8.40000e-01,
478,9.20000e-01,
479,3.20000e-01,
480,3.60000e-01,
481,-2.40000e-01,
482,-1.60000e-01,
483,-7.20000e-01,
484,-7.20000e-01,
485,-1.24000e+00,
486,-1.20000e+00,
487,-1.68000e+00,
488,-1.64000e+00,
489,-2.08000e+00,
490,-2.00000e+00,
491,-2.36000e+00,
492,-2.32000e+00,
493,-2.56000e+00,
494,-2.52000e+00,
495,-2.68000e+00,
496,-2.60000e+00,
497,-2.68000e+00,
498,-2.68000e+00,
499,-2.48000e+00,
500,-2.56000e+00,
501,-2.28000e+00,
502,-2.36000e+00,
503,-1.96000e+00,
504,-2.00000e+00,
505,-1.56000e+00,
506,-1.60000e+00,
507,-1.12000e+00,
508,-1.16000e+00,
509,-5.60000e-01,
510,-6.40000e-01,
511,-8.00000e-02,
512,-8.00000e-02,
513,4.80000e-01,
514,4.40000e-01,
515,1.00000e+00,
516,9.20000e-01,
517,1.44000e+00,
518,1.40000e+00,
519,1.88000e+00,
520,1.84000e+00,
521,2.24000e+00,
522,2.16000e+00,
523,2.52000e+00,
524,2.44000e+00,
525,2.64000e+00,
526,2.60000e+00,
527,2.76000e+00,
528,2.76000e+00,
529,2.60000e+00,
530,2.68000e+00,
531,2.44000e+00,
532,2.52000e+00,
533,2.20000e+00,
534,2.24000e+00,
535,1.84000e+00,
536,1.92000e+00,
537,1.44000e+00,
538,1.48000e+00,
539,9.60000e-01,
540,1.00000e+00,
541,4.40000e-01,
542,4.80000e-01,
543,-1.20000e-01,
544,-4.00000e-02,
545,-6.40000e-01,
546,-6.00000e-01,
547,-1.12000e+00,
548,-1.08000e+00,
549,-1.60000e+00,
550,-1.52000e+00,
551,-2.00000e+00,
552,-1.92000e+00,
553,-2.36000e+00,
554,-2.28000e+00,
555,-2.56000e+00,
556,-2.48000e+00,
557,-2.68000e+00,
558,-2.60000e+00,
559,-2.72000e+00,
560,-2.68000e+00,
561,-2.52000e+00,
562,-2.60000e+00,
563,-2.32000e+00,
564,-2.40000e+00,
565,-2.08000e+00,
566,-2.08000e+00,
567,-1.68000e+00,
568,-1.72000e+00,
569,-1.24000e+00,
570,-1.28000e+00,
571,-7.20000e-01,
572,-7.60000e-01,
573,-2.00000e-01,
574,-2.00000e-01,
575,3.20000e-01,
576,3.20000e-01,
577,8.80000e-01,
578,8.00000e-01,
579,1.36000e+00,
580,1.32000e+00,
581,1.84000e+00,
582,1.76000e+00,
583,2.16000e+00,
584,2.08000e+00,
585,2.44000e+00,
586,2.36000e+00,
587,2.64000e+00,
588,2.60000e+00,
589,2.76000e+00,
590,2.76000e+00,
591,2.64000e+00,
592,2.72000e+00,
593,2.48000e+00,
594,2.56000e+00,
595,2.24000e+00,
596,2.32000e+00,
597,1.96000e+00,
598,2.00000e+00,
599,1.56000e+00,
600,1.60000e+00,
601,1.08000e+00,
602,1.16000e+00,
603,5.60000e-01,
604,6.40000e-01,
605,8.00000e-02,
606,8.00000e-02,
607,-4.80000e-01,
608,-4.40000e-01,
609,-1.00000e+00,
610,-9.60000e-01,
611,-1.48000e+00,
612,-1.44000e+00,
613,-1.88000e+00,
614,-1.88000e+00,
615,-2.24000e+00,
616,-2.20000e+00,
617,-2.48000e+00,
618,-2.44000e+00,
619,-2.64000e+00,
620,-2.56000e+00,
621,-2.68000e+00,
622,-2.68000e+00,
623,-2.56000e+00,
624,-2.64000e+00,
625,-2.40000e+00,
626,-2.44000e+00,
627,-2.12000e+00,
628,-2.16000e+00,
629,-1.76000e+00,
630,-1.80000e+00,
631,-1.36000e+00,
632,-1.40000e+00,
633,-8.80000e-01,
634,-8.80000e-01,
635,-3.20000e-01,
636,-4.00000e-01,
637,2.00000e-01,
638,1.60000e-01,
639,7.60000e-01,
640,6.80000e-01,
641,1.24000e+00,
642,1.16000e+00,
643,1.72000e+00,
644,1.64000e+00,
645,2.08000e+00,
646,2.00000e+00,
647,2.40000e+00,
648,2.32000e+00,
649,2.60000e+00,
650,2.56000e+00,
651,2.72000e+00,
652,2.64000e+00,
653,2.76000e+00,
654,2.72000e+00,
655,2.56000e+00,
656,2.60000e+00,
657,2.32000e+00,
658,2.40000e+00,
659,2.04000e+00,
660,2.12000e+00,
661,1.68000e+00,
662,1.72000e+00,
663,1.20000e+00,
664,1.28000e+00,
665,7.20000e-01,
666,8.00000e-01,
667,1.60000e-01,
668,2.40000e-01,
669,-3.60000e-01,
670,-3.20000e-01,
671,-8.40000e-01,
672,-8.00000e-01,
673,-1.36000e+00,
674,-1.32000e+00,
675,-1.80000e+00,
676,-1.72000e+00,
677,-2.12000e+00,
678,-2.12000e+00,
679,-2.44000e+00,
680,-2.36000e+00,
681,-2.60000e+00,
682,-2.56000e+00,
683,-2.68000e+00,
684,-2.68000e+00,
685,-2.56000e+00,
686,-2.64000e+00,
687,-2.44000e+00,
688,-2.52000e+00,
689,-2.20000e+00,
690,-2.28000e+00,
691,-1.88000e+00,
692,-1.92000e+00,
693,-1.44000e+00,
694,-1.52000e+00,
695,-9.60000e-01,
696,-1.00000e+00,
697,-4.40000e-01,
698,-5.20000e-01,
699,8.00000e-02,
700,8.00000e-02,
701,6.40000e-01,
702,5.60000e-01,
703,1.12000e+00,
704,1.04000e+00,
705,1.56000e+00,
706,1.52000e+00,
707,2.00000e+00,
708,1.92000e+00,
709,2.32000e+00,
710,2.24000e+00,
711,2.56000e+00,
712,2.48000e+00,
713,2.72000e+00,
714,2.64000e+00,
715,2.76000e+00,
716,2.72000e+00,
717,2.60000e+00,
718,2.64000e+00,
719,2.36000e+00,
720,2.44000e+00,
721,2.12000e+00,
722,2.20000e+00,
723,1.76000e+00,
724,1.84000e+00,
725,1.36000e+00,
726,1.36000e+00,
727,8.40000e-01,
728,9.20000e-01,
729,3.20000e-01,
730,3.60000e-01,
731,-2.40000e-01,
732,-1.60000e-01,
733,-7.20000e-01,
734,-7.20000e-01,
735,-1.24000e+00,
736,-1.20000e+00,
737,-1.68000e+00,
738,-1.64000e+00,
739,-2.04000e+00,
740,-2.04000e+00,
741,-2.40000e+00,
742,-2.32000e+00,
743,-2.56000e+00,
744,-2.52000e+00,
745,-2.68000e+00,
746,-2.60000e+00,
747,-2.68000e+00,
748,-2.68000e+00,
749,-2.48000e+00,
750,-2.56000e+00,
751,-2.28000e+00,
752,-2.32000e+00,
753,-1.96000e+00,
754,-2.00000e+00,
755,-1.56000e+00,
756,-1.60000e+00,
757,-1.12000e+00,
758,-1.16000e+00,
759,-6.00000e-01,
760,-6.40000e-01,
761,-8.00000e-02,
762,-1.20000e-01,
763,4.80000e-01,
764,4.00000e-01,
765,1.00000e+00,
766,9.60000e-01,
767,1.44000e+00,
768,1.40000e+00,
769,1.88000e+00,
770,1.84000e+00,
771,2.24000e+00,
772,2.16000e+00,
773,2.52000e+00,
774,2.40000e+00,
775,2.64000e+00,
776,2.60000e+00,
777,2.76000e+00,
778,2.76000e+00,
779,2.60000e+00,
780,2.64000e+00,
781,2.48000e+00,
782,2.52000e+00,
783,2.20000e+00,
784,2.24000e+00,
785,1.84000e+00,
786,1.92000e+00,
787,1.44000e+00,
788,1.48000e+00,
789,9.60000e-01,
790,1.04000e+00,
791,4.40000e-01,
792,5.20000e-01,
793,-1.20000e-01,
794,-4.00000e-02,
795,-6.00000e-01,
796,-5.60000e-01,
797,-1.16000e+00,
798,-1.08000e+00,
799,-1.60000e+00,
800,-1.56000e+00,
801,-2.00000e+00,
802,-1.96000e+00,
803,-2.32000e+00,
804,-2.28000e+00,
805,-2.56000e+00,
806,-2.48000e+00,
807,-2.68000e+00,
808,-2.60000e+00,
809,-2.72000e+00,
810,-2.68000e+00,
811,-2.52000e+00,
812,-2.60000e+00,
813,-2.32000e+00,
814,-2.40000e+00,
815,-2.04000e+00,
816,-2.08000e+00,
817,-1.64000e+00,
818,-1.68000e+00,
819,-1.20000e+00,
820,-1.24000e+00,
821,-7.20000e-01,
822,-7.60000e-01,
823,-2.00000e-01,
824,-2.40000e-01,
825,3.20000e-01,
826,3.20000e-01,
827,8.80000e-01,
828,8.00000e-01,
829,1.36000e+00,
830,1.28000e+00,
831,1.80000e+00,
832,1.76000e+00,
833,2.20000e+00,
834,2.12000e+00,
835,2.44000e+00,
836,2.40000e+00,
837,2.68000e+00,
838,2.60000e+00,
839,2.76000e+00,
840,2.64000e+00,
841,2.76000e+00,
842,2.72000e+00,
843,2.48000e+00,
844,2.56000e+00,
845,2.28000e+00,
846,2.36000e+00,
847,1.96000e+00,
848,2.04000e+00,
849,1.56000e+00,
850,1.60000e+00,
851,1.08000e+00,
852,1.16000e+00,
853,5.60000e-01,
854,6.00000e-01,
855,4.00000e-02,
856,8.00000e-02,
857,-4.80000e-01,
858,-4.40000e-01,
859,-1.04000e+00,
860,-9.60000e-01,
861,-1.48000e+00,
862,-1.44000e+00,
863,-1.88000e+00,
864,-1.84000e+00,
865,-2.24000e+00,
866,-2.20000e+00,
867,-2.48000e+00,
868,-2.44000e+00,
869,-2.64000e+00,
870,-2.60000e+00,
871,-2.68000e+00,
872,-2.72000e+00,
873,-2.56000e+00,
874,-2.64000e+00,
875,-2.40000e+00,
876,-2.44000e+00,
877,-2.12000e+00,
878,-2.16000e+00,
879,-1.80000e+00,
880,-1.80000e+00,
881,-1.32000e+00,
882,-1.40000e+00,
883,-8.80000e-01,
884,-8.80000e-01,
885,-3.20000e-01,
886,-3.60000e-01,
887,2.00000e-01,
888,1.60000e-01,
889,7.20000e-01,
890,6.80000e-01,
891,1.24000e+00,
892,1.16000e+00,
893,1.72000e+00,
894,1.64000e+00,
895,2.12000e+00,
896,2.04000e+00,
897,2.40000e+00,
898,2.32000e+00,
899,2.60000e+00,
900,2.52000e+00,
901,2.76000e+00,
902,2.64000e+00,
903,2.76000e+00,
904,2.72000e+00,
905,2.56000e+00,
906,2.60000e+00,
907,2.32000e+00,
908,2.40000e+00,
909,2.04000e+00,
910,2.12000e+00,
911,1.68000e+00,
912,1.76000e+00,
913,1.20000e+00,
914,1.28000e+00,
915,7.20000e-01,
916,8.00000e-01,
917,2.00000e-01,
918,2.40000e-01,
919,-3.60000e-01,
920,-2.80000e-01,
921,-8.40000e-01,
922,-8.40000e-01,
923,-1.36000e+00,
924,-1.32000e+00,
925,-1.76000e+00,
926,-1.76000e+00,
927,-2.12000e+00,
928,-2.12000e+00,
929,-2.44000e+00,
930,-2.36000e+00,
931,-2.60000e+00,
932,-2.56000e+00,
933,-2.68000e+00,
934,-2.60000e+00,
935,-2.68000e+00,
936,-2.64000e+00,
937,-2.44000e+00,
938,-2.52000e+00,
939,-2.20000e+00,
940,-2.24000e+00,
941,-1.84000e+00,
942,-1.92000e+00,
943,-1.44000e+00,
944,-1.52000e+00,
945,-1.00000e+00,
946,-1.00000e+00,
947,-4.80000e-01,
948,-5.20000e-01,
949,8.00000e-02,
950,4.00000e-02,
951,6.40000e-01,
952,5.60000e-01,
953,1.12000e+00,
954,1.04000e+00,
955,1.56000e+00,
956,1.56000e+00,
957,2.00000e+00,
958,1.92000e+00,
959,2.32000e+00,
960,2.28000e+00,
961,2.56000e+00,
962,2.48000e+00,
963,2.72000e+00,
964,2.64000e+00,
965,2.76000e+00,
966,2.76000e+00,
967,2.60000e+00,
968,2.64000e+00,
969,2.36000e+00,
970,2.44000e+00,
971,2.12000e+00,
972,2.20000e+00,
973,1.76000e+00,
974,1.84000e+00,
975,1.32000e+00,
976,1.36000e+00,
977,8.40000e-01,
978,9.20000e-01,
979,3.20000e-01,
980,4.00000e-01,
981,-2.00000e-01,
982,-1.60000e-01,
983,-7.20000e-01,
984,-7.20000e-01,
985,-1.24000e+00,
986,-1.20000e+00,
987,-1.68000e+00,
988,-1.64000e+00,
989,-2.04000e+00,
990,-2.04000e+00,
991,-2.36000e+00,
992,-2.32000e+00,
993,-2.60000e+00,
994,-2.52000e+00,
995,-2.68000e+00,
996,-2.60000e+00,
997,-2.72000e+00,
998,-2.68000e+00,
999,-2.48000e+00,
1000,-2.56000e+00,
1001,-2.28000e+00,
1002,-2.32000e+00,
1003,-1.96000e+00,
1004,-2.00000e+00,
1005,-1.56000e+00,
1006,-1.60000e+00,
1007,-1.12000e+00,
1008,-1.16000e+00,
1009,-6.00000e-01,
1010,-6.40000e-01,
1011,-8.00000e-02,
1012,-1.20000e-01,
1013,4.80000e-01,
1014,4.40000e-01,
1015,1.00000e+00,
1016,9.20000e-01,
1017,1.48000e+00,
1018,1.44000e+00,
1019,1.92000e+00,
1020,1.84000e+00,
1021,2.28000e+00,
1022,2.20000e+00,
1023,2.52000e+00,
1024,2.44000e+00,
1025,2.68000e+00,
1026,2.60000e+00,
1027,2.76000e+00,
1028,2.76000e+00,
1029,2.60000e+00,
1030,2.68000e+00,
1031,2.44000e+00,
1032,2.52000e+00,
1033,2.20000e+00,
1034,2.28000e+00,
1035,1.84000e+00,
1036,1.92000e+00,
1037,1.44000e+00,
1038,1.52000e+00,
1039,9.60000e-01,
1040,1.00000e+00,
1041,4.40000e-01,
1042,4.80000e-01,
1043,-8.00000e-02,
1044,-4.00000e-02,
1045,-6.00000e-01,
1046,-5.20000e-01,
1047,-1.12000e+00,
1048,-1.08000e+00,
1049,-1.60000e+00,
1050,-1.52000e+00,
1051,-1.96000e+00,
1052,-1.92000e+00,
1053,-2.32000e+00,
1054,-2.28000e+00,
1055,-2.56000e+00,
1056,-2.48000e+00,
1057,-2.68000e+00,
1058,-2.60000e+00,
1059,-2.68000e+00,
1060,-2.68000e+00,
1061,-2.52000e+00,
1062,-2.60000e+00,
1063,-2.32000e+00,
1064,-2.40000e+00,
1065,-2.04000e+00,
1066,-2.08000e+00,
1067,-1.64000e+00,
1068,-1.72000e+00,
1069,-1.24000e+00,
1070,-1.28000e+00,
1071,-7.20000e-01,
1072,-7.60000e-01,
1073,-2.00000e-01,
1074,-2.40000e-01,
1075,3.60000e-01,
1076,3.20000e-01,
1077,8.80000e-01,
1078,8.00000e-01,
1079,1.36000e+00,
1080,1.32000e+00,
1081,1.80000e+00,
1082,1.76000e+00,
1083,2.16000e+00,
1084,2.12000e+00,
1085,2.44000e+00,
1086,2.36000e+00,
1087,2.64000e+00,
1088,2.56000e+00,
1089,2.76000e+00,
1090,2.64000e+00,
1091,2.76000e+00,
1092,2.72000e+00,
1093,2.48000e+00,
1094,2.56000e+00,
1095,2.28000e+00,
1096,2.32000e+00,
1097,1.96000e+00,
1098,2.00000e+00,
1099,1.56000e+00,
1100,1.60000e+00,
1101,1.12000e+00,
1102,1.12000e+00,
1103,6.00000e-01,
1104,6.40000e-01,
1105,4.00000e-02,
1106,8.00000e-02,
1107,-4.80000e-01,
1108,-4.40000e-01,
1109,-1.00000e+00,
1110,-9.60000e-01,
1111,-1.44000e+00,
1112,-1.40000e+00,
1113,-1.88000e+00,
1114,-1.80000e+00,
1115,-2.24000e+00,
1116,-2.20000e+00,
1117,-2.48000e+00,
1118,-2.44000e+00,
1119,-2.64000e+00,
1120,-2.56000e+00,
1121,-2.68000e+00,
1122,-2.68000e+00,
1123,-2.56000e+00,
1124,-2.64000e+00,
1125,-2.40000e+00,
1126,-2.44000e+00,
1127,-2.12000e+00,
1128,-2.16000e+00,
1129,-1.76000e+00,
1130,-1.76000e+00,
1131,-1.32000e+00,
1132,-1.36000e+00,
1133,-8.40000e-01,
1134,-8.80000e-01,
1135,-3.20000e-01,
1136,-3.60000e-01,
