DataAnalysis/Johnson_noise/2017_johnson_noise/data_MUIC_nop_anan/NewFile52.csv

X,CH1,Start,Increment,
Sequence,Volt,1.80000e-03,1.00000e-06
0,4.00000e-02,
1,-3.60000e-01,
2,-2.80000e-01,
3,-6.80000e-01,
4,-6.40000e-01,
5,-9.60000e-01,
6,-9.60000e-01,
7,-1.32000e+00,
8,-1.24000e+00,
9,-1.60000e+00,
10,-1.52000e+00,
11,-1.88000e+00,
12,-1.80000e+00,
13,-2.16000e+00,
14,-2.12000e+00,
15,-2.40000e+00,
16,-2.32000e+00,
17,-2.64000e+00,
18,-2.56000e+00,
19,-2.80000e+00,
20,-2.76000e+00,
21,-3.00000e+00,
22,-2.92000e+00,
23,-3.12000e+00,
24,-3.04000e+00,
25,-3.24000e+00,
26,-3.16000e+00,
27,-3.36000e+00,
28,-3.32000e+00,
29,-3.44000e+00,
30,-3.36000e+00,
31,-3.48000e+00,
32,-3.40000e+00,
33,-3.48000e+00,
34,-3.48000e+00,
35,-3.36000e+00,
36,-3.44000e+00,
37,-3.32000e+00,
38,-3.40000e+00,
39,-3.20000e+00,
40,-3.28000e+00,
41,-3.08000e+00,
42,-3.16000e+00,
43,-2.96000e+00,
44,-3.04000e+00,
45,-2.80000e+00,
46,-2.84000e+00,
47,-2.60000e+00,
48,-2.68000e+00,
49,-2.40000e+00,
50,-2.44000e+00,
51,-2.16000e+00,
52,-2.20000e+00,
53,-1.88000e+00,
54,-1.92000e+00,
55,-1.60000e+00,
56,-1.68000e+00,
57,-1.32000e+00,
58,-1.40000e+00,
59,-1.04000e+00,
60,-1.12000e+00,
61,-7.20000e-01,
62,-7.60000e-01,
63,-4.00000e-01,
64,-4.40000e-01,
65,-8.00000e-02,
66,-8.00000e-02,
67,2.80000e-01,
68,2.40000e-01,
69,6.00000e-01,
70,5.60000e-01,
71,9.20000e-01,
72,8.40000e-01,
73,1.20000e+00,
74,1.16000e+00,
75,1.56000e+00,
76,1.48000e+00,
77,1.84000e+00,
78,1.76000e+00,
79,2.08000e+00,
80,2.00000e+00,
81,2.36000e+00,
82,2.28000e+00,
83,2.56000e+00,
84,2.52000e+00,
85,2.80000e+00,
86,2.76000e+00,
87,3.00000e+00,
88,2.92000e+00,
89,3.16000e+00,
90,3.08000e+00,
91,3.28000e+00,
92,3.20000e+00,
93,3.40000e+00,
94,3.32000e+00,
95,3.48000e+00,
96,3.40000e+00,
97,3.52000e+00,
98,3.44000e+00,
99,3.56000e+00,
100,3.56000e+00,
101,3.44000e+00,
102,3.52000e+00,
103,3.36000e+00,
104,3.48000e+00,
105,3.32000e+00,
106,3.40000e+00,
107,3.20000e+00,
108,3.28000e+00,
109,3.08000e+00,
110,3.16000e+00,
111,2.92000e+00,
112,3.00000e+00,
113,2.72000e+00,
114,2.80000e+00,
115,2.52000e+00,
116,2.56000e+00,
117,2.28000e+00,
118,2.36000e+00,
119,2.00000e+00,
120,2.08000e+00,
121,1.76000e+00,
122,1.84000e+00,
123,1.48000e+00,
124,1.56000e+00,
125,1.16000e+00,
126,1.20000e+00,
127,8.40000e-01,
128,9.20000e-01,
129,5.20000e-01,
130,6.00000e-01,
131,2.00000e-01,
132,2.40000e-01,
133,-1.60000e-01,
134,-8.00000e-02,
135,-4.80000e-01,
136,-4.00000e-01,
137,-7.60000e-01,
138,-7.20000e-01,
139,-1.12000e+00,
140,-1.04000e+00,
141,-1.40000e+00,
142,-1.32000e+00,
143,-1.68000e+00,
144,-1.60000e+00,
145,-1.96000e+00,
146,-1.88000e+00,
147,-2.24000e+00,
148,-2.16000e+00,
149,-2.48000e+00,
150,-2.40000e+00,
151,-2.68000e+00,
152,-2.60000e+00,
153,-2.88000e+00,
154,-2.80000e+00,
155,-3.04000e+00,
156,-2.96000e+00,
157,-3.16000e+00,
158,-3.12000e+00,
159,-3.28000e+00,
160,-3.24000e+00,
161,-3.40000e+00,
162,-3.32000e+00,
163,-3.44000e+00,
164,-3.36000e+00,
165,-3.48000e+00,
166,-3.40000e+00,
167,-3.48000e+00,
168,-3.48000e+00,
169,-3.36000e+00,
170,-3.44000e+00,
171,-3.28000e+00,
172,-3.32000e+00,
173,-3.20000e+00,
174,-3.24000e+00,
175,-3.04000e+00,
176,-3.12000e+00,
177,-2.88000e+00,
178,-2.96000e+00,
179,-2.72000e+00,
180,-2.80000e+00,
181,-2.52000e+00,
182,-2.60000e+00,
183,-2.32000e+00,
184,-2.40000e+00,
185,-2.12000e+00,
186,-2.12000e+00,
187,-1.84000e+00,
188,-1.88000e+00,
189,-1.52000e+00,
190,-1.60000e+00,
191,-1.24000e+00,
192,-1.32000e+00,
193,-9.20000e-01,
194,-1.00000e+00,
195,-5.60000e-01,
196,-6.40000e-01,
197,-2.80000e-01,
198,-3.20000e-01,
199,4.00000e-02,
200,0.00000e+00,
201,3.60000e-01,
202,3.60000e-01,
203,7.20000e-01,
204,6.40000e-01,
205,1.00000e+00,
206,9.60000e-01,
207,1.32000e+00,
208,1.28000e+00,
209,1.68000e+00,
210,1.60000e+00,
211,1.92000e+00,
212,1.84000e+00,
213,2.16000e+00,
214,2.12000e+00,
215,2.44000e+00,
216,2.36000e+00,
217,2.68000e+00,
218,2.60000e+00,
219,2.88000e+00,
220,2.80000e+00,
221,3.04000e+00,
222,2.96000e+00,
223,3.20000e+00,
224,3.12000e+00,
225,3.32000e+00,
226,3.24000e+00,
227,3.44000e+00,
228,3.32000e+00,
229,3.48000e+00,
230,3.40000e+00,
231,3.52000e+00,
232,3.52000e+00,
233,3.44000e+00,
234,3.52000e+00,
235,3.40000e+00,
236,3.48000e+00,
237,3.32000e+00,
238,3.44000e+00,
239,3.24000e+00,
240,3.36000e+00,
241,3.16000e+00,
242,3.24000e+00,
243,3.00000e+00,
244,3.08000e+00,
245,2.84000e+00,
246,2.92000e+00,
247,2.64000e+00,
248,2.72000e+00,
249,2.44000e+00,
250,2.48000e+00,
251,2.16000e+00,
252,2.24000e+00,
253,1.92000e+00,
254,2.00000e+00,
255,1.68000e+00,
256,1.72000e+00,
257,1.40000e+00,
258,1.44000e+00,
259,1.04000e+00,
260,1.12000e+00,
261,7.20000e-01,
262,8.00000e-01,
263,4.00000e-01,
264,4.80000e-01,
265,4.00000e-02,
266,1.20000e-01,
267,-2.80000e-01,
268,-2.00000e-01,
269,-5.60000e-01,
270,-5.20000e-01,
271,-8.80000e-01,
272,-8.00000e-01,
273,-1.20000e+00,
274,-1.16000e+00,
275,-1.48000e+00,
276,-1.44000e+00,
277,-1.76000e+00,
278,-1.72000e+00,
279,-2.04000e+00,
280,-2.00000e+00,
281,-2.32000e+00,
282,-2.24000e+00,
283,-2.52000e+00,
284,-2.48000e+00,
285,-2.76000e+00,
286,-2.68000e+00,
287,-2.92000e+00,
288,-2.84000e+00,
289,-3.08000e+00,
290,-3.04000e+00,
291,-3.24000e+00,
292,-3.16000e+00,
293,-3.32000e+00,
294,-3.28000e+00,
295,-3.44000e+00,
296,-3.36000e+00,
297,-3.48000e+00,
298,-3.40000e+00,
299,-3.52000e+00,
300,-3.52000e+00,
301,-3.40000e+00,
302,-3.48000e+00,
303,-3.36000e+00,
304,-3.44000e+00,
305,-3.28000e+00,
306,-3.32000e+00,
307,-3.16000e+00,
308,-3.20000e+00,
309,-3.00000e+00,
310,-3.08000e+00,
311,-2.84000e+00,
312,-2.92000e+00,
313,-2.68000e+00,
314,-2.76000e+00,
315,-2.48000e+00,
316,-2.52000e+00,
317,-2.24000e+00,
318,-2.28000e+00,
319,-1.96000e+00,
320,-2.04000e+00,
321,-1.68000e+00,
322,-1.76000e+00,
323,-1.40000e+00,
324,-1.48000e+00,
325,-1.12000e+00,
326,-1.20000e+00,
327,-8.00000e-01,
328,-8.40000e-01,
329,-4.80000e-01,
330,-5.20000e-01,
331,-1.60000e-01,
332,-2.40000e-01,
333,1.60000e-01,
334,1.20000e-01,
335,5.20000e-01,
336,4.40000e-01,
337,8.40000e-01,
338,7.60000e-01,
339,1.12000e+00,
340,1.08000e+00,
341,1.44000e+00,
342,1.36000e+00,
343,1.76000e+00,
344,1.68000e+00,
345,2.00000e+00,
346,1.92000e+00,
347,2.28000e+00,
348,2.20000e+00,
349,2.48000e+00,
350,2.44000e+00,
351,2.72000e+00,
352,2.68000e+00,
353,2.92000e+00,
354,2.84000e+00,
355,3.12000e+00,
356,3.00000e+00,
357,3.24000e+00,
358,3.16000e+00,
359,3.36000e+00,
360,3.24000e+00,
361,3.44000e+00,
362,3.36000e+00,
363,3.48000e+00,
364,3.40000e+00,
365,3.52000e+00,
366,3.44000e+00,
367,3.52000e+00,
368,3.52000e+00,
369,3.40000e+00,
370,3.48000e+00,
371,3.32000e+00,
372,3.40000e+00,
373,3.24000e+00,
374,3.32000e+00,
375,3.12000e+00,
376,3.20000e+00,
377,2.96000e+00,
378,3.04000e+00,
379,2.80000e+00,
380,2.88000e+00,
381,2.60000e+00,
382,2.64000e+00,
383,2.32000e+00,
384,2.40000e+00,
385,2.08000e+00,
386,2.16000e+00,
387,1.84000e+00,
388,1.92000e+00,
389,1.56000e+00,
390,1.64000e+00,
391,1.28000e+00,
392,1.32000e+00,
393,9.60000e-01,
394,1.04000e+00,
395,6.40000e-01,
396,7.20000e-01,
397,3.60000e-01,
398,3.60000e-01,
399,4.00000e-02,
400,4.00000e-02,
401,-3.20000e-01,
402,-2.80000e-01,
403,-6.40000e-01,
404,-5.60000e-01,
405,-9.60000e-01,
406,-9.20000e-01,
407,-1.28000e+00,
408,-1.24000e+00,
409,-1.60000e+00,
410,-1.52000e+00,
411,-1.88000e+00,
412,-1.80000e+00,
413,-2.12000e+00,
414,-2.12000e+00,
415,-2.40000e+00,
416,-2.36000e+00,
417,-2.64000e+00,
418,-2.56000e+00,
419,-2.84000e+00,
420,-2.76000e+00,
421,-3.00000e+00,
422,-2.92000e+00,
423,-3.16000e+00,
424,-3.08000e+00,
425,-3.28000e+00,
426,-3.20000e+00,
427,-3.40000e+00,
428,-3.32000e+00,
429,-3.44000e+00,
430,-3.36000e+00,
431,-3.48000e+00,
432,-3.40000e+00,
433,-3.52000e+00,
434,-3.52000e+00,
435,-3.40000e+00,
436,-3.48000e+00,
437,-3.36000e+00,
438,-3.44000e+00,
439,-3.28000e+00,
440,-3.32000e+00,
441,-3.16000e+00,
442,-3.20000e+00,
443,-3.00000e+00,
444,-3.04000e+00,
445,-2.80000e+00,
446,-2.88000e+00,
447,-2.60000e+00,
448,-2.68000e+00,
449,-2.40000e+00,
450,-2.48000e+00,
451,-2.16000e+00,
452,-2.20000e+00,
453,-1.92000e+00,
454,-1.96000e+00,
455,-1.60000e+00,
456,-1.64000e+00,
457,-1.32000e+00,
458,-1.36000e+00,
459,-1.00000e+00,
460,-1.08000e+00,
461,-6.80000e-01,
462,-7.20000e-01,
463,-3.60000e-01,
464,-4.40000e-01,
465,-4.00000e-02,
466,-1.20000e-01,
467,2.80000e-01,
468,2.40000e-01,
469,6.40000e-01,
470,5.60000e-01,
471,9.20000e-01,
472,8.80000e-01,
473,1.24000e+00,
474,1.20000e+00,
475,1.52000e+00,
476,1.48000e+00,
477,1.84000e+00,
478,1.76000e+00,
479,2.12000e+00,
480,2.04000e+00,
481,2.36000e+00,
482,2.28000e+00,
483,2.60000e+00,
484,2.56000e+00,
485,2.80000e+00,
486,2.76000e+00,
487,3.00000e+00,
488,2.92000e+00,
489,3.16000e+00,
490,3.08000e+00,
491,3.28000e+00,
492,3.20000e+00,
493,3.40000e+00,
494,3.28000e+00,
495,3.44000e+00,
496,3.36000e+00,
497,3.48000e+00,
498,3.40000e+00,
499,3.52000e+00,
500,3.52000e+00,
501,3.40000e+00,
502,3.48000e+00,
503,3.36000e+00,
504,3.44000e+00,
505,3.28000e+00,
506,3.36000e+00,
507,3.20000e+00,
508,3.28000e+00,
509,3.04000e+00,
510,3.12000e+00,
511,2.88000e+00,
512,2.96000e+00,
513,2.72000e+00,
514,2.80000e+00,
515,2.48000e+00,
516,2.56000e+00,
517,2.24000e+00,
518,2.32000e+00,
519,2.00000e+00,
520,2.08000e+00,
521,1.72000e+00,
522,1.80000e+00,
523,1.48000e+00,
524,1.52000e+00,
525,1.16000e+00,
526,1.20000e+00,
527,8.40000e-01,
528,9.20000e-01,
529,5.60000e-01,
530,6.00000e-01,
531,2.40000e-01,
532,2.80000e-01,
533,-8.00000e-02,
534,-4.00000e-02,
535,-4.00000e-01,
536,-3.60000e-01,
537,-7.20000e-01,
538,-6.80000e-01,
539,-1.04000e+00,
540,-1.00000e+00,
541,-1.36000e+00,
542,-1.32000e+00,
543,-1.64000e+00,
544,-1.60000e+00,
545,-1.92000e+00,
546,-1.92000e+00,
547,-2.20000e+00,
548,-2.16000e+00,
549,-2.48000e+00,
550,-2.40000e+00,
551,-2.68000e+00,
552,-2.60000e+00,
553,-2.88000e+00,
554,-2.80000e+00,
555,-3.04000e+00,
556,-3.00000e+00,
557,-3.20000e+00,
558,-3.12000e+00,
559,-3.28000e+00,
560,-3.24000e+00,
561,-3.40000e+00,
562,-3.32000e+00,
563,-3.48000e+00,
564,-3.40000e+00,
565,-3.48000e+00,
566,-3.40000e+00,
567,-3.52000e+00,
568,-3.48000e+00,
569,-3.40000e+00,
570,-3.48000e+00,
571,-3.36000e+00,
572,-3.40000e+00,
573,-3.24000e+00,
574,-3.28000e+00,
575,-3.12000e+00,
576,-3.16000e+00,
577,-2.96000e+00,
578,-3.04000e+00,
579,-2.76000e+00,
580,-2.84000e+00,
581,-2.56000e+00,
582,-2.64000e+00,
583,-2.36000e+00,
584,-2.40000e+00,
585,-2.12000e+00,
586,-2.16000e+00,
587,-1.84000e+00,
588,-1.84000e+00,
589,-1.48000e+00,
590,-1.56000e+00,
591,-1.20000e+00,
592,-1.28000e+00,
593,-9.20000e-01,
594,-9.20000e-01,
595,-5.60000e-01,
596,-6.00000e-01,
597,-2.40000e-01,
598,-2.80000e-01,
599,8.00000e-02,
600,4.00000e-02,
601,4.00000e-01,
602,3.60000e-01,
603,7.20000e-01,
604,6.80000e-01,
605,1.04000e+00,
606,9.60000e-01,
607,1.32000e+00,
608,1.24000e+00,
609,1.64000e+00,
610,1.60000e+00,
611,1.96000e+00,
612,1.88000e+00,
613,2.20000e+00,
614,2.12000e+00,
615,2.44000e+00,
616,2.36000e+00,
617,2.64000e+00,
618,2.60000e+00,
619,2.88000e+00,
620,2.80000e+00,
621,3.04000e+00,
622,2.96000e+00,
623,3.20000e+00,
624,3.12000e+00,
625,3.32000e+00,
626,3.24000e+00,
627,3.40000e+00,
628,3.32000e+00,
629,3.48000e+00,
630,3.48000e+00,
631,3.36000e+00,
632,3.40000e+00,
633,3.48000e+00,
634,3.48000e+00,
635,3.36000e+00,
636,3.48000e+00,
637,3.32000e+00,
638,3.40000e+00,
639,3.24000e+00,
640,3.32000e+00,
641,3.16000e+00,
642,3.24000e+00,
643,3.00000e+00,
644,3.12000e+00,
645,2.84000e+00,
646,2.92000e+00,
647,2.68000e+00,
648,2.72000e+00,
649,2.40000e+00,
650,2.48000e+00,
651,2.20000e+00,
652,2.24000e+00,
653,1.92000e+00,
654,2.00000e+00,
655,1.64000e+00,
656,1.72000e+00,
657,1.36000e+00,
658,1.40000e+00,
659,1.04000e+00,
660,1.12000e+00,
661,7.60000e-01,
662,8.00000e-01,
663,4.40000e-01,
664,4.80000e-01,
665,1.20000e-01,
666,1.60000e-01,
667,-2.40000e-01,
668,-1.60000e-01,
669,-5.20000e-01,
670,-4.80000e-01,
671,-8.40000e-01,
672,-8.00000e-01,
673,-1.16000e+00,
674,-1.12000e+00,
675,-1.44000e+00,
676,-1.40000e+00,
677,-1.76000e+00,
678,-1.68000e+00,
679,-2.04000e+00,
680,-1.96000e+00,
681,-2.32000e+00,
682,-2.24000e+00,
683,-2.56000e+00,
684,-2.48000e+00,
685,-2.76000e+00,
686,-2.68000e+00,
687,-2.96000e+00,
688,-2.88000e+00,
689,-3.12000e+00,
690,-3.04000e+00,
691,-3.24000e+00,
692,-3.20000e+00,
693,-3.36000e+00,
694,-3.28000e+00,
695,-3.44000e+00,
696,-3.36000e+00,
697,-3.48000e+00,
698,-3.40000e+00,
699,-3.52000e+00,
700,-3.52000e+00,
701,-3.40000e+00,
702,-3.48000e+00,
703,-3.36000e+00,
704,-3.44000e+00,
705,-3.28000e+00,
706,-3.32000e+00,
707,-3.12000e+00,
708,-3.20000e+00,
709,-3.00000e+00,
710,-3.08000e+00,
711,-2.84000e+00,
712,-2.92000e+00,
713,-2.68000e+00,
714,-2.76000e+00,
715,-2.48000e+00,
716,-2.56000e+00,
717,-2.24000e+00,
718,-2.32000e+00,
719,-2.00000e+00,
720,-2.00000e+00,
721,-1.68000e+00,
722,-1.76000e+00,
723,-1.40000e+00,
724,-1.48000e+00,
725,-1.12000e+00,
726,-1.12000e+00,
727,-7.60000e-01,
728,-8.40000e-01,
729,-4.80000e-01,
730,-5.20000e-01,
731,-1.60000e-01,
732,-2.40000e-01,
733,1.60000e-01,
734,8.00000e-02,
735,4.80000e-01,
736,4.40000e-01,
737,8.00000e-01,
738,7.60000e-01,
739,1.12000e+00,
740,1.04000e+00,
741,1.40000e+00,
742,1.36000e+00,
743,1.72000e+00,
744,1.64000e+00,
745,2.00000e+00,
746,1.92000e+00,
747,2.24000e+00,
748,2.16000e+00,
749,2.48000e+00,
750,2.40000e+00,
751,2.76000e+00,
752,2.68000e+00,
753,2.96000e+00,
754,2.84000e+00,
755,3.12000e+00,
756,3.00000e+00,
757,3.24000e+00,
758,3.16000e+00,
759,3.36000e+00,
760,3.28000e+00,
761,3.44000e+00,
762,3.36000e+00,
763,3.48000e+00,
764,3.40000e+00,
765,3.52000e+00,
766,3.52000e+00,
767,3.40000e+00,
768,3.52000e+00,
769,3.36000e+00,
770,3.48000e+00,
771,3.32000e+00,
772,3.40000e+00,
773,3.24000e+00,
774,3.32000e+00,
775,3.12000e+00,
776,3.20000e+00,
777,2.96000e+00,
778,3.04000e+00,
779,2.80000e+00,
780,2.88000e+00,
781,2.60000e+00,
782,2.64000e+00,
783,2.36000e+00,
784,2.44000e+00,
785,2.12000e+00,
786,2.20000e+00,
787,1.84000e+00,
788,1.92000e+00,
789,1.60000e+00,
790,1.60000e+00,
791,1.24000e+00,
792,1.32000e+00,
793,9.20000e-01,
794,1.00000e+00,
795,6.40000e-01,
796,7.20000e-01,
797,3.20000e-01,
798,3.60000e-01,
799,-4.00000e-02,
800,4.00000e-02,
801,-3.60000e-01,
802,-3.20000e-01,
803,-6.80000e-01,
804,-6.00000e-01,
805,-9.60000e-01,
806,-9.60000e-01,
807,-1.32000e+00,
808,-1.24000e+00,
809,-1.60000e+00,
810,-1.52000e+00,
811,-1.88000e+00,
812,-1.80000e+00,
813,-2.12000e+00,
814,-2.08000e+00,
815,-2.40000e+00,
816,-2.32000e+00,
817,-2.60000e+00,
818,-2.56000e+00,
819,-2.80000e+00,
820,-2.76000e+00,
821,-3.00000e+00,
822,-2.96000e+00,
823,-3.16000e+00,
824,-3.12000e+00,
825,-3.28000e+00,
826,-3.24000e+00,
827,-3.40000e+00,
828,-3.32000e+00,
829,-3.48000e+00,
830,-3.40000e+00,
831,-3.52000e+00,
832,-3.40000e+00,
833,-3.52000e+00,
834,-3.40000e+00,
835,-3.52000e+00,
836,-3.48000e+00,
837,-3.32000e+00,
838,-3.40000e+00,
839,-3.20000e+00,
840,-3.28000e+00,
841,-3.12000e+00,
842,-3.16000e+00,
843,-2.96000e+00,
844,-3.04000e+00,
845,-2.80000e+00,
846,-2.88000e+00,
847,-2.60000e+00,
848,-2.68000e+00,
849,-2.40000e+00,
850,-2.44000e+00,
851,-2.16000e+00,
852,-2.20000e+00,
853,-1.88000e+00,
854,-1.92000e+00,
855,-1.60000e+00,
856,-1.68000e+00,
857,-1.28000e+00,
858,-1.36000e+00,
859,-1.00000e+00,
860,-1.04000e+00,
861,-6.80000e-01,
862,-7.20000e-01,
863,-3.60000e-01,
864,-4.40000e-01,
865,-4.00000e-02,
866,-1.20000e-01,
867,2.80000e-01,
868,2.40000e-01,
869,6.00000e-01,
870,5.60000e-01,
871,9.20000e-01,
872,8.80000e-01,
873,1.24000e+00,
874,1.16000e+00,
875,1.52000e+00,
876,1.48000e+00,
877,1.84000e+00,
878,1.76000e+00,
879,2.08000e+00,
880,2.04000e+00,
881,2.36000e+00,
882,2.28000e+00,
883,2.56000e+00,
884,2.48000e+00,
885,2.80000e+00,
886,2.72000e+00,
887,3.00000e+00,
888,2.92000e+00,
889,3.16000e+00,
890,3.08000e+00,
891,3.28000e+00,
892,3.20000e+00,
893,3.40000e+00,
894,3.28000e+00,
895,3.44000e+00,
896,3.36000e+00,
897,3.48000e+00,
898,3.40000e+00,
899,3.52000e+00,
900,3.52000e+00,
901,3.40000e+00,
902,3.52000e+00,
903,3.36000e+00,
904,3.48000e+00,
905,3.32000e+00,
906,3.40000e+00,
907,3.20000e+00,
908,3.28000e+00,
909,3.08000e+00,
910,3.16000e+00,
911,2.92000e+00,
912,3.00000e+00,
913,2.72000e+00,
914,2.76000e+00,
915,2.52000e+00,
916,2.56000e+00,
917,2.28000e+00,
918,2.32000e+00,
919,2.00000e+00,
920,2.12000e+00,
921,1.76000e+00,
922,1.84000e+00,
923,1.48000e+00,
924,1.56000e+00,
925,1.16000e+00,
926,1.24000e+00,
927,8.80000e-01,
928,9.20000e-01,
929,5.60000e-01,
930,6.00000e-01,
931,2.40000e-01,
932,2.80000e-01,
933,-1.20000e-01,
934,-4.00000e-02,
935,-4.40000e-01,
936,-3.60000e-01,
937,-7.60000e-01,
938,-7.20000e-01,
939,-1.08000e+00,
940,-1.04000e+00,
941,-1.40000e+00,
942,-1.36000e+00,
943,-1.68000e+00,
944,-1.64000e+00,
945,-1.96000e+00,
946,-1.88000e+00,
947,-2.24000e+00,
948,-2.20000e+00,
949,-2.48000e+00,
950,-2.40000e+00,
951,-2.68000e+00,
952,-2.64000e+00,
953,-2.88000e+00,
954,-2.84000e+00,
955,-3.08000e+00,
956,-3.00000e+00,
957,-3.20000e+00,
958,-3.16000e+00,
959,-3.32000e+00,
960,-3.28000e+00,
961,-3.44000e+00,
962,-3.36000e+00,
963,-3.48000e+00,
964,-3.40000e+00,
965,-3.52000e+00,
966,-3.40000e+00,
967,-3.48000e+00,
968,-3.48000e+00,
969,-3.36000e+00,
970,-3.44000e+00,
971,-3.32000e+00,
972,-3.36000e+00,
973,-3.16000e+00,
974,-3.24000e+00,
975,-3.08000e+00,
976,-3.12000e+00,
977,-2.88000e+00,
978,-2.96000e+00,
979,-2.72000e+00,
980,-2.80000e+00,
981,-2.52000e+00,
982,-2.60000e+00,
983,-2.32000e+00,
984,-2.32000e+00,
985,-2.08000e+00,
986,-2.12000e+00,
987,-1.76000e+00,
988,-1.84000e+00,
989,-1.52000e+00,
990,-1.60000e+00,
991,-1.24000e+00,
992,-1.28000e+00,
993,-9.20000e-01,
994,-9.60000e-01,
995,-6.00000e-01,
996,-6.40000e-01,
997,-2.80000e-01,
998,-3.20000e-01,
999,4.00000e-02,
1000,0.00000e+00,
1001,3.60000e-01,
1002,3.20000e-01,
1003,7.20000e-01,
1004,6.40000e-01,
1005,1.00000e+00,
1006,9.60000e-01,
1007,1.32000e+00,
1008,1.24000e+00,
1009,1.64000e+00,
1010,1.56000e+00,
1011,1.92000e+00,
1012,1.84000e+00,
1013,2.20000e+00,
1014,2.12000e+00,
1015,2.44000e+00,
1016,2.40000e+00,
1017,2.64000e+00,
1018,2.60000e+00,
1019,2.88000e+00,
1020,2.80000e+00,
1021,3.04000e+00,
1022,2.96000e+00,
1023,3.20000e+00,
1024,3.12000e+00,
1025,3.32000e+00,
1026,3.24000e+00,
1027,3.40000e+00,
1028,3.32000e+00,
1029,3.48000e+00,
1030,3.40000e+00,
1031,3.52000e+00,
1032,3.52000e+00,
1033,3.44000e+00,
1034,3.52000e+00,
1035,3.40000e+00,
1036,3.52000e+00,
1037,3.36000e+00,
1038,3.44000e+00,
1039,3.28000e+00,
1040,3.36000e+00,
1041,3.16000e+00,
1042,3.24000e+00,
1043,3.00000e+00,
1044,3.08000e+00,
1045,2.84000e+00,
1046,2.88000e+00,
1047,2.56000e+00,
1048,2.64000e+00,
1049,2.36000e+00,
1050,2.44000e+00,
1051,2.12000e+00,
1052,2.20000e+00,
1053,1.84000e+00,
1054,1.92000e+00,
1055,1.60000e+00,
1056,1.64000e+00,
1057,1.28000e+00,
1058,1.36000e+00,
1059,1.00000e+00,
1060,1.08000e+00,
1061,7.20000e-01,
1062,8.00000e-01,
1063,4.00000e-01,
1064,4.40000e-01,
1065,1.20000e-01,
1066,1.20000e-01,
1067,-2.40000e-01,
1068,-1.60000e-01,
1069,-5.60000e-01,
1070,-4.80000e-01,
1071,-8.40000e-01,
1072,-8.00000e-01,
1073,-1.16000e+00,
1074,-1.12000e+00,
1075,-1.48000e+00,
1076,-1.40000e+00,
1077,-1.76000e+00,
1078,-1.68000e+00,
1079,-2.00000e+00,
1080,-1.96000e+00,
1081,-2.28000e+00,
1082,-2.24000e+00,
1083,-2.52000e+00,
1084,-2.48000e+00,
1085,-2.76000e+00,
1086,-2.68000e+00,
1087,-2.92000e+00,
1088,-2.88000e+00,
1089,-3.08000e+00,
1090,-3.04000e+00,
1091,-3.20000e+00,
1092,-3.12000e+00,
1093,-3.32000e+00,
1094,-3.28000e+00,
1095,-3.44000e+00,
1096,-3.36000e+00,
1097,-3.48000e+00,
1098,-3.40000e+00,
1099,-3.52000e+00,
1100,-3.52000e+00,
1101,-3.44000e+00,
1102,-3.52000e+00,
1103,-3.40000e+00,
1104,-3.48000e+00,
1105,-3.32000e+00,
1106,-3.40000e+00,
1107,-3.16000e+00,
1108,-3.24000e+00,
1109,-3.04000e+00,
1110,-3.12000e+00,
1111,-2.88000e+00,
1112,-2.96000e+00,
1113,-2.68000e+00,
1114,-2.76000e+00,
1115,-2.48000e+00,
1116,-2.52000e+00,
1117,-2.24000e+00,
1118,-2.28000e+00,
1119,-1.96000e+00,
1120,-2.00000e+00,
1121,-1.72000e+00,
1122,-1.72000e+00,
1123,-1.40000e+00,
1124,-1.44000e+00,
1125,-1.08000e+00,
1126,-1.12000e+00,
1127,-7.60000e-01,
1128,-8.40000e-01,
1129,-4.40000e-01,
1130,-5.20000e-01,
1131,-1.20000e-01,
1132,-2.00000e-01,
1133,2.00000e-01,
1134,1.20000e-01,
1135,5.20000e-01,
