DataAnalysis/Johnson_noise/2017_johnson_noise/data_MUIC_nop_anan/NewFile17.csv

X,CH1,Start,Increment,
Sequence,Volt,-3.60000e-03,1.00000e-05
0,2.20000e+00,
1,2.00000e+00,
2,2.08000e+00,
3,1.88000e+00,
4,1.92000e+00,
5,1.76000e+00,
6,1.76000e+00,
7,1.60000e+00,
8,1.64000e+00,
9,1.44000e+00,
10,1.48000e+00,
11,1.28000e+00,
12,1.32000e+00,
13,1.12000e+00,
14,1.20000e+00,
15,9.60000e-01,
16,1.04000e+00,
17,8.00000e-01,
18,8.40000e-01,
19,6.40000e-01,
20,7.20000e-01,
21,4.40000e-01,
22,4.80000e-01,
23,2.80000e-01,
24,3.20000e-01,
25,8.00000e-02,
26,1.60000e-01,
27,-8.00000e-02,
28,0.00000e+00,
29,-2.40000e-01,
30,-2.00000e-01,
31,-4.00000e-01,
32,-3.60000e-01,
33,-5.60000e-01,
34,-5.20000e-01,
35,-8.00000e-01,
36,-7.20000e-01,
37,-9.60000e-01,
38,-8.80000e-01,
39,-1.12000e+00,
40,-1.04000e+00,
41,-1.28000e+00,
42,-1.20000e+00,
43,-1.40000e+00,
44,-1.36000e+00,
45,-1.56000e+00,
46,-1.52000e+00,
47,-1.72000e+00,
48,-1.64000e+00,
49,-1.84000e+00,
50,-1.76000e+00,
51,-2.00000e+00,
52,-1.96000e+00,
53,-2.16000e+00,
54,-2.08000e+00,
55,-2.24000e+00,
56,-2.20000e+00,
57,-2.40000e+00,
58,-2.32000e+00,
59,-2.52000e+00,
60,-2.44000e+00,
61,-2.60000e+00,
62,-2.48000e+00,
63,-2.68000e+00,
64,-2.60000e+00,
65,-2.76000e+00,
66,-2.68000e+00,
67,-2.84000e+00,
68,-2.76000e+00,
69,-2.88000e+00,
70,-2.80000e+00,
71,-2.96000e+00,
72,-2.88000e+00,
73,-3.00000e+00,
74,-2.92000e+00,
75,-3.04000e+00,
76,-2.96000e+00,
77,-3.08000e+00,
78,-3.00000e+00,
79,-3.12000e+00,
80,-3.08000e+00,
81,-3.00000e+00,
82,-3.04000e+00,
83,-3.00000e+00,
84,-3.04000e+00,
85,-3.08000e+00,
86,-3.08000e+00,
87,-2.96000e+00,
88,-2.96000e+00,
89,-3.04000e+00,
90,-3.04000e+00,
91,-2.92000e+00,
92,-3.00000e+00,
93,-2.84000e+00,
94,-2.92000e+00,
95,-2.80000e+00,
96,-2.88000e+00,
97,-2.72000e+00,
98,-2.80000e+00,
99,-2.68000e+00,
100,-2.72000e+00,
101,-2.56000e+00,
102,-2.64000e+00,
103,-2.48000e+00,
104,-2.56000e+00,
105,-2.36000e+00,
106,-2.44000e+00,
107,-2.24000e+00,
108,-2.32000e+00,
109,-2.16000e+00,
110,-2.24000e+00,
111,-2.04000e+00,
112,-2.12000e+00,
113,-1.92000e+00,
114,-1.96000e+00,
115,-1.76000e+00,
116,-1.80000e+00,
117,-1.60000e+00,
118,-1.64000e+00,
119,-1.44000e+00,
120,-1.52000e+00,
121,-1.28000e+00,
122,-1.36000e+00,
123,-1.16000e+00,
124,-1.20000e+00,
125,-1.00000e+00,
126,-1.04000e+00,
127,-8.40000e-01,
128,-8.80000e-01,
129,-6.40000e-01,
130,-6.80000e-01,
131,-4.40000e-01,
132,-5.20000e-01,
133,-2.80000e-01,
134,-3.60000e-01,
135,-1.20000e-01,
136,-1.60000e-01,
137,4.00000e-02,
138,0.00000e+00,
139,2.00000e-01,
140,1.60000e-01,
141,4.00000e-01,
142,3.60000e-01,
143,6.00000e-01,
144,5.20000e-01,
145,7.60000e-01,
146,7.20000e-01,
147,9.20000e-01,
148,8.80000e-01,
149,1.08000e+00,
150,1.00000e+00,
151,1.24000e+00,
152,1.16000e+00,
153,1.40000e+00,
154,1.32000e+00,
155,1.56000e+00,
156,1.48000e+00,
157,1.68000e+00,
158,1.68000e+00,
159,1.88000e+00,
160,1.80000e+00,
161,2.00000e+00,
162,1.96000e+00,
163,2.12000e+00,
164,2.08000e+00,
165,2.24000e+00,
166,2.20000e+00,
167,2.36000e+00,
168,2.28000e+00,
169,2.48000e+00,
170,2.40000e+00,
171,2.56000e+00,
172,2.52000e+00,
173,2.68000e+00,
174,2.60000e+00,
175,2.76000e+00,
176,2.68000e+00,
177,2.84000e+00,
178,2.76000e+00,
179,2.92000e+00,
180,2.88000e+00,
181,2.96000e+00,
182,2.92000e+00,
183,3.04000e+00,
184,2.96000e+00,
185,3.08000e+00,
186,3.00000e+00,
187,3.12000e+00,
188,3.04000e+00,
189,3.12000e+00,
190,3.04000e+00,
191,3.16000e+00,
192,3.16000e+00,
193,3.04000e+00,
194,3.16000e+00,
195,3.08000e+00,
196,3.16000e+00,
197,3.04000e+00,
198,3.04000e+00,
199,3.12000e+00,
200,3.12000e+00,
201,3.00000e+00,
202,3.08000e+00,
203,2.96000e+00,
204,3.04000e+00,
205,2.88000e+00,
206,2.96000e+00,
207,2.84000e+00,
208,2.92000e+00,
209,2.76000e+00,
210,2.80000e+00,
211,2.68000e+00,
212,2.72000e+00,
213,2.56000e+00,
214,2.64000e+00,
215,2.48000e+00,
216,2.56000e+00,
217,2.36000e+00,
218,2.44000e+00,
219,2.24000e+00,
220,2.32000e+00,
221,2.16000e+00,
222,2.20000e+00,
223,2.04000e+00,
224,2.08000e+00,
225,1.92000e+00,
226,1.96000e+00,
227,1.76000e+00,
228,1.84000e+00,
229,1.60000e+00,
230,1.64000e+00,
231,1.44000e+00,
232,1.52000e+00,
233,1.28000e+00,
234,1.36000e+00,
235,1.12000e+00,
236,1.20000e+00,
237,1.00000e+00,
238,1.04000e+00,
239,8.40000e-01,
240,8.80000e-01,
241,6.40000e-01,
242,7.20000e-01,
243,4.80000e-01,
244,5.20000e-01,
245,2.80000e-01,
246,3.60000e-01,
247,1.20000e-01,
248,1.60000e-01,
249,-8.00000e-02,
250,0.00000e+00,
251,-2.40000e-01,
252,-1.60000e-01,
253,-4.00000e-01,
254,-3.20000e-01,
255,-5.60000e-01,
256,-5.20000e-01,
257,-7.20000e-01,
258,-7.20000e-01,
259,-9.20000e-01,
260,-8.80000e-01,
261,-1.08000e+00,
262,-1.04000e+00,
263,-1.24000e+00,
264,-1.20000e+00,
265,-1.40000e+00,
266,-1.32000e+00,
267,-1.56000e+00,
268,-1.48000e+00,
269,-1.72000e+00,
270,-1.64000e+00,
271,-1.84000e+00,
272,-1.76000e+00,
273,-2.00000e+00,
274,-1.92000e+00,
275,-2.12000e+00,
276,-2.08000e+00,
277,-2.24000e+00,
278,-2.16000e+00,
279,-2.36000e+00,
280,-2.32000e+00,
281,-2.48000e+00,
282,-2.40000e+00,
283,-2.60000e+00,
284,-2.48000e+00,
285,-2.64000e+00,
286,-2.60000e+00,
287,-2.76000e+00,
288,-2.68000e+00,
289,-2.80000e+00,
290,-2.76000e+00,
291,-2.88000e+00,
292,-2.80000e+00,
293,-2.96000e+00,
294,-2.88000e+00,
295,-3.00000e+00,
296,-2.92000e+00,
297,-3.04000e+00,
298,-3.04000e+00,
299,-2.96000e+00,
300,-2.96000e+00,
301,-3.12000e+00,
302,-3.04000e+00,
303,-3.12000e+00,
304,-3.04000e+00,
305,-3.04000e+00,
306,-3.00000e+00,
307,-3.08000e+00,
308,-3.12000e+00,
309,-2.96000e+00,
310,-2.96000e+00,
311,-3.04000e+00,
312,-3.04000e+00,
313,-2.92000e+00,
314,-3.00000e+00,
315,-2.88000e+00,
316,-2.96000e+00,
317,-2.80000e+00,
318,-2.88000e+00,
319,-2.72000e+00,
320,-2.80000e+00,
321,-2.64000e+00,
322,-2.72000e+00,
323,-2.56000e+00,
324,-2.64000e+00,
325,-2.48000e+00,
326,-2.56000e+00,
327,-2.36000e+00,
328,-2.48000e+00,
329,-2.28000e+00,
330,-2.36000e+00,
331,-2.16000e+00,
332,-2.24000e+00,
333,-2.04000e+00,
334,-2.12000e+00,
335,-1.92000e+00,
336,-1.96000e+00,
337,-1.76000e+00,
338,-1.80000e+00,
339,-1.60000e+00,
340,-1.68000e+00,
341,-1.48000e+00,
342,-1.52000e+00,
343,-1.32000e+00,
344,-1.40000e+00,
345,-1.16000e+00,
346,-1.24000e+00,
347,-1.00000e+00,
348,-1.08000e+00,
349,-8.40000e-01,
350,-9.20000e-01,
351,-6.80000e-01,
352,-7.20000e-01,
353,-4.80000e-01,
354,-5.20000e-01,
355,-2.80000e-01,
356,-3.60000e-01,
357,-1.20000e-01,
358,-2.00000e-01,
359,4.00000e-02,
360,-4.00000e-02,
361,2.00000e-01,
362,1.60000e-01,
363,3.60000e-01,
364,2.80000e-01,
365,5.20000e-01,
366,5.20000e-01,
367,7.20000e-01,
368,6.80000e-01,
369,8.80000e-01,
370,8.40000e-01,
371,1.04000e+00,
372,1.00000e+00,
373,1.20000e+00,
374,1.16000e+00,
375,1.36000e+00,
376,1.32000e+00,
377,1.52000e+00,
378,1.44000e+00,
379,1.68000e+00,
380,1.64000e+00,
381,1.84000e+00,
382,1.76000e+00,
383,2.00000e+00,
384,1.92000e+00,
385,2.12000e+00,
386,2.04000e+00,
387,2.24000e+00,
388,2.16000e+00,
389,2.36000e+00,
390,2.28000e+00,
391,2.48000e+00,
392,2.40000e+00,
393,2.56000e+00,
394,2.48000e+00,
395,2.64000e+00,
396,2.56000e+00,
397,2.76000e+00,
398,2.68000e+00,
399,2.80000e+00,
400,2.76000e+00,
401,2.92000e+00,
402,2.84000e+00,
403,3.00000e+00,
404,2.92000e+00,
405,3.04000e+00,
406,2.96000e+00,
407,3.08000e+00,
408,3.00000e+00,
409,3.12000e+00,
410,3.04000e+00,
411,3.12000e+00,
412,3.04000e+00,
413,3.16000e+00,
414,3.16000e+00,
415,3.08000e+00,
416,3.16000e+00,
417,3.08000e+00,
418,3.16000e+00,
419,3.04000e+00,
420,3.04000e+00,
421,3.12000e+00,
422,3.12000e+00,
423,3.00000e+00,
424,3.08000e+00,
425,2.96000e+00,
426,3.04000e+00,
427,2.92000e+00,
428,2.96000e+00,
429,2.84000e+00,
430,2.92000e+00,
431,2.76000e+00,
432,2.80000e+00,
433,2.64000e+00,
434,2.72000e+00,
435,2.56000e+00,
436,2.64000e+00,
437,2.48000e+00,
438,2.56000e+00,
439,2.40000e+00,
440,2.44000e+00,
441,2.28000e+00,
442,2.36000e+00,
443,2.16000e+00,
444,2.24000e+00,
445,2.04000e+00,
446,2.12000e+00,
447,1.92000e+00,
448,1.96000e+00,
449,1.76000e+00,
450,1.84000e+00,
451,1.64000e+00,
452,1.68000e+00,
453,1.44000e+00,
454,1.52000e+00,
455,1.32000e+00,
456,1.36000e+00,
457,1.16000e+00,
458,1.20000e+00,
459,1.00000e+00,
460,1.04000e+00,
461,8.40000e-01,
462,8.80000e-01,
463,6.80000e-01,
464,7.60000e-01,
465,5.20000e-01,
466,5.60000e-01,
467,3.20000e-01,
468,3.60000e-01,
469,1.20000e-01,
470,2.00000e-01,
471,-4.00000e-02,
472,0.00000e+00,
473,-2.00000e-01,
474,-1.60000e-01,
475,-4.00000e-01,
476,-3.20000e-01,
477,-5.60000e-01,
478,-4.80000e-01,
479,-7.20000e-01,
480,-6.80000e-01,
481,-9.20000e-01,
482,-8.40000e-01,
483,-1.08000e+00,
484,-1.00000e+00,
485,-1.24000e+00,
486,-1.16000e+00,
487,-1.36000e+00,
488,-1.32000e+00,
489,-1.52000e+00,
490,-1.48000e+00,
491,-1.68000e+00,
492,-1.60000e+00,
493,-1.84000e+00,
494,-1.76000e+00,
495,-1.96000e+00,
496,-1.92000e+00,
497,-2.12000e+00,
498,-2.04000e+00,
499,-2.20000e+00,
500,-2.16000e+00,
501,-2.36000e+00,
502,-2.28000e+00,
503,-2.48000e+00,
504,-2.40000e+00,
505,-2.56000e+00,
506,-2.48000e+00,
507,-2.64000e+00,
508,-2.60000e+00,
509,-2.76000e+00,
510,-2.68000e+00,
511,-2.84000e+00,
512,-2.76000e+00,
513,-2.88000e+00,
514,-2.80000e+00,
515,-2.92000e+00,
516,-2.84000e+00,
517,-3.00000e+00,
518,-2.92000e+00,
519,-3.04000e+00,
520,-2.96000e+00,
521,-3.08000e+00,
522,-2.96000e+00,
523,-3.12000e+00,
524,-3.04000e+00,
525,-3.12000e+00,
526,-3.04000e+00,
527,-3.08000e+00,
528,-3.04000e+00,
529,-3.12000e+00,
530,-3.08000e+00,
531,-2.96000e+00,
532,-3.08000e+00,
533,-2.96000e+00,
534,-3.04000e+00,
535,-2.92000e+00,
536,-3.00000e+00,
537,-2.84000e+00,
538,-2.92000e+00,
539,-2.80000e+00,
540,-2.88000e+00,
541,-2.76000e+00,
542,-2.84000e+00,
543,-2.68000e+00,
544,-2.72000e+00,
545,-2.60000e+00,
546,-2.68000e+00,
547,-2.52000e+00,
548,-2.60000e+00,
549,-2.40000e+00,
550,-2.48000e+00,
551,-2.28000e+00,
552,-2.36000e+00,
553,-2.16000e+00,
554,-2.24000e+00,
555,-2.04000e+00,
556,-2.12000e+00,
557,-1.92000e+00,
558,-1.96000e+00,
559,-1.76000e+00,
560,-1.84000e+00,
561,-1.64000e+00,
562,-1.68000e+00,
563,-1.48000e+00,
564,-1.56000e+00,
565,-1.32000e+00,
566,-1.40000e+00,
567,-1.20000e+00,
568,-1.24000e+00,
569,-1.00000e+00,
570,-1.08000e+00,
571,-8.80000e-01,
572,-9.20000e-01,
573,-6.80000e-01,
574,-7.60000e-01,
575,-4.80000e-01,
576,-5.60000e-01,
577,-3.20000e-01,
578,-4.00000e-01,
579,-1.60000e-01,
580,-2.00000e-01,
581,0.00000e+00,
582,-4.00000e-02,
583,2.00000e-01,
584,1.20000e-01,
585,3.60000e-01,
586,2.80000e-01,
587,5.60000e-01,
588,4.80000e-01,
589,7.20000e-01,
590,6.80000e-01,
591,8.80000e-01,
592,8.00000e-01,
593,1.04000e+00,
594,1.00000e+00,
595,1.20000e+00,
596,1.16000e+00,
597,1.36000e+00,
598,1.32000e+00,
599,1.52000e+00,
600,1.44000e+00,
601,1.64000e+00,
602,1.64000e+00,
603,1.84000e+00,
604,1.76000e+00,
605,1.96000e+00,
606,1.88000e+00,
607,2.08000e+00,
608,2.04000e+00,
609,2.20000e+00,
610,2.16000e+00,
611,2.32000e+00,
612,2.28000e+00,
613,2.44000e+00,
614,2.36000e+00,
615,2.56000e+00,
616,2.48000e+00,
617,2.64000e+00,
618,2.56000e+00,
619,2.72000e+00,
620,2.68000e+00,
621,2.80000e+00,
622,2.72000e+00,
623,2.92000e+00,
624,2.84000e+00,
625,2.96000e+00,
626,2.88000e+00,
627,3.04000e+00,
628,2.96000e+00,
629,3.08000e+00,
630,3.00000e+00,
631,3.12000e+00,
632,3.12000e+00,
633,3.04000e+00,
634,3.16000e+00,
635,3.04000e+00,
636,3.16000e+00,
637,3.08000e+00,
638,3.16000e+00,
639,3.08000e+00,
640,3.16000e+00,
641,3.04000e+00,
642,3.04000e+00,
643,3.12000e+00,
644,3.12000e+00,
645,3.00000e+00,
646,3.08000e+00,
647,2.96000e+00,
648,3.04000e+00,
649,2.92000e+00,
650,3.00000e+00,
651,2.88000e+00,
652,2.92000e+00,
653,2.76000e+00,
654,2.80000e+00,
655,2.68000e+00,
656,2.76000e+00,
657,2.60000e+00,
658,2.64000e+00,
659,2.48000e+00,
660,2.60000e+00,
661,2.36000e+00,
662,2.44000e+00,
663,2.28000e+00,
664,2.36000e+00,
665,2.16000e+00,
666,2.24000e+00,
667,2.04000e+00,
668,2.12000e+00,
669,1.92000e+00,
670,2.00000e+00,
671,1.76000e+00,
672,1.84000e+00,
673,1.64000e+00,
674,1.68000e+00,
675,1.48000e+00,
676,1.56000e+00,
677,1.32000e+00,
678,1.40000e+00,
679,1.16000e+00,
680,1.24000e+00,
681,1.00000e+00,
682,1.04000e+00,
683,8.40000e-01,
684,9.20000e-01,
685,7.20000e-01,
686,7.60000e-01,
687,5.20000e-01,
688,5.20000e-01,
689,2.80000e-01,
690,3.60000e-01,
691,1.60000e-01,
692,2.40000e-01,
693,0.00000e+00,
694,4.00000e-02,
695,-2.40000e-01,
696,-1.60000e-01,
697,-3.60000e-01,
698,-2.80000e-01,
699,-5.20000e-01,
700,-4.80000e-01,
701,-7.20000e-01,
702,-6.80000e-01,
703,-8.80000e-01,
704,-8.40000e-01,
705,-1.04000e+00,
706,-9.60000e-01,
707,-1.20000e+00,
708,-1.12000e+00,
709,-1.40000e+00,
710,-1.32000e+00,
711,-1.52000e+00,
712,-1.44000e+00,
713,-1.64000e+00,
714,-1.60000e+00,
715,-1.80000e+00,
716,-1.72000e+00,
717,-1.96000e+00,
718,-1.92000e+00,
719,-2.12000e+00,
720,-2.04000e+00,
721,-2.20000e+00,
722,-2.16000e+00,
723,-2.36000e+00,
724,-2.28000e+00,
725,-2.44000e+00,
726,-2.36000e+00,
727,-2.56000e+00,
728,-2.48000e+00,
729,-2.68000e+00,
730,-2.60000e+00,
731,-2.72000e+00,
732,-2.64000e+00,
733,-2.84000e+00,
734,-2.76000e+00,
735,-2.88000e+00,
736,-2.80000e+00,
737,-2.92000e+00,
738,-2.84000e+00,
739,-3.04000e+00,
740,-3.04000e+00,
741,-2.92000e+00,
742,-2.92000e+00,
743,-3.08000e+00,
744,-3.04000e+00,
745,-3.08000e+00,
746,-3.00000e+00,
747,-3.08000e+00,
748,-3.04000e+00,
749,-3.16000e+00,
750,-3.04000e+00,
751,-3.12000e+00,
752,-3.08000e+00,
753,-2.96000e+00,
754,-3.08000e+00,
755,-2.96000e+00,
756,-3.04000e+00,
757,-2.92000e+00,
758,-3.00000e+00,
759,-2.88000e+00,
760,-2.96000e+00,
761,-2.80000e+00,
762,-2.88000e+00,
763,-2.76000e+00,
764,-2.84000e+00,
765,-2.68000e+00,
766,-2.76000e+00,
767,-2.56000e+00,
768,-2.64000e+00,
769,-2.52000e+00,
770,-2.60000e+00,
771,-2.40000e+00,
772,-2.48000e+00,
773,-2.28000e+00,
774,-2.36000e+00,
775,-2.16000e+00,
776,-2.24000e+00,
777,-2.08000e+00,
778,-2.08000e+00,
779,-1.96000e+00,
780,-2.00000e+00,
781,-1.80000e+00,
782,-1.84000e+00,
783,-1.64000e+00,
784,-1.68000e+00,
785,-1.48000e+00,
786,-1.56000e+00,
787,-1.32000e+00,
788,-1.40000e+00,
789,-1.16000e+00,
790,-1.24000e+00,
791,-1.04000e+00,
792,-1.08000e+00,
793,-8.80000e-01,
794,-9.60000e-01,
795,-7.20000e-01,
796,-7.20000e-01,
797,-5.20000e-01,
798,-5.60000e-01,
799,-3.60000e-01,
800,-4.00000e-01,
801,-1.60000e-01,
802,-2.40000e-01,
803,0.00000e+00,
804,-4.00000e-02,
805,1.60000e-01,
806,1.20000e-01,
807,3.20000e-01,
808,2.80000e-01,
809,5.20000e-01,
810,4.40000e-01,
811,7.20000e-01,
812,6.40000e-01,
813,8.40000e-01,
814,8.00000e-01,
815,1.04000e+00,
816,1.00000e+00,
817,1.20000e+00,
818,1.12000e+00,
819,1.36000e+00,
820,1.28000e+00,
821,1.48000e+00,
822,1.44000e+00,
823,1.64000e+00,
824,1.64000e+00,
825,1.80000e+00,
826,1.76000e+00,
827,1.96000e+00,
828,1.88000e+00,
829,2.08000e+00,
830,2.04000e+00,
831,2.20000e+00,
832,2.16000e+00,
833,2.32000e+00,
834,2.24000e+00,
835,2.44000e+00,
836,2.36000e+00,
837,2.56000e+00,
838,2.48000e+00,
839,2.64000e+00,
840,2.56000e+00,
841,2.72000e+00,
842,2.64000e+00,
843,2.80000e+00,
844,2.72000e+00,
845,2.88000e+00,
846,2.84000e+00,
847,2.96000e+00,
848,2.88000e+00,
849,3.04000e+00,
850,2.96000e+00,
851,3.08000e+00,
852,3.00000e+00,
853,3.12000e+00,
854,3.04000e+00,
855,3.16000e+00,
856,3.16000e+00,
857,3.04000e+00,
858,3.16000e+00,
859,3.08000e+00,
860,3.08000e+00,
861,3.20000e+00,
862,3.20000e+00,
863,3.04000e+00,
864,3.04000e+00,
865,3.16000e+00,
866,3.16000e+00,
867,2.96000e+00,
868,2.92000e+00,
869,3.08000e+00,
870,3.08000e+00,
871,2.92000e+00,
872,3.00000e+00,
873,2.84000e+00,
874,2.92000e+00,
875,2.76000e+00,
876,2.84000e+00,
877,2.68000e+00,
878,2.76000e+00,
879,2.60000e+00,
880,2.68000e+00,
881,2.48000e+00,
882,2.56000e+00,
883,2.40000e+00,
884,2.48000e+00,
885,2.32000e+00,
886,2.40000e+00,
887,2.20000e+00,
888,2.24000e+00,
889,2.04000e+00,
890,2.12000e+00,
891,1.92000e+00,
892,2.00000e+00,
893,1.80000e+00,
894,1.84000e+00,
895,1.64000e+00,
896,1.68000e+00,
897,1.48000e+00,
898,1.56000e+00,
899,1.32000e+00,
900,1.40000e+00,
901,1.16000e+00,
902,1.24000e+00,
903,1.04000e+00,
904,1.08000e+00,
905,8.40000e-01,
906,9.20000e-01,
907,6.80000e-01,
908,7.60000e-01,
909,5.20000e-01,
910,6.00000e-01,
911,3.20000e-01,
912,4.00000e-01,
913,1.60000e-01,
914,2.40000e-01,
915,-4.00000e-02,
916,4.00000e-02,
917,-1.60000e-01,
918,-1.20000e-01,
919,-3.60000e-01,
920,-2.80000e-01,
921,-5.20000e-01,
922,-4.80000e-01,
923,-6.80000e-01,
924,-6.40000e-01,
925,-8.80000e-01,
926,-8.40000e-01,
927,-1.04000e+00,
928,-9.60000e-01,
929,-1.20000e+00,
930,-1.12000e+00,
931,-1.36000e+00,
932,-1.28000e+00,
933,-1.52000e+00,
934,-1.44000e+00,
935,-1.68000e+00,
936,-1.60000e+00,
937,-1.80000e+00,
938,-1.72000e+00,
939,-1.92000e+00,
940,-1.88000e+00,
941,-2.08000e+00,
942,-2.00000e+00,
943,-2.24000e+00,
944,-2.16000e+00,
945,-2.32000e+00,
946,-2.28000e+00,
947,-2.44000e+00,
948,-2.36000e+00,
949,-2.52000e+00,
950,-2.48000e+00,
951,-2.64000e+00,
952,-2.56000e+00,
953,-2.72000e+00,
954,-2.64000e+00,
955,-2.80000e+00,
956,-2.72000e+00,
957,-2.88000e+00,
958,-2.80000e+00,
959,-2.92000e+00,
960,-2.88000e+00,
961,-3.00000e+00,
962,-2.92000e+00,
963,-3.00000e+00,
964,-3.04000e+00,
965,-2.96000e+00,
966,-3.08000e+00,
967,-2.96000e+00,
968,-3.04000e+00,
969,-3.08000e+00,
970,-3.12000e+00,
971,-3.00000e+00,
972,-3.04000e+00,
973,-3.00000e+00,
974,-3.04000e+00,
975,-3.08000e+00,
976,-3.08000e+00,
977,-2.96000e+00,
978,-3.04000e+00,
979,-2.92000e+00,
980,-3.00000e+00,
981,-2.88000e+00,
982,-2.96000e+00,
983,-2.84000e+00,
984,-2.92000e+00,
985,-2.76000e+00,
986,-2.84000e+00,
987,-2.68000e+00,
988,-2.76000e+00,
989,-2.60000e+00,
990,-2.68000e+00,
991,-2.52000e+00,
992,-2.60000e+00,
993,-2.44000e+00,
994,-2.52000e+00,
995,-2.32000e+00,
996,-2.40000e+00,
997,-2.20000e+00,
998,-2.24000e+00,
999,-2.08000e+00,
1000,-2.16000e+00,
1001,-1.96000e+00,
1002,-2.04000e+00,
1003,-1.84000e+00,
1004,-1.88000e+00,
1005,-1.68000e+00,
1006,-1.72000e+00,
1007,-1.52000e+00,
1008,-1.60000e+00,
1009,-1.36000e+00,
1010,-1.44000e+00,
1011,-1.20000e+00,
1012,-1.28000e+00,
1013,-1.04000e+00,
1014,-1.12000e+00,
1015,-8.80000e-01,
1016,-9.60000e-01,
1017,-7.20000e-01,
1018,-8.00000e-01,
1019,-5.20000e-01,
1020,-6.00000e-01,
1021,-3.60000e-01,
1022,-4.40000e-01,
1023,-2.00000e-01,
1024,-2.80000e-01,
1025,0.00000e+00,
1026,-8.00000e-02,
1027,1.60000e-01,
1028,8.00000e-02,
1029,3.20000e-01,
1030,2.40000e-01,
1031,4.80000e-01,
1032,4.40000e-01,
1033,6.80000e-01,
1034,6.00000e-01,
1035,8.40000e-01,
1036,7.60000e-01,
1037,1.00000e+00,
1038,9.20000e-01,
1039,1.16000e+00,
1040,1.12000e+00,
1041,1.32000e+00,
1042,1.24000e+00,
1043,1.48000e+00,
1044,1.40000e+00,
1045,1.64000e+00,
1046,1.60000e+00,
1047,1.80000e+00,
1048,1.76000e+00,
1049,1.96000e+00,
1050,1.88000e+00,
1051,2.08000e+00,
1052,2.00000e+00,
1053,2.20000e+00,
1054,2.12000e+00,
1055,2.32000e+00,
1056,2.24000e+00,
1057,2.44000e+00,
1058,2.36000e+00,
1059,2.52000e+00,
1060,2.44000e+00,
1061,2.60000e+00,
1062,2.56000e+00,
1063,2.72000e+00,
1064,2.64000e+00,
1065,2.80000e+00,
1066,2.72000e+00,
1067,2.88000e+00,
1068,2.84000e+00,
1069,2.96000e+00,
1070,2.88000e+00,
1071,3.04000e+00,
1072,2.92000e+00,
1073,3.08000e+00,
1074,3.00000e+00,
1075,3.12000e+00,
1076,3.12000e+00,
1077,3.04000e+00,
1078,3.04000e+00,
1079,3.12000e+00,
1080,3.08000e+00,
1081,3.16000e+00,
1082,3.08000e+00,
1083,3.16000e+00,
1084,3.16000e+00,
1085,3.04000e+00,
1086,3.04000e+00,
1087,3.12000e+00,
1088,3.12000e+00,
1089,3.00000e+00,
1090,3.08000e+00,
1091,2.96000e+00,
1092,3.04000e+00,
1093,2.92000e+00,
1094,3.00000e+00,
1095,2.88000e+00,
1096,2.92000e+00,
1097,2.76000e+00,
1098,2.84000e+00,
1099,2.68000e+00,
1100,2.76000e+00,
1101,2.60000e+00,
1102,2.68000e+00,
1103,2.52000e+00,
1104,2.60000e+00,
1105,2.40000e+00,
1106,2.48000e+00,
1107,2.32000e+00,
1108,2.40000e+00,
1109,2.20000e+00,
1110,2.28000e+00,
1111,2.08000e+00,
1112,2.16000e+00,
1113,1.96000e+00,
1114,2.00000e+00,
1115,1.84000e+00,
1116,1.84000e+00,
1117,1.68000e+00,
1118,1.76000e+00,
1119,1.48000e+00,
1120,1.56000e+00,
1121,1.36000e+00,
1122,1.44000e+00,
1123,1.20000e+00,
1124,1.28000e+00,
1125,1.04000e+00,
1126,1.12000e+00,
1127,8.80000e-01,
1128,9.60000e-01,
1129,7.20000e-01,
1130,8.00000e-01,
1131,5.60000e-01,
1132,6.00000e-01,
1133,4.00000e-01,
1134,4.00000e-01,
1135,2.00000e-01,
1136,2.40000e-01,
1137,4.00000e-02,
