DataAnalysis/Johnson_noise/2017_johnson_noise/data_MUIC_nop_anan/NewFile70.csv

X,CH1,Start,Increment,
Sequence,Volt,1.80000e-03,1.00000e-06
0,4.00000e-02,
1,6.00000e-01,
2,5.20000e-01,
3,9.20000e-01,
4,8.80000e-01,
5,1.04000e+00,
6,1.00000e+00,
7,7.60000e-01,
8,8.00000e-01,
9,3.20000e-01,
10,3.60000e-01,
11,-2.00000e-01,
12,-1.60000e-01,
13,-6.80000e-01,
14,-6.00000e-01,
15,-9.20000e-01,
16,-9.20000e-01,
17,-8.00000e-01,
18,-8.80000e-01,
19,-4.80000e-01,
20,-5.60000e-01,
21,0.00000e+00,
22,-4.00000e-02,
23,5.20000e-01,
24,4.80000e-01,
25,9.20000e-01,
26,8.40000e-01,
27,1.04000e+00,
28,1.04000e+00,
29,7.60000e-01,
30,8.40000e-01,
31,3.60000e-01,
32,4.00000e-01,
33,-1.60000e-01,
34,-1.20000e-01,
35,-6.40000e-01,
36,-5.60000e-01,
37,-8.80000e-01,
38,-8.40000e-01,
39,-9.60000e-01,
40,-8.80000e-01,
41,-5.60000e-01,
42,-6.00000e-01,
43,-8.00000e-02,
44,-1.20000e-01,
45,4.80000e-01,
46,4.00000e-01,
47,8.80000e-01,
48,8.00000e-01,
49,1.00000e+00,
50,1.04000e+00,
51,8.00000e-01,
52,8.80000e-01,
53,4.40000e-01,
54,4.40000e-01,
55,-8.00000e-02,
56,-4.00000e-02,
57,-6.00000e-01,
58,-5.20000e-01,
59,-8.80000e-01,
60,-8.80000e-01,
61,-9.20000e-01,
62,-9.20000e-01,
63,-5.60000e-01,
64,-6.40000e-01,
65,-1.20000e-01,
66,-1.60000e-01,
67,4.00000e-01,
68,3.60000e-01,
69,8.40000e-01,
70,7.60000e-01,
71,1.00000e+00,
72,1.04000e+00,
73,8.40000e-01,
74,9.20000e-01,
75,4.80000e-01,
76,5.20000e-01,
77,-4.00000e-02,
78,0.00000e+00,
79,-5.60000e-01,
80,-4.80000e-01,
81,-8.80000e-01,
82,-8.40000e-01,
83,-9.60000e-01,
84,-9.20000e-01,
85,-6.40000e-01,
86,-6.80000e-01,
87,-2.00000e-01,
88,-2.00000e-01,
89,3.20000e-01,
90,3.20000e-01,
91,8.00000e-01,
92,7.20000e-01,
93,1.00000e+00,
94,1.04000e+00,
95,8.80000e-01,
96,9.60000e-01,
97,5.60000e-01,
98,6.00000e-01,
99,0.00000e+00,
100,8.00000e-02,
101,-4.80000e-01,
102,-4.40000e-01,
103,-8.40000e-01,
104,-8.00000e-01,
105,-9.20000e-01,
106,-9.20000e-01,
107,-7.20000e-01,
108,-7.20000e-01,
109,-2.40000e-01,
110,-3.20000e-01,
111,2.80000e-01,
112,2.40000e-01,
113,7.60000e-01,
114,6.80000e-01,
115,1.00000e+00,
116,1.04000e+00,
117,8.80000e-01,
118,9.60000e-01,
119,5.60000e-01,
120,6.40000e-01,
121,8.00000e-02,
122,1.20000e-01,
123,-4.40000e-01,
124,-4.00000e-01,
125,-8.00000e-01,
126,-7.60000e-01,
127,-9.60000e-01,
128,-9.60000e-01,
129,-7.20000e-01,
130,-7.60000e-01,
131,-3.20000e-01,
132,-3.20000e-01,
133,2.00000e-01,
134,2.00000e-01,
135,7.20000e-01,
136,6.80000e-01,
137,1.00000e+00,
138,9.20000e-01,
139,1.04000e+00,
140,1.00000e+00,
141,6.40000e-01,
142,6.80000e-01,
143,1.20000e-01,
144,1.60000e-01,
145,-4.00000e-01,
146,-3.20000e-01,
147,-7.60000e-01,
148,-7.60000e-01,
149,-9.60000e-01,
150,-9.60000e-01,
151,-7.60000e-01,
152,-8.00000e-01,
153,-3.60000e-01,
154,-4.00000e-01,
155,1.60000e-01,
156,1.60000e-01,
157,6.80000e-01,
158,6.00000e-01,
159,9.60000e-01,
160,9.20000e-01,
161,1.04000e+00,
162,1.00000e+00,
163,6.80000e-01,
164,7.20000e-01,
165,2.00000e-01,
166,2.40000e-01,
167,-3.60000e-01,
168,-2.80000e-01,
169,-7.60000e-01,
170,-7.20000e-01,
171,-9.20000e-01,
172,-9.60000e-01,
173,-7.60000e-01,
174,-8.40000e-01,
175,-4.00000e-01,
176,-4.80000e-01,
177,8.00000e-02,
178,4.00000e-02,
179,6.40000e-01,
180,5.60000e-01,
181,9.60000e-01,
182,8.80000e-01,
183,1.04000e+00,
184,1.00000e+00,
185,7.20000e-01,
186,8.00000e-01,
187,2.80000e-01,
188,3.20000e-01,
189,-2.80000e-01,
190,-2.00000e-01,
191,-7.20000e-01,
192,-6.80000e-01,
193,-9.20000e-01,
194,-9.20000e-01,
195,-8.40000e-01,
196,-8.40000e-01,
197,-4.40000e-01,
198,-4.80000e-01,
199,4.00000e-02,
200,4.00000e-02,
201,6.00000e-01,
202,5.20000e-01,
203,9.20000e-01,
204,8.80000e-01,
205,1.04000e+00,
206,1.04000e+00,
207,7.60000e-01,
208,8.00000e-01,
209,3.20000e-01,
210,4.00000e-01,
211,-1.60000e-01,
212,-1.60000e-01,
213,-6.80000e-01,
214,-6.40000e-01,
215,-9.20000e-01,
216,-9.20000e-01,
217,-8.00000e-01,
218,-8.80000e-01,
219,-5.20000e-01,
220,-5.60000e-01,
221,0.00000e+00,
222,-4.00000e-02,
223,5.20000e-01,
224,4.80000e-01,
225,9.20000e-01,
226,8.40000e-01,
227,1.04000e+00,
228,1.04000e+00,
229,7.60000e-01,
230,8.40000e-01,
231,3.60000e-01,
232,4.40000e-01,
233,-1.60000e-01,
234,-1.20000e-01,
235,-6.40000e-01,
236,-6.00000e-01,
237,-9.20000e-01,
238,-8.40000e-01,
239,-9.60000e-01,
240,-8.80000e-01,
241,-5.60000e-01,
242,-6.00000e-01,
243,-8.00000e-02,
244,-1.20000e-01,
245,4.40000e-01,
246,4.00000e-01,
247,8.80000e-01,
248,8.00000e-01,
249,1.04000e+00,
250,1.04000e+00,
251,8.00000e-01,
252,8.80000e-01,
253,4.40000e-01,
254,4.80000e-01,
255,-1.20000e-01,
256,-4.00000e-02,
257,-6.00000e-01,
258,-5.60000e-01,
259,-8.80000e-01,
260,-8.80000e-01,
261,-9.60000e-01,
262,-9.20000e-01,
263,-6.00000e-01,
264,-6.40000e-01,
265,-1.20000e-01,
266,-2.00000e-01,
267,3.60000e-01,
268,3.60000e-01,
269,8.40000e-01,
270,7.60000e-01,
271,1.00000e+00,
272,1.04000e+00,
273,8.40000e-01,
274,9.20000e-01,
275,4.80000e-01,
276,5.60000e-01,
277,-4.00000e-02,
278,0.00000e+00,
279,-5.60000e-01,
280,-4.80000e-01,
281,-8.80000e-01,
282,-8.00000e-01,
283,-9.60000e-01,
284,-9.20000e-01,
285,-6.40000e-01,
286,-6.80000e-01,
287,-2.00000e-01,
288,-2.40000e-01,
289,3.20000e-01,
290,3.20000e-01,
291,8.00000e-01,
292,7.20000e-01,
293,1.00000e+00,
294,1.04000e+00,
295,8.80000e-01,
296,9.20000e-01,
297,5.20000e-01,
298,6.00000e-01,
299,0.00000e+00,
300,8.00000e-02,
301,-4.80000e-01,
302,-4.40000e-01,
303,-8.40000e-01,
304,-7.60000e-01,
305,-9.60000e-01,
306,-9.20000e-01,
307,-6.80000e-01,
308,-7.20000e-01,
309,-2.40000e-01,
310,-3.20000e-01,
311,2.80000e-01,
312,2.40000e-01,
313,7.60000e-01,
314,6.80000e-01,
315,1.00000e+00,
316,1.00000e+00,
317,8.80000e-01,
318,9.60000e-01,
319,5.60000e-01,
320,6.40000e-01,
321,8.00000e-02,
322,8.00000e-02,
323,-4.40000e-01,
324,-4.00000e-01,
325,-8.00000e-01,
326,-7.60000e-01,
327,-9.60000e-01,
328,-1.00000e+00,
329,-7.20000e-01,
330,-7.60000e-01,
331,-3.20000e-01,
332,-3.60000e-01,
333,2.00000e-01,
334,2.00000e-01,
335,7.20000e-01,
336,6.40000e-01,
337,1.00000e+00,
338,9.20000e-01,
339,1.04000e+00,
340,9.60000e-01,
341,6.40000e-01,
342,6.80000e-01,
343,1.60000e-01,
344,2.00000e-01,
345,-4.00000e-01,
346,-3.20000e-01,
347,-7.60000e-01,
348,-7.20000e-01,
349,-9.20000e-01,
350,-9.20000e-01,
351,-7.60000e-01,
352,-8.00000e-01,
353,-3.60000e-01,
354,-4.00000e-01,
355,1.60000e-01,
356,1.20000e-01,
357,6.80000e-01,
358,6.00000e-01,
359,9.60000e-01,
360,8.80000e-01,
361,1.00000e+00,
362,1.00000e+00,
363,6.80000e-01,
364,7.20000e-01,
365,2.00000e-01,
366,2.40000e-01,
367,-3.60000e-01,
368,-2.80000e-01,
369,-7.60000e-01,
370,-6.80000e-01,
371,-9.20000e-01,
372,-9.20000e-01,
373,-8.00000e-01,
374,-8.00000e-01,
375,-4.00000e-01,
376,-4.80000e-01,
377,8.00000e-02,
378,4.00000e-02,
379,6.00000e-01,
380,5.60000e-01,
381,9.60000e-01,
382,8.80000e-01,
383,1.00000e+00,
384,1.00000e+00,
385,7.20000e-01,
386,8.00000e-01,
387,2.80000e-01,
388,2.80000e-01,
389,-2.80000e-01,
390,-2.40000e-01,
391,-7.20000e-01,
392,-6.40000e-01,
393,-9.20000e-01,
394,-9.60000e-01,
395,-8.00000e-01,
396,-8.40000e-01,
397,-4.80000e-01,
398,-4.80000e-01,
399,4.00000e-02,
400,4.00000e-02,
401,5.60000e-01,
402,5.20000e-01,
403,9.20000e-01,
404,8.40000e-01,
405,1.04000e+00,
406,1.00000e+00,
407,7.20000e-01,
408,8.00000e-01,
409,3.20000e-01,
410,3.60000e-01,
411,-2.40000e-01,
412,-1.60000e-01,
413,-6.80000e-01,
414,-6.00000e-01,
415,-9.20000e-01,
416,-9.60000e-01,
417,-8.40000e-01,
418,-8.80000e-01,
419,-5.20000e-01,
420,-5.60000e-01,
421,-4.00000e-02,
422,-4.00000e-02,
423,5.20000e-01,
424,4.80000e-01,
425,8.80000e-01,
426,8.40000e-01,
427,1.00000e+00,
428,1.00000e+00,
429,7.60000e-01,
430,8.40000e-01,
431,3.60000e-01,
432,4.40000e-01,
433,-1.60000e-01,
434,-1.20000e-01,
435,-6.40000e-01,
436,-5.60000e-01,
437,-9.20000e-01,
438,-1.00000e+00,
439,-8.40000e-01,
440,-8.80000e-01,
441,-5.60000e-01,
442,-6.00000e-01,
443,-8.00000e-02,
444,-1.60000e-01,
445,4.40000e-01,
446,4.00000e-01,
447,8.80000e-01,
448,8.00000e-01,
449,1.04000e+00,
450,1.04000e+00,
451,8.00000e-01,
452,8.80000e-01,
453,4.40000e-01,
454,4.40000e-01,
455,-1.20000e-01,
456,-4.00000e-02,
457,-5.60000e-01,
458,-5.60000e-01,
459,-8.80000e-01,
460,-8.40000e-01,
461,-9.60000e-01,
462,-9.20000e-01,
463,-6.00000e-01,
464,-6.40000e-01,
465,-1.20000e-01,
466,-2.00000e-01,
467,4.00000e-01,
468,3.60000e-01,
469,8.40000e-01,
470,7.60000e-01,
471,1.00000e+00,
472,1.04000e+00,
473,8.40000e-01,
474,9.20000e-01,
475,4.80000e-01,
476,5.60000e-01,
477,-8.00000e-02,
478,0.00000e+00,
479,-5.60000e-01,
480,-5.20000e-01,
481,-8.80000e-01,
482,-8.00000e-01,
483,-9.60000e-01,
484,-9.20000e-01,
485,-6.40000e-01,
486,-6.80000e-01,
487,-2.00000e-01,
488,-2.80000e-01,
489,3.20000e-01,
490,2.80000e-01,
491,8.00000e-01,
492,7.20000e-01,
493,1.00000e+00,
494,1.04000e+00,
495,8.80000e-01,
496,9.20000e-01,
497,5.20000e-01,
498,6.00000e-01,
499,4.00000e-02,
500,4.00000e-02,
501,-4.80000e-01,
502,-4.40000e-01,
503,-8.40000e-01,
504,-8.00000e-01,
505,-9.60000e-01,
506,-9.20000e-01,
507,-6.80000e-01,
508,-7.20000e-01,
509,-2.40000e-01,
510,-3.20000e-01,
511,2.80000e-01,
512,2.40000e-01,
513,7.60000e-01,
514,6.80000e-01,
515,1.00000e+00,
516,1.00000e+00,
517,8.80000e-01,
518,9.60000e-01,
519,5.60000e-01,
520,6.40000e-01,
521,4.00000e-02,
522,1.20000e-01,
523,-4.40000e-01,
524,-3.60000e-01,
525,-8.00000e-01,
526,-7.60000e-01,
527,-9.20000e-01,
528,-9.20000e-01,
529,-7.20000e-01,
530,-7.60000e-01,
531,-2.80000e-01,
532,-3.20000e-01,
533,2.00000e-01,
534,2.00000e-01,
535,7.20000e-01,
536,6.40000e-01,
537,9.60000e-01,
538,1.00000e+00,
539,8.80000e-01,
540,9.60000e-01,
541,6.00000e-01,
542,6.80000e-01,
543,1.60000e-01,
544,1.60000e-01,
545,-4.00000e-01,
546,-3.60000e-01,
547,-8.00000e-01,
548,-7.20000e-01,
549,-9.60000e-01,
550,-1.00000e+00,
551,-7.20000e-01,
552,-8.00000e-01,
553,-3.60000e-01,
554,-4.00000e-01,
555,1.60000e-01,
556,1.20000e-01,
557,6.80000e-01,
558,6.00000e-01,
559,9.60000e-01,
560,9.20000e-01,
561,1.04000e+00,
562,1.00000e+00,
563,6.80000e-01,
564,7.20000e-01,
565,2.00000e-01,
566,2.40000e-01,
567,-3.60000e-01,
568,-2.80000e-01,
569,-7.60000e-01,
570,-6.80000e-01,
571,-9.60000e-01,
572,-9.60000e-01,
573,-8.00000e-01,
574,-8.40000e-01,
575,-4.00000e-01,
576,-4.80000e-01,
577,8.00000e-02,
578,4.00000e-02,
579,6.00000e-01,
580,5.60000e-01,
581,9.60000e-01,
582,8.80000e-01,
583,1.00000e+00,
584,1.00000e+00,
585,6.80000e-01,
586,7.60000e-01,
587,2.80000e-01,
588,2.80000e-01,
589,-2.40000e-01,
590,-2.40000e-01,
591,-7.20000e-01,
592,-6.40000e-01,
593,-9.20000e-01,
594,-9.60000e-01,
595,-8.00000e-01,
596,-8.40000e-01,
597,-4.40000e-01,
598,-4.80000e-01,
599,4.00000e-02,
600,-4.00000e-02,
601,5.60000e-01,
602,5.20000e-01,
603,9.20000e-01,
604,8.40000e-01,
605,1.00000e+00,
606,1.00000e+00,
607,7.20000e-01,
608,8.00000e-01,
609,3.20000e-01,
610,3.60000e-01,
611,-2.40000e-01,
612,-1.60000e-01,
613,-6.80000e-01,
614,-6.80000e-01,
615,-9.20000e-01,
616,-9.60000e-01,
617,-8.40000e-01,
618,-8.80000e-01,
619,-4.80000e-01,
620,-5.60000e-01,
621,-4.00000e-02,
622,-8.00000e-02,
623,5.20000e-01,
624,4.80000e-01,
625,8.80000e-01,
626,8.40000e-01,
627,1.00000e+00,
628,1.00000e+00,
629,7.60000e-01,
630,8.40000e-01,
631,3.60000e-01,
632,4.00000e-01,
633,-1.60000e-01,
634,-1.20000e-01,
635,-6.40000e-01,
636,-6.00000e-01,
637,-9.20000e-01,
638,-9.60000e-01,
639,-8.40000e-01,
640,-8.80000e-01,
641,-5.60000e-01,
642,-6.40000e-01,
643,-8.00000e-02,
644,-1.60000e-01,
645,4.40000e-01,
646,4.00000e-01,
647,8.80000e-01,
648,8.00000e-01,
649,1.04000e+00,
650,1.04000e+00,
651,8.00000e-01,
652,8.80000e-01,
653,4.40000e-01,
654,4.40000e-01,
655,-8.00000e-02,
656,-4.00000e-02,
657,-6.00000e-01,
658,-5.20000e-01,
659,-8.80000e-01,
660,-8.40000e-01,
661,-9.60000e-01,
662,-9.20000e-01,
663,-6.00000e-01,
664,-6.40000e-01,
665,-1.20000e-01,
666,-2.00000e-01,
667,4.00000e-01,
668,3.60000e-01,
669,8.40000e-01,
670,7.60000e-01,
671,1.00000e+00,
672,1.00000e+00,
673,8.40000e-01,
674,9.20000e-01,
675,4.80000e-01,
676,5.20000e-01,
677,-8.00000e-02,
678,0.00000e+00,
679,-5.60000e-01,
680,-4.80000e-01,
681,-8.80000e-01,
682,-8.00000e-01,
683,-1.00000e+00,
684,-9.20000e-01,
685,-6.40000e-01,
686,-7.20000e-01,
687,-2.00000e-01,
688,-2.40000e-01,
689,3.60000e-01,
690,2.80000e-01,
691,8.00000e-01,
692,7.20000e-01,
693,1.00000e+00,
694,1.00000e+00,
695,8.40000e-01,
696,9.20000e-01,
697,5.20000e-01,
698,6.00000e-01,
699,0.00000e+00,
700,4.00000e-02,
701,-5.20000e-01,
702,-4.40000e-01,
703,-8.40000e-01,
704,-8.00000e-01,
705,-1.00000e+00,
706,-9.20000e-01,
707,-6.80000e-01,
708,-7.60000e-01,
709,-2.40000e-01,
710,-3.20000e-01,
711,2.80000e-01,
712,2.40000e-01,
713,7.60000e-01,
714,6.80000e-01,
715,1.00000e+00,
716,1.00000e+00,
717,8.80000e-01,
718,9.60000e-01,
719,5.60000e-01,
720,6.40000e-01,
721,8.00000e-02,
722,1.20000e-01,
723,-4.40000e-01,
724,-4.40000e-01,
725,-8.00000e-01,
726,-7.60000e-01,
727,-9.20000e-01,
728,-9.20000e-01,
729,-7.20000e-01,
730,-7.60000e-01,
731,-2.80000e-01,
732,-3.60000e-01,
733,2.00000e-01,
734,2.00000e-01,
735,7.20000e-01,
736,6.80000e-01,
737,1.00000e+00,
738,9.20000e-01,
739,1.04000e+00,
740,1.00000e+00,
741,6.40000e-01,
742,6.80000e-01,
743,1.60000e-01,
744,1.60000e-01,
745,-4.00000e-01,
746,-3.20000e-01,
747,-8.00000e-01,
748,-7.20000e-01,
749,-9.60000e-01,
750,-9.60000e-01,
751,-7.60000e-01,
752,-8.00000e-01,
753,-3.60000e-01,
754,-4.40000e-01,
755,1.60000e-01,
756,1.20000e-01,
757,6.80000e-01,
758,6.00000e-01,
759,9.60000e-01,
760,8.80000e-01,
761,1.04000e+00,
762,1.00000e+00,
763,6.80000e-01,
764,7.20000e-01,
765,2.40000e-01,
766,2.40000e-01,
767,-3.60000e-01,
768,-2.80000e-01,
769,-7.60000e-01,
770,-7.20000e-01,
771,-9.20000e-01,
772,-9.60000e-01,
773,-7.60000e-01,
774,-8.40000e-01,
775,-4.00000e-01,
776,-4.80000e-01,
777,8.00000e-02,
778,8.00000e-02,
779,6.00000e-01,
780,5.60000e-01,
781,9.60000e-01,
782,8.80000e-01,
783,1.04000e+00,
784,1.00000e+00,
785,7.20000e-01,
786,7.60000e-01,
787,2.80000e-01,
788,2.80000e-01,
789,-2.80000e-01,
790,-2.40000e-01,
791,-7.20000e-01,
792,-6.80000e-01,
793,-9.20000e-01,
794,-1.00000e+00,
795,-8.40000e-01,
796,-8.40000e-01,
797,-4.40000e-01,
798,-5.20000e-01,
799,4.00000e-02,
800,0.00000e+00,
801,5.60000e-01,
802,5.20000e-01,
803,9.20000e-01,
804,8.40000e-01,
805,1.04000e+00,
806,1.00000e+00,
807,7.20000e-01,
808,8.00000e-01,
809,3.20000e-01,
810,3.60000e-01,
811,-2.40000e-01,
812,-1.60000e-01,
813,-6.80000e-01,
814,-6.40000e-01,
815,-9.20000e-01,
816,-1.00000e+00,
817,-8.40000e-01,
818,-8.80000e-01,
819,-5.20000e-01,
820,-5.60000e-01,
821,0.00000e+00,
822,-4.00000e-02,
823,5.20000e-01,
824,4.80000e-01,
825,8.80000e-01,
826,8.40000e-01,
827,1.00000e+00,
828,1.00000e+00,
829,7.60000e-01,
830,8.40000e-01,
831,3.60000e-01,
832,4.00000e-01,
833,-1.60000e-01,
834,-1.20000e-01,
835,-6.00000e-01,
836,-5.60000e-01,
837,-9.20000e-01,
838,-8.40000e-01,
839,-1.00000e+00,
840,-8.80000e-01,
841,-5.60000e-01,
842,-6.00000e-01,
843,-8.00000e-02,
844,-1.20000e-01,
845,4.80000e-01,
846,4.00000e-01,
847,8.80000e-01,
848,8.00000e-01,
849,1.04000e+00,
850,1.04000e+00,
851,8.00000e-01,
852,8.80000e-01,
853,4.40000e-01,
854,4.80000e-01,
855,-1.20000e-01,
856,-4.00000e-02,
857,-6.00000e-01,
858,-5.20000e-01,
859,-8.80000e-01,
860,-1.00000e+00,
861,-8.40000e-01,
862,-9.20000e-01,
863,-6.00000e-01,
864,-6.80000e-01,
865,-1.20000e-01,
866,-2.00000e-01,
867,3.60000e-01,
868,3.60000e-01,
869,8.40000e-01,
870,7.60000e-01,
871,1.00000e+00,
872,1.00000e+00,
873,8.40000e-01,
874,9.20000e-01,
875,4.80000e-01,
876,5.60000e-01,
877,0.00000e+00,
878,0.00000e+00,
879,-5.20000e-01,
880,-4.80000e-01,
881,-8.40000e-01,
882,-8.00000e-01,
883,-9.20000e-01,
884,-9.20000e-01,
885,-6.40000e-01,
886,-6.80000e-01,
887,-2.00000e-01,
888,-2.40000e-01,
889,3.20000e-01,
890,2.80000e-01,
891,8.00000e-01,
892,7.20000e-01,
893,1.00000e+00,
894,1.00000e+00,
895,8.40000e-01,
896,9.20000e-01,
897,5.20000e-01,
898,5.60000e-01,
899,4.00000e-02,
900,4.00000e-02,
901,-5.20000e-01,
902,-4.40000e-01,
903,-8.40000e-01,
904,-8.40000e-01,
905,-9.60000e-01,
906,-9.20000e-01,
907,-6.80000e-01,
908,-7.20000e-01,
909,-2.40000e-01,
910,-2.80000e-01,
911,2.80000e-01,
912,2.40000e-01,
913,7.60000e-01,
914,6.80000e-01,
915,1.00000e+00,
916,1.00000e+00,
917,8.80000e-01,
918,9.60000e-01,
919,5.60000e-01,
920,6.00000e-01,
921,8.00000e-02,
922,1.20000e-01,
923,-4.40000e-01,
924,-4.00000e-01,
925,-8.00000e-01,
926,-8.00000e-01,
927,-9.20000e-01,
928,-9.20000e-01,
929,-6.80000e-01,
930,-7.60000e-01,
931,-2.80000e-01,
932,-3.60000e-01,
933,2.40000e-01,
934,2.00000e-01,
935,7.20000e-01,
936,6.80000e-01,
937,1.00000e+00,
938,9.20000e-01,
939,1.04000e+00,
940,1.00000e+00,
941,6.40000e-01,
942,6.80000e-01,
943,1.20000e-01,
944,2.00000e-01,
945,-4.00000e-01,
946,-3.60000e-01,
947,-7.60000e-01,
948,-7.20000e-01,
949,-9.20000e-01,
950,-9.20000e-01,
951,-7.20000e-01,
952,-8.00000e-01,
953,-3.20000e-01,
954,-4.00000e-01,
955,1.60000e-01,
956,1.60000e-01,
957,6.40000e-01,
958,6.00000e-01,
959,9.60000e-01,
960,9.20000e-01,
961,1.04000e+00,
962,1.00000e+00,
963,6.80000e-01,
964,7.20000e-01,
965,2.00000e-01,
966,2.40000e-01,
967,-3.20000e-01,
968,-2.80000e-01,
969,-7.60000e-01,
970,-6.80000e-01,
971,-9.60000e-01,
972,-9.60000e-01,
973,-7.60000e-01,
974,-8.40000e-01,
975,-4.40000e-01,
976,-4.80000e-01,
977,8.00000e-02,
978,8.00000e-02,
979,6.00000e-01,
980,5.60000e-01,
981,9.60000e-01,
982,8.80000e-01,
983,1.04000e+00,
984,1.00000e+00,
985,6.80000e-01,
986,7.60000e-01,
987,2.80000e-01,
988,2.80000e-01,
989,-2.80000e-01,
990,-2.40000e-01,
991,-7.20000e-01,
992,-6.80000e-01,
993,-9.20000e-01,
994,-9.60000e-01,
995,-8.00000e-01,
996,-8.40000e-01,
997,-4.40000e-01,
998,-4.80000e-01,
999,4.00000e-02,
1000,0.00000e+00,
1001,6.00000e-01,
1002,5.20000e-01,
1003,9.20000e-01,
1004,8.80000e-01,
1005,1.04000e+00,
1006,1.00000e+00,
1007,7.60000e-01,
1008,8.00000e-01,
1009,3.20000e-01,
1010,4.00000e-01,
1011,-2.40000e-01,
1012,-1.60000e-01,
1013,-6.80000e-01,
1014,-6.40000e-01,
1015,-9.20000e-01,
1016,-1.00000e+00,
1017,-8.40000e-01,
1018,-8.80000e-01,
1019,-5.20000e-01,
1020,-5.60000e-01,
1021,-4.00000e-02,
1022,-4.00000e-02,
1023,5.20000e-01,
1024,4.40000e-01,
1025,8.80000e-01,
1026,8.40000e-01,
1027,1.00000e+00,
1028,1.00000e+00,
1029,7.60000e-01,
1030,8.40000e-01,
1031,3.60000e-01,
1032,4.00000e-01,
1033,-2.00000e-01,
1034,-1.20000e-01,
1035,-6.40000e-01,
1036,-6.00000e-01,
1037,-9.20000e-01,
1038,-8.40000e-01,
1039,-9.60000e-01,
1040,-9.20000e-01,
1041,-5.60000e-01,
1042,-6.00000e-01,
1043,-8.00000e-02,
1044,-1.20000e-01,
1045,4.40000e-01,
1046,4.00000e-01,
1047,8.80000e-01,
1048,8.00000e-01,
1049,1.00000e+00,
1050,1.00000e+00,
1051,8.00000e-01,
1052,8.80000e-01,
1053,4.40000e-01,
1054,4.80000e-01,
1055,-1.20000e-01,
1056,-4.00000e-02,
1057,-6.00000e-01,
1058,-5.60000e-01,
1059,-8.80000e-01,
1060,-8.40000e-01,
1061,-9.20000e-01,
1062,-9.20000e-01,
1063,-6.00000e-01,
1064,-6.40000e-01,
1065,-1.20000e-01,
1066,-2.00000e-01,
1067,4.00000e-01,
1068,3.60000e-01,
1069,8.40000e-01,
1070,7.60000e-01,
1071,1.00000e+00,
1072,1.00000e+00,
1073,8.40000e-01,
1074,9.20000e-01,
1075,4.80000e-01,
1076,5.20000e-01,
1077,-4.00000e-02,
1078,0.00000e+00,
1079,-5.60000e-01,
1080,-4.80000e-01,
1081,-8.80000e-01,
1082,-8.40000e-01,
1083,-9.20000e-01,
1084,-9.20000e-01,
1085,-6.40000e-01,
1086,-6.80000e-01,
1087,-1.60000e-01,
1088,-2.40000e-01,
1089,3.60000e-01,
1090,3.20000e-01,
1091,8.00000e-01,
1092,7.60000e-01,
1093,1.04000e+00,
1094,1.04000e+00,
1095,8.80000e-01,
1096,9.60000e-01,
1097,5.60000e-01,
1098,6.00000e-01,
1099,0.00000e+00,
1100,8.00000e-02,
1101,-4.80000e-01,
1102,-4.40000e-01,
1103,-8.40000e-01,
1104,-8.00000e-01,
1105,-9.60000e-01,
1106,-9.20000e-01,
1107,-6.80000e-01,
1108,-7.20000e-01,
1109,-2.40000e-01,
1110,-3.20000e-01,
1111,3.20000e-01,
1112,2.40000e-01,
1113,7.60000e-01,
1114,6.80000e-01,
1115,1.00000e+00,
1116,1.00000e+00,
1117,8.80000e-01,
1118,9.60000e-01,
1119,5.60000e-01,
1120,6.00000e-01,
1121,8.00000e-02,
1122,1.20000e-01,
1123,-4.40000e-01,
1124,-4.00000e-01,
1125,-8.00000e-01,
1126,-8.00000e-01,
1127,-9.60000e-01,
1128,-9.60000e-01,
1129,-7.20000e-01,
1130,-7.60000e-01,
1131,-2.80000e-01,
1132,-3.20000e-01,
1133,2.00000e-01,
1134,1.60000e-01,
1135,7.20000e-01,
1136,6.40000e-01,
1137,9.60000e-01,
