DataAnalysis/Johnson_noise/2017_johnson_noise/data_MUIC_nop_anan/NewFile39.csv

X,CH1,Start,Increment,
Sequence,Volt,-3.60000e-03,1.00000e-05
0,1.80000e+00,
1,2.68000e+00,
2,2.68000e+00,
3,3.32000e+00,
4,3.28000e+00,
5,3.68000e+00,
6,3.64000e+00,
7,3.80000e+00,
8,3.80000e+00,
9,3.52000e+00,
10,3.60000e+00,
11,3.08000e+00,
12,3.16000e+00,
13,2.44000e+00,
14,2.44000e+00,
15,1.56000e+00,
16,1.60000e+00,
17,5.60000e-01,
18,6.00000e-01,
19,-4.80000e-01,
20,-4.00000e-01,
21,-1.48000e+00,
22,-1.40000e+00,
23,-2.32000e+00,
24,-2.28000e+00,
25,-3.04000e+00,
26,-3.00000e+00,
27,-3.52000e+00,
28,-3.48000e+00,
29,-3.76000e+00,
30,-3.76000e+00,
31,-3.60000e+00,
32,-3.68000e+00,
33,-3.24000e+00,
34,-3.28000e+00,
35,-2.64000e+00,
36,-2.72000e+00,
37,-1.84000e+00,
38,-1.88000e+00,
39,-8.80000e-01,
40,-8.80000e-01,
41,1.60000e-01,
42,1.60000e-01,
43,1.16000e+00,
44,1.16000e+00,
45,2.08000e+00,
46,2.08000e+00,
47,2.88000e+00,
48,2.84000e+00,
49,3.44000e+00,
50,3.36000e+00,
51,3.72000e+00,
52,3.68000e+00,
53,3.84000e+00,
54,3.76000e+00,
55,3.44000e+00,
56,3.52000e+00,
57,2.92000e+00,
58,2.96000e+00,
59,2.20000e+00,
60,2.24000e+00,
61,1.28000e+00,
62,1.32000e+00,
63,2.80000e-01,
64,3.20000e-01,
65,-7.60000e-01,
66,-7.20000e-01,
67,-1.72000e+00,
68,-1.68000e+00,
69,-2.56000e+00,
70,-2.52000e+00,
71,-3.20000e+00,
72,-3.16000e+00,
73,-3.64000e+00,
74,-3.56000e+00,
75,-3.76000e+00,
76,-3.76000e+00,
77,-3.52000e+00,
78,-3.60000e+00,
79,-3.12000e+00,
80,-3.16000e+00,
81,-2.44000e+00,
82,-2.52000e+00,
83,-1.56000e+00,
84,-1.60000e+00,
85,-6.00000e-01,
86,-6.40000e-01,
87,4.80000e-01,
88,4.00000e-01,
89,1.44000e+00,
90,1.40000e+00,
91,2.32000e+00,
92,2.28000e+00,
93,3.04000e+00,
94,3.00000e+00,
95,3.56000e+00,
96,3.48000e+00,
97,3.76000e+00,
98,3.80000e+00,
99,3.68000e+00,
100,3.72000e+00,
101,3.32000e+00,
102,3.40000e+00,
103,2.76000e+00,
104,2.80000e+00,
105,1.96000e+00,
106,2.04000e+00,
107,1.04000e+00,
108,1.08000e+00,
109,4.00000e-02,
110,4.00000e-02,
111,-1.04000e+00,
112,-9.60000e-01,
113,-1.96000e+00,
114,-1.92000e+00,
115,-2.76000e+00,
116,-2.68000e+00,
117,-3.32000e+00,
118,-3.32000e+00,
119,-3.68000e+00,
120,-3.60000e+00,
121,-3.76000e+00,
122,-3.76000e+00,
123,-3.44000e+00,
124,-3.52000e+00,
125,-2.96000e+00,
126,-3.00000e+00,
127,-2.24000e+00,
128,-2.28000e+00,
129,-1.32000e+00,
130,-1.36000e+00,
131,-3.20000e-01,
132,-3.60000e-01,
133,6.80000e-01,
134,7.20000e-01,
135,1.72000e+00,
136,1.68000e+00,
137,2.52000e+00,
138,2.48000e+00,
139,3.24000e+00,
140,3.20000e+00,
141,3.64000e+00,
142,3.60000e+00,
143,3.80000e+00,
144,3.80000e+00,
145,3.56000e+00,
146,3.64000e+00,
147,3.16000e+00,
148,3.28000e+00,
149,2.56000e+00,
150,2.60000e+00,
151,1.72000e+00,
152,1.76000e+00,
153,7.60000e-01,
154,8.00000e-01,
155,-2.80000e-01,
156,-2.40000e-01,
157,-1.28000e+00,
158,-1.24000e+00,
159,-2.20000e+00,
160,-2.16000e+00,
161,-2.92000e+00,
162,-2.88000e+00,
163,-3.48000e+00,
164,-3.40000e+00,
165,-3.72000e+00,
166,-3.64000e+00,
167,-3.76000e+00,
168,-3.72000e+00,
169,-3.36000e+00,
170,-3.40000e+00,
171,-2.76000e+00,
172,-2.84000e+00,
173,-2.00000e+00,
174,-2.04000e+00,
175,-1.08000e+00,
176,-1.08000e+00,
177,-4.00000e-02,
178,-8.00000e-02,
179,1.00000e+00,
180,9.20000e-01,
181,1.96000e+00,
182,1.88000e+00,
183,2.76000e+00,
184,2.72000e+00,
185,3.36000e+00,
186,3.28000e+00,
187,3.72000e+00,
188,3.68000e+00,
189,3.84000e+00,
190,3.76000e+00,
191,3.52000e+00,
192,3.60000e+00,
193,3.04000e+00,
194,3.12000e+00,
195,2.36000e+00,
196,2.40000e+00,
197,1.48000e+00,
198,1.48000e+00,
199,4.80000e-01,
200,5.20000e-01,
201,-5.60000e-01,
202,-5.20000e-01,
203,-1.56000e+00,
204,-1.52000e+00,
205,-2.44000e+00,
206,-2.36000e+00,
207,-3.12000e+00,
208,-3.04000e+00,
209,-3.56000e+00,
210,-3.52000e+00,
211,-3.76000e+00,
212,-3.76000e+00,
213,-3.60000e+00,
214,-3.64000e+00,
215,-3.20000e+00,
216,-3.24000e+00,
217,-2.56000e+00,
218,-2.64000e+00,
219,-1.76000e+00,
220,-1.80000e+00,
221,-8.00000e-01,
222,-8.00000e-01,
223,2.40000e-01,
224,2.40000e-01,
225,1.24000e+00,
226,1.20000e+00,
227,2.16000e+00,
228,2.16000e+00,
229,2.92000e+00,
230,2.92000e+00,
231,3.48000e+00,
232,3.44000e+00,
233,3.76000e+00,
234,3.64000e+00,
235,3.80000e+00,
236,3.76000e+00,
237,3.40000e+00,
238,3.48000e+00,
239,2.88000e+00,
240,2.92000e+00,
241,2.12000e+00,
242,2.12000e+00,
243,1.20000e+00,
244,1.24000e+00,
245,2.00000e-01,
246,2.40000e-01,
247,-8.40000e-01,
248,-7.60000e-01,
249,-1.80000e+00,
250,-1.72000e+00,
251,-2.64000e+00,
252,-2.60000e+00,
253,-3.24000e+00,
254,-3.20000e+00,
255,-3.64000e+00,
256,-3.56000e+00,
257,-3.76000e+00,
258,-3.76000e+00,
259,-3.52000e+00,
260,-3.60000e+00,
261,-3.04000e+00,
262,-3.08000e+00,
263,-2.36000e+00,
264,-2.44000e+00,
265,-1.48000e+00,
266,-1.56000e+00,
267,-4.80000e-01,
268,-5.20000e-01,
269,5.20000e-01,
270,5.20000e-01,
271,1.52000e+00,
272,1.52000e+00,
273,2.40000e+00,
274,2.36000e+00,
275,3.12000e+00,
276,3.04000e+00,
277,3.56000e+00,
278,3.48000e+00,
279,3.76000e+00,
280,3.84000e+00,
281,3.60000e+00,
282,3.68000e+00,
283,3.28000e+00,
284,3.36000e+00,
285,2.68000e+00,
286,2.72000e+00,
287,1.88000e+00,
288,1.96000e+00,
289,9.20000e-01,
290,1.00000e+00,
291,-8.00000e-02,
292,-4.00000e-02,
293,-1.08000e+00,
294,-1.08000e+00,
295,-2.04000e+00,
296,-2.00000e+00,
297,-2.84000e+00,
298,-2.76000e+00,
299,-3.36000e+00,
300,-3.32000e+00,
301,-3.72000e+00,
302,-3.64000e+00,
303,-3.80000e+00,
304,-3.76000e+00,
305,-3.44000e+00,
306,-3.48000e+00,
307,-2.88000e+00,
308,-2.96000e+00,
309,-2.16000e+00,
310,-2.24000e+00,
311,-1.24000e+00,
312,-1.28000e+00,
313,-2.40000e-01,
314,-2.40000e-01,
315,8.00000e-01,
316,7.60000e-01,
317,1.80000e+00,
318,1.72000e+00,
319,2.60000e+00,
320,2.60000e+00,
321,3.28000e+00,
322,3.20000e+00,
323,3.68000e+00,
324,3.64000e+00,
325,3.80000e+00,
326,3.84000e+00,
327,3.56000e+00,
328,3.64000e+00,
329,3.16000e+00,
330,3.20000e+00,
331,2.48000e+00,
332,2.52000e+00,
333,1.64000e+00,
334,1.68000e+00,
335,6.80000e-01,
336,7.20000e-01,
337,-3.60000e-01,
338,-3.20000e-01,
339,-1.40000e+00,
340,-1.32000e+00,
341,-2.28000e+00,
342,-2.24000e+00,
343,-3.00000e+00,
344,-2.96000e+00,
345,-3.52000e+00,
346,-3.44000e+00,
347,-3.76000e+00,
348,-3.76000e+00,
349,-3.64000e+00,
350,-3.68000e+00,
351,-3.32000e+00,
352,-3.32000e+00,
353,-2.72000e+00,
354,-2.76000e+00,
355,-1.92000e+00,
356,-1.96000e+00,
357,-9.60000e-01,
358,-1.00000e+00,
359,4.00000e-02,
360,8.00000e-02,
361,1.08000e+00,
362,1.08000e+00,
363,2.04000e+00,
364,1.96000e+00,
365,2.84000e+00,
366,2.76000e+00,
367,3.40000e+00,
368,3.32000e+00,
369,3.72000e+00,
370,3.64000e+00,
371,3.80000e+00,
372,3.76000e+00,
373,3.48000e+00,
374,3.52000e+00,
375,3.04000e+00,
376,3.04000e+00,
377,2.28000e+00,
378,2.32000e+00,
379,1.40000e+00,
380,1.40000e+00,
381,4.00000e-01,
382,4.00000e-01,
383,-6.40000e-01,
384,-6.00000e-01,
385,-1.64000e+00,
386,-1.56000e+00,
387,-2.44000e+00,
388,-2.44000e+00,
389,-3.16000e+00,
390,-3.12000e+00,
391,-3.60000e+00,
392,-3.52000e+00,
393,-3.76000e+00,
394,-3.76000e+00,
395,-3.56000e+00,
396,-3.64000e+00,
397,-3.16000e+00,
398,-3.20000e+00,
399,-2.52000e+00,
400,-2.56000e+00,
401,-1.64000e+00,
402,-1.68000e+00,
403,-6.80000e-01,
404,-6.80000e-01,
405,4.00000e-01,
406,3.20000e-01,
407,1.36000e+00,
408,1.32000e+00,
409,2.24000e+00,
410,2.24000e+00,
411,3.00000e+00,
412,2.92000e+00,
413,3.52000e+00,
414,3.48000e+00,
415,3.76000e+00,
416,3.84000e+00,
417,3.64000e+00,
418,3.76000e+00,
419,3.36000e+00,
420,3.44000e+00,
421,2.80000e+00,
422,2.88000e+00,
423,2.04000e+00,
424,2.08000e+00,
425,1.12000e+00,
426,1.16000e+00,
427,1.20000e-01,
428,1.60000e-01,
429,-9.20000e-01,
430,-8.80000e-01,
431,-1.88000e+00,
432,-1.84000e+00,
433,-2.64000e+00,
434,-2.64000e+00,
435,-3.28000e+00,
436,-3.24000e+00,
437,-3.68000e+00,
438,-3.60000e+00,
439,-3.76000e+00,
440,-3.76000e+00,
441,-3.48000e+00,
442,-3.56000e+00,
443,-3.00000e+00,
444,-3.04000e+00,
445,-2.28000e+00,
446,-2.28000e+00,
447,-1.40000e+00,
448,-1.44000e+00,
449,-4.40000e-01,
450,-4.40000e-01,
451,6.00000e-01,
452,5.60000e-01,
453,1.60000e+00,
454,1.56000e+00,
455,2.48000e+00,
456,2.44000e+00,
457,3.20000e+00,
458,3.12000e+00,
459,3.60000e+00,
460,3.56000e+00,
461,3.76000e+00,
462,3.80000e+00,
463,3.64000e+00,
464,3.68000e+00,
465,3.20000e+00,
466,3.28000e+00,
467,2.64000e+00,
468,2.72000e+00,
469,1.80000e+00,
470,1.84000e+00,
471,8.00000e-01,
472,8.80000e-01,
473,-1.20000e-01,
474,-1.20000e-01,
475,-1.20000e+00,
476,-1.16000e+00,
477,-2.12000e+00,
478,-2.08000e+00,
479,-2.84000e+00,
480,-2.84000e+00,
481,-3.48000e+00,
482,-3.40000e+00,
483,-3.72000e+00,
484,-3.76000e+00,
485,-3.60000e+00,
486,-3.68000e+00,
487,-3.40000e+00,
488,-3.48000e+00,
489,-2.84000e+00,
490,-2.88000e+00,
491,-2.04000e+00,
492,-2.08000e+00,
493,-1.16000e+00,
494,-1.16000e+00,
495,-1.20000e-01,
496,-1.60000e-01,
497,9.20000e-01,
498,8.80000e-01,
499,1.84000e+00,
500,1.80000e+00,
501,2.68000e+00,
502,2.64000e+00,
503,3.28000e+00,
504,3.20000e+00,
505,3.68000e+00,
506,3.64000e+00,
507,3.80000e+00,
508,3.80000e+00,
509,3.52000e+00,
510,3.60000e+00,
511,3.08000e+00,
512,3.12000e+00,
513,2.44000e+00,
514,2.48000e+00,
515,1.56000e+00,
516,1.56000e+00,
517,5.60000e-01,
518,6.00000e-01,
519,-4.80000e-01,
520,-4.40000e-01,
521,-1.48000e+00,
522,-1.40000e+00,
523,-2.28000e+00,
524,-2.28000e+00,
525,-3.04000e+00,
526,-3.00000e+00,
527,-3.52000e+00,
528,-3.48000e+00,
529,-3.76000e+00,
530,-3.76000e+00,
531,-3.60000e+00,
532,-3.68000e+00,
533,-3.28000e+00,
534,-3.32000e+00,
535,-2.60000e+00,
536,-2.68000e+00,
537,-1.80000e+00,
538,-1.88000e+00,
539,-8.80000e-01,
540,-8.80000e-01,
541,1.60000e-01,
542,1.60000e-01,
543,1.16000e+00,
544,1.16000e+00,
545,2.12000e+00,
546,2.04000e+00,
547,2.92000e+00,
548,2.84000e+00,
549,3.48000e+00,
550,3.40000e+00,
551,3.72000e+00,
552,3.64000e+00,
553,3.80000e+00,
554,3.84000e+00,
555,3.44000e+00,
556,3.52000e+00,
557,2.92000e+00,
558,2.96000e+00,
559,2.24000e+00,
560,2.24000e+00,
561,1.28000e+00,
562,1.32000e+00,
563,3.20000e-01,
564,3.20000e-01,
565,-7.20000e-01,
566,-6.80000e-01,
567,-1.72000e+00,
568,-1.64000e+00,
569,-2.52000e+00,
570,-2.48000e+00,
571,-3.20000e+00,
572,-3.16000e+00,
573,-3.64000e+00,
574,-3.56000e+00,
575,-3.76000e+00,
576,-3.76000e+00,
577,-3.52000e+00,
578,-3.56000e+00,
579,-3.12000e+00,
580,-3.16000e+00,
581,-2.44000e+00,
582,-2.44000e+00,
583,-1.56000e+00,
584,-1.60000e+00,
585,-6.40000e-01,
586,-6.00000e-01,
587,4.40000e-01,
588,3.60000e-01,
589,1.44000e+00,
590,1.40000e+00,
591,2.32000e+00,
592,2.28000e+00,
593,3.04000e+00,
594,2.96000e+00,
595,3.56000e+00,
596,3.48000e+00,
597,3.80000e+00,
598,3.84000e+00,
599,3.68000e+00,
600,3.72000e+00,
601,3.32000e+00,
602,3.40000e+00,
603,2.76000e+00,
604,2.80000e+00,
605,1.92000e+00,
606,2.00000e+00,
607,1.00000e+00,
608,1.08000e+00,
609,0.00000e+00,
610,4.00000e-02,
611,-1.04000e+00,
612,-9.60000e-01,
613,-1.96000e+00,
614,-1.88000e+00,
615,-2.76000e+00,
616,-2.72000e+00,
617,-3.32000e+00,
618,-3.28000e+00,
619,-3.68000e+00,
620,-3.60000e+00,
621,-3.76000e+00,
622,-3.76000e+00,
623,-3.44000e+00,
624,-3.52000e+00,
625,-2.92000e+00,
626,-3.00000e+00,
627,-2.20000e+00,
628,-2.20000e+00,
629,-1.32000e+00,
630,-1.36000e+00,
631,-3.20000e-01,
632,-3.60000e-01,
633,7.20000e-01,
634,6.80000e-01,
635,1.68000e+00,
636,1.68000e+00,
637,2.52000e+00,
638,2.48000e+00,
639,3.20000e+00,
640,3.12000e+00,
641,3.64000e+00,
642,3.60000e+00,
643,3.76000e+00,
644,3.76000e+00,
645,3.56000e+00,
646,3.64000e+00,
647,3.20000e+00,
648,3.24000e+00,
649,2.56000e+00,
650,2.60000e+00,
651,1.72000e+00,
652,1.80000e+00,
653,7.60000e-01,
654,8.00000e-01,
655,-2.80000e-01,
656,-2.40000e-01,
657,-1.28000e+00,
658,-1.24000e+00,
659,-2.12000e+00,
660,-2.16000e+00,
661,-2.92000e+00,
662,-2.88000e+00,
663,-3.44000e+00,
664,-3.44000e+00,
665,-3.76000e+00,
666,-3.80000e+00,
667,-3.64000e+00,
668,-3.72000e+00,
669,-3.36000e+00,
670,-3.36000e+00,
671,-2.84000e+00,
672,-2.88000e+00,
673,-1.96000e+00,
674,-1.96000e+00,
675,-1.08000e+00,
676,-1.08000e+00,
677,-4.00000e-02,
678,-8.00000e-02,
679,1.00000e+00,
680,9.60000e-01,
681,1.96000e+00,
682,1.92000e+00,
683,2.80000e+00,
684,2.72000e+00,
685,3.36000e+00,
686,3.28000e+00,
687,3.72000e+00,
688,3.68000e+00,
689,3.80000e+00,
690,3.80000e+00,
691,3.52000e+00,
692,3.60000e+00,
693,3.04000e+00,
694,3.12000e+00,
695,2.32000e+00,
696,2.40000e+00,
697,1.48000e+00,
698,1.52000e+00,
699,4.80000e-01,
700,5.20000e-01,
701,-5.60000e-01,
702,-5.20000e-01,
703,-1.52000e+00,
704,-1.48000e+00,
705,-2.40000e+00,
706,-2.36000e+00,
707,-3.08000e+00,
708,-3.00000e+00,
709,-3.56000e+00,
710,-3.52000e+00,
711,-3.76000e+00,
712,-3.76000e+00,
713,-3.56000e+00,
714,-3.64000e+00,
715,-3.20000e+00,
716,-3.24000e+00,
717,-2.56000e+00,
718,-2.64000e+00,
719,-1.76000e+00,
720,-1.80000e+00,
721,-7.60000e-01,
722,-8.00000e-01,
723,2.40000e-01,
724,2.00000e-01,
725,1.28000e+00,
726,1.24000e+00,
727,2.20000e+00,
728,2.16000e+00,
729,2.96000e+00,
730,2.88000e+00,
731,3.48000e+00,
732,3.40000e+00,
733,3.76000e+00,
734,3.68000e+00,
735,3.84000e+00,
736,3.76000e+00,
737,3.40000e+00,
738,3.48000e+00,
739,2.88000e+00,
740,2.96000e+00,
741,2.12000e+00,
742,2.20000e+00,
743,1.24000e+00,
744,1.24000e+00,
745,2.00000e-01,
746,2.40000e-01,
747,-8.00000e-01,
748,-8.00000e-01,
749,-1.80000e+00,
750,-1.72000e+00,
751,-2.64000e+00,
752,-2.56000e+00,
753,-3.24000e+00,
754,-3.20000e+00,
755,-3.64000e+00,
756,-3.60000e+00,
757,-3.76000e+00,
758,-3.76000e+00,
759,-3.52000e+00,
760,-3.56000e+00,
761,-3.04000e+00,
762,-3.08000e+00,
763,-2.36000e+00,
764,-2.36000e+00,
765,-1.48000e+00,
766,-1.56000e+00,
767,-4.80000e-01,
768,-4.80000e-01,
769,5.60000e-01,
770,4.80000e-01,
771,1.52000e+00,
772,1.48000e+00,
773,2.40000e+00,
774,2.36000e+00,
775,3.12000e+00,
776,3.04000e+00,
777,3.60000e+00,
778,3.56000e+00,
779,3.80000e+00,
780,3.80000e+00,
781,3.68000e+00,
782,3.72000e+00,
783,3.28000e+00,
784,3.36000e+00,
785,2.68000e+00,
786,2.72000e+00,
787,1.88000e+00,
788,1.96000e+00,
789,9.20000e-01,
790,1.00000e+00,
791,-8.00000e-02,
792,-4.00000e-02,
793,-1.08000e+00,
794,-1.08000e+00,
795,-2.00000e+00,
796,-2.00000e+00,
797,-2.84000e+00,
798,-2.76000e+00,
799,-3.36000e+00,
800,-3.36000e+00,
801,-3.72000e+00,
802,-3.64000e+00,
803,-3.76000e+00,
804,-3.76000e+00,
805,-3.40000e+00,
806,-3.48000e+00,
807,-2.88000e+00,
808,-2.92000e+00,
809,-2.12000e+00,
810,-2.16000e+00,
811,-1.20000e+00,
812,-1.28000e+00,
813,-2.40000e-01,
814,-2.40000e-01,
815,8.00000e-01,
816,8.00000e-01,
817,1.80000e+00,
818,1.76000e+00,
819,2.60000e+00,
820,2.56000e+00,
821,3.28000e+00,
822,3.20000e+00,
823,3.68000e+00,
824,3.60000e+00,
825,3.80000e+00,
826,3.84000e+00,
827,3.56000e+00,
828,3.64000e+00,
829,3.16000e+00,
830,3.24000e+00,
831,2.48000e+00,
832,2.52000e+00,
833,1.64000e+00,
834,1.68000e+00,
835,6.80000e-01,
836,7.20000e-01,
837,-3.20000e-01,
838,-3.20000e-01,
839,-1.40000e+00,
840,-1.32000e+00,
841,-2.24000e+00,
842,-2.24000e+00,
843,-3.00000e+00,
844,-2.92000e+00,
845,-3.48000e+00,
846,-3.44000e+00,
847,-3.76000e+00,
848,-3.76000e+00,
849,-3.64000e+00,
850,-3.68000e+00,
851,-3.28000e+00,
852,-3.32000e+00,
853,-2.68000e+00,
854,-2.72000e+00,
855,-1.92000e+00,
856,-1.96000e+00,
857,-9.60000e-01,
858,-9.60000e-01,
859,4.00000e-02,
860,8.00000e-02,
861,1.08000e+00,
862,1.04000e+00,
863,2.04000e+00,
864,1.96000e+00,
865,2.80000e+00,
866,2.80000e+00,
867,3.40000e+00,
868,3.40000e+00,
869,3.72000e+00,
870,3.68000e+00,
871,3.84000e+00,
872,3.80000e+00,
873,3.52000e+00,
874,3.56000e+00,
875,2.96000e+00,
876,3.00000e+00,
877,2.24000e+00,
878,2.32000e+00,
879,1.36000e+00,
880,1.40000e+00,
881,4.00000e-01,
882,4.00000e-01,
883,-6.40000e-01,
884,-6.00000e-01,
885,-1.60000e+00,
886,-1.56000e+00,
887,-2.48000e+00,
888,-2.44000e+00,
889,-3.16000e+00,
890,-3.12000e+00,
891,-3.60000e+00,
892,-3.52000e+00,
893,-3.76000e+00,
894,-3.76000e+00,
895,-3.56000e+00,
896,-3.64000e+00,
897,-3.16000e+00,
898,-3.20000e+00,
899,-2.48000e+00,
900,-2.52000e+00,
901,-1.64000e+00,
902,-1.72000e+00,
903,-7.20000e-01,
904,-7.20000e-01,
905,3.60000e-01,
906,3.20000e-01,
907,1.32000e+00,
908,1.32000e+00,
909,2.24000e+00,
910,2.24000e+00,
911,3.00000e+00,
912,2.96000e+00,
913,3.52000e+00,
914,3.44000e+00,
915,3.76000e+00,
916,3.68000e+00,
917,3.80000e+00,
918,3.72000e+00,
919,3.36000e+00,
920,3.44000e+00,
921,2.80000e+00,
922,2.84000e+00,
923,2.04000e+00,
924,2.08000e+00,
925,1.12000e+00,
926,1.16000e+00,
927,8.00000e-02,
928,1.20000e-01,
929,-9.20000e-01,
930,-8.80000e-01,
931,-1.88000e+00,
932,-1.80000e+00,
933,-2.64000e+00,
934,-2.64000e+00,
935,-3.28000e+00,
936,-3.24000e+00,
937,-3.68000e+00,
938,-3.60000e+00,
939,-3.80000e+00,
940,-3.76000e+00,
941,-3.48000e+00,
942,-3.52000e+00,
943,-3.00000e+00,
944,-3.04000e+00,
945,-2.32000e+00,
946,-2.32000e+00,
947,-1.40000e+00,
948,-1.44000e+00,
949,-4.00000e-01,
950,-4.40000e-01,
951,6.40000e-01,
952,5.60000e-01,
953,1.60000e+00,
954,1.56000e+00,
955,2.48000e+00,
956,2.40000e+00,
957,3.16000e+00,
958,3.12000e+00,
959,3.60000e+00,
960,3.56000e+00,
961,3.80000e+00,
962,3.80000e+00,
963,3.60000e+00,
964,3.68000e+00,
965,3.28000e+00,
966,3.32000e+00,
967,2.64000e+00,
968,2.68000e+00,
969,1.80000e+00,
970,1.84000e+00,
971,8.40000e-01,
972,9.20000e-01,
973,-2.00000e-01,
974,-1.20000e-01,
975,-1.16000e+00,
976,-1.16000e+00,
977,-2.12000e+00,
978,-2.08000e+00,
979,-2.88000e+00,
980,-2.80000e+00,
981,-3.44000e+00,
982,-3.36000e+00,
983,-3.72000e+00,
984,-3.64000e+00,
985,-3.76000e+00,
986,-3.72000e+00,
987,-3.36000e+00,
988,-3.40000e+00,
989,-2.80000e+00,
990,-2.88000e+00,
991,-2.08000e+00,
992,-2.12000e+00,
993,-1.16000e+00,
994,-1.16000e+00,
995,-1.20000e-01,
996,-2.00000e-01,
997,9.20000e-01,
998,8.80000e-01,
999,1.88000e+00,
1000,1.80000e+00,
1001,2.68000e+00,
1002,2.64000e+00,
1003,3.32000e+00,
1004,3.24000e+00,
1005,3.68000e+00,
1006,3.64000e+00,
1007,3.84000e+00,
1008,3.84000e+00,
1009,3.52000e+00,
1010,3.60000e+00,
1011,3.08000e+00,
1012,3.16000e+00,
1013,2.44000e+00,
1014,2.44000e+00,
1015,1.56000e+00,
1016,1.60000e+00,
1017,6.00000e-01,
1018,6.00000e-01,
1019,-4.80000e-01,
1020,-4.00000e-01,
1021,-1.44000e+00,
1022,-1.40000e+00,
1023,-2.36000e+00,
1024,-2.32000e+00,
1025,-3.04000e+00,
1026,-3.00000e+00,
1027,-3.52000e+00,
1028,-3.48000e+00,
1029,-3.76000e+00,
1030,-3.76000e+00,
1031,-3.60000e+00,
1032,-3.68000e+00,
1033,-3.24000e+00,
1034,-3.28000e+00,
1035,-2.64000e+00,
1036,-2.68000e+00,
1037,-1.80000e+00,
1038,-1.88000e+00,
1039,-8.80000e-01,
1040,-8.80000e-01,
1041,1.60000e-01,
1042,1.60000e-01,
1043,1.16000e+00,
1044,1.12000e+00,
1045,2.12000e+00,
1046,2.04000e+00,
1047,2.88000e+00,
1048,2.84000e+00,
1049,3.44000e+00,
1050,3.36000e+00,
1051,3.76000e+00,
1052,3.68000e+00,
1053,3.80000e+00,
1054,3.76000e+00,
1055,3.44000e+00,
1056,3.52000e+00,
1057,2.92000e+00,
1058,3.00000e+00,
1059,2.16000e+00,
1060,2.24000e+00,
1061,1.32000e+00,
1062,1.32000e+00,
1063,2.80000e-01,
1064,3.20000e-01,
1065,-7.20000e-01,
1066,-7.20000e-01,
1067,-1.72000e+00,
1068,-1.68000e+00,
1069,-2.56000e+00,
1070,-2.52000e+00,
1071,-3.20000e+00,
1072,-3.16000e+00,
1073,-3.64000e+00,
1074,-3.56000e+00,
1075,-3.76000e+00,
1076,-3.76000e+00,
1077,-3.56000e+00,
1078,-3.56000e+00,
1079,-3.08000e+00,
1080,-3.16000e+00,
1081,-2.44000e+00,
1082,-2.48000e+00,
1083,-1.56000e+00,
1084,-1.64000e+00,
1085,-5.60000e-01,
1086,-6.00000e-01,
1087,4.40000e-01,
1088,4.40000e-01,
1089,1.44000e+00,
1090,1.40000e+00,
1091,2.32000e+00,
1092,2.28000e+00,
1093,3.08000e+00,
1094,3.00000e+00,
1095,3.56000e+00,
1096,3.48000e+00,
1097,3.76000e+00,
1098,3.80000e+00,
1099,3.64000e+00,
1100,3.72000e+00,
1101,3.32000e+00,
1102,3.40000e+00,
1103,2.76000e+00,
1104,2.76000e+00,
1105,1.96000e+00,
1106,2.04000e+00,
1107,1.00000e+00,
1108,1.08000e+00,
1109,4.00000e-02,
1110,4.00000e-02,
1111,-1.00000e+00,
1112,-9.60000e-01,
1113,-1.96000e+00,
1114,-1.92000e+00,
1115,-2.76000e+00,
1116,-2.72000e+00,
1117,-3.36000e+00,
1118,-3.32000e+00,
1119,-3.68000e+00,
1120,-3.64000e+00,
1121,-3.76000e+00,
1122,-3.72000e+00,
1123,-3.44000e+00,
1124,-3.52000e+00,
1125,-2.92000e+00,
1126,-3.00000e+00,
1127,-2.20000e+00,
1128,-2.24000e+00,
1129,-1.32000e+00,
1130,-1.36000e+00,
1131,-3.60000e-01,
1132,-3.20000e-01,
1133,7.20000e-01,
1134,6.80000e-01,
1135,1.68000e+00,
1136,1.68000e+00,
1137,2.56000e+00,
