DataAnalysis/Johnson_noise/2017_johnson_noise/data_MUIC_nop_anan/NewFile64.csv

X,CH1,Start,Increment,
Sequence,Volt,1.80000e-03,1.00000e-06
0,1.88000e+00,
1,2.04000e+00,
2,2.04000e+00,
3,1.88000e+00,
4,1.96000e+00,
5,1.64000e+00,
6,1.68000e+00,
7,1.24000e+00,
8,1.28000e+00,
9,7.20000e-01,
10,8.00000e-01,
11,1.60000e-01,
12,1.60000e-01,
13,-4.80000e-01,
14,-4.40000e-01,
15,-1.00000e+00,
16,-9.60000e-01,
17,-1.48000e+00,
18,-1.44000e+00,
19,-1.80000e+00,
20,-1.76000e+00,
21,-1.96000e+00,
22,-2.00000e+00,
23,-1.88000e+00,
24,-1.96000e+00,
25,-1.72000e+00,
26,-1.76000e+00,
27,-1.40000e+00,
28,-1.44000e+00,
29,-9.20000e-01,
30,-9.20000e-01,
31,-3.20000e-01,
32,-3.60000e-01,
33,2.40000e-01,
34,2.40000e-01,
35,8.40000e-01,
36,8.00000e-01,
37,1.36000e+00,
38,1.32000e+00,
39,1.76000e+00,
40,1.68000e+00,
41,2.00000e+00,
42,1.92000e+00,
43,2.04000e+00,
44,2.04000e+00,
45,1.84000e+00,
46,1.92000e+00,
47,1.60000e+00,
48,1.60000e+00,
49,1.16000e+00,
50,1.20000e+00,
51,6.40000e-01,
52,6.80000e-01,
53,0.00000e+00,
54,8.00000e-02,
55,-5.60000e-01,
56,-5.20000e-01,
57,-1.08000e+00,
58,-1.08000e+00,
59,-1.56000e+00,
60,-1.48000e+00,
61,-1.84000e+00,
62,-1.80000e+00,
63,-2.00000e+00,
64,-2.00000e+00,
65,-1.88000e+00,
66,-1.96000e+00,
67,-1.68000e+00,
68,-1.72000e+00,
69,-1.32000e+00,
70,-1.36000e+00,
71,-8.00000e-01,
72,-8.00000e-01,
73,-2.40000e-01,
74,-2.40000e-01,
75,3.60000e-01,
76,3.20000e-01,
77,9.60000e-01,
78,8.80000e-01,
79,1.44000e+00,
80,1.40000e+00,
81,1.84000e+00,
82,1.72000e+00,
83,2.00000e+00,
84,1.92000e+00,
85,2.08000e+00,
86,2.04000e+00,
87,1.84000e+00,
88,1.92000e+00,
89,1.52000e+00,
90,1.60000e+00,
91,1.08000e+00,
92,1.12000e+00,
93,5.60000e-01,
94,5.60000e-01,
95,-8.00000e-02,
96,0.00000e+00,
97,-6.40000e-01,
98,-6.00000e-01,
99,-1.20000e+00,
100,-1.12000e+00,
101,-1.60000e+00,
102,-1.56000e+00,
103,-1.88000e+00,
104,-1.80000e+00,
105,-2.00000e+00,
106,-2.00000e+00,
107,-1.88000e+00,
108,-1.92000e+00,
109,-1.60000e+00,
110,-1.64000e+00,
111,-1.24000e+00,
112,-1.28000e+00,
113,-7.20000e-01,
114,-7.20000e-01,
115,-1.20000e-01,
116,-2.00000e-01,
117,4.40000e-01,
118,4.00000e-01,
119,1.04000e+00,
120,9.60000e-01,
121,1.48000e+00,
122,1.44000e+00,
123,1.84000e+00,
124,1.80000e+00,
125,2.04000e+00,
126,2.04000e+00,
127,1.96000e+00,
128,2.04000e+00,
129,1.80000e+00,
130,1.84000e+00,
131,1.48000e+00,
132,1.48000e+00,
133,1.00000e+00,
134,1.04000e+00,
135,4.40000e-01,
136,4.80000e-01,
137,-1.60000e-01,
138,-1.60000e-01,
139,-7.20000e-01,
140,-7.20000e-01,
141,-1.28000e+00,
142,-1.24000e+00,
143,-1.68000e+00,
144,-1.64000e+00,
145,-1.92000e+00,
146,-1.84000e+00,
147,-2.00000e+00,
148,-2.00000e+00,
149,-1.84000e+00,
150,-1.88000e+00,
151,-1.56000e+00,
152,-1.60000e+00,
153,-1.16000e+00,
154,-1.16000e+00,
155,-6.40000e-01,
156,-6.80000e-01,
157,-4.00000e-02,
158,-4.00000e-02,
159,5.60000e-01,
160,5.20000e-01,
161,1.12000e+00,
162,1.04000e+00,
163,1.60000e+00,
164,1.52000e+00,
165,1.92000e+00,
166,1.84000e+00,
167,2.04000e+00,
168,1.96000e+00,
169,2.04000e+00,
170,2.00000e+00,
171,1.76000e+00,
172,1.84000e+00,
173,1.40000e+00,
174,1.44000e+00,
175,8.80000e-01,
176,9.60000e-01,
177,3.60000e-01,
178,3.60000e-01,
179,-2.80000e-01,
180,-2.00000e-01,
181,-8.40000e-01,
182,-8.00000e-01,
183,-1.32000e+00,
184,-1.28000e+00,
185,-1.72000e+00,
186,-1.64000e+00,
187,-1.92000e+00,
188,-1.88000e+00,
189,-2.00000e+00,
190,-2.00000e+00,
191,-1.80000e+00,
192,-1.84000e+00,
193,-1.48000e+00,
194,-1.56000e+00,
195,-1.08000e+00,
196,-1.08000e+00,
197,-5.20000e-01,
198,-5.60000e-01,
199,8.00000e-02,
200,0.00000e+00,
201,6.80000e-01,
202,6.00000e-01,
203,1.20000e+00,
204,1.16000e+00,
205,1.64000e+00,
206,1.56000e+00,
207,1.92000e+00,
208,1.84000e+00,
209,2.04000e+00,
210,2.08000e+00,
211,1.92000e+00,
212,2.00000e+00,
213,1.68000e+00,
214,1.76000e+00,
215,1.32000e+00,
216,1.36000e+00,
217,8.00000e-01,
218,8.80000e-01,
219,2.40000e-01,
220,2.80000e-01,
221,-3.60000e-01,
222,-3.20000e-01,
223,-9.20000e-01,
224,-8.80000e-01,
225,-1.40000e+00,
226,-1.36000e+00,
227,-1.76000e+00,
228,-1.72000e+00,
229,-1.96000e+00,
230,-1.88000e+00,
231,-2.00000e+00,
232,-2.00000e+00,
233,-1.76000e+00,
234,-1.80000e+00,
235,-1.44000e+00,
236,-1.48000e+00,
237,-1.00000e+00,
238,-1.00000e+00,
239,-4.40000e-01,
240,-4.40000e-01,
241,1.60000e-01,
242,1.20000e-01,
243,7.20000e-01,
244,7.20000e-01,
245,1.28000e+00,
246,1.20000e+00,
247,1.72000e+00,
248,1.64000e+00,
249,1.96000e+00,
250,1.88000e+00,
251,2.04000e+00,
252,2.04000e+00,
253,1.88000e+00,
254,1.96000e+00,
255,1.64000e+00,
256,1.72000e+00,
257,1.20000e+00,
258,1.28000e+00,
259,7.20000e-01,
260,7.60000e-01,
261,1.60000e-01,
262,1.60000e-01,
263,-4.80000e-01,
264,-4.00000e-01,
265,-1.00000e+00,
266,-1.00000e+00,
267,-1.48000e+00,
268,-1.44000e+00,
269,-1.80000e+00,
270,-1.76000e+00,
271,-1.96000e+00,
272,-2.00000e+00,
273,-1.88000e+00,
274,-1.96000e+00,
275,-1.72000e+00,
276,-1.80000e+00,
277,-1.36000e+00,
278,-1.44000e+00,
279,-9.20000e-01,
280,-9.20000e-01,
281,-3.20000e-01,
282,-4.00000e-01,
283,2.80000e-01,
284,2.40000e-01,
285,8.40000e-01,
286,8.00000e-01,
287,1.36000e+00,
288,1.32000e+00,
289,1.76000e+00,
290,1.68000e+00,
291,2.00000e+00,
292,1.92000e+00,
293,2.04000e+00,
294,2.04000e+00,
295,1.88000e+00,
296,1.96000e+00,
297,1.60000e+00,
298,1.64000e+00,
299,1.12000e+00,
300,1.20000e+00,
301,6.00000e-01,
302,6.80000e-01,
303,0.00000e+00,
304,8.00000e-02,
305,-5.60000e-01,
306,-5.20000e-01,
307,-1.12000e+00,
308,-1.08000e+00,
309,-1.56000e+00,
310,-1.52000e+00,
311,-1.84000e+00,
312,-1.80000e+00,
313,-2.00000e+00,
314,-2.00000e+00,
315,-1.88000e+00,
316,-1.96000e+00,
317,-1.68000e+00,
318,-1.72000e+00,
319,-1.32000e+00,
320,-1.36000e+00,
321,-8.00000e-01,
322,-8.40000e-01,
323,-2.40000e-01,
324,-2.80000e-01,
325,3.60000e-01,
326,3.20000e-01,
327,9.60000e-01,
328,8.80000e-01,
329,1.40000e+00,
330,1.40000e+00,
331,1.80000e+00,
332,1.72000e+00,
333,2.00000e+00,
334,1.92000e+00,
335,2.04000e+00,
336,2.04000e+00,
337,1.84000e+00,
338,1.88000e+00,
339,1.52000e+00,
340,1.60000e+00,
341,1.08000e+00,
342,1.12000e+00,
343,5.20000e-01,
344,6.00000e-01,
345,-8.00000e-02,
346,-4.00000e-02,
347,-6.40000e-01,
348,-6.00000e-01,
349,-1.16000e+00,
350,-1.16000e+00,
351,-1.60000e+00,
352,-1.56000e+00,
353,-1.88000e+00,
354,-1.84000e+00,
355,-2.00000e+00,
356,-2.00000e+00,
357,-1.84000e+00,
358,-1.92000e+00,
359,-1.64000e+00,
360,-1.68000e+00,
361,-1.24000e+00,
362,-1.24000e+00,
363,-7.20000e-01,
364,-7.20000e-01,
365,-1.20000e-01,
366,-1.60000e-01,
367,4.40000e-01,
368,4.40000e-01,
369,1.04000e+00,
370,9.60000e-01,
371,1.52000e+00,
372,1.48000e+00,
373,1.84000e+00,
374,1.80000e+00,
375,2.04000e+00,
376,1.96000e+00,
377,2.08000e+00,
378,2.04000e+00,
379,1.80000e+00,
380,1.88000e+00,
381,1.48000e+00,
382,1.52000e+00,
383,9.60000e-01,
384,1.00000e+00,
385,4.40000e-01,
386,4.40000e-01,
387,-1.60000e-01,
388,-1.20000e-01,
389,-7.20000e-01,
390,-6.80000e-01,
391,-1.24000e+00,
392,-1.20000e+00,
393,-1.68000e+00,
394,-1.60000e+00,
395,-1.92000e+00,
396,-1.84000e+00,
397,-2.00000e+00,
398,-2.00000e+00,
399,-1.84000e+00,
400,-1.88000e+00,
401,-1.56000e+00,
402,-1.64000e+00,
403,-1.16000e+00,
404,-1.20000e+00,
405,-6.00000e-01,
406,-6.80000e-01,
407,-4.00000e-02,
408,-8.00000e-02,
409,5.60000e-01,
410,5.20000e-01,
411,1.12000e+00,
412,1.04000e+00,
413,1.60000e+00,
414,1.52000e+00,
415,1.88000e+00,
416,1.80000e+00,
417,2.04000e+00,
418,2.04000e+00,
419,1.92000e+00,
420,2.00000e+00,
421,1.72000e+00,
422,1.80000e+00,
423,1.40000e+00,
424,1.44000e+00,
425,8.80000e-01,
426,9.60000e-01,
427,3.60000e-01,
428,3.60000e-01,
429,-2.40000e-01,
430,-2.40000e-01,
431,-8.40000e-01,
432,-8.00000e-01,
433,-1.36000e+00,
434,-1.28000e+00,
435,-1.72000e+00,
436,-1.68000e+00,
437,-1.96000e+00,
438,-1.88000e+00,
439,-2.00000e+00,
440,-2.00000e+00,
441,-1.80000e+00,
442,-1.84000e+00,
443,-1.52000e+00,
444,-1.56000e+00,
445,-1.08000e+00,
446,-1.12000e+00,
447,-5.20000e-01,
448,-5.60000e-01,
449,8.00000e-02,
450,4.00000e-02,
451,6.80000e-01,
452,6.00000e-01,
453,1.20000e+00,
454,1.16000e+00,
455,1.60000e+00,
456,1.60000e+00,
457,1.96000e+00,
458,1.88000e+00,
459,2.04000e+00,
460,2.04000e+00,
461,1.92000e+00,
462,2.00000e+00,
463,1.68000e+00,
464,1.76000e+00,
465,1.28000e+00,
466,1.36000e+00,
467,8.00000e-01,
468,8.40000e-01,
469,2.40000e-01,
470,2.80000e-01,
471,-3.60000e-01,
472,-3.20000e-01,
473,-9.20000e-01,
474,-9.20000e-01,
475,-1.40000e+00,
476,-1.36000e+00,
477,-1.76000e+00,
478,-1.76000e+00,
479,-1.96000e+00,
480,-1.88000e+00,
481,-2.00000e+00,
482,-2.00000e+00,
483,-1.76000e+00,
484,-1.80000e+00,
485,-1.44000e+00,
486,-1.52000e+00,
487,-1.00000e+00,
488,-1.00000e+00,
489,-4.00000e-01,
490,-4.80000e-01,
491,1.60000e-01,
492,1.20000e-01,
493,7.60000e-01,
494,7.20000e-01,
495,1.28000e+00,
496,1.24000e+00,
497,1.72000e+00,
498,1.64000e+00,
499,1.96000e+00,
500,1.88000e+00,
501,2.08000e+00,
502,2.08000e+00,
503,1.92000e+00,
504,1.96000e+00,
505,1.64000e+00,
506,1.72000e+00,
507,1.24000e+00,
508,1.28000e+00,
509,7.20000e-01,
510,8.00000e-01,
511,1.20000e-01,
512,1.60000e-01,
513,-4.80000e-01,
514,-4.00000e-01,
515,-1.00000e+00,
516,-9.60000e-01,
517,-1.48000e+00,
518,-1.44000e+00,
519,-1.80000e+00,
520,-1.72000e+00,
521,-1.96000e+00,
522,-2.00000e+00,
523,-1.88000e+00,
524,-1.96000e+00,
525,-1.72000e+00,
526,-1.76000e+00,
527,-1.36000e+00,
528,-1.44000e+00,
529,-8.80000e-01,
530,-9.20000e-01,
531,-3.20000e-01,
532,-3.60000e-01,
533,2.80000e-01,
534,2.40000e-01,
535,8.80000e-01,
536,8.40000e-01,
537,1.36000e+00,
538,1.28000e+00,
539,1.76000e+00,
540,1.68000e+00,
541,2.00000e+00,
542,1.92000e+00,
543,2.08000e+00,
544,2.08000e+00,
545,1.88000e+00,
546,1.96000e+00,
547,1.60000e+00,
548,1.64000e+00,
549,1.16000e+00,
550,1.20000e+00,
551,6.40000e-01,
552,6.80000e-01,
553,4.00000e-02,
554,8.00000e-02,
555,-5.60000e-01,
556,-4.80000e-01,
557,-1.12000e+00,
558,-1.08000e+00,
559,-1.56000e+00,
560,-1.48000e+00,
561,-1.84000e+00,
562,-1.80000e+00,
563,-2.00000e+00,
564,-2.00000e+00,
565,-1.88000e+00,
566,-1.92000e+00,
567,-1.68000e+00,
568,-1.72000e+00,
569,-1.28000e+00,
570,-1.36000e+00,
571,-8.00000e-01,
572,-8.40000e-01,
573,-2.40000e-01,
574,-2.40000e-01,
575,4.00000e-01,
576,3.20000e-01,
577,9.60000e-01,
578,8.80000e-01,
579,1.44000e+00,
580,1.40000e+00,
581,1.84000e+00,
582,1.76000e+00,
583,2.04000e+00,
584,1.96000e+00,
585,2.08000e+00,
586,2.04000e+00,
587,1.84000e+00,
588,1.92000e+00,
589,1.52000e+00,
590,1.60000e+00,
591,1.04000e+00,
592,1.12000e+00,
593,5.20000e-01,
594,6.00000e-01,
595,-8.00000e-02,
596,-4.00000e-02,
597,-6.40000e-01,
598,-6.00000e-01,
599,-1.16000e+00,
600,-1.16000e+00,
601,-1.60000e+00,
602,-1.60000e+00,
603,-1.88000e+00,
604,-1.84000e+00,
605,-2.00000e+00,
606,-2.00000e+00,
607,-1.88000e+00,
608,-1.92000e+00,
609,-1.60000e+00,
610,-1.68000e+00,
611,-1.24000e+00,
612,-1.28000e+00,
613,-7.20000e-01,
614,-7.60000e-01,
615,-1.20000e-01,
616,-2.00000e-01,
617,4.80000e-01,
618,4.40000e-01,
619,1.04000e+00,
620,1.00000e+00,
621,1.48000e+00,
622,1.48000e+00,
623,1.84000e+00,
624,1.80000e+00,
625,2.04000e+00,
626,1.96000e+00,
627,2.08000e+00,
628,2.04000e+00,
629,1.80000e+00,
630,1.88000e+00,
631,1.44000e+00,
632,1.48000e+00,
633,9.60000e-01,
634,1.04000e+00,
635,4.40000e-01,
636,4.80000e-01,
637,-1.60000e-01,
638,-1.20000e-01,
639,-7.60000e-01,
640,-7.20000e-01,
641,-1.28000e+00,
642,-1.20000e+00,
643,-1.68000e+00,
644,-1.60000e+00,
645,-1.92000e+00,
646,-1.84000e+00,
647,-2.00000e+00,
648,-2.00000e+00,
649,-1.84000e+00,
650,-1.88000e+00,
651,-1.56000e+00,
652,-1.60000e+00,
653,-1.16000e+00,
654,-1.20000e+00,
655,-6.00000e-01,
656,-6.80000e-01,
657,-4.00000e-02,
658,-8.00000e-02,
659,6.00000e-01,
660,5.20000e-01,
661,1.12000e+00,
662,1.04000e+00,
663,1.60000e+00,
664,1.52000e+00,
665,1.92000e+00,
666,1.84000e+00,
667,2.04000e+00,
668,1.96000e+00,
669,2.08000e+00,
670,2.04000e+00,
671,1.76000e+00,
672,1.80000e+00,
673,1.40000e+00,
674,1.44000e+00,
675,8.80000e-01,
676,9.60000e-01,
677,3.60000e-01,
678,3.60000e-01,
679,-2.40000e-01,
680,-2.00000e-01,
681,-8.40000e-01,
682,-8.00000e-01,
683,-1.36000e+00,
684,-1.28000e+00,
685,-1.72000e+00,
686,-1.68000e+00,
687,-1.92000e+00,
688,-1.88000e+00,
689,-2.00000e+00,
690,-2.00000e+00,
691,-1.80000e+00,
692,-1.84000e+00,
693,-1.48000e+00,
694,-1.56000e+00,
695,-1.08000e+00,
696,-1.12000e+00,
697,-5.60000e-01,
698,-5.60000e-01,
699,8.00000e-02,
700,4.00000e-02,
701,6.80000e-01,
702,6.00000e-01,
703,1.20000e+00,
704,1.16000e+00,
705,1.60000e+00,
706,1.60000e+00,
707,1.92000e+00,
708,1.84000e+00,
709,2.04000e+00,
710,2.04000e+00,
711,1.92000e+00,
712,2.00000e+00,
713,1.68000e+00,
714,1.76000e+00,
715,1.32000e+00,
716,1.36000e+00,
717,8.00000e-01,
718,8.80000e-01,
719,2.40000e-01,
720,2.40000e-01,
721,-3.60000e-01,
722,-3.20000e-01,
723,-9.20000e-01,
724,-8.80000e-01,
725,-1.40000e+00,
726,-1.36000e+00,
727,-1.76000e+00,
728,-1.72000e+00,
729,-1.96000e+00,
730,-1.88000e+00,
731,-2.00000e+00,
732,-1.96000e+00,
733,-1.76000e+00,
734,-1.80000e+00,
735,-1.44000e+00,
736,-1.48000e+00,
737,-1.00000e+00,
738,-1.04000e+00,
739,-4.00000e-01,
740,-4.80000e-01,
741,1.60000e-01,
742,1.20000e-01,
743,7.60000e-01,
744,7.20000e-01,
745,1.28000e+00,
746,1.24000e+00,
747,1.72000e+00,
748,1.64000e+00,
749,1.96000e+00,
750,1.88000e+00,
751,2.08000e+00,
752,2.08000e+00,
753,1.92000e+00,
754,1.96000e+00,
755,1.64000e+00,
756,1.72000e+00,
757,1.24000e+00,
758,1.28000e+00,
759,7.20000e-01,
760,7.60000e-01,
761,1.20000e-01,
762,1.60000e-01,
763,-4.80000e-01,
764,-4.00000e-01,
765,-1.00000e+00,
766,-1.00000e+00,
767,-1.48000e+00,
768,-1.44000e+00,
769,-1.80000e+00,
770,-1.76000e+00,
771,-2.00000e+00,
772,-2.00000e+00,
773,-1.88000e+00,
774,-1.96000e+00,
775,-1.76000e+00,
776,-1.76000e+00,
777,-1.36000e+00,
778,-1.44000e+00,
779,-9.20000e-01,
780,-9.20000e-01,
781,-3.20000e-01,
782,-3.60000e-01,
783,2.80000e-01,
784,2.40000e-01,
785,8.80000e-01,
786,8.00000e-01,
787,1.36000e+00,
788,1.32000e+00,
789,1.76000e+00,
790,1.72000e+00,
791,2.00000e+00,
792,1.92000e+00,
793,2.08000e+00,
794,2.04000e+00,
795,1.88000e+00,
796,1.96000e+00,
797,1.60000e+00,
798,1.64000e+00,
799,1.16000e+00,
800,1.20000e+00,
801,6.40000e-01,
802,6.80000e-01,
803,0.00000e+00,
804,8.00000e-02,
805,-5.20000e-01,
806,-5.20000e-01,
807,-1.08000e+00,
808,-1.08000e+00,
809,-1.56000e+00,
810,-1.48000e+00,
811,-1.84000e+00,
812,-1.76000e+00,
813,-2.00000e+00,
814,-2.00000e+00,
815,-1.88000e+00,
816,-1.92000e+00,
817,-1.68000e+00,
818,-1.72000e+00,
819,-1.28000e+00,
820,-1.36000e+00,
821,-7.60000e-01,
822,-8.40000e-01,
823,-2.40000e-01,
824,-2.80000e-01,
825,3.60000e-01,
826,3.20000e-01,
827,9.60000e-01,
828,8.80000e-01,
829,1.44000e+00,
830,1.36000e+00,
831,1.80000e+00,
832,1.72000e+00,
833,2.00000e+00,
834,1.92000e+00,
835,2.04000e+00,
836,2.04000e+00,
837,1.84000e+00,
838,1.88000e+00,
839,1.52000e+00,
840,1.56000e+00,
841,1.08000e+00,
842,1.12000e+00,
843,5.20000e-01,
844,6.00000e-01,
845,-8.00000e-02,
846,0.00000e+00,
847,-6.40000e-01,
848,-6.00000e-01,
849,-1.20000e+00,
850,-1.16000e+00,
851,-1.60000e+00,
852,-1.56000e+00,
853,-1.88000e+00,
854,-1.84000e+00,
855,-2.00000e+00,
856,-2.00000e+00,
857,-1.84000e+00,
858,-1.92000e+00,
859,-1.60000e+00,
860,-1.68000e+00,
861,-1.20000e+00,
862,-1.28000e+00,
863,-7.20000e-01,
864,-7.60000e-01,
865,-1.20000e-01,
866,-2.00000e-01,
867,4.80000e-01,
868,4.40000e-01,
869,1.04000e+00,
870,9.60000e-01,
871,1.48000e+00,
872,1.48000e+00,
873,1.88000e+00,
874,1.80000e+00,
875,2.04000e+00,
876,1.96000e+00,
877,2.08000e+00,
878,2.04000e+00,
879,1.80000e+00,
880,1.88000e+00,
881,1.48000e+00,
882,1.52000e+00,
883,9.60000e-01,
884,1.04000e+00,
885,4.40000e-01,
886,5.20000e-01,
887,-1.60000e-01,
888,-1.20000e-01,
889,-7.60000e-01,
890,-6.80000e-01,
891,-1.24000e+00,
892,-1.20000e+00,
893,-1.68000e+00,
894,-1.60000e+00,
895,-1.92000e+00,
896,-1.84000e+00,
897,-2.00000e+00,
898,-2.00000e+00,
899,-1.84000e+00,
900,-1.88000e+00,
901,-1.56000e+00,
902,-1.64000e+00,
903,-1.16000e+00,
904,-1.20000e+00,
905,-6.40000e-01,
906,-6.40000e-01,
907,-4.00000e-02,
908,-8.00000e-02,
909,6.00000e-01,
910,5.20000e-01,
911,1.12000e+00,
912,1.08000e+00,
913,1.56000e+00,
914,1.52000e+00,
915,1.88000e+00,
916,1.84000e+00,
917,2.04000e+00,
918,2.04000e+00,
919,1.92000e+00,
920,2.04000e+00,
921,1.76000e+00,
922,1.84000e+00,
923,1.40000e+00,
924,1.44000e+00,
925,8.80000e-01,
926,9.60000e-01,
927,3.20000e-01,
928,4.00000e-01,
929,-2.80000e-01,
930,-2.40000e-01,
931,-8.40000e-01,
932,-8.40000e-01,
933,-1.36000e+00,
934,-1.32000e+00,
935,-1.72000e+00,
936,-1.68000e+00,
937,-1.96000e+00,
938,-1.88000e+00,
939,-2.00000e+00,
940,-2.00000e+00,
941,-1.80000e+00,
942,-1.88000e+00,
943,-1.52000e+00,
944,-1.56000e+00,
945,-1.08000e+00,
946,-1.16000e+00,
947,-5.20000e-01,
948,-6.00000e-01,
949,8.00000e-02,
950,4.00000e-02,
951,6.80000e-01,
952,6.00000e-01,
953,1.20000e+00,
954,1.16000e+00,
955,1.64000e+00,
956,1.60000e+00,
957,1.92000e+00,
958,1.88000e+00,
959,2.04000e+00,
960,2.04000e+00,
961,1.92000e+00,
962,2.00000e+00,
963,1.72000e+00,
964,1.76000e+00,
965,1.32000e+00,
966,1.36000e+00,
967,8.00000e-01,
968,8.80000e-01,
969,2.40000e-01,
970,2.80000e-01,
971,-3.20000e-01,
972,-3.20000e-01,
973,-9.20000e-01,
974,-9.20000e-01,
975,-1.40000e+00,
976,-1.40000e+00,
977,-1.80000e+00,
978,-1.72000e+00,
979,-1.96000e+00,
980,-1.92000e+00,
981,-2.00000e+00,
982,-2.00000e+00,
983,-1.76000e+00,
984,-1.80000e+00,
985,-1.44000e+00,
986,-1.48000e+00,
987,-1.00000e+00,
988,-1.04000e+00,
989,-4.40000e-01,
990,-4.80000e-01,
991,1.60000e-01,
992,1.20000e-01,
993,7.60000e-01,
994,7.20000e-01,
995,1.28000e+00,
996,1.24000e+00,
997,1.68000e+00,
998,1.64000e+00,
999,1.96000e+00,
1000,1.88000e+00,
1001,2.08000e+00,
1002,2.08000e+00,
1003,1.88000e+00,
1004,1.96000e+00,
1005,1.64000e+00,
1006,1.72000e+00,
1007,1.20000e+00,
1008,1.28000e+00,
1009,7.20000e-01,
1010,7.60000e-01,
1011,1.20000e-01,
1012,1.60000e-01,
1013,-4.80000e-01,
1014,-4.40000e-01,
1015,-1.00000e+00,
1016,-9.60000e-01,
1017,-1.52000e+00,
1018,-1.44000e+00,
1019,-1.84000e+00,
1020,-1.76000e+00,
1021,-2.00000e+00,
1022,-2.00000e+00,
1023,-1.92000e+00,
1024,-1.96000e+00,
1025,-1.72000e+00,
1026,-1.80000e+00,
1027,-1.36000e+00,
1028,-1.40000e+00,
1029,-9.20000e-01,
1030,-9.20000e-01,
1031,-3.20000e-01,
1032,-3.60000e-01,
1033,2.40000e-01,
1034,2.40000e-01,
1035,8.40000e-01,
1036,8.00000e-01,
1037,1.32000e+00,
1038,1.28000e+00,
1039,1.76000e+00,
1040,1.68000e+00,
1041,2.00000e+00,
1042,1.92000e+00,
1043,2.04000e+00,
1044,2.04000e+00,
1045,1.88000e+00,
1046,1.96000e+00,
1047,1.60000e+00,
1048,1.64000e+00,
1049,1.12000e+00,
1050,1.20000e+00,
1051,6.40000e-01,
1052,6.40000e-01,
1053,4.00000e-02,
1054,8.00000e-02,
1055,-5.60000e-01,
1056,-5.60000e-01,
1057,-1.12000e+00,
1058,-1.08000e+00,
1059,-1.56000e+00,
1060,-1.52000e+00,
1061,-1.84000e+00,
1062,-1.80000e+00,
1063,-2.00000e+00,
1064,-1.92000e+00,
1065,-2.00000e+00,
1066,-1.96000e+00,
1067,-1.68000e+00,
1068,-1.72000e+00,
1069,-1.32000e+00,
1070,-1.32000e+00,
1071,-8.00000e-01,
1072,-8.40000e-01,
1073,-2.40000e-01,
1074,-2.80000e-01,
1075,3.60000e-01,
1076,3.20000e-01,
1077,9.60000e-01,
1078,8.80000e-01,
1079,1.40000e+00,
1080,1.40000e+00,
1081,1.76000e+00,
1082,1.76000e+00,
1083,2.04000e+00,
1084,1.96000e+00,
1085,2.08000e+00,
1086,2.04000e+00,
1087,1.84000e+00,
1088,1.92000e+00,
1089,1.52000e+00,
1090,1.56000e+00,
1091,1.08000e+00,
1092,1.12000e+00,
1093,5.60000e-01,
1094,6.00000e-01,
1095,-4.00000e-02,
1096,0.00000e+00,
1097,-6.40000e-01,
1098,-5.60000e-01,
1099,-1.16000e+00,
1100,-1.12000e+00,
1101,-1.60000e+00,
1102,-1.56000e+00,
1103,-1.88000e+00,
1104,-1.80000e+00,
1105,-2.00000e+00,
1106,-2.00000e+00,
1107,-1.84000e+00,
1108,-1.92000e+00,
1109,-1.60000e+00,
1110,-1.68000e+00,
1111,-1.24000e+00,
1112,-1.28000e+00,
1113,-6.80000e-01,
1114,-7.60000e-01,
1115,-1.20000e-01,
1116,-1.60000e-01,
1117,4.40000e-01,
1118,4.40000e-01,
1119,1.04000e+00,
1120,9.60000e-01,
1121,1.52000e+00,
1122,1.48000e+00,
1123,1.80000e+00,
1124,1.80000e+00,
1125,2.04000e+00,
1126,1.96000e+00,
1127,2.08000e+00,
1128,2.04000e+00,
1129,1.80000e+00,
1130,1.88000e+00,
1131,1.48000e+00,
1132,1.48000e+00,
1133,9.60000e-01,
1134,1.04000e+00,
1135,4.40000e-01,
1136,4.80000e-01,
1137,-1.60000e-01,
