DataAnalysis/Johnson_noise/2017_johnson_noise/data_MUIC_nop_anan/NewFile45.csv

X,CH1,Start,Increment,
Sequence,Volt,-3.60000e-03,1.00000e-05
0,-2.16000e+00,
1,-3.32000e+00,
2,-3.32000e+00,
3,-3.72000e+00,
4,-3.64000e+00,
5,-3.08000e+00,
6,-3.08000e+00,
7,-1.72000e+00,
8,-1.72000e+00,
9,4.00000e-02,
10,4.00000e-02,
11,1.84000e+00,
12,1.84000e+00,
13,3.20000e+00,
14,3.12000e+00,
15,3.72000e+00,
16,3.72000e+00,
17,3.32000e+00,
18,3.40000e+00,
19,2.16000e+00,
20,2.20000e+00,
21,4.80000e-01,
22,4.80000e-01,
23,-1.32000e+00,
24,-1.32000e+00,
25,-2.84000e+00,
26,-2.80000e+00,
27,-3.64000e+00,
28,-3.72000e+00,
29,-3.48000e+00,
30,-3.52000e+00,
31,-2.48000e+00,
32,-2.48000e+00,
33,-8.80000e-01,
34,-8.40000e-01,
35,9.60000e-01,
36,1.00000e+00,
37,2.56000e+00,
38,2.60000e+00,
39,3.56000e+00,
40,3.52000e+00,
41,3.76000e+00,
42,3.64000e+00,
43,2.84000e+00,
44,2.92000e+00,
45,1.36000e+00,
46,1.40000e+00,
47,-4.80000e-01,
48,-4.40000e-01,
49,-2.16000e+00,
50,-2.12000e+00,
51,-3.32000e+00,
52,-3.32000e+00,
53,-3.72000e+00,
54,-3.72000e+00,
55,-3.04000e+00,
56,-3.08000e+00,
57,-1.68000e+00,
58,-1.72000e+00,
59,4.00000e-02,
60,4.00000e-02,
61,1.84000e+00,
62,1.80000e+00,
63,3.16000e+00,
64,3.16000e+00,
65,3.72000e+00,
66,3.72000e+00,
67,3.36000e+00,
68,3.40000e+00,
69,2.16000e+00,
70,2.20000e+00,
71,4.80000e-01,
72,4.80000e-01,
73,-1.32000e+00,
74,-1.36000e+00,
75,-2.80000e+00,
76,-2.80000e+00,
77,-3.64000e+00,
78,-3.72000e+00,
79,-3.44000e+00,
80,-3.48000e+00,
81,-2.48000e+00,
82,-2.52000e+00,
83,-8.80000e-01,
84,-8.80000e-01,
85,9.60000e-01,
86,9.60000e-01,
87,2.56000e+00,
88,2.56000e+00,
89,3.56000e+00,
90,3.48000e+00,
91,3.72000e+00,
92,3.68000e+00,
93,2.84000e+00,
94,2.84000e+00,
95,1.36000e+00,
96,1.40000e+00,
97,-4.80000e-01,
98,-4.00000e-01,
99,-2.16000e+00,
100,-2.12000e+00,
101,-3.32000e+00,
102,-3.28000e+00,
103,-3.72000e+00,
104,-3.72000e+00,
105,-3.04000e+00,
106,-3.12000e+00,
107,-1.72000e+00,
108,-1.76000e+00,
109,8.00000e-02,
110,8.00000e-02,
111,1.80000e+00,
112,1.76000e+00,
113,3.20000e+00,
114,3.12000e+00,
115,3.72000e+00,
116,3.72000e+00,
117,3.28000e+00,
118,3.36000e+00,
119,2.16000e+00,
120,2.20000e+00,
121,4.80000e-01,
122,4.80000e-01,
123,-1.32000e+00,
124,-1.32000e+00,
125,-2.84000e+00,
126,-2.80000e+00,
127,-3.64000e+00,
128,-3.72000e+00,
129,-3.44000e+00,
130,-3.48000e+00,
131,-2.48000e+00,
132,-2.48000e+00,
133,-8.80000e-01,
134,-8.40000e-01,
135,1.00000e+00,
136,9.60000e-01,
137,2.56000e+00,
138,2.60000e+00,
139,3.56000e+00,
140,3.56000e+00,
141,3.72000e+00,
142,3.68000e+00,
143,2.84000e+00,
144,2.84000e+00,
145,1.36000e+00,
146,1.40000e+00,
147,-4.40000e-01,
148,-4.00000e-01,
149,-2.16000e+00,
150,-2.16000e+00,
151,-3.32000e+00,
152,-3.28000e+00,
153,-3.72000e+00,
154,-3.68000e+00,
155,-3.04000e+00,
156,-3.08000e+00,
157,-1.72000e+00,
158,-1.76000e+00,
159,4.00000e-02,
160,4.00000e-02,
161,1.84000e+00,
162,1.84000e+00,
163,3.16000e+00,
164,3.16000e+00,
165,3.72000e+00,
166,3.76000e+00,
167,3.32000e+00,
168,3.36000e+00,
169,2.12000e+00,
170,2.20000e+00,
171,4.80000e-01,
172,4.80000e-01,
173,-1.32000e+00,
174,-1.36000e+00,
175,-2.84000e+00,
176,-2.76000e+00,
177,-3.64000e+00,
178,-3.72000e+00,
179,-3.44000e+00,
180,-3.48000e+00,
181,-2.48000e+00,
182,-2.44000e+00,
183,-8.80000e-01,
184,-8.40000e-01,
185,1.00000e+00,
186,9.60000e-01,
187,2.56000e+00,
188,2.60000e+00,
189,3.56000e+00,
190,3.52000e+00,
191,3.72000e+00,
192,3.68000e+00,
193,2.84000e+00,
194,2.84000e+00,
195,1.36000e+00,
196,1.40000e+00,
197,-4.80000e-01,
198,-4.00000e-01,
199,-2.16000e+00,
200,-2.12000e+00,
201,-3.32000e+00,
202,-3.32000e+00,
203,-3.72000e+00,
204,-3.68000e+00,
205,-3.04000e+00,
206,-3.08000e+00,
207,-1.72000e+00,
208,-1.72000e+00,
209,8.00000e-02,
210,8.00000e-02,
211,1.88000e+00,
212,1.84000e+00,
213,3.20000e+00,
214,3.12000e+00,
215,3.72000e+00,
216,3.76000e+00,
217,3.36000e+00,
218,3.40000e+00,
219,2.16000e+00,
220,2.20000e+00,
221,4.80000e-01,
222,4.80000e-01,
223,-1.36000e+00,
224,-1.32000e+00,
225,-2.84000e+00,
226,-2.84000e+00,
227,-3.64000e+00,
228,-3.72000e+00,
229,-3.44000e+00,
230,-3.48000e+00,
231,-2.44000e+00,
232,-2.48000e+00,
233,-8.40000e-01,
234,-8.40000e-01,
235,1.00000e+00,
236,1.00000e+00,
237,2.60000e+00,
238,2.56000e+00,
239,3.56000e+00,
240,3.52000e+00,
241,3.76000e+00,
242,3.68000e+00,
243,2.84000e+00,
244,2.92000e+00,
245,1.36000e+00,
246,1.40000e+00,
247,-4.80000e-01,
248,-4.80000e-01,
249,-2.16000e+00,
250,-2.16000e+00,
251,-3.32000e+00,
252,-3.28000e+00,
253,-3.72000e+00,
254,-3.68000e+00,
255,-3.08000e+00,
256,-3.12000e+00,
257,-1.72000e+00,
258,-1.72000e+00,
259,4.00000e-02,
260,4.00000e-02,
261,1.84000e+00,
262,1.84000e+00,
263,3.20000e+00,
264,3.16000e+00,
265,3.72000e+00,
266,3.72000e+00,
267,3.32000e+00,
268,3.40000e+00,
269,2.16000e+00,
270,2.20000e+00,
271,4.80000e-01,
272,4.80000e-01,
273,-1.36000e+00,
274,-1.32000e+00,
275,-2.84000e+00,
276,-2.84000e+00,
277,-3.64000e+00,
278,-3.72000e+00,
279,-3.44000e+00,
280,-3.48000e+00,
281,-2.44000e+00,
282,-2.48000e+00,
283,-8.80000e-01,
284,-8.80000e-01,
285,9.60000e-01,
286,9.60000e-01,
287,2.60000e+00,
288,2.56000e+00,
289,3.56000e+00,
290,3.52000e+00,
291,3.72000e+00,
292,3.68000e+00,
293,2.84000e+00,
294,2.84000e+00,
295,1.36000e+00,
296,1.40000e+00,
297,-4.40000e-01,
298,-4.40000e-01,
299,-2.16000e+00,
300,-2.12000e+00,
301,-3.32000e+00,
302,-3.28000e+00,
303,-3.72000e+00,
304,-3.68000e+00,
305,-3.08000e+00,
306,-3.08000e+00,
307,-1.68000e+00,
308,-1.72000e+00,
309,8.00000e-02,
310,8.00000e-02,
311,1.84000e+00,
312,1.80000e+00,
313,3.20000e+00,
314,3.12000e+00,
315,3.72000e+00,
316,3.76000e+00,
317,3.36000e+00,
318,3.36000e+00,
319,2.16000e+00,
320,2.20000e+00,
321,4.40000e-01,
322,4.40000e-01,
323,-1.40000e+00,
324,-1.32000e+00,
325,-2.80000e+00,
326,-2.84000e+00,
327,-3.64000e+00,
328,-3.72000e+00,
329,-3.48000e+00,
330,-3.52000e+00,
331,-2.48000e+00,
332,-2.48000e+00,
333,-8.80000e-01,
334,-8.40000e-01,
335,9.60000e-01,
336,1.00000e+00,
337,2.56000e+00,
338,2.60000e+00,
339,3.56000e+00,
340,3.52000e+00,
341,3.72000e+00,
342,3.64000e+00,
343,2.84000e+00,
344,2.84000e+00,
345,1.36000e+00,
346,1.40000e+00,
347,-4.80000e-01,
348,-4.40000e-01,
349,-2.16000e+00,
350,-2.12000e+00,
351,-3.32000e+00,
352,-3.32000e+00,
353,-3.72000e+00,
354,-3.72000e+00,
355,-3.04000e+00,
356,-3.08000e+00,
357,-1.68000e+00,
358,-1.72000e+00,
359,4.00000e-02,
360,8.00000e-02,
361,1.84000e+00,
362,1.84000e+00,
363,3.20000e+00,
364,3.16000e+00,
365,3.72000e+00,
366,3.72000e+00,
367,3.32000e+00,
368,3.40000e+00,
369,2.16000e+00,
370,2.20000e+00,
371,4.80000e-01,
372,4.80000e-01,
373,-1.36000e+00,
374,-1.32000e+00,
375,-2.84000e+00,
376,-2.84000e+00,
377,-3.64000e+00,
378,-3.72000e+00,
379,-3.44000e+00,
380,-3.48000e+00,
381,-2.44000e+00,
382,-2.44000e+00,
383,-8.80000e-01,
384,-8.40000e-01,
385,1.00000e+00,
386,9.20000e-01,
387,2.56000e+00,
388,2.60000e+00,
389,3.56000e+00,
390,3.48000e+00,
391,3.72000e+00,
392,3.64000e+00,
393,2.88000e+00,
394,2.84000e+00,
395,1.36000e+00,
396,1.40000e+00,
397,-4.80000e-01,
398,-4.40000e-01,
399,-2.16000e+00,
400,-2.12000e+00,
401,-3.32000e+00,
402,-3.28000e+00,
403,-3.68000e+00,
404,-3.68000e+00,
405,-3.04000e+00,
406,-3.08000e+00,
407,-1.72000e+00,
408,-1.76000e+00,
409,8.00000e-02,
410,4.00000e-02,
411,1.84000e+00,
412,1.80000e+00,
413,3.20000e+00,
414,3.12000e+00,
415,3.72000e+00,
416,3.72000e+00,
417,3.32000e+00,
418,3.40000e+00,
419,2.16000e+00,
420,2.20000e+00,
421,4.80000e-01,
422,4.80000e-01,
423,-1.36000e+00,
424,-1.32000e+00,
425,-2.84000e+00,
426,-2.80000e+00,
427,-3.60000e+00,
428,-3.72000e+00,
429,-3.44000e+00,
430,-3.48000e+00,
431,-2.48000e+00,
432,-2.44000e+00,
433,-8.80000e-01,
434,-8.40000e-01,
435,1.00000e+00,
436,9.60000e-01,
437,2.60000e+00,
438,2.60000e+00,
439,3.56000e+00,
440,3.56000e+00,
441,3.72000e+00,
442,3.68000e+00,
443,2.84000e+00,
444,2.84000e+00,
445,1.36000e+00,
446,1.40000e+00,
447,-4.80000e-01,
448,-4.00000e-01,
449,-2.16000e+00,
450,-2.16000e+00,
451,-3.32000e+00,
452,-3.28000e+00,
453,-3.72000e+00,
454,-3.68000e+00,
455,-3.08000e+00,
456,-3.12000e+00,
457,-1.72000e+00,
458,-1.76000e+00,
459,8.00000e-02,
460,8.00000e-02,
461,1.84000e+00,
462,1.84000e+00,
463,3.20000e+00,
464,3.12000e+00,
465,3.72000e+00,
466,3.72000e+00,
467,3.32000e+00,
468,3.36000e+00,
469,2.16000e+00,
470,2.16000e+00,
471,5.20000e-01,
472,4.80000e-01,
473,-1.36000e+00,
474,-1.32000e+00,
475,-2.80000e+00,
476,-2.76000e+00,
477,-3.64000e+00,
478,-3.72000e+00,
479,-3.44000e+00,
480,-3.48000e+00,
481,-2.48000e+00,
482,-2.48000e+00,
483,-8.80000e-01,
484,-8.40000e-01,
485,1.00000e+00,
486,9.60000e-01,
487,2.56000e+00,
488,2.60000e+00,
489,3.56000e+00,
490,3.52000e+00,
491,3.76000e+00,
492,3.64000e+00,
493,2.84000e+00,
494,2.84000e+00,
495,1.36000e+00,
496,1.40000e+00,
497,-4.80000e-01,
498,-4.00000e-01,
499,-2.20000e+00,
500,-2.12000e+00,
501,-3.32000e+00,
502,-3.28000e+00,
503,-3.72000e+00,
504,-3.68000e+00,
505,-3.04000e+00,
506,-3.04000e+00,
507,-1.68000e+00,
508,-1.76000e+00,
509,8.00000e-02,
510,4.00000e-02,
511,1.84000e+00,
512,1.84000e+00,
513,3.16000e+00,
514,3.16000e+00,
515,3.72000e+00,
516,3.76000e+00,
517,3.32000e+00,
518,3.40000e+00,
519,2.16000e+00,
520,2.20000e+00,
521,4.80000e-01,
522,5.20000e-01,
523,-1.32000e+00,
524,-1.32000e+00,
525,-2.84000e+00,
526,-2.80000e+00,
527,-3.64000e+00,
528,-3.72000e+00,
529,-3.44000e+00,
530,-3.52000e+00,
531,-2.48000e+00,
532,-2.44000e+00,
533,-8.80000e-01,
534,-8.40000e-01,
535,1.00000e+00,
536,1.00000e+00,
537,2.56000e+00,
538,2.56000e+00,
539,3.56000e+00,
540,3.52000e+00,
541,3.72000e+00,
542,3.68000e+00,
543,2.84000e+00,
544,2.92000e+00,
545,1.36000e+00,
546,1.40000e+00,
547,-4.80000e-01,
548,-4.00000e-01,
549,-2.16000e+00,
550,-2.12000e+00,
551,-3.32000e+00,
552,-3.32000e+00,
553,-3.72000e+00,
554,-3.72000e+00,
555,-3.04000e+00,
556,-3.08000e+00,
557,-1.76000e+00,
558,-1.72000e+00,
559,8.00000e-02,
560,4.00000e-02,
561,1.80000e+00,
562,1.84000e+00,
563,3.20000e+00,
564,3.12000e+00,
565,3.72000e+00,
566,3.72000e+00,
567,3.32000e+00,
568,3.36000e+00,
569,2.16000e+00,
570,2.24000e+00,
571,4.80000e-01,
572,4.80000e-01,
573,-1.36000e+00,
574,-1.32000e+00,
575,-2.84000e+00,
576,-2.76000e+00,
577,-3.64000e+00,
578,-3.72000e+00,
579,-3.44000e+00,
580,-3.48000e+00,
581,-2.44000e+00,
582,-2.48000e+00,
583,-8.80000e-01,
584,-8.40000e-01,
585,1.00000e+00,
586,9.20000e-01,
587,2.56000e+00,
588,2.56000e+00,
589,3.56000e+00,
590,3.56000e+00,
591,3.76000e+00,
592,3.68000e+00,
593,2.84000e+00,
594,2.92000e+00,
595,1.32000e+00,
596,1.36000e+00,
597,-4.40000e-01,
598,-4.80000e-01,
599,-2.12000e+00,
600,-2.12000e+00,
601,-3.36000e+00,
602,-3.32000e+00,
603,-3.72000e+00,
604,-3.68000e+00,
605,-3.00000e+00,
606,-3.08000e+00,
607,-1.72000e+00,
608,-1.72000e+00,
609,8.00000e-02,
610,4.00000e-02,
611,1.84000e+00,
612,1.84000e+00,
613,3.20000e+00,
614,3.16000e+00,
615,3.76000e+00,
616,3.76000e+00,
617,3.28000e+00,
618,3.32000e+00,
619,2.16000e+00,
620,2.24000e+00,
621,5.20000e-01,
622,5.20000e-01,
623,-1.40000e+00,
624,-1.32000e+00,
625,-2.84000e+00,
626,-2.80000e+00,
627,-3.60000e+00,
628,-3.72000e+00,
629,-3.44000e+00,
630,-3.52000e+00,
631,-2.44000e+00,
632,-2.52000e+00,
633,-8.40000e-01,
634,-8.40000e-01,
635,9.60000e-01,
636,9.20000e-01,
637,2.60000e+00,
638,2.60000e+00,
639,3.56000e+00,
640,3.48000e+00,
641,3.72000e+00,
642,3.64000e+00,
643,2.84000e+00,
644,2.88000e+00,
645,1.36000e+00,
646,1.40000e+00,
647,-4.80000e-01,
648,-4.40000e-01,
649,-2.16000e+00,
650,-2.12000e+00,
651,-3.32000e+00,
652,-3.28000e+00,
653,-3.72000e+00,
654,-3.72000e+00,
655,-3.08000e+00,
656,-3.08000e+00,
657,-1.68000e+00,
658,-1.72000e+00,
659,8.00000e-02,
660,8.00000e-02,
661,1.80000e+00,
662,1.80000e+00,
663,3.24000e+00,
664,3.16000e+00,
665,3.72000e+00,
666,3.72000e+00,
667,3.28000e+00,
668,3.40000e+00,
669,2.16000e+00,
670,2.20000e+00,
671,4.40000e-01,
672,4.80000e-01,
673,-1.36000e+00,
674,-1.32000e+00,
675,-2.84000e+00,
676,-2.76000e+00,
677,-3.64000e+00,
678,-3.72000e+00,
679,-3.48000e+00,
680,-3.48000e+00,
681,-2.44000e+00,
682,-2.44000e+00,
683,-8.80000e-01,
684,-8.40000e-01,
685,9.60000e-01,
686,1.00000e+00,
687,2.56000e+00,
688,2.56000e+00,
689,3.56000e+00,
690,3.48000e+00,
691,3.72000e+00,
692,3.64000e+00,
693,2.84000e+00,
694,2.88000e+00,
695,1.40000e+00,
696,1.40000e+00,
697,-4.80000e-01,
698,-4.00000e-01,
699,-2.16000e+00,
700,-2.16000e+00,
701,-3.36000e+00,
702,-3.28000e+00,
703,-3.72000e+00,
704,-3.72000e+00,
705,-3.04000e+00,
706,-3.12000e+00,
707,-1.68000e+00,
708,-1.72000e+00,
709,8.00000e-02,
710,0.00000e+00,
711,1.84000e+00,
712,1.80000e+00,
713,3.16000e+00,
714,3.12000e+00,
715,3.72000e+00,
716,3.76000e+00,
717,3.36000e+00,
718,3.40000e+00,
719,2.16000e+00,
720,2.20000e+00,
721,4.40000e-01,
722,5.20000e-01,
723,-1.36000e+00,
724,-1.32000e+00,
725,-2.84000e+00,
726,-2.80000e+00,
727,-3.64000e+00,
728,-3.72000e+00,
729,-3.48000e+00,
730,-3.48000e+00,
731,-2.48000e+00,
732,-2.48000e+00,
733,-8.40000e-01,
734,-8.40000e-01,
735,1.00000e+00,
736,9.60000e-01,
737,2.56000e+00,
738,2.56000e+00,
739,3.56000e+00,
740,3.48000e+00,
741,3.72000e+00,
742,3.68000e+00,
743,2.88000e+00,
744,2.88000e+00,
745,1.36000e+00,
746,1.36000e+00,
747,-4.80000e-01,
748,-4.00000e-01,
749,-2.16000e+00,
750,-2.12000e+00,
751,-3.32000e+00,
752,-3.32000e+00,
753,-3.72000e+00,
754,-3.72000e+00,
755,-3.08000e+00,
756,-3.08000e+00,
757,-1.72000e+00,
758,-1.76000e+00,
759,4.00000e-02,
760,8.00000e-02,
761,1.84000e+00,
762,1.84000e+00,
763,3.20000e+00,
764,3.16000e+00,
765,3.72000e+00,
766,3.72000e+00,
767,3.32000e+00,
768,3.40000e+00,
769,2.16000e+00,
770,2.20000e+00,
771,4.40000e-01,
772,5.20000e-01,
773,-1.36000e+00,
774,-1.28000e+00,
775,-2.84000e+00,
776,-2.76000e+00,
777,-3.68000e+00,
778,-3.72000e+00,
779,-3.44000e+00,
780,-3.52000e+00,
781,-2.44000e+00,
782,-2.48000e+00,
783,-8.80000e-01,
784,-8.40000e-01,
785,1.00000e+00,
786,9.60000e-01,
787,2.56000e+00,
788,2.60000e+00,
789,3.56000e+00,
790,3.52000e+00,
791,3.72000e+00,
792,3.64000e+00,
793,2.84000e+00,
794,2.88000e+00,
795,1.36000e+00,
796,1.32000e+00,
797,-4.40000e-01,
798,-4.40000e-01,
799,-2.12000e+00,
800,-2.12000e+00,
801,-3.36000e+00,
802,-3.32000e+00,
803,-3.76000e+00,
804,-3.76000e+00,
805,-3.00000e+00,
806,-3.00000e+00,
807,-1.80000e+00,
808,-1.80000e+00,
809,0.00000e+00,
810,4.00000e-02,
811,1.92000e+00,
812,1.88000e+00,
813,3.20000e+00,
814,3.16000e+00,
815,3.72000e+00,
816,3.76000e+00,
817,3.32000e+00,
818,3.40000e+00,
819,2.16000e+00,
820,2.20000e+00,
821,4.80000e-01,
822,5.20000e-01,
823,-1.36000e+00,
824,-1.28000e+00,
825,-2.84000e+00,
826,-2.76000e+00,
827,-3.64000e+00,
828,-3.68000e+00,
829,-3.44000e+00,
830,-3.48000e+00,
831,-2.44000e+00,
832,-2.48000e+00,
833,-8.40000e-01,
834,-8.40000e-01,
835,1.00000e+00,
836,9.20000e-01,
837,2.60000e+00,
838,2.60000e+00,
839,3.56000e+00,
840,3.52000e+00,
841,3.72000e+00,
842,3.68000e+00,
843,2.88000e+00,
844,2.92000e+00,
845,1.36000e+00,
846,1.36000e+00,
847,-4.80000e-01,
848,-4.40000e-01,
849,-2.20000e+00,
850,-2.12000e+00,
851,-3.32000e+00,
852,-3.28000e+00,
853,-3.68000e+00,
854,-3.68000e+00,
855,-3.04000e+00,
856,-3.04000e+00,
857,-1.68000e+00,
858,-1.72000e+00,
859,8.00000e-02,
860,4.00000e-02,
861,1.80000e+00,
862,1.84000e+00,
863,3.16000e+00,
864,3.16000e+00,
865,3.76000e+00,
866,3.76000e+00,
867,3.32000e+00,
868,3.40000e+00,
869,2.16000e+00,
870,2.20000e+00,
871,4.80000e-01,
872,4.80000e-01,
873,-1.36000e+00,
874,-1.36000e+00,
875,-2.84000e+00,
876,-2.76000e+00,
877,-3.64000e+00,
878,-3.72000e+00,
879,-3.44000e+00,
880,-3.48000e+00,
881,-2.44000e+00,
882,-2.48000e+00,
883,-8.80000e-01,
884,-8.80000e-01,
885,1.00000e+00,
886,1.00000e+00,
887,2.56000e+00,
888,2.60000e+00,
889,3.56000e+00,
890,3.52000e+00,
891,3.72000e+00,
892,3.68000e+00,
893,2.84000e+00,
894,2.84000e+00,
895,1.36000e+00,
896,1.40000e+00,
897,-4.80000e-01,
898,-4.40000e-01,
899,-2.16000e+00,
900,-2.16000e+00,
901,-3.32000e+00,
902,-3.28000e+00,
903,-3.72000e+00,
904,-3.68000e+00,
905,-3.04000e+00,
906,-3.04000e+00,
907,-1.68000e+00,
908,-1.76000e+00,
909,8.00000e-02,
910,4.00000e-02,
911,1.80000e+00,
912,1.84000e+00,
913,3.20000e+00,
914,3.12000e+00,
915,3.72000e+00,
916,3.76000e+00,
917,3.36000e+00,
918,3.40000e+00,
919,2.16000e+00,
920,2.16000e+00,
921,4.80000e-01,
922,5.20000e-01,
923,-1.32000e+00,
924,-1.32000e+00,
925,-2.84000e+00,
926,-2.80000e+00,
927,-3.64000e+00,
928,-3.72000e+00,
929,-3.44000e+00,
930,-3.48000e+00,
931,-2.44000e+00,
932,-2.44000e+00,
933,-8.80000e-01,
934,-8.40000e-01,
935,1.00000e+00,
936,1.00000e+00,
937,2.60000e+00,
938,2.60000e+00,
939,3.56000e+00,
940,3.52000e+00,
941,3.76000e+00,
942,3.68000e+00,
943,2.88000e+00,
944,2.84000e+00,
945,1.36000e+00,
946,1.40000e+00,
947,-4.80000e-01,
948,-4.40000e-01,
949,-2.16000e+00,
950,-2.16000e+00,
951,-3.32000e+00,
952,-3.28000e+00,
953,-3.72000e+00,
954,-3.72000e+00,
955,-3.08000e+00,
956,-3.08000e+00,
957,-1.68000e+00,
958,-1.72000e+00,
959,8.00000e-02,
960,8.00000e-02,
961,1.84000e+00,
962,1.84000e+00,
963,3.20000e+00,
964,3.12000e+00,
965,3.72000e+00,
966,3.76000e+00,
967,3.32000e+00,
968,3.36000e+00,
969,2.16000e+00,
970,2.20000e+00,
971,4.80000e-01,
972,4.80000e-01,
973,-1.36000e+00,
974,-1.32000e+00,
975,-2.84000e+00,
976,-2.80000e+00,
977,-3.64000e+00,
978,-3.72000e+00,
979,-3.44000e+00,
980,-3.48000e+00,
981,-2.44000e+00,
982,-2.44000e+00,
983,-8.40000e-01,
984,-8.40000e-01,
985,1.00000e+00,
986,9.20000e-01,
987,2.56000e+00,
988,2.56000e+00,
989,3.56000e+00,
990,3.52000e+00,
991,3.76000e+00,
992,3.68000e+00,
993,2.84000e+00,
994,2.88000e+00,
995,1.36000e+00,
996,1.40000e+00,
997,-4.40000e-01,
998,-4.00000e-01,
999,-2.16000e+00,
1000,-2.16000e+00,
1001,-3.36000e+00,
1002,-3.32000e+00,
1003,-3.72000e+00,
1004,-3.72000e+00,
1005,-3.04000e+00,
1006,-3.08000e+00,
1007,-1.68000e+00,
1008,-1.76000e+00,
1009,8.00000e-02,
1010,8.00000e-02,
1011,1.84000e+00,
1012,1.84000e+00,
1013,3.20000e+00,
1014,3.12000e+00,
1015,3.72000e+00,
1016,3.72000e+00,
1017,3.32000e+00,
1018,3.36000e+00,
1019,2.12000e+00,
1020,2.20000e+00,
1021,4.80000e-01,
1022,4.80000e-01,
1023,-1.40000e+00,
1024,-1.32000e+00,
1025,-2.80000e+00,
1026,-2.76000e+00,
1027,-3.64000e+00,
1028,-3.72000e+00,
1029,-3.44000e+00,
1030,-3.52000e+00,
1031,-2.44000e+00,
1032,-2.48000e+00,
1033,-8.80000e-01,
1034,-8.40000e-01,
1035,1.00000e+00,
1036,1.00000e+00,
1037,2.56000e+00,
1038,2.56000e+00,
1039,3.56000e+00,
1040,3.52000e+00,
1041,3.72000e+00,
1042,3.64000e+00,
1043,2.84000e+00,
1044,2.88000e+00,
1045,1.36000e+00,
1046,1.40000e+00,
1047,-4.80000e-01,
1048,-4.40000e-01,
1049,-2.12000e+00,
1050,-2.12000e+00,
1051,-3.32000e+00,
1052,-3.28000e+00,
1053,-3.68000e+00,
1054,-3.64000e+00,
1055,-3.04000e+00,
1056,-3.08000e+00,
1057,-1.68000e+00,
1058,-1.72000e+00,
1059,8.00000e-02,
1060,4.00000e-02,
1061,1.80000e+00,
1062,1.80000e+00,
1063,3.20000e+00,
1064,3.16000e+00,
1065,3.72000e+00,
1066,3.76000e+00,
1067,3.32000e+00,
1068,3.36000e+00,
1069,2.12000e+00,
1070,2.20000e+00,
1071,4.80000e-01,
1072,4.80000e-01,
1073,-1.36000e+00,
1074,-1.36000e+00,
1075,-2.84000e+00,
1076,-2.80000e+00,
1077,-3.64000e+00,
1078,-3.72000e+00,
1079,-3.44000e+00,
1080,-3.48000e+00,
1081,-2.48000e+00,
1082,-2.48000e+00,
1083,-8.40000e-01,
1084,-8.40000e-01,
1085,1.00000e+00,
1086,1.00000e+00,
1087,2.56000e+00,
1088,2.60000e+00,
1089,3.56000e+00,
1090,3.52000e+00,
1091,3.72000e+00,
1092,3.68000e+00,
1093,2.84000e+00,
1094,2.88000e+00,
1095,1.32000e+00,
1096,1.40000e+00,
1097,-4.40000e-01,
1098,-4.00000e-01,
1099,-2.12000e+00,
1100,-2.12000e+00,
1101,-3.32000e+00,
1102,-3.32000e+00,
1103,-3.68000e+00,
1104,-3.68000e+00,
1105,-3.04000e+00,
1106,-3.08000e+00,
1107,-1.68000e+00,
1108,-1.72000e+00,
1109,8.00000e-02,
1110,8.00000e-02,
1111,1.84000e+00,
1112,1.88000e+00,
1113,3.20000e+00,
1114,3.16000e+00,
1115,3.72000e+00,
1116,3.76000e+00,
1117,3.32000e+00,
1118,3.36000e+00,
1119,2.12000e+00,
1120,2.20000e+00,
1121,5.20000e-01,
1122,4.80000e-01,
1123,-1.36000e+00,
1124,-1.32000e+00,
1125,-2.84000e+00,
1126,-2.76000e+00,
1127,-3.64000e+00,
1128,-3.72000e+00,
1129,-3.44000e+00,
1130,-3.48000e+00,
1131,-2.48000e+00,
1132,-2.44000e+00,
1133,-8.80000e-01,
1134,-8.40000e-01,
1135,1.00000e+00,
1136,1.00000e+00,
1137,2.56000e+00,
