DataAnalysis/Johnson_noise/2017_johnson_noise/data_MUIC_nop_anan/NewFile59.csv

X,CH1,Start,Increment,
Sequence,Volt,1.80000e-03,1.00000e-06
0,2.76000e+00,
1,2.96000e+00,
2,2.96000e+00,
3,2.84000e+00,
4,2.96000e+00,
5,2.80000e+00,
6,2.84000e+00,
7,2.64000e+00,
8,2.68000e+00,
9,2.36000e+00,
10,2.44000e+00,
11,2.08000e+00,
12,2.16000e+00,
13,1.72000e+00,
14,1.76000e+00,
15,1.28000e+00,
16,1.32000e+00,
17,8.00000e-01,
18,8.80000e-01,
19,3.60000e-01,
20,4.00000e-01,
21,-1.60000e-01,
22,-1.20000e-01,
23,-6.80000e-01,
24,-6.40000e-01,
25,-1.16000e+00,
26,-1.12000e+00,
27,-1.60000e+00,
28,-1.56000e+00,
29,-1.96000e+00,
30,-1.92000e+00,
31,-2.36000e+00,
32,-2.28000e+00,
33,-2.60000e+00,
34,-2.52000e+00,
35,-2.76000e+00,
36,-2.72000e+00,
37,-2.88000e+00,
38,-2.88000e+00,
39,-2.80000e+00,
40,-2.88000e+00,
41,-2.72000e+00,
42,-2.80000e+00,
43,-2.56000e+00,
44,-2.60000e+00,
45,-2.32000e+00,
46,-2.36000e+00,
47,-1.96000e+00,
48,-2.00000e+00,
49,-1.56000e+00,
50,-1.64000e+00,
51,-1.16000e+00,
52,-1.20000e+00,
53,-6.40000e-01,
54,-7.20000e-01,
55,-2.00000e-01,
56,-2.40000e-01,
57,3.20000e-01,
58,2.80000e-01,
59,8.00000e-01,
60,8.00000e-01,
61,1.28000e+00,
62,1.24000e+00,
63,1.76000e+00,
64,1.68000e+00,
65,2.12000e+00,
66,2.04000e+00,
67,2.40000e+00,
68,2.32000e+00,
69,2.64000e+00,
70,2.60000e+00,
71,2.84000e+00,
72,2.76000e+00,
73,2.92000e+00,
74,2.84000e+00,
75,2.96000e+00,
76,2.92000e+00,
77,2.76000e+00,
78,2.84000e+00,
79,2.56000e+00,
80,2.64000e+00,
81,2.28000e+00,
82,2.36000e+00,
83,1.96000e+00,
84,2.04000e+00,
85,1.60000e+00,
86,1.64000e+00,
87,1.16000e+00,
88,1.20000e+00,
89,6.80000e-01,
90,7.20000e-01,
91,2.00000e-01,
92,2.40000e-01,
93,-3.20000e-01,
94,-2.40000e-01,
95,-7.60000e-01,
96,-7.60000e-01,
97,-1.28000e+00,
98,-1.20000e+00,
99,-1.68000e+00,
100,-1.64000e+00,
101,-2.04000e+00,
102,-2.00000e+00,
103,-2.40000e+00,
104,-2.32000e+00,
105,-2.64000e+00,
106,-2.56000e+00,
107,-2.80000e+00,
108,-2.72000e+00,
109,-2.84000e+00,
110,-2.88000e+00,
111,-2.76000e+00,
112,-2.84000e+00,
113,-2.68000e+00,
114,-2.76000e+00,
115,-2.48000e+00,
116,-2.56000e+00,
117,-2.24000e+00,
118,-2.28000e+00,
119,-1.88000e+00,
120,-1.92000e+00,
121,-1.48000e+00,
122,-1.56000e+00,
123,-1.04000e+00,
124,-1.08000e+00,
125,-5.60000e-01,
126,-6.00000e-01,
127,-4.00000e-02,
128,-1.20000e-01,
129,4.80000e-01,
130,4.00000e-01,
131,9.60000e-01,
132,9.20000e-01,
133,1.40000e+00,
134,1.32000e+00,
135,1.84000e+00,
136,1.76000e+00,
137,2.20000e+00,
138,2.12000e+00,
139,2.48000e+00,
140,2.40000e+00,
141,2.76000e+00,
142,2.68000e+00,
143,2.88000e+00,
144,2.80000e+00,
145,2.92000e+00,
146,2.92000e+00,
147,2.80000e+00,
148,2.88000e+00,
149,2.68000e+00,
150,2.76000e+00,
151,2.48000e+00,
152,2.56000e+00,
153,2.20000e+00,
154,2.28000e+00,
155,1.92000e+00,
156,1.96000e+00,
157,1.52000e+00,
158,1.60000e+00,
159,1.04000e+00,
160,1.12000e+00,
161,6.00000e-01,
162,6.40000e-01,
163,8.00000e-02,
164,1.20000e-01,
165,-4.00000e-01,
166,-3.60000e-01,
167,-8.80000e-01,
168,-8.80000e-01,
169,-1.36000e+00,
170,-1.32000e+00,
171,-1.80000e+00,
172,-1.72000e+00,
173,-2.16000e+00,
174,-2.12000e+00,
175,-2.48000e+00,
176,-2.40000e+00,
177,-2.72000e+00,
178,-2.64000e+00,
179,-2.84000e+00,
180,-2.76000e+00,
181,-2.92000e+00,
182,-2.88000e+00,
183,-2.76000e+00,
184,-2.84000e+00,
185,-2.64000e+00,
186,-2.72000e+00,
187,-2.44000e+00,
188,-2.48000e+00,
189,-2.16000e+00,
190,-2.20000e+00,
191,-1.76000e+00,
192,-1.84000e+00,
193,-1.36000e+00,
194,-1.44000e+00,
195,-9.20000e-01,
196,-1.00000e+00,
197,-4.40000e-01,
198,-4.80000e-01,
199,8.00000e-02,
200,0.00000e+00,
201,6.00000e-01,
202,5.20000e-01,
203,1.08000e+00,
204,1.00000e+00,
205,1.56000e+00,
206,1.48000e+00,
207,1.92000e+00,
208,1.88000e+00,
209,2.32000e+00,
210,2.20000e+00,
211,2.56000e+00,
212,2.52000e+00,
213,2.80000e+00,
214,2.72000e+00,
215,2.92000e+00,
216,2.84000e+00,
217,3.00000e+00,
218,3.00000e+00,
219,2.84000e+00,
220,2.92000e+00,
221,2.72000e+00,
222,2.80000e+00,
223,2.48000e+00,
224,2.56000e+00,
225,2.16000e+00,
226,2.24000e+00,
227,1.80000e+00,
228,1.88000e+00,
229,1.40000e+00,
230,1.44000e+00,
231,9.20000e-01,
232,1.00000e+00,
233,4.40000e-01,
234,5.20000e-01,
235,-8.00000e-02,
236,-4.00000e-02,
237,-5.60000e-01,
238,-5.20000e-01,
239,-1.04000e+00,
240,-1.04000e+00,
241,-1.52000e+00,
242,-1.48000e+00,
243,-1.92000e+00,
244,-1.88000e+00,
245,-2.28000e+00,
246,-2.24000e+00,
247,-2.56000e+00,
248,-2.48000e+00,
249,-2.76000e+00,
250,-2.68000e+00,
251,-2.84000e+00,
252,-2.76000e+00,
253,-2.88000e+00,
254,-2.88000e+00,
255,-2.76000e+00,
256,-2.80000e+00,
257,-2.60000e+00,
258,-2.68000e+00,
259,-2.36000e+00,
260,-2.44000e+00,
261,-2.08000e+00,
262,-2.08000e+00,
263,-1.64000e+00,
264,-1.72000e+00,
265,-1.24000e+00,
266,-1.28000e+00,
267,-7.60000e-01,
268,-8.00000e-01,
269,-2.80000e-01,
270,-3.20000e-01,
271,2.40000e-01,
272,2.00000e-01,
273,7.60000e-01,
274,6.80000e-01,
275,1.20000e+00,
276,1.12000e+00,
277,1.64000e+00,
278,1.60000e+00,
279,2.04000e+00,
280,1.96000e+00,
281,2.36000e+00,
282,2.28000e+00,
283,2.60000e+00,
284,2.56000e+00,
285,2.80000e+00,
286,2.76000e+00,
287,2.92000e+00,
288,2.84000e+00,
289,2.96000e+00,
290,2.92000e+00,
291,2.76000e+00,
292,2.84000e+00,
293,2.60000e+00,
294,2.64000e+00,
295,2.32000e+00,
296,2.40000e+00,
297,2.00000e+00,
298,2.08000e+00,
299,1.64000e+00,
300,1.72000e+00,
301,1.20000e+00,
302,1.28000e+00,
303,7.60000e-01,
304,8.00000e-01,
305,2.80000e-01,
306,2.80000e-01,
307,-2.80000e-01,
308,-2.00000e-01,
309,-7.20000e-01,
310,-7.20000e-01,
311,-1.24000e+00,
312,-1.16000e+00,
313,-1.64000e+00,
314,-1.60000e+00,
315,-2.04000e+00,
316,-1.96000e+00,
317,-2.36000e+00,
318,-2.32000e+00,
319,-2.64000e+00,
320,-2.56000e+00,
321,-2.80000e+00,
322,-2.72000e+00,
323,-2.88000e+00,
324,-2.88000e+00,
325,-2.80000e+00,
326,-2.84000e+00,
327,-2.68000e+00,
328,-2.76000e+00,
329,-2.52000e+00,
330,-2.60000e+00,
331,-2.28000e+00,
332,-2.28000e+00,
333,-1.92000e+00,
334,-1.96000e+00,
335,-1.52000e+00,
336,-1.60000e+00,
337,-1.08000e+00,
338,-1.16000e+00,
339,-6.00000e-01,
340,-6.80000e-01,
341,-1.20000e-01,
342,-2.00000e-01,
343,3.60000e-01,
344,3.20000e-01,
345,8.80000e-01,
346,8.00000e-01,
347,1.32000e+00,
348,1.24000e+00,
349,1.76000e+00,
350,1.72000e+00,
351,2.12000e+00,
352,2.08000e+00,
353,2.44000e+00,
354,2.36000e+00,
355,2.68000e+00,
356,2.60000e+00,
357,2.88000e+00,
358,2.76000e+00,
359,2.92000e+00,
360,2.92000e+00,
361,2.80000e+00,
362,2.88000e+00,
363,2.72000e+00,
364,2.80000e+00,
365,2.52000e+00,
366,2.56000e+00,
367,2.24000e+00,
368,2.32000e+00,
369,1.92000e+00,
370,2.00000e+00,
371,1.56000e+00,
372,1.64000e+00,
373,1.08000e+00,
374,1.16000e+00,
375,6.40000e-01,
376,6.80000e-01,
377,1.20000e-01,
378,1.60000e-01,
379,-3.60000e-01,
380,-3.20000e-01,
381,-8.40000e-01,
382,-8.40000e-01,
383,-1.32000e+00,
384,-1.28000e+00,
385,-1.72000e+00,
386,-1.68000e+00,
387,-2.12000e+00,
388,-2.08000e+00,
389,-2.44000e+00,
390,-2.40000e+00,
391,-2.68000e+00,
392,-2.60000e+00,
393,-2.84000e+00,
394,-2.76000e+00,
395,-2.88000e+00,
396,-2.88000e+00,
397,-2.76000e+00,
398,-2.84000e+00,
399,-2.68000e+00,
400,-2.72000e+00,
401,-2.48000e+00,
402,-2.52000e+00,
403,-2.20000e+00,
404,-2.24000e+00,
405,-1.84000e+00,
406,-1.88000e+00,
407,-1.44000e+00,
408,-1.48000e+00,
409,-1.00000e+00,
410,-1.04000e+00,
411,-4.80000e-01,
412,-5.60000e-01,
413,0.00000e+00,
414,-4.00000e-02,
415,5.20000e-01,
416,4.80000e-01,
417,1.00000e+00,
418,9.20000e-01,
419,1.44000e+00,
420,1.40000e+00,
421,1.88000e+00,
422,1.80000e+00,
423,2.20000e+00,
424,2.12000e+00,
425,2.52000e+00,
426,2.40000e+00,
427,2.72000e+00,
428,2.68000e+00,
429,2.88000e+00,
430,2.80000e+00,
431,2.96000e+00,
432,2.96000e+00,
433,2.80000e+00,
434,2.88000e+00,
435,2.72000e+00,
436,2.76000e+00,
437,2.48000e+00,
438,2.56000e+00,
439,2.20000e+00,
440,2.24000e+00,
441,1.84000e+00,
442,1.92000e+00,
443,1.44000e+00,
444,1.48000e+00,
445,9.60000e-01,
446,1.04000e+00,
447,4.80000e-01,
448,5.20000e-01,
449,-4.00000e-02,
450,4.00000e-02,
451,-5.20000e-01,
452,-4.80000e-01,
453,-1.00000e+00,
454,-9.60000e-01,
455,-1.48000e+00,
456,-1.44000e+00,
457,-1.88000e+00,
458,-1.80000e+00,
459,-2.24000e+00,
460,-2.20000e+00,
461,-2.52000e+00,
462,-2.44000e+00,
463,-2.72000e+00,
464,-2.64000e+00,
465,-2.84000e+00,
466,-2.76000e+00,
467,-2.88000e+00,
468,-2.88000e+00,
469,-2.76000e+00,
470,-2.80000e+00,
471,-2.60000e+00,
472,-2.68000e+00,
473,-2.40000e+00,
474,-2.48000e+00,
475,-2.12000e+00,
476,-2.16000e+00,
477,-1.72000e+00,
478,-1.80000e+00,
479,-1.32000e+00,
480,-1.36000e+00,
481,-8.80000e-01,
482,-8.80000e-01,
483,-3.60000e-01,
484,-4.40000e-01,
485,1.20000e-01,
486,8.00000e-02,
487,6.40000e-01,
488,6.00000e-01,
489,1.12000e+00,
490,1.04000e+00,
491,1.56000e+00,
492,1.52000e+00,
493,2.00000e+00,
494,1.92000e+00,
495,2.32000e+00,
496,2.28000e+00,
497,2.60000e+00,
498,2.52000e+00,
499,2.80000e+00,
500,2.72000e+00,
501,2.92000e+00,
502,2.80000e+00,
503,2.96000e+00,
504,2.92000e+00,
505,2.76000e+00,
506,2.84000e+00,
507,2.64000e+00,
508,2.64000e+00,
509,2.36000e+00,
510,2.44000e+00,
511,2.08000e+00,
512,2.12000e+00,
513,1.72000e+00,
514,1.80000e+00,
515,1.24000e+00,
516,1.32000e+00,
517,8.00000e-01,
518,8.80000e-01,
519,3.60000e-01,
520,3.60000e-01,
521,-1.60000e-01,
522,-1.20000e-01,
523,-6.40000e-01,
524,-6.00000e-01,
525,-1.12000e+00,
526,-1.08000e+00,
527,-1.60000e+00,
528,-1.52000e+00,
529,-1.96000e+00,
530,-1.92000e+00,
531,-2.32000e+00,
532,-2.28000e+00,
533,-2.60000e+00,
534,-2.52000e+00,
535,-2.80000e+00,
536,-2.72000e+00,
537,-2.88000e+00,
538,-2.88000e+00,
539,-2.80000e+00,
540,-2.88000e+00,
541,-2.72000e+00,
542,-2.80000e+00,
543,-2.56000e+00,
544,-2.60000e+00,
545,-2.32000e+00,
546,-2.36000e+00,
547,-2.00000e+00,
548,-2.00000e+00,
549,-1.60000e+00,
550,-1.64000e+00,
551,-1.16000e+00,
552,-1.20000e+00,
553,-6.80000e-01,
554,-7.20000e-01,
555,-2.00000e-01,
556,-2.40000e-01,
557,3.20000e-01,
558,2.80000e-01,
559,8.00000e-01,
560,7.60000e-01,
561,1.24000e+00,
562,1.20000e+00,
563,1.72000e+00,
564,1.64000e+00,
565,2.08000e+00,
566,2.00000e+00,
567,2.40000e+00,
568,2.32000e+00,
569,2.64000e+00,
570,2.60000e+00,
571,2.84000e+00,
572,2.76000e+00,
573,2.92000e+00,
574,2.84000e+00,
575,2.96000e+00,
576,2.92000e+00,
577,2.76000e+00,
578,2.84000e+00,
579,2.56000e+00,
580,2.64000e+00,
581,2.36000e+00,
582,2.36000e+00,
583,1.96000e+00,
584,2.04000e+00,
585,1.60000e+00,
586,1.64000e+00,
587,1.16000e+00,
588,1.20000e+00,
589,6.80000e-01,
590,7.20000e-01,
591,2.00000e-01,
592,2.00000e-01,
593,-3.20000e-01,
594,-2.80000e-01,
595,-8.00000e-01,
596,-8.00000e-01,
597,-1.32000e+00,
598,-1.24000e+00,
599,-1.72000e+00,
600,-1.68000e+00,
601,-2.08000e+00,
602,-2.04000e+00,
603,-2.40000e+00,
604,-2.36000e+00,
605,-2.64000e+00,
606,-2.56000e+00,
607,-2.80000e+00,
608,-2.72000e+00,
609,-2.88000e+00,
610,-2.88000e+00,
611,-2.76000e+00,
612,-2.84000e+00,
613,-2.68000e+00,
614,-2.76000e+00,
615,-2.52000e+00,
616,-2.56000e+00,
617,-2.24000e+00,
618,-2.28000e+00,
619,-1.88000e+00,
620,-1.92000e+00,
621,-1.48000e+00,
622,-1.52000e+00,
623,-1.04000e+00,
624,-1.08000e+00,
625,-5.20000e-01,
626,-5.60000e-01,
627,-4.00000e-02,
628,-1.20000e-01,
629,4.80000e-01,
630,4.00000e-01,
631,9.60000e-01,
632,8.80000e-01,
633,1.40000e+00,
634,1.36000e+00,
635,1.84000e+00,
636,1.80000e+00,
637,2.20000e+00,
638,2.12000e+00,
639,2.48000e+00,
640,2.44000e+00,
641,2.72000e+00,
642,2.64000e+00,
643,2.88000e+00,
644,2.80000e+00,
645,2.92000e+00,
646,2.92000e+00,
647,2.80000e+00,
648,2.88000e+00,
649,2.68000e+00,
650,2.76000e+00,
651,2.52000e+00,
652,2.56000e+00,
653,2.20000e+00,
654,2.28000e+00,
655,1.88000e+00,
656,1.96000e+00,
657,1.48000e+00,
658,1.52000e+00,
659,1.00000e+00,
660,1.08000e+00,
661,5.60000e-01,
662,6.00000e-01,
663,4.00000e-02,
664,8.00000e-02,
665,-4.40000e-01,
666,-4.00000e-01,
667,-9.20000e-01,
668,-8.80000e-01,
669,-1.40000e+00,
670,-1.36000e+00,
671,-1.80000e+00,
672,-1.76000e+00,
673,-2.20000e+00,
674,-2.12000e+00,
675,-2.48000e+00,
676,-2.44000e+00,
677,-2.72000e+00,
678,-2.64000e+00,
679,-2.84000e+00,
680,-2.76000e+00,
681,-2.88000e+00,
682,-2.88000e+00,
683,-2.76000e+00,
684,-2.84000e+00,
685,-2.64000e+00,
686,-2.72000e+00,
687,-2.44000e+00,
688,-2.48000e+00,
689,-2.16000e+00,
690,-2.16000e+00,
691,-1.76000e+00,
692,-1.80000e+00,
693,-1.36000e+00,
694,-1.44000e+00,
695,-9.20000e-01,
696,-9.60000e-01,
697,-4.00000e-01,
698,-4.80000e-01,
699,8.00000e-02,
700,0.00000e+00,
701,6.00000e-01,
702,5.20000e-01,
703,1.08000e+00,
704,1.00000e+00,
705,1.48000e+00,
706,1.48000e+00,
707,1.92000e+00,
708,1.84000e+00,
709,2.24000e+00,
710,2.16000e+00,
711,2.52000e+00,
712,2.48000e+00,
713,2.76000e+00,
714,2.68000e+00,
715,2.88000e+00,
716,2.80000e+00,
717,2.92000e+00,
718,2.92000e+00,
719,2.80000e+00,
720,2.88000e+00,
721,2.64000e+00,
722,2.72000e+00,
723,2.40000e+00,
724,2.48000e+00,
725,2.12000e+00,
726,2.20000e+00,
727,1.76000e+00,
728,1.80000e+00,
729,1.36000e+00,
730,1.40000e+00,
731,8.80000e-01,
732,9.60000e-01,
733,4.00000e-01,
734,4.40000e-01,
735,-8.00000e-02,
736,-8.00000e-02,
737,-6.00000e-01,
738,-5.20000e-01,
739,-1.08000e+00,
740,-1.04000e+00,
741,-1.52000e+00,
742,-1.48000e+00,
743,-1.92000e+00,
744,-1.84000e+00,
745,-2.24000e+00,
746,-2.20000e+00,
747,-2.56000e+00,
748,-2.48000e+00,
749,-2.72000e+00,
750,-2.68000e+00,
751,-2.84000e+00,
752,-2.76000e+00,
753,-2.88000e+00,
754,-2.84000e+00,
755,-2.72000e+00,
756,-2.80000e+00,
757,-2.56000e+00,
758,-2.64000e+00,
759,-2.36000e+00,
760,-2.40000e+00,
761,-2.00000e+00,
762,-2.08000e+00,
763,-1.64000e+00,
764,-1.72000e+00,
765,-1.24000e+00,
766,-1.28000e+00,
767,-7.60000e-01,
768,-8.00000e-01,
769,-2.40000e-01,
770,-3.20000e-01,
771,2.40000e-01,
772,2.00000e-01,
773,7.60000e-01,
774,6.80000e-01,
775,1.20000e+00,
776,1.16000e+00,
777,1.64000e+00,
778,1.60000e+00,
779,2.04000e+00,
780,1.96000e+00,
781,2.36000e+00,
782,2.28000e+00,
783,2.64000e+00,
784,2.56000e+00,
785,2.84000e+00,
786,2.76000e+00,
787,2.92000e+00,
788,2.84000e+00,
789,2.96000e+00,
790,2.92000e+00,
791,2.76000e+00,
792,2.84000e+00,
793,2.60000e+00,
794,2.64000e+00,
795,2.36000e+00,
796,2.40000e+00,
797,2.04000e+00,
798,2.12000e+00,
799,1.68000e+00,
800,1.72000e+00,
801,1.24000e+00,
802,1.28000e+00,
803,7.60000e-01,
804,8.40000e-01,
805,2.80000e-01,
806,3.20000e-01,
807,-2.40000e-01,
808,-1.60000e-01,
809,-7.20000e-01,
810,-6.80000e-01,
811,-1.20000e+00,
812,-1.16000e+00,
813,-1.64000e+00,
814,-1.56000e+00,
815,-2.00000e+00,
816,-1.96000e+00,
817,-2.36000e+00,
818,-2.32000e+00,
819,-2.60000e+00,
820,-2.56000e+00,
821,-2.80000e+00,
822,-2.72000e+00,
823,-2.88000e+00,
824,-2.88000e+00,
825,-2.80000e+00,
826,-2.88000e+00,
827,-2.72000e+00,
828,-2.76000e+00,
829,-2.52000e+00,
830,-2.60000e+00,
831,-2.28000e+00,
832,-2.36000e+00,
833,-1.96000e+00,
834,-2.00000e+00,
835,-1.56000e+00,
836,-1.60000e+00,
837,-1.12000e+00,
838,-1.20000e+00,
839,-6.40000e-01,
840,-6.80000e-01,
841,-1.60000e-01,
842,-2.00000e-01,
843,3.60000e-01,
844,3.20000e-01,
845,8.40000e-01,
846,8.00000e-01,
847,1.32000e+00,
848,1.28000e+00,
849,1.76000e+00,
850,1.72000e+00,
851,2.12000e+00,
852,2.08000e+00,
853,2.44000e+00,
854,2.36000e+00,
855,2.68000e+00,
856,2.64000e+00,
857,2.84000e+00,
858,2.76000e+00,
859,2.92000e+00,
860,2.84000e+00,
861,2.96000e+00,
862,2.92000e+00,
863,2.72000e+00,
864,2.84000e+00,
865,2.56000e+00,
866,2.60000e+00,
867,2.24000e+00,
868,2.36000e+00,
869,1.92000e+00,
870,2.00000e+00,
871,1.56000e+00,
872,1.60000e+00,
873,1.08000e+00,
874,1.16000e+00,
875,6.40000e-01,
876,6.80000e-01,
877,1.60000e-01,
878,1.60000e-01,
879,-3.60000e-01,
880,-3.20000e-01,
881,-8.40000e-01,
882,-8.40000e-01,
883,-1.32000e+00,
884,-1.28000e+00,
885,-1.76000e+00,
886,-1.68000e+00,
887,-2.12000e+00,
888,-2.04000e+00,
889,-2.44000e+00,
890,-2.36000e+00,
891,-2.64000e+00,
892,-2.60000e+00,
893,-2.80000e+00,
894,-2.72000e+00,
895,-2.88000e+00,
896,-2.88000e+00,
897,-2.76000e+00,
898,-2.84000e+00,
899,-2.68000e+00,
900,-2.72000e+00,
901,-2.48000e+00,
902,-2.56000e+00,
903,-2.20000e+00,
904,-2.28000e+00,
905,-1.84000e+00,
906,-1.88000e+00,
907,-1.44000e+00,
908,-1.48000e+00,
909,-1.00000e+00,
910,-1.04000e+00,
911,-5.20000e-01,
912,-5.20000e-01,
913,0.00000e+00,
914,-4.00000e-02,
915,5.20000e-01,
916,4.80000e-01,
917,1.00000e+00,
918,9.60000e-01,
919,1.44000e+00,
920,1.40000e+00,
921,1.88000e+00,
922,1.80000e+00,
923,2.24000e+00,
924,2.16000e+00,
925,2.52000e+00,
926,2.44000e+00,
927,2.72000e+00,
928,2.68000e+00,
929,2.88000e+00,
930,2.80000e+00,
931,2.96000e+00,
932,2.96000e+00,
933,2.80000e+00,
934,2.88000e+00,
935,2.68000e+00,
936,2.76000e+00,
937,2.48000e+00,
938,2.52000e+00,
939,2.16000e+00,
940,2.24000e+00,
941,1.84000e+00,
942,1.92000e+00,
943,1.44000e+00,
944,1.48000e+00,
945,9.60000e-01,
946,1.00000e+00,
947,4.80000e-01,
948,5.20000e-01,
949,-4.00000e-02,
950,0.00000e+00,
951,-5.20000e-01,
952,-4.80000e-01,
953,-1.00000e+00,
954,-1.00000e+00,
955,-1.48000e+00,
956,-1.44000e+00,
957,-1.88000e+00,
958,-1.84000e+00,
959,-2.24000e+00,
960,-2.20000e+00,
961,-2.56000e+00,
962,-2.48000e+00,
963,-2.76000e+00,
964,-2.68000e+00,
965,-2.84000e+00,
966,-2.80000e+00,
967,-2.92000e+00,
968,-2.88000e+00,
969,-2.76000e+00,
970,-2.84000e+00,
971,-2.64000e+00,
972,-2.72000e+00,
973,-2.40000e+00,
974,-2.48000e+00,
975,-2.12000e+00,
976,-2.12000e+00,
977,-1.72000e+00,
978,-1.76000e+00,
979,-1.32000e+00,
980,-1.36000e+00,
981,-8.40000e-01,
982,-8.80000e-01,
983,-3.20000e-01,
984,-4.00000e-01,
985,1.20000e-01,
986,1.20000e-01,
987,6.40000e-01,
988,6.00000e-01,
989,1.16000e+00,
990,1.08000e+00,
991,1.60000e+00,
992,1.56000e+00,
993,2.00000e+00,
994,1.92000e+00,
995,2.32000e+00,
996,2.28000e+00,
997,2.60000e+00,
998,2.56000e+00,
999,2.80000e+00,
1000,2.72000e+00,
1001,2.92000e+00,
1002,2.84000e+00,
1003,2.96000e+00,
1004,2.96000e+00,
1005,2.80000e+00,
1006,2.88000e+00,
1007,2.64000e+00,
1008,2.72000e+00,
1009,2.44000e+00,
1010,2.48000e+00,
1011,2.08000e+00,
1012,2.16000e+00,
1013,1.72000e+00,
1014,1.80000e+00,
1015,1.28000e+00,
1016,1.32000e+00,
1017,8.00000e-01,
1018,8.80000e-01,
1019,3.20000e-01,
1020,4.00000e-01,
1021,-1.60000e-01,
1022,-1.20000e-01,
1023,-6.80000e-01,
1024,-6.00000e-01,
1025,-1.16000e+00,
1026,-1.12000e+00,
1027,-1.60000e+00,
1028,-1.52000e+00,
1029,-1.96000e+00,
1030,-1.92000e+00,
1031,-2.28000e+00,
1032,-2.28000e+00,
1033,-2.56000e+00,
1034,-2.52000e+00,
1035,-2.76000e+00,
1036,-2.68000e+00,
1037,-2.84000e+00,
1038,-2.76000e+00,
1039,-2.88000e+00,
1040,-2.88000e+00,
1041,-2.72000e+00,
1042,-2.80000e+00,
1043,-2.60000e+00,
1044,-2.64000e+00,
1045,-2.32000e+00,
1046,-2.36000e+00,
1047,-2.04000e+00,
1048,-2.04000e+00,
1049,-1.64000e+00,
1050,-1.68000e+00,
1051,-1.16000e+00,
1052,-1.24000e+00,
1053,-7.20000e-01,
1054,-7.60000e-01,
1055,-2.00000e-01,
1056,-2.80000e-01,
1057,2.80000e-01,
1058,2.80000e-01,
1059,8.00000e-01,
1060,7.60000e-01,
1061,1.24000e+00,
1062,1.24000e+00,
1063,1.72000e+00,
1064,1.64000e+00,
1065,2.08000e+00,
1066,2.00000e+00,
1067,2.40000e+00,
1068,2.32000e+00,
1069,2.64000e+00,
1070,2.60000e+00,
1071,2.84000e+00,
1072,2.76000e+00,
1073,2.92000e+00,
1074,2.92000e+00,
1075,2.80000e+00,
1076,2.92000e+00,
1077,2.72000e+00,
1078,2.80000e+00,
1079,2.56000e+00,
1080,2.60000e+00,
1081,2.28000e+00,
1082,2.36000e+00,
1083,2.00000e+00,
1084,2.08000e+00,
1085,1.60000e+00,
1086,1.64000e+00,
1087,1.16000e+00,
1088,1.20000e+00,
1089,6.80000e-01,
1090,7.60000e-01,
1091,2.40000e-01,
1092,2.40000e-01,
1093,-2.80000e-01,
1094,-2.40000e-01,
1095,-8.00000e-01,
1096,-7.60000e-01,
1097,-1.28000e+00,
1098,-1.24000e+00,
1099,-1.72000e+00,
1100,-1.64000e+00,
1101,-2.08000e+00,
1102,-2.04000e+00,
1103,-2.44000e+00,
1104,-2.36000e+00,
1105,-2.64000e+00,
1106,-2.60000e+00,
1107,-2.80000e+00,
1108,-2.72000e+00,
1109,-2.88000e+00,
1110,-2.80000e+00,
1111,-2.88000e+00,
1112,-2.84000e+00,
1113,-2.68000e+00,
1114,-2.76000e+00,
1115,-2.48000e+00,
1116,-2.56000e+00,
1117,-2.24000e+00,
1118,-2.28000e+00,
1119,-1.88000e+00,
1120,-1.92000e+00,
1121,-1.48000e+00,
1122,-1.52000e+00,
1123,-1.04000e+00,
1124,-1.08000e+00,
1125,-5.60000e-01,
1126,-6.00000e-01,
1127,-8.00000e-02,
1128,-1.20000e-01,
1129,4.40000e-01,
1130,4.00000e-01,
1131,9.20000e-01,
1132,8.40000e-01,
1133,1.36000e+00,
1134,1.32000e+00,
1135,1.76000e+00,
1136,1.76000e+00,
