DataAnalysis/Johnson_noise/2017_johnson_noise/data_MUIC_nop_anan/NewFile14.csv

X,CH1,Start,Increment,
Sequence,Volt,-9.60000e-03,2.00000e-05
0,1.68000e+00,
1,1.88000e+00,
2,1.84000e+00,
3,2.04000e+00,
4,1.96000e+00,
5,2.12000e+00,
6,2.08000e+00,
7,2.24000e+00,
8,2.16000e+00,
9,2.32000e+00,
10,2.24000e+00,
11,2.40000e+00,
12,2.32000e+00,
13,2.48000e+00,
14,2.40000e+00,
15,2.52000e+00,
16,2.44000e+00,
17,2.56000e+00,
18,2.56000e+00,
19,2.48000e+00,
20,2.56000e+00,
21,2.48000e+00,
22,2.56000e+00,
23,2.48000e+00,
24,2.48000e+00,
25,2.56000e+00,
26,2.56000e+00,
27,2.44000e+00,
28,2.52000e+00,
29,2.40000e+00,
30,2.48000e+00,
31,2.32000e+00,
32,2.40000e+00,
33,2.24000e+00,
34,2.32000e+00,
35,2.16000e+00,
36,2.24000e+00,
37,2.08000e+00,
38,2.16000e+00,
39,1.96000e+00,
40,2.04000e+00,
41,1.84000e+00,
42,1.92000e+00,
43,1.72000e+00,
44,1.80000e+00,
45,1.56000e+00,
46,1.64000e+00,
47,1.40000e+00,
48,1.48000e+00,
49,1.28000e+00,
50,1.32000e+00,
51,1.08000e+00,
52,1.16000e+00,
53,9.20000e-01,
54,1.00000e+00,
55,7.60000e-01,
56,8.00000e-01,
57,5.60000e-01,
58,6.00000e-01,
59,3.60000e-01,
60,4.00000e-01,
61,2.00000e-01,
62,2.40000e-01,
63,-4.00000e-02,
64,4.00000e-02,
65,-2.00000e-01,
66,-1.60000e-01,
67,-4.00000e-01,
68,-3.20000e-01,
69,-5.60000e-01,
70,-5.20000e-01,
71,-7.60000e-01,
72,-7.20000e-01,
73,-9.60000e-01,
74,-8.80000e-01,
75,-1.12000e+00,
76,-1.08000e+00,
77,-1.28000e+00,
78,-1.24000e+00,
79,-1.44000e+00,
80,-1.40000e+00,
81,-1.60000e+00,
82,-1.52000e+00,
83,-1.72000e+00,
84,-1.68000e+00,
85,-1.88000e+00,
86,-1.80000e+00,
87,-2.00000e+00,
88,-1.92000e+00,
89,-2.12000e+00,
90,-2.08000e+00,
91,-2.24000e+00,
92,-2.16000e+00,
93,-2.32000e+00,
94,-2.24000e+00,
95,-2.40000e+00,
96,-2.32000e+00,
97,-2.44000e+00,
98,-2.36000e+00,
99,-2.48000e+00,
100,-2.40000e+00,
101,-2.52000e+00,
102,-2.56000e+00,
103,-2.44000e+00,
104,-2.56000e+00,
105,-2.44000e+00,
106,-2.48000e+00,
107,-2.56000e+00,
108,-2.44000e+00,
109,-2.52000e+00,
110,-2.52000e+00,
111,-2.40000e+00,
112,-2.48000e+00,
113,-2.32000e+00,
114,-2.40000e+00,
115,-2.28000e+00,
116,-2.36000e+00,
117,-2.20000e+00,
118,-2.28000e+00,
119,-2.12000e+00,
120,-2.16000e+00,
121,-2.00000e+00,
122,-2.04000e+00,
123,-1.84000e+00,
124,-1.92000e+00,
125,-1.72000e+00,
126,-1.80000e+00,
127,-1.60000e+00,
128,-1.64000e+00,
129,-1.48000e+00,
130,-1.52000e+00,
131,-1.28000e+00,
132,-1.40000e+00,
133,-1.16000e+00,
134,-1.20000e+00,
135,-1.00000e+00,
136,-1.04000e+00,
137,-7.60000e-01,
138,-8.80000e-01,
139,-6.00000e-01,
140,-6.40000e-01,
141,-4.00000e-01,
142,-4.80000e-01,
143,-2.40000e-01,
144,-3.20000e-01,
145,-4.00000e-02,
146,-1.20000e-01,
147,1.20000e-01,
148,4.00000e-02,
149,3.20000e-01,
150,2.80000e-01,
151,5.20000e-01,
152,4.80000e-01,
153,6.80000e-01,
154,6.40000e-01,
155,9.20000e-01,
156,8.40000e-01,
157,1.04000e+00,
158,1.00000e+00,
159,1.24000e+00,
160,1.16000e+00,
161,1.40000e+00,
162,1.32000e+00,
163,1.60000e+00,
164,1.52000e+00,
165,1.68000e+00,
166,1.68000e+00,
167,1.84000e+00,
168,1.80000e+00,
169,2.00000e+00,
170,1.92000e+00,
171,2.08000e+00,
172,2.00000e+00,
173,2.20000e+00,
174,2.12000e+00,
175,2.28000e+00,
176,2.24000e+00,
177,2.36000e+00,
178,2.28000e+00,
179,2.44000e+00,
180,2.36000e+00,
181,2.48000e+00,
182,2.40000e+00,
183,2.52000e+00,
184,2.44000e+00,
185,2.56000e+00,
186,2.48000e+00,
187,2.56000e+00,
188,2.48000e+00,
189,2.60000e+00,
190,2.56000e+00,
191,2.48000e+00,
192,2.56000e+00,
193,2.44000e+00,
194,2.52000e+00,
195,2.40000e+00,
196,2.48000e+00,
197,2.36000e+00,
198,2.44000e+00,
199,2.28000e+00,
200,2.36000e+00,
201,2.20000e+00,
202,2.28000e+00,
203,2.12000e+00,
204,2.20000e+00,
205,2.00000e+00,
206,2.08000e+00,
207,1.88000e+00,
208,1.96000e+00,
209,1.76000e+00,
210,1.84000e+00,
211,1.64000e+00,
212,1.72000e+00,
213,1.48000e+00,
214,1.48000e+00,
215,1.32000e+00,
216,1.36000e+00,
217,1.16000e+00,
218,1.20000e+00,
219,9.60000e-01,
220,1.04000e+00,
221,8.00000e-01,
222,8.80000e-01,
223,5.60000e-01,
224,6.80000e-01,
225,4.40000e-01,
226,4.80000e-01,
227,2.80000e-01,
228,2.80000e-01,
229,4.00000e-02,
230,1.20000e-01,
231,-1.20000e-01,
232,-8.00000e-02,
233,-3.20000e-01,
234,-2.40000e-01,
235,-4.80000e-01,
236,-4.40000e-01,
237,-6.80000e-01,
238,-6.40000e-01,
239,-8.80000e-01,
240,-8.40000e-01,
241,-1.08000e+00,
242,-1.00000e+00,
243,-1.24000e+00,
244,-1.20000e+00,
245,-1.40000e+00,
246,-1.32000e+00,
247,-1.56000e+00,
248,-1.48000e+00,
249,-1.68000e+00,
250,-1.60000e+00,
251,-1.84000e+00,
252,-1.76000e+00,
253,-1.96000e+00,
254,-1.88000e+00,
255,-2.04000e+00,
256,-2.04000e+00,
257,-2.20000e+00,
258,-2.12000e+00,
259,-2.28000e+00,
260,-2.24000e+00,
261,-2.36000e+00,
262,-2.28000e+00,
263,-2.44000e+00,
264,-2.36000e+00,
265,-2.48000e+00,
266,-2.40000e+00,
267,-2.52000e+00,
268,-2.44000e+00,
269,-2.56000e+00,
270,-2.56000e+00,
271,-2.44000e+00,
272,-2.56000e+00,
273,-2.44000e+00,
274,-2.44000e+00,
275,-2.52000e+00,
276,-2.52000e+00,
277,-2.40000e+00,
278,-2.48000e+00,
279,-2.36000e+00,
280,-2.44000e+00,
281,-2.28000e+00,
282,-2.36000e+00,
283,-2.24000e+00,
284,-2.28000e+00,
285,-2.12000e+00,
286,-2.20000e+00,
287,-2.04000e+00,
288,-2.04000e+00,
289,-1.92000e+00,
290,-1.96000e+00,
291,-1.76000e+00,
292,-1.84000e+00,
293,-1.64000e+00,
294,-1.72000e+00,
295,-1.48000e+00,
296,-1.56000e+00,
297,-1.36000e+00,
298,-1.40000e+00,
299,-1.20000e+00,
300,-1.28000e+00,
301,-1.04000e+00,
302,-1.08000e+00,
303,-8.40000e-01,
304,-8.80000e-01,
305,-6.40000e-01,
306,-7.20000e-01,
307,-4.80000e-01,
308,-5.20000e-01,
309,-2.80000e-01,
310,-3.60000e-01,
311,-1.20000e-01,
312,-1.60000e-01,
313,8.00000e-02,
314,0.00000e+00,
315,2.80000e-01,
316,2.40000e-01,
317,4.80000e-01,
318,4.40000e-01,
319,6.80000e-01,
320,6.00000e-01,
321,8.40000e-01,
322,7.60000e-01,
323,1.00000e+00,
324,9.60000e-01,
325,1.16000e+00,
326,1.12000e+00,
327,1.32000e+00,
328,1.28000e+00,
329,1.48000e+00,
330,1.48000e+00,
331,1.68000e+00,
332,1.64000e+00,
333,1.84000e+00,
334,1.76000e+00,
335,1.96000e+00,
336,1.88000e+00,
337,2.08000e+00,
338,2.00000e+00,
339,2.16000e+00,
340,2.08000e+00,
341,2.28000e+00,
342,2.20000e+00,
343,2.36000e+00,
344,2.28000e+00,
345,2.44000e+00,
346,2.36000e+00,
347,2.48000e+00,
348,2.40000e+00,
349,2.52000e+00,
350,2.44000e+00,
351,2.56000e+00,
352,2.56000e+00,
353,2.48000e+00,
354,2.56000e+00,
355,2.48000e+00,
356,2.48000e+00,
357,2.56000e+00,
358,2.56000e+00,
359,2.44000e+00,
360,2.44000e+00,
361,2.52000e+00,
362,2.52000e+00,
363,2.40000e+00,
364,2.44000e+00,
365,2.32000e+00,
366,2.40000e+00,
367,2.24000e+00,
368,2.32000e+00,
369,2.16000e+00,
370,2.24000e+00,
371,2.04000e+00,
372,2.12000e+00,
373,1.92000e+00,
374,2.00000e+00,
375,1.80000e+00,
376,1.88000e+00,
377,1.68000e+00,
378,1.72000e+00,
379,1.56000e+00,
380,1.60000e+00,
381,1.36000e+00,
382,1.40000e+00,
383,1.20000e+00,
384,1.28000e+00,
385,1.04000e+00,
386,1.08000e+00,
387,8.40000e-01,
388,9.20000e-01,
389,6.80000e-01,
390,7.60000e-01,
391,4.80000e-01,
392,5.60000e-01,
393,3.20000e-01,
394,3.60000e-01,
395,1.20000e-01,
396,1.60000e-01,
397,-8.00000e-02,
398,-4.00000e-02,
399,-2.40000e-01,
400,-2.00000e-01,
401,-4.40000e-01,
402,-4.00000e-01,
403,-6.40000e-01,
404,-5.60000e-01,
405,-8.00000e-01,
406,-8.00000e-01,
407,-1.00000e+00,
408,-9.60000e-01,
409,-1.20000e+00,
410,-1.12000e+00,
411,-1.36000e+00,
412,-1.28000e+00,
413,-1.52000e+00,
414,-1.44000e+00,
415,-1.64000e+00,
416,-1.60000e+00,
417,-1.80000e+00,
418,-1.72000e+00,
419,-1.92000e+00,
420,-1.84000e+00,
421,-2.04000e+00,
422,-2.00000e+00,
423,-2.16000e+00,
424,-2.08000e+00,
425,-2.28000e+00,
426,-2.20000e+00,
427,-2.36000e+00,
428,-2.28000e+00,
429,-2.40000e+00,
430,-2.32000e+00,
431,-2.48000e+00,
432,-2.40000e+00,
433,-2.52000e+00,
434,-2.52000e+00,
435,-2.44000e+00,
436,-2.44000e+00,
437,-2.56000e+00,
438,-2.56000e+00,
439,-2.44000e+00,
440,-2.44000e+00,
441,-2.56000e+00,
442,-2.52000e+00,
443,-2.44000e+00,
444,-2.48000e+00,
445,-2.40000e+00,
446,-2.48000e+00,
447,-2.32000e+00,
448,-2.40000e+00,
449,-2.24000e+00,
450,-2.32000e+00,
451,-2.16000e+00,
452,-2.24000e+00,
453,-2.08000e+00,
454,-2.16000e+00,
455,-1.96000e+00,
456,-2.00000e+00,
457,-1.80000e+00,
458,-1.88000e+00,
459,-1.68000e+00,
460,-1.76000e+00,
461,-1.56000e+00,
462,-1.64000e+00,
463,-1.40000e+00,
464,-1.48000e+00,
465,-1.24000e+00,
466,-1.32000e+00,
467,-1.08000e+00,
468,-1.16000e+00,
469,-9.20000e-01,
470,-9.60000e-01,
471,-6.80000e-01,
472,-7.60000e-01,
473,-5.60000e-01,
474,-6.00000e-01,
475,-3.60000e-01,
476,-4.40000e-01,
477,-1.60000e-01,
478,-2.40000e-01,
479,0.00000e+00,
480,-4.00000e-02,
481,2.00000e-01,
482,1.20000e-01,
483,4.00000e-01,
484,3.60000e-01,
485,5.60000e-01,
486,5.60000e-01,
487,8.00000e-01,
488,7.20000e-01,
489,9.60000e-01,
490,8.80000e-01,
491,1.12000e+00,
492,1.04000e+00,
493,1.28000e+00,
494,1.24000e+00,
495,1.44000e+00,
496,1.40000e+00,
497,1.64000e+00,
498,1.60000e+00,
499,1.76000e+00,
500,1.72000e+00,
501,1.92000e+00,
502,1.84000e+00,
503,2.04000e+00,
504,1.96000e+00,
505,2.12000e+00,
506,2.08000e+00,
507,2.24000e+00,
508,2.16000e+00,
509,2.32000e+00,
510,2.24000e+00,
511,2.40000e+00,
512,2.32000e+00,
513,2.48000e+00,
514,2.40000e+00,
515,2.52000e+00,
516,2.44000e+00,
517,2.56000e+00,
518,2.56000e+00,
519,2.48000e+00,
520,2.48000e+00,
521,2.56000e+00,
522,2.56000e+00,
523,2.48000e+00,
524,2.48000e+00,
525,2.56000e+00,
526,2.56000e+00,
527,2.44000e+00,
528,2.52000e+00,
529,2.40000e+00,
530,2.48000e+00,
531,2.36000e+00,
532,2.40000e+00,
533,2.24000e+00,
534,2.32000e+00,
535,2.16000e+00,
536,2.24000e+00,
537,2.08000e+00,
538,2.16000e+00,
539,1.96000e+00,
540,2.04000e+00,
541,1.84000e+00,
542,1.92000e+00,
543,1.72000e+00,
544,1.80000e+00,
545,1.60000e+00,
546,1.64000e+00,
547,1.40000e+00,
548,1.48000e+00,
549,1.24000e+00,
550,1.32000e+00,
551,1.08000e+00,
552,1.16000e+00,
553,9.20000e-01,
554,1.00000e+00,
555,7.60000e-01,
556,8.00000e-01,
557,5.60000e-01,
558,6.40000e-01,
559,3.60000e-01,
560,4.40000e-01,
561,1.60000e-01,
562,2.40000e-01,
563,-4.00000e-02,
564,4.00000e-02,
565,-2.00000e-01,
566,-1.60000e-01,
567,-4.00000e-01,
568,-3.20000e-01,
569,-5.60000e-01,
570,-5.20000e-01,
571,-7.60000e-01,
572,-7.20000e-01,
573,-9.20000e-01,
574,-8.80000e-01,
575,-1.12000e+00,
576,-1.08000e+00,
577,-1.32000e+00,
578,-1.24000e+00,
579,-1.44000e+00,
580,-1.40000e+00,
581,-1.60000e+00,
582,-1.52000e+00,
583,-1.72000e+00,
584,-1.68000e+00,
585,-1.88000e+00,
586,-1.80000e+00,
587,-1.96000e+00,
588,-1.96000e+00,
589,-2.12000e+00,
590,-2.08000e+00,
591,-2.20000e+00,
592,-2.16000e+00,
593,-2.32000e+00,
594,-2.24000e+00,
595,-2.40000e+00,
596,-2.32000e+00,
597,-2.48000e+00,
598,-2.40000e+00,
599,-2.48000e+00,
600,-2.40000e+00,
601,-2.52000e+00,
602,-2.44000e+00,
603,-2.56000e+00,
604,-2.44000e+00,
605,-2.56000e+00,
606,-2.56000e+00,
607,-2.44000e+00,
608,-2.44000e+00,
609,-2.52000e+00,
610,-2.52000e+00,
611,-2.40000e+00,
612,-2.48000e+00,
613,-2.32000e+00,
614,-2.40000e+00,
615,-2.28000e+00,
616,-2.36000e+00,
617,-2.20000e+00,
618,-2.28000e+00,
619,-2.12000e+00,
620,-2.16000e+00,
621,-2.04000e+00,
622,-2.04000e+00,
623,-1.84000e+00,
624,-1.92000e+00,
625,-1.76000e+00,
626,-1.80000e+00,
627,-1.60000e+00,
628,-1.68000e+00,
629,-1.48000e+00,
630,-1.56000e+00,
631,-1.28000e+00,
632,-1.36000e+00,
633,-1.12000e+00,
634,-1.20000e+00,
635,-1.00000e+00,
636,-1.04000e+00,
637,-8.40000e-01,
638,-8.40000e-01,
639,-6.00000e-01,
640,-6.80000e-01,
641,-4.00000e-01,
642,-4.80000e-01,
643,-2.80000e-01,
644,-3.20000e-01,
645,-4.00000e-02,
646,-8.00000e-02,
647,1.60000e-01,
648,1.20000e-01,
649,3.20000e-01,
650,2.80000e-01,
651,5.60000e-01,
652,4.80000e-01,
653,6.80000e-01,
654,6.40000e-01,
655,9.20000e-01,
656,8.40000e-01,
657,1.08000e+00,
658,1.00000e+00,
659,1.24000e+00,
660,1.16000e+00,
661,1.40000e+00,
662,1.32000e+00,
663,1.60000e+00,
664,1.52000e+00,
665,1.72000e+00,
666,1.64000e+00,
667,1.84000e+00,
668,1.80000e+00,
669,1.96000e+00,
670,1.92000e+00,
671,2.12000e+00,
672,2.04000e+00,
673,2.20000e+00,
674,2.12000e+00,
675,2.28000e+00,
676,2.24000e+00,
677,2.36000e+00,
678,2.28000e+00,
679,2.44000e+00,
680,2.36000e+00,
681,2.52000e+00,
682,2.40000e+00,
683,2.52000e+00,
684,2.48000e+00,
685,2.56000e+00,
686,2.48000e+00,
687,2.60000e+00,
688,2.60000e+00,
689,2.48000e+00,
690,2.60000e+00,
691,2.48000e+00,
692,2.56000e+00,
693,2.44000e+00,
694,2.52000e+00,
695,2.44000e+00,
696,2.48000e+00,
697,2.36000e+00,
698,2.44000e+00,
699,2.28000e+00,
700,2.36000e+00,
701,2.20000e+00,
702,2.28000e+00,
703,2.12000e+00,
704,2.20000e+00,
705,2.00000e+00,
706,2.08000e+00,
707,1.88000e+00,
708,1.96000e+00,
709,1.76000e+00,
710,1.84000e+00,
711,1.64000e+00,
712,1.72000e+00,
713,1.44000e+00,
714,1.52000e+00,
715,1.32000e+00,
716,1.36000e+00,
717,1.16000e+00,
718,1.20000e+00,
719,9.60000e-01,
720,1.04000e+00,
721,8.00000e-01,
722,8.80000e-01,
723,6.00000e-01,
724,6.40000e-01,
725,4.80000e-01,
726,5.20000e-01,
727,2.40000e-01,
728,2.80000e-01,
729,4.00000e-02,
730,1.20000e-01,
731,-1.60000e-01,
732,-8.00000e-02,
733,-3.20000e-01,
734,-2.40000e-01,
735,-5.20000e-01,
736,-4.40000e-01,
737,-6.80000e-01,
738,-6.40000e-01,
739,-9.20000e-01,
740,-8.80000e-01,
741,-1.08000e+00,
742,-1.00000e+00,
743,-1.24000e+00,
744,-1.20000e+00,
745,-1.40000e+00,
746,-1.32000e+00,
747,-1.56000e+00,
748,-1.48000e+00,
749,-1.72000e+00,
750,-1.64000e+00,
751,-1.84000e+00,
752,-1.76000e+00,
753,-1.96000e+00,
754,-1.92000e+00,
755,-2.08000e+00,
756,-2.04000e+00,
757,-2.20000e+00,
758,-2.16000e+00,
759,-2.28000e+00,
760,-2.24000e+00,
761,-2.36000e+00,
762,-2.28000e+00,
763,-2.44000e+00,
764,-2.36000e+00,
765,-2.48000e+00,
766,-2.40000e+00,
767,-2.52000e+00,
768,-2.44000e+00,
769,-2.56000e+00,
770,-2.56000e+00,
771,-2.44000e+00,
772,-2.56000e+00,
773,-2.48000e+00,
774,-2.56000e+00,
775,-2.44000e+00,
776,-2.52000e+00,
777,-2.40000e+00,
778,-2.48000e+00,
779,-2.36000e+00,
780,-2.44000e+00,
781,-2.32000e+00,
782,-2.36000e+00,
783,-2.24000e+00,
784,-2.28000e+00,
785,-2.16000e+00,
786,-2.24000e+00,
787,-2.04000e+00,
788,-2.08000e+00,
789,-1.92000e+00,
790,-1.96000e+00,
791,-1.76000e+00,
792,-1.84000e+00,
793,-1.64000e+00,
794,-1.72000e+00,
795,-1.48000e+00,
796,-1.56000e+00,
797,-1.36000e+00,
798,-1.44000e+00,
799,-1.20000e+00,
800,-1.28000e+00,
801,-1.04000e+00,
802,-1.12000e+00,
803,-8.80000e-01,
804,-8.80000e-01,
805,-6.80000e-01,
806,-7.20000e-01,
807,-4.80000e-01,
808,-5.20000e-01,
809,-3.20000e-01,
810,-3.60000e-01,
811,-1.20000e-01,
812,-1.60000e-01,
813,8.00000e-02,
814,0.00000e+00,
815,2.40000e-01,
816,2.00000e-01,
817,4.40000e-01,
818,4.00000e-01,
819,6.40000e-01,
820,6.00000e-01,
821,8.40000e-01,
822,7.60000e-01,
823,1.00000e+00,
824,9.60000e-01,
825,1.20000e+00,
826,1.12000e+00,
827,1.32000e+00,
828,1.32000e+00,
829,1.48000e+00,
830,1.44000e+00,
831,1.64000e+00,
832,1.60000e+00,
833,1.80000e+00,
834,1.76000e+00,
835,1.96000e+00,
836,1.88000e+00,
837,2.04000e+00,
838,2.00000e+00,
839,2.16000e+00,
840,2.08000e+00,
841,2.28000e+00,
842,2.20000e+00,
843,2.36000e+00,
844,2.28000e+00,
845,2.40000e+00,
846,2.32000e+00,
847,2.48000e+00,
848,2.40000e+00,
849,2.52000e+00,
850,2.44000e+00,
851,2.56000e+00,
852,2.56000e+00,
853,2.48000e+00,
854,2.48000e+00,
855,2.56000e+00,
856,2.48000e+00,
857,2.60000e+00,
858,2.56000e+00,
859,2.48000e+00,
860,2.52000e+00,
861,2.44000e+00,
862,2.48000e+00,
863,2.36000e+00,
864,2.44000e+00,
865,2.32000e+00,
866,2.40000e+00,
867,2.24000e+00,
868,2.28000e+00,
869,2.16000e+00,
870,2.24000e+00,
871,2.04000e+00,
872,2.12000e+00,
873,1.96000e+00,
874,2.00000e+00,
875,1.80000e+00,
876,1.88000e+00,
877,1.68000e+00,
878,1.72000e+00,
879,1.52000e+00,
880,1.60000e+00,
881,1.36000e+00,
882,1.40000e+00,
883,1.20000e+00,
884,1.28000e+00,
885,1.04000e+00,
886,1.08000e+00,
887,8.40000e-01,
888,9.20000e-01,
889,6.80000e-01,
890,7.60000e-01,
891,5.20000e-01,
892,5.60000e-01,
893,3.20000e-01,
894,3.60000e-01,
895,1.20000e-01,
896,1.60000e-01,
897,-8.00000e-02,
898,-4.00000e-02,
899,-2.80000e-01,
900,-2.00000e-01,
901,-4.40000e-01,
902,-4.00000e-01,
903,-6.40000e-01,
904,-6.00000e-01,
905,-8.00000e-01,
906,-7.60000e-01,
907,-1.04000e+00,
908,-9.60000e-01,
909,-1.20000e+00,
910,-1.12000e+00,
911,-1.36000e+00,
912,-1.28000e+00,
913,-1.52000e+00,
914,-1.44000e+00,
915,-1.64000e+00,
916,-1.60000e+00,
917,-1.80000e+00,
918,-1.72000e+00,
919,-1.92000e+00,
920,-1.84000e+00,
921,-2.08000e+00,
922,-2.00000e+00,
923,-2.16000e+00,
924,-2.12000e+00,
925,-2.24000e+00,
926,-2.20000e+00,
927,-2.36000e+00,
928,-2.28000e+00,
929,-2.40000e+00,
930,-2.32000e+00,
931,-2.48000e+00,
932,-2.40000e+00,
933,-2.52000e+00,
934,-2.52000e+00,
935,-2.44000e+00,
936,-2.44000e+00,
937,-2.56000e+00,
938,-2.56000e+00,
939,-2.48000e+00,
940,-2.56000e+00,
941,-2.44000e+00,
942,-2.56000e+00,
943,-2.40000e+00,
944,-2.48000e+00,
945,-2.36000e+00,
946,-2.44000e+00,
947,-2.32000e+00,
948,-2.40000e+00,
949,-2.24000e+00,
950,-2.32000e+00,
951,-2.16000e+00,
952,-2.24000e+00,
953,-2.08000e+00,
954,-2.16000e+00,
955,-1.96000e+00,
956,-2.00000e+00,
957,-1.80000e+00,
958,-1.88000e+00,
959,-1.68000e+00,
960,-1.76000e+00,
961,-1.56000e+00,
962,-1.60000e+00,
963,-1.40000e+00,
964,-1.48000e+00,
965,-1.24000e+00,
966,-1.32000e+00,
967,-1.08000e+00,
968,-1.12000e+00,
969,-9.20000e-01,
970,-9.60000e-01,
971,-7.20000e-01,
972,-7.60000e-01,
973,-5.20000e-01,
974,-6.00000e-01,
975,-3.60000e-01,
976,-4.00000e-01,
977,-1.60000e-01,
978,-2.40000e-01,
979,0.00000e+00,
980,-4.00000e-02,
981,2.00000e-01,
982,1.60000e-01,
983,4.00000e-01,
984,3.60000e-01,
985,5.60000e-01,
986,5.60000e-01,
987,7.60000e-01,
988,7.20000e-01,
989,9.60000e-01,
990,8.80000e-01,
991,1.12000e+00,
992,1.04000e+00,
993,1.28000e+00,
994,1.24000e+00,
995,1.44000e+00,
996,1.44000e+00,
997,1.64000e+00,
998,1.56000e+00,
999,1.76000e+00,
1000,1.72000e+00,
1001,1.92000e+00,
1002,1.84000e+00,
1003,2.04000e+00,
1004,1.96000e+00,
1005,2.12000e+00,
1006,2.04000e+00,
1007,2.24000e+00,
1008,2.16000e+00,
1009,2.32000e+00,
1010,2.24000e+00,
1011,2.40000e+00,
1012,2.32000e+00,
1013,2.44000e+00,
1014,2.40000e+00,
1015,2.52000e+00,
1016,2.44000e+00,
1017,2.56000e+00,
1018,2.48000e+00,
1019,2.56000e+00,
1020,2.56000e+00,
1021,2.48000e+00,
1022,2.48000e+00,
1023,2.56000e+00,
1024,2.56000e+00,
1025,2.48000e+00,
1026,2.52000e+00,
1027,2.44000e+00,
1028,2.52000e+00,
1029,2.40000e+00,
1030,2.44000e+00,
1031,2.32000e+00,
1032,2.40000e+00,
1033,2.28000e+00,
1034,2.32000e+00,
1035,2.16000e+00,
1036,2.24000e+00,
1037,2.08000e+00,
1038,2.12000e+00,
1039,1.96000e+00,
1040,2.04000e+00,
1041,1.84000e+00,
1042,1.92000e+00,
1043,1.72000e+00,
1044,1.80000e+00,
1045,1.60000e+00,
1046,1.64000e+00,
1047,1.40000e+00,
1048,1.48000e+00,
1049,1.24000e+00,
1050,1.32000e+00,
1051,1.08000e+00,
1052,1.12000e+00,
1053,9.20000e-01,
1054,9.60000e-01,
1055,7.20000e-01,
1056,8.00000e-01,
1057,5.60000e-01,
1058,6.40000e-01,
1059,3.60000e-01,
1060,4.40000e-01,
1061,1.60000e-01,
1062,2.40000e-01,
1063,-4.00000e-02,
1064,4.00000e-02,
1065,-2.00000e-01,
1066,-1.60000e-01,
1067,-4.00000e-01,
1068,-3.20000e-01,
1069,-6.00000e-01,
1070,-5.20000e-01,
1071,-7.60000e-01,
1072,-7.20000e-01,
1073,-9.20000e-01,
1074,-9.20000e-01,
1075,-1.12000e+00,
1076,-1.08000e+00,
1077,-1.28000e+00,
1078,-1.24000e+00,
1079,-1.44000e+00,
1080,-1.40000e+00,
1081,-1.60000e+00,
1082,-1.52000e+00,
1083,-1.76000e+00,
1084,-1.68000e+00,
1085,-1.88000e+00,
1086,-1.84000e+00,
1087,-2.00000e+00,
1088,-1.96000e+00,
1089,-2.12000e+00,
1090,-2.08000e+00,
1091,-2.24000e+00,
1092,-2.16000e+00,
1093,-2.32000e+00,
1094,-2.24000e+00,
1095,-2.36000e+00,
1096,-2.32000e+00,
1097,-2.44000e+00,
1098,-2.36000e+00,
1099,-2.48000e+00,
1100,-2.40000e+00,
1101,-2.52000e+00,
1102,-2.44000e+00,
1103,-2.56000e+00,
1104,-2.56000e+00,
1105,-2.44000e+00,
1106,-2.56000e+00,
1107,-2.44000e+00,
1108,-2.44000e+00,
1109,-2.52000e+00,
1110,-2.52000e+00,
1111,-2.40000e+00,
1112,-2.48000e+00,
1113,-2.32000e+00,
1114,-2.40000e+00,
1115,-2.28000e+00,
1116,-2.36000e+00,
1117,-2.20000e+00,
1118,-2.28000e+00,
1119,-2.12000e+00,
1120,-2.16000e+00,
1121,-1.96000e+00,
1122,-2.00000e+00,
1123,-1.84000e+00,
1124,-1.92000e+00,
1125,-1.76000e+00,
1126,-1.84000e+00,
1127,-1.60000e+00,
1128,-1.64000e+00,
1129,-1.44000e+00,
1130,-1.48000e+00,
1131,-1.32000e+00,
1132,-1.36000e+00,
1133,-1.16000e+00,
1134,-1.20000e+00,
1135,-1.00000e+00,
1136,-1.00000e+00,
