DataAnalysis/Johnson_noise/2017_johnson_noise/data_MUIC_nop_anan/NewFile74.csv

X,CH1,Start,Increment,
Sequence,Volt,1.80000e-03,1.00000e-06
0,4.00000e-02,
1,4.40000e-01,
2,4.00000e-01,
3,5.60000e-01,
4,5.20000e-01,
5,2.00000e-01,
6,2.40000e-01,
7,-2.00000e-01,
8,-1.60000e-01,
9,-4.40000e-01,
10,-4.80000e-01,
11,-3.20000e-01,
12,-3.60000e-01,
13,4.00000e-02,
14,-4.00000e-02,
15,3.60000e-01,
16,3.60000e-01,
17,5.60000e-01,
18,5.20000e-01,
19,2.80000e-01,
20,2.80000e-01,
21,-1.60000e-01,
22,-8.00000e-02,
23,-4.40000e-01,
24,-3.60000e-01,
25,-4.80000e-01,
26,-4.00000e-01,
27,-4.00000e-02,
28,-8.00000e-02,
29,3.20000e-01,
30,3.20000e-01,
31,5.60000e-01,
32,5.60000e-01,
33,3.20000e-01,
34,4.00000e-01,
35,-8.00000e-02,
36,-4.00000e-02,
37,-4.00000e-01,
38,-3.60000e-01,
39,-4.80000e-01,
40,-4.40000e-01,
41,-8.00000e-02,
42,-1.20000e-01,
43,2.80000e-01,
44,2.80000e-01,
45,5.60000e-01,
46,5.60000e-01,
47,3.60000e-01,
48,4.00000e-01,
49,-4.00000e-02,
50,4.00000e-02,
51,-3.60000e-01,
52,-3.20000e-01,
53,-4.80000e-01,
54,-4.80000e-01,
55,-1.20000e-01,
56,-2.00000e-01,
57,2.40000e-01,
58,2.00000e-01,
59,5.20000e-01,
60,5.20000e-01,
61,3.60000e-01,
62,4.40000e-01,
63,0.00000e+00,
64,8.00000e-02,
65,-3.20000e-01,
66,-2.80000e-01,
67,-4.80000e-01,
68,-4.80000e-01,
69,-2.00000e-01,
70,-2.40000e-01,
71,2.00000e-01,
72,1.20000e-01,
73,5.20000e-01,
74,5.60000e-01,
75,4.00000e-01,
76,4.80000e-01,
77,1.20000e-01,
78,1.20000e-01,
79,-2.80000e-01,
80,-2.40000e-01,
81,-4.80000e-01,
82,-4.80000e-01,
83,-2.40000e-01,
84,-3.20000e-01,
85,1.20000e-01,
86,1.20000e-01,
87,4.80000e-01,
88,4.40000e-01,
89,5.60000e-01,
90,5.20000e-01,
91,1.20000e-01,
92,2.00000e-01,
93,-2.40000e-01,
94,-2.00000e-01,
95,-4.80000e-01,
96,-4.80000e-01,
97,-2.80000e-01,
98,-3.60000e-01,
99,8.00000e-02,
100,0.00000e+00,
101,4.40000e-01,
102,4.00000e-01,
103,5.60000e-01,
104,4.80000e-01,
105,2.00000e-01,
106,2.40000e-01,
107,-2.00000e-01,
108,-1.60000e-01,
109,-4.40000e-01,
110,-4.80000e-01,
111,-3.20000e-01,
112,-4.00000e-01,
113,0.00000e+00,
114,-4.00000e-02,
115,4.00000e-01,
116,3.60000e-01,
117,5.60000e-01,
118,5.20000e-01,
119,2.80000e-01,
120,3.20000e-01,
121,-1.60000e-01,
122,-8.00000e-02,
123,-4.40000e-01,
124,-3.60000e-01,
125,-4.80000e-01,
126,-4.00000e-01,
127,-4.00000e-02,
128,-8.00000e-02,
129,3.60000e-01,
130,3.20000e-01,
131,5.20000e-01,
132,5.60000e-01,
133,3.20000e-01,
134,3.60000e-01,
135,-8.00000e-02,
136,-4.00000e-02,
137,-4.00000e-01,
138,-3.60000e-01,
139,-4.80000e-01,
140,-4.40000e-01,
141,-8.00000e-02,
142,-1.60000e-01,
143,2.80000e-01,
144,2.40000e-01,
145,5.20000e-01,
146,5.20000e-01,
147,3.60000e-01,
148,4.00000e-01,
149,0.00000e+00,
150,4.00000e-02,
151,-3.60000e-01,
152,-3.20000e-01,
153,-4.80000e-01,
154,-4.40000e-01,
155,-1.60000e-01,
156,-2.00000e-01,
157,2.40000e-01,
158,2.00000e-01,
159,5.20000e-01,
160,5.60000e-01,
161,4.00000e-01,
162,4.40000e-01,
163,4.00000e-02,
164,8.00000e-02,
165,-3.60000e-01,
166,-2.80000e-01,
167,-4.80000e-01,
168,-4.80000e-01,
169,-2.00000e-01,
170,-2.40000e-01,
171,1.60000e-01,
172,1.20000e-01,
173,4.80000e-01,
174,5.20000e-01,
175,4.00000e-01,
176,4.40000e-01,
177,8.00000e-02,
178,1.20000e-01,
179,-2.80000e-01,
180,-2.40000e-01,
181,-4.80000e-01,
182,-4.80000e-01,
183,-2.40000e-01,
184,-3.20000e-01,
185,1.20000e-01,
186,8.00000e-02,
187,4.80000e-01,
188,4.40000e-01,
189,5.60000e-01,
190,5.20000e-01,
191,1.60000e-01,
192,2.00000e-01,
193,-2.40000e-01,
194,-2.00000e-01,
195,-4.80000e-01,
196,-4.80000e-01,
197,-2.80000e-01,
198,-3.20000e-01,
199,4.00000e-02,
200,4.00000e-02,
201,4.40000e-01,
202,4.00000e-01,
203,5.60000e-01,
204,5.20000e-01,
205,2.40000e-01,
206,2.40000e-01,
207,-2.00000e-01,
208,-1.60000e-01,
209,-4.40000e-01,
210,-4.80000e-01,
211,-3.20000e-01,
212,-3.60000e-01,
213,4.00000e-02,
214,-4.00000e-02,
215,4.00000e-01,
216,3.60000e-01,
217,5.60000e-01,
218,5.20000e-01,
219,2.80000e-01,
220,2.80000e-01,
221,-1.60000e-01,
222,-1.20000e-01,
223,-4.40000e-01,
224,-3.60000e-01,
225,-4.80000e-01,
226,-4.00000e-01,
227,-4.00000e-02,
228,-8.00000e-02,
229,4.00000e-01,
230,3.20000e-01,
231,5.60000e-01,
232,5.60000e-01,
233,3.20000e-01,
234,3.20000e-01,
235,-8.00000e-02,
236,-4.00000e-02,
237,-4.00000e-01,
238,-3.60000e-01,
239,-4.80000e-01,
240,-4.40000e-01,
241,-8.00000e-02,
242,-1.60000e-01,
243,3.20000e-01,
244,2.80000e-01,
245,5.20000e-01,
246,5.60000e-01,
247,3.60000e-01,
248,4.00000e-01,
249,-4.00000e-02,
250,0.00000e+00,
251,-4.00000e-01,
252,-3.20000e-01,
253,-4.80000e-01,
254,-4.80000e-01,
255,-1.60000e-01,
256,-2.00000e-01,
257,2.40000e-01,
258,2.00000e-01,
259,5.20000e-01,
260,5.60000e-01,
261,3.60000e-01,
262,4.40000e-01,
263,0.00000e+00,
264,8.00000e-02,
265,-3.60000e-01,
266,-2.80000e-01,
267,-4.80000e-01,
268,-4.80000e-01,
269,-2.00000e-01,
270,-2.80000e-01,
271,2.00000e-01,
272,1.60000e-01,
273,5.20000e-01,
274,4.40000e-01,
275,5.60000e-01,
276,4.80000e-01,
277,8.00000e-02,
278,1.20000e-01,
279,-2.80000e-01,
280,-2.40000e-01,
281,-4.80000e-01,
282,-4.80000e-01,
283,-2.40000e-01,
284,-3.20000e-01,
285,1.20000e-01,
286,8.00000e-02,
287,4.80000e-01,
288,4.40000e-01,
289,5.60000e-01,
290,5.20000e-01,
291,1.60000e-01,
292,2.00000e-01,
293,-2.40000e-01,
294,-2.00000e-01,
295,-4.80000e-01,
296,-4.80000e-01,
297,-2.80000e-01,
298,-3.20000e-01,
299,8.00000e-02,
300,4.00000e-02,
301,4.00000e-01,
302,4.00000e-01,
303,5.60000e-01,
304,5.20000e-01,
305,2.00000e-01,
306,2.40000e-01,
307,-2.00000e-01,
308,-1.60000e-01,
309,-4.40000e-01,
310,-4.80000e-01,
311,-3.20000e-01,
312,-4.00000e-01,
313,4.00000e-02,
314,0.00000e+00,
315,3.60000e-01,
316,3.60000e-01,
317,5.60000e-01,
318,5.20000e-01,
319,2.80000e-01,
320,2.80000e-01,
321,-1.60000e-01,
322,-8.00000e-02,
323,-4.40000e-01,
324,-4.80000e-01,
325,-3.20000e-01,
326,-4.00000e-01,
327,-4.00000e-02,
328,-8.00000e-02,
329,3.60000e-01,
330,3.20000e-01,
331,5.60000e-01,
332,5.60000e-01,
333,3.20000e-01,
334,3.60000e-01,
335,-8.00000e-02,
336,-4.00000e-02,
337,-4.00000e-01,
338,-3.20000e-01,
339,-4.80000e-01,
340,-4.40000e-01,
341,-8.00000e-02,
342,-1.60000e-01,
343,2.80000e-01,
344,2.80000e-01,
345,5.20000e-01,
346,5.60000e-01,
347,3.60000e-01,
348,4.00000e-01,
349,-4.00000e-02,
350,0.00000e+00,
351,-3.60000e-01,
352,-3.20000e-01,
353,-4.80000e-01,
354,-4.40000e-01,
355,-1.20000e-01,
356,-2.00000e-01,
357,2.40000e-01,
358,2.00000e-01,
359,5.20000e-01,
360,5.60000e-01,
361,4.00000e-01,
362,4.40000e-01,
363,4.00000e-02,
364,8.00000e-02,
365,-3.20000e-01,
366,-2.80000e-01,
367,-4.80000e-01,
368,-4.80000e-01,
369,-2.00000e-01,
370,-2.80000e-01,
371,2.00000e-01,
372,1.60000e-01,
373,5.20000e-01,
374,4.40000e-01,
375,5.60000e-01,
376,4.80000e-01,
377,1.20000e-01,
378,1.20000e-01,
379,-3.20000e-01,
380,-2.40000e-01,
381,-4.80000e-01,
382,-4.80000e-01,
383,-2.40000e-01,
384,-3.20000e-01,
385,1.20000e-01,
386,1.20000e-01,
387,4.40000e-01,
388,4.00000e-01,
389,5.60000e-01,
390,5.20000e-01,
391,1.20000e-01,
392,2.00000e-01,
393,-2.40000e-01,
394,-2.00000e-01,
395,-4.80000e-01,
396,-4.80000e-01,
397,-2.80000e-01,
398,-3.60000e-01,
399,8.00000e-02,
400,4.00000e-02,
401,4.40000e-01,
402,3.60000e-01,
403,5.60000e-01,
404,5.20000e-01,
405,2.40000e-01,
406,2.40000e-01,
407,-2.00000e-01,
408,-1.60000e-01,
409,-4.40000e-01,
410,-4.80000e-01,
411,-3.20000e-01,
412,-4.00000e-01,
413,0.00000e+00,
414,0.00000e+00,
415,3.60000e-01,
416,3.60000e-01,
417,5.60000e-01,
418,5.20000e-01,
419,2.80000e-01,
420,2.80000e-01,
421,-1.20000e-01,
422,-8.00000e-02,
423,-4.40000e-01,
424,-3.60000e-01,
425,-4.80000e-01,
426,-4.00000e-01,
427,-4.00000e-02,
428,-8.00000e-02,
429,4.00000e-01,
430,3.20000e-01,
431,5.60000e-01,
432,5.60000e-01,
433,3.20000e-01,
434,3.60000e-01,
435,-8.00000e-02,
436,-4.00000e-02,
437,-4.00000e-01,
438,-3.60000e-01,
439,-4.80000e-01,
440,-4.40000e-01,
441,-8.00000e-02,
442,-1.60000e-01,
443,3.20000e-01,
444,2.80000e-01,
445,5.60000e-01,
446,5.60000e-01,
447,3.60000e-01,
448,4.00000e-01,
449,0.00000e+00,
450,0.00000e+00,
451,-3.60000e-01,
452,-3.20000e-01,
453,-4.80000e-01,
454,-4.40000e-01,
455,-1.60000e-01,
456,-2.00000e-01,
457,2.40000e-01,
458,2.00000e-01,
459,5.20000e-01,
460,5.60000e-01,
461,4.00000e-01,
462,4.40000e-01,
463,4.00000e-02,
464,8.00000e-02,
465,-3.60000e-01,
466,-2.80000e-01,
467,-4.80000e-01,
468,-4.80000e-01,
469,-2.00000e-01,
470,-2.80000e-01,
471,1.60000e-01,
472,1.60000e-01,
473,5.20000e-01,
474,4.40000e-01,
475,5.60000e-01,
476,4.40000e-01,
477,1.20000e-01,
478,1.20000e-01,
479,-2.80000e-01,
480,-2.40000e-01,
481,-4.80000e-01,
482,-4.80000e-01,
483,-2.40000e-01,
484,-2.80000e-01,
485,1.20000e-01,
486,1.20000e-01,
487,4.80000e-01,
488,4.40000e-01,
489,5.60000e-01,
490,4.80000e-01,
491,1.60000e-01,
492,2.00000e-01,
493,-2.40000e-01,
494,-2.00000e-01,
495,-4.40000e-01,
496,-4.40000e-01,
497,-2.80000e-01,
498,-3.20000e-01,
499,8.00000e-02,
500,4.00000e-02,
501,4.80000e-01,
502,4.00000e-01,
503,5.60000e-01,
504,5.20000e-01,
505,2.40000e-01,
506,2.40000e-01,
507,-2.00000e-01,
508,-1.20000e-01,
509,-4.40000e-01,
510,-4.80000e-01,
511,-3.20000e-01,
512,-3.60000e-01,
513,0.00000e+00,
514,-4.00000e-02,
515,4.00000e-01,
516,3.60000e-01,
517,5.60000e-01,
518,5.60000e-01,
519,2.80000e-01,
520,3.20000e-01,
521,-1.60000e-01,
522,-8.00000e-02,
523,-4.40000e-01,
524,-3.60000e-01,
525,-4.80000e-01,
526,-4.00000e-01,
527,-4.00000e-02,
528,-4.00000e-02,
529,3.60000e-01,
530,3.20000e-01,
531,5.60000e-01,
532,5.60000e-01,
533,3.20000e-01,
534,3.20000e-01,
535,-4.00000e-02,
536,-4.00000e-02,
537,-4.00000e-01,
538,-3.20000e-01,
539,-4.80000e-01,
540,-4.40000e-01,
541,-8.00000e-02,
542,-1.60000e-01,
543,2.80000e-01,
544,2.80000e-01,
545,5.60000e-01,
546,5.60000e-01,
547,3.60000e-01,
548,4.00000e-01,
549,-4.00000e-02,
550,4.00000e-02,
551,-3.60000e-01,
552,-3.20000e-01,
553,-4.80000e-01,
554,-4.40000e-01,
555,-1.60000e-01,
556,-2.00000e-01,
557,2.40000e-01,
558,2.00000e-01,
559,5.20000e-01,
560,5.60000e-01,
561,4.00000e-01,
562,4.40000e-01,
563,4.00000e-02,
564,8.00000e-02,
565,-3.60000e-01,
566,-2.80000e-01,
567,-4.80000e-01,
568,-4.80000e-01,
569,-2.00000e-01,
570,-2.40000e-01,
571,1.60000e-01,
572,1.60000e-01,
573,5.20000e-01,
574,5.60000e-01,
575,4.00000e-01,
576,4.80000e-01,
577,8.00000e-02,
578,1.20000e-01,
579,-2.80000e-01,
580,-2.40000e-01,
581,-4.80000e-01,
582,-4.80000e-01,
583,-2.40000e-01,
584,-2.80000e-01,
585,1.20000e-01,
586,1.20000e-01,
587,4.80000e-01,
588,4.40000e-01,
589,5.60000e-01,
590,5.20000e-01,
591,1.60000e-01,
592,2.00000e-01,
593,-2.40000e-01,
594,-2.00000e-01,
595,-4.80000e-01,
596,-4.80000e-01,
597,-2.80000e-01,
598,-3.20000e-01,
599,8.00000e-02,
600,4.00000e-02,
601,4.40000e-01,
602,4.00000e-01,
603,5.60000e-01,
604,5.20000e-01,
605,2.00000e-01,
606,2.40000e-01,
607,-1.60000e-01,
608,-1.60000e-01,
609,-4.40000e-01,
610,-4.80000e-01,
611,-3.20000e-01,
612,-3.60000e-01,
613,4.00000e-02,
614,-4.00000e-02,
615,4.00000e-01,
616,3.60000e-01,
617,5.60000e-01,
618,5.60000e-01,
619,2.80000e-01,
620,3.20000e-01,
621,-1.20000e-01,
622,-8.00000e-02,
623,-4.40000e-01,
624,-3.60000e-01,
625,-4.80000e-01,
626,-4.00000e-01,
627,-4.00000e-02,
628,-8.00000e-02,
629,3.60000e-01,
630,3.20000e-01,
631,5.60000e-01,
632,5.60000e-01,
633,3.20000e-01,
634,3.60000e-01,
635,-8.00000e-02,
636,0.00000e+00,
637,-4.00000e-01,
638,-3.20000e-01,
639,-4.40000e-01,
640,-4.00000e-01,
641,-8.00000e-02,
642,-1.60000e-01,
643,2.80000e-01,
644,2.80000e-01,
645,5.60000e-01,
646,5.60000e-01,
647,3.60000e-01,
648,4.00000e-01,
649,0.00000e+00,
650,4.00000e-02,
651,-3.60000e-01,
652,-3.20000e-01,
653,-4.40000e-01,
654,-4.40000e-01,
655,-1.20000e-01,
656,-2.00000e-01,
657,2.80000e-01,
658,2.40000e-01,
659,5.60000e-01,
660,6.00000e-01,
661,4.40000e-01,
662,4.80000e-01,
663,4.00000e-02,
664,1.20000e-01,
665,-3.20000e-01,
666,-2.40000e-01,
667,-4.40000e-01,
668,-4.40000e-01,
669,-2.00000e-01,
670,-2.40000e-01,
671,2.00000e-01,
672,1.60000e-01,
673,5.20000e-01,
674,5.60000e-01,
675,4.00000e-01,
676,4.40000e-01,
677,1.20000e-01,
678,1.20000e-01,
679,-3.20000e-01,
680,-2.40000e-01,
681,-4.80000e-01,
682,-4.80000e-01,
683,-2.40000e-01,
684,-2.80000e-01,
685,1.60000e-01,
686,1.20000e-01,
687,4.80000e-01,
688,4.40000e-01,
689,5.60000e-01,
690,5.20000e-01,
691,1.60000e-01,
692,2.00000e-01,
693,-2.40000e-01,
694,-2.00000e-01,
695,-4.80000e-01,
696,-4.80000e-01,
697,-2.80000e-01,
698,-3.60000e-01,
699,8.00000e-02,
700,4.00000e-02,
701,4.80000e-01,
702,4.00000e-01,
703,5.60000e-01,
704,5.60000e-01,
705,2.40000e-01,
706,2.80000e-01,
707,-1.60000e-01,
708,-1.20000e-01,
709,-4.00000e-01,
710,-4.40000e-01,
711,-2.80000e-01,
712,-3.60000e-01,
713,4.00000e-02,
714,0.00000e+00,
715,4.00000e-01,
716,3.60000e-01,
717,5.60000e-01,
718,5.20000e-01,
719,2.40000e-01,
720,2.80000e-01,
721,-1.20000e-01,
722,-1.20000e-01,
723,-4.80000e-01,
724,-4.00000e-01,
725,-5.20000e-01,
726,-4.40000e-01,
727,-8.00000e-02,
728,-1.20000e-01,
729,3.60000e-01,
730,2.80000e-01,
731,5.20000e-01,
732,5.20000e-01,
733,2.80000e-01,
734,3.20000e-01,
735,-1.20000e-01,
736,-4.00000e-02,
737,-4.00000e-01,
738,-3.20000e-01,
739,-4.80000e-01,
740,-4.40000e-01,
741,-8.00000e-02,
742,-1.60000e-01,
743,2.80000e-01,
744,2.80000e-01,
745,5.20000e-01,
746,5.60000e-01,
747,3.60000e-01,
748,4.40000e-01,
749,0.00000e+00,
750,4.00000e-02,
751,-3.60000e-01,
752,-2.80000e-01,
753,-4.40000e-01,
754,-4.40000e-01,
755,-1.20000e-01,
756,-1.60000e-01,
757,2.80000e-01,
758,2.40000e-01,
759,5.60000e-01,
760,6.00000e-01,
761,4.00000e-01,
762,4.80000e-01,
763,8.00000e-02,
764,1.20000e-01,
765,-3.20000e-01,
766,-2.40000e-01,
767,-4.80000e-01,
768,-4.40000e-01,
769,-2.00000e-01,
770,-2.80000e-01,
771,1.60000e-01,
772,1.60000e-01,
773,4.80000e-01,
774,5.20000e-01,
775,4.00000e-01,
776,4.40000e-01,
777,4.00000e-02,
778,1.20000e-01,
779,-3.20000e-01,
780,-2.80000e-01,
781,-4.80000e-01,
782,-4.80000e-01,
783,-2.40000e-01,
784,-3.20000e-01,
785,1.20000e-01,
786,8.00000e-02,
787,4.80000e-01,
788,4.00000e-01,
789,5.60000e-01,
790,5.20000e-01,
791,1.60000e-01,
792,2.00000e-01,
793,-2.40000e-01,
794,-1.60000e-01,
795,-4.40000e-01,
796,-4.40000e-01,
797,-2.40000e-01,
798,-3.20000e-01,
799,1.20000e-01,
800,4.00000e-02,
801,4.80000e-01,
802,4.00000e-01,
803,5.60000e-01,
804,5.60000e-01,
805,2.40000e-01,
806,2.80000e-01,
807,-1.60000e-01,
808,-1.20000e-01,
809,-4.40000e-01,
810,-4.40000e-01,
811,-2.80000e-01,
812,-3.60000e-01,
813,4.00000e-02,
814,0.00000e+00,
815,4.40000e-01,
816,3.60000e-01,
817,5.60000e-01,
818,5.60000e-01,
819,2.80000e-01,
820,3.20000e-01,
821,-1.60000e-01,
822,-8.00000e-02,
823,-4.40000e-01,
824,-3.60000e-01,
825,-4.80000e-01,
826,-4.00000e-01,
827,-4.00000e-02,
828,-1.20000e-01,
829,3.60000e-01,
830,3.20000e-01,
831,5.20000e-01,
832,5.20000e-01,
833,2.80000e-01,
834,3.20000e-01,
835,-1.20000e-01,
836,-4.00000e-02,
837,-4.40000e-01,
838,-3.60000e-01,
839,-4.80000e-01,
840,-4.40000e-01,
841,-1.20000e-01,
842,-1.60000e-01,
843,2.80000e-01,
844,2.80000e-01,
845,5.20000e-01,
846,5.60000e-01,
847,3.60000e-01,
848,3.60000e-01,
849,-4.00000e-02,
850,4.00000e-02,
851,-3.60000e-01,
852,-3.20000e-01,
853,-4.40000e-01,
854,-4.40000e-01,
855,-1.20000e-01,
856,-2.00000e-01,
857,3.20000e-01,
858,2.40000e-01,
859,5.20000e-01,
860,6.00000e-01,
861,4.40000e-01,
862,4.80000e-01,
863,8.00000e-02,
864,1.20000e-01,
865,-3.20000e-01,
866,-2.40000e-01,
867,-4.80000e-01,
868,-4.40000e-01,
869,-2.00000e-01,
870,-2.40000e-01,
871,2.00000e-01,
872,1.60000e-01,
873,4.80000e-01,
874,5.20000e-01,
875,4.00000e-01,
876,4.80000e-01,
877,4.00000e-02,
878,1.20000e-01,
879,-3.20000e-01,
880,-2.80000e-01,
881,-4.80000e-01,
882,-4.80000e-01,
883,-2.40000e-01,
884,-3.20000e-01,
885,1.20000e-01,
886,8.00000e-02,
887,4.80000e-01,
888,4.00000e-01,
889,5.20000e-01,
890,5.20000e-01,
891,1.20000e-01,
892,2.00000e-01,
893,-2.40000e-01,
894,-2.00000e-01,
895,-4.80000e-01,
896,-4.80000e-01,
897,-2.80000e-01,
898,-3.60000e-01,
899,8.00000e-02,
900,4.00000e-02,
901,4.80000e-01,
902,4.00000e-01,
903,5.60000e-01,
904,5.60000e-01,
905,2.40000e-01,
906,2.80000e-01,
907,-1.60000e-01,
908,-1.20000e-01,
909,-4.00000e-01,
910,-4.40000e-01,
911,-2.80000e-01,
912,-3.60000e-01,
913,4.00000e-02,
914,0.00000e+00,
915,4.00000e-01,
916,3.60000e-01,
917,5.60000e-01,
918,5.60000e-01,
919,2.80000e-01,
920,2.80000e-01,
921,-1.60000e-01,
922,-8.00000e-02,
923,-4.40000e-01,
924,-3.60000e-01,
925,-4.80000e-01,
926,-4.00000e-01,
927,-4.00000e-02,
928,-1.20000e-01,
929,3.20000e-01,
930,3.20000e-01,
931,5.20000e-01,
932,5.20000e-01,
933,2.80000e-01,
934,3.20000e-01,
935,-1.20000e-01,
936,-4.00000e-02,
937,-4.00000e-01,
938,-3.60000e-01,
939,-4.80000e-01,
940,-4.40000e-01,
941,-8.00000e-02,
942,-1.60000e-01,
943,2.80000e-01,
944,2.40000e-01,
945,5.20000e-01,
946,5.20000e-01,
947,3.20000e-01,
948,4.00000e-01,
949,-4.00000e-02,
950,0.00000e+00,
951,-4.00000e-01,
952,-3.20000e-01,
953,-4.80000e-01,
954,-4.40000e-01,
955,-1.60000e-01,
956,-1.60000e-01,
957,2.40000e-01,
958,2.40000e-01,
959,5.60000e-01,
960,5.60000e-01,
961,4.00000e-01,
962,4.40000e-01,
963,4.00000e-02,
964,8.00000e-02,
965,-2.80000e-01,
966,-2.40000e-01,
967,-4.40000e-01,
968,-4.40000e-01,
969,-1.60000e-01,
970,-2.00000e-01,
971,2.00000e-01,
972,2.00000e-01,
973,5.20000e-01,
974,5.60000e-01,
975,4.40000e-01,
976,5.20000e-01,
977,1.20000e-01,
978,1.60000e-01,
979,-2.80000e-01,
980,-2.40000e-01,
981,-4.40000e-01,
982,-4.40000e-01,
983,-2.40000e-01,
984,-2.80000e-01,
985,1.60000e-01,
986,1.20000e-01,
987,5.20000e-01,
988,4.40000e-01,
989,5.60000e-01,
990,5.20000e-01,
991,1.20000e-01,
992,2.00000e-01,
993,-2.40000e-01,
994,-2.00000e-01,
995,-4.80000e-01,
996,-4.80000e-01,
997,-3.20000e-01,
998,-3.60000e-01,
999,4.00000e-02,
1000,0.00000e+00,
1001,4.40000e-01,
1002,3.60000e-01,
1003,5.20000e-01,
1004,4.80000e-01,
1005,1.60000e-01,
1006,2.00000e-01,
1007,-2.40000e-01,
1008,-1.60000e-01,
1009,-4.80000e-01,
1010,-4.80000e-01,
1011,-3.20000e-01,
1012,-4.00000e-01,
1013,0.00000e+00,
1014,0.00000e+00,
1015,4.00000e-01,
1016,3.60000e-01,
1017,5.60000e-01,
1018,5.60000e-01,
1019,2.80000e-01,
1020,2.80000e-01,
1021,-1.60000e-01,
1022,-8.00000e-02,
1023,-4.40000e-01,
1024,-4.80000e-01,
1025,-3.20000e-01,
1026,-4.00000e-01,
1027,-4.00000e-02,
1028,-8.00000e-02,
1029,3.60000e-01,
1030,3.20000e-01,
1031,5.60000e-01,
1032,5.60000e-01,
1033,3.20000e-01,
1034,3.60000e-01,
1035,-8.00000e-02,
1036,-4.00000e-02,
1037,-4.00000e-01,
1038,-3.20000e-01,
1039,-4.40000e-01,
1040,-4.00000e-01,
1041,-8.00000e-02,
1042,-1.20000e-01,
1043,3.20000e-01,
1044,2.80000e-01,
1045,6.00000e-01,
1046,6.00000e-01,
1047,4.00000e-01,
1048,4.40000e-01,
1049,0.00000e+00,
1050,4.00000e-02,
1051,-3.60000e-01,
1052,-2.80000e-01,
1053,-4.40000e-01,
1054,-4.40000e-01,
1055,-1.60000e-01,
1056,-2.00000e-01,
1057,2.00000e-01,
1058,1.60000e-01,
1059,4.80000e-01,
1060,5.20000e-01,
1061,3.60000e-01,
1062,4.00000e-01,
1063,4.00000e-02,
1064,4.00000e-02,
1065,-3.60000e-01,
1066,-3.20000e-01,
1067,-4.80000e-01,
1068,-4.80000e-01,
1069,-2.00000e-01,
1070,-2.80000e-01,
1071,2.00000e-01,
1072,1.20000e-01,
1073,5.20000e-01,
1074,5.20000e-01,
1075,4.00000e-01,
1076,4.40000e-01,
1077,8.00000e-02,
1078,1.20000e-01,
1079,-2.80000e-01,
1080,-2.40000e-01,
1081,-4.80000e-01,
1082,-4.80000e-01,
1083,-2.40000e-01,
1084,-2.80000e-01,
1085,1.60000e-01,
1086,1.20000e-01,
1087,4.80000e-01,
1088,4.00000e-01,
1089,5.60000e-01,
1090,4.80000e-01,
1091,1.60000e-01,
1092,2.00000e-01,
1093,-2.40000e-01,
1094,-2.00000e-01,
1095,-4.40000e-01,
1096,-4.40000e-01,
1097,-2.40000e-01,
1098,-3.20000e-01,
1099,1.20000e-01,
1100,4.00000e-02,
1101,4.80000e-01,
1102,4.40000e-01,
1103,6.00000e-01,
1104,5.60000e-01,
1105,2.40000e-01,
1106,2.80000e-01,
1107,-2.00000e-01,
1108,-1.20000e-01,
1109,-4.80000e-01,
1110,-4.80000e-01,
1111,-3.60000e-01,
1112,-4.00000e-01,
1113,-4.00000e-02,
1114,-8.00000e-02,
1115,3.60000e-01,
1116,3.20000e-01,
1117,5.20000e-01,
1118,5.20000e-01,
1119,2.40000e-01,
1120,2.80000e-01,
1121,-1.60000e-01,
1122,-8.00000e-02,
1123,-4.40000e-01,
1124,-3.60000e-01,
1125,-4.80000e-01,
1126,-4.00000e-01,
1127,-4.00000e-02,
1128,-8.00000e-02,
1129,3.60000e-01,
1130,3.20000e-01,
1131,5.60000e-01,
1132,5.60000e-01,
1133,3.20000e-01,
1134,3.60000e-01,
1135,-8.00000e-02,
1136,-4.00000e-02,
1137,-4.00000e-01,
1138,-3.20000e-01,
