DataAnalysis/Johnson_noise/2017_johnson_noise/data_MUIC_nop_anan/NewFile56.csv

X,CH1,Start,Increment,
Sequence,Volt,1.80000e-03,1.00000e-06
0,1.92000e+00,
1,2.28000e+00,
2,2.24000e+00,
3,2.56000e+00,
4,2.52000e+00,
5,2.80000e+00,
6,2.76000e+00,
7,3.00000e+00,
8,2.92000e+00,
9,3.16000e+00,
10,3.08000e+00,
11,3.28000e+00,
12,3.20000e+00,
13,3.32000e+00,
14,3.24000e+00,
15,3.36000e+00,
16,3.36000e+00,
17,3.24000e+00,
18,3.32000e+00,
19,3.16000e+00,
20,3.24000e+00,
21,3.04000e+00,
22,3.12000e+00,
23,2.88000e+00,
24,2.96000e+00,
25,2.68000e+00,
26,2.76000e+00,
27,2.44000e+00,
28,2.48000e+00,
29,2.16000e+00,
30,2.24000e+00,
31,1.84000e+00,
32,1.92000e+00,
33,1.52000e+00,
34,1.56000e+00,
35,1.16000e+00,
36,1.20000e+00,
37,7.60000e-01,
38,8.40000e-01,
39,4.00000e-01,
40,4.40000e-01,
41,4.00000e-02,
42,8.00000e-02,
43,-3.60000e-01,
44,-3.20000e-01,
45,-7.60000e-01,
46,-7.20000e-01,
47,-1.12000e+00,
48,-1.08000e+00,
49,-1.48000e+00,
50,-1.44000e+00,
51,-1.84000e+00,
52,-1.76000e+00,
53,-2.16000e+00,
54,-2.12000e+00,
55,-2.44000e+00,
56,-2.40000e+00,
57,-2.72000e+00,
58,-2.64000e+00,
59,-2.92000e+00,
60,-2.84000e+00,
61,-3.08000e+00,
62,-3.00000e+00,
63,-3.20000e+00,
64,-3.12000e+00,
65,-3.28000e+00,
66,-3.16000e+00,
67,-3.32000e+00,
68,-3.36000e+00,
69,-3.20000e+00,
70,-3.28000e+00,
71,-3.16000e+00,
72,-3.24000e+00,
73,-3.04000e+00,
74,-3.12000e+00,
75,-2.92000e+00,
76,-2.96000e+00,
77,-2.72000e+00,
78,-2.80000e+00,
79,-2.48000e+00,
80,-2.56000e+00,
81,-2.24000e+00,
82,-2.28000e+00,
83,-1.92000e+00,
84,-1.96000e+00,
85,-1.56000e+00,
86,-1.64000e+00,
87,-1.24000e+00,
88,-1.32000e+00,
89,-8.40000e-01,
90,-8.80000e-01,
91,-4.80000e-01,
92,-5.20000e-01,
93,-8.00000e-02,
94,-1.60000e-01,
95,3.20000e-01,
96,2.80000e-01,
97,7.20000e-01,
98,6.40000e-01,
99,1.08000e+00,
100,1.00000e+00,
101,1.44000e+00,
102,1.40000e+00,
103,1.80000e+00,
104,1.72000e+00,
105,2.12000e+00,
106,2.04000e+00,
107,2.40000e+00,
108,2.36000e+00,
109,2.64000e+00,
110,2.60000e+00,
111,2.88000e+00,
112,2.84000e+00,
113,3.08000e+00,
114,3.00000e+00,
115,3.20000e+00,
116,3.12000e+00,
117,3.28000e+00,
118,3.20000e+00,
119,3.36000e+00,
120,3.24000e+00,
121,3.36000e+00,
122,3.36000e+00,
123,3.20000e+00,
124,3.28000e+00,
125,3.12000e+00,
126,3.20000e+00,
127,3.00000e+00,
128,3.08000e+00,
129,2.80000e+00,
130,2.88000e+00,
131,2.60000e+00,
132,2.64000e+00,
133,2.32000e+00,
134,2.40000e+00,
135,2.04000e+00,
136,2.12000e+00,
137,1.72000e+00,
138,1.80000e+00,
139,1.36000e+00,
140,1.44000e+00,
141,1.04000e+00,
142,1.08000e+00,
143,6.40000e-01,
144,7.20000e-01,
145,2.80000e-01,
146,3.20000e-01,
147,-1.20000e-01,
148,-8.00000e-02,
149,-5.20000e-01,
150,-4.80000e-01,
151,-8.80000e-01,
152,-8.80000e-01,
153,-1.28000e+00,
154,-1.24000e+00,
155,-1.64000e+00,
156,-1.56000e+00,
157,-1.96000e+00,
158,-1.92000e+00,
159,-2.28000e+00,
160,-2.20000e+00,
161,-2.56000e+00,
162,-2.48000e+00,
163,-2.80000e+00,
164,-2.72000e+00,
165,-3.00000e+00,
166,-2.92000e+00,
167,-3.12000e+00,
168,-3.04000e+00,
169,-3.24000e+00,
170,-3.16000e+00,
171,-3.28000e+00,
172,-3.28000e+00,
173,-3.20000e+00,
174,-3.28000e+00,
175,-3.20000e+00,
176,-3.28000e+00,
177,-3.12000e+00,
178,-3.20000e+00,
179,-3.00000e+00,
180,-3.08000e+00,
181,-2.84000e+00,
182,-2.88000e+00,
183,-2.64000e+00,
184,-2.72000e+00,
185,-2.40000e+00,
186,-2.48000e+00,
187,-2.12000e+00,
188,-2.16000e+00,
189,-1.80000e+00,
190,-1.84000e+00,
191,-1.44000e+00,
192,-1.52000e+00,
193,-1.12000e+00,
194,-1.16000e+00,
195,-7.20000e-01,
196,-7.60000e-01,
197,-3.20000e-01,
198,-4.00000e-01,
199,4.00000e-02,
200,4.00000e-02,
201,4.80000e-01,
202,4.00000e-01,
203,8.40000e-01,
204,8.00000e-01,
205,1.24000e+00,
206,1.16000e+00,
207,1.56000e+00,
208,1.52000e+00,
209,1.92000e+00,
210,1.88000e+00,
211,2.24000e+00,
212,2.20000e+00,
213,2.52000e+00,
214,2.44000e+00,
215,2.76000e+00,
216,2.68000e+00,
217,2.96000e+00,
218,2.88000e+00,
219,3.16000e+00,
220,3.04000e+00,
221,3.28000e+00,
222,3.16000e+00,
223,3.32000e+00,
224,3.24000e+00,
225,3.36000e+00,
226,3.36000e+00,
227,3.24000e+00,
228,3.36000e+00,
229,3.20000e+00,
230,3.28000e+00,
231,3.08000e+00,
232,3.16000e+00,
233,2.92000e+00,
234,3.00000e+00,
235,2.76000e+00,
236,2.84000e+00,
237,2.52000e+00,
238,2.56000e+00,
239,2.24000e+00,
240,2.28000e+00,
241,1.92000e+00,
242,1.96000e+00,
243,1.64000e+00,
244,1.64000e+00,
245,1.24000e+00,
246,1.32000e+00,
247,8.80000e-01,
248,9.60000e-01,
249,5.20000e-01,
250,5.60000e-01,
251,1.60000e-01,
252,1.60000e-01,
253,-2.80000e-01,
254,-2.00000e-01,
255,-6.40000e-01,
256,-6.40000e-01,
257,-1.00000e+00,
258,-1.00000e+00,
259,-1.40000e+00,
260,-1.32000e+00,
261,-1.72000e+00,
262,-1.68000e+00,
263,-2.04000e+00,
264,-2.00000e+00,
265,-2.36000e+00,
266,-2.28000e+00,
267,-2.64000e+00,
268,-2.56000e+00,
269,-2.84000e+00,
270,-2.80000e+00,
271,-3.04000e+00,
272,-2.96000e+00,
273,-3.16000e+00,
274,-3.08000e+00,
275,-3.24000e+00,
276,-3.16000e+00,
277,-3.28000e+00,
278,-3.20000e+00,
279,-3.28000e+00,
280,-3.28000e+00,
281,-3.16000e+00,
282,-3.24000e+00,
283,-3.08000e+00,
284,-3.16000e+00,
285,-2.92000e+00,
286,-3.00000e+00,
287,-2.76000e+00,
288,-2.84000e+00,
289,-2.52000e+00,
290,-2.60000e+00,
291,-2.32000e+00,
292,-2.32000e+00,
293,-2.00000e+00,
294,-2.04000e+00,
295,-1.64000e+00,
296,-1.72000e+00,
297,-1.32000e+00,
298,-1.36000e+00,
299,-9.60000e-01,
300,-1.00000e+00,
301,-5.60000e-01,
302,-6.00000e-01,
303,-2.00000e-01,
304,-2.40000e-01,
305,2.00000e-01,
306,1.60000e-01,
307,6.00000e-01,
308,5.60000e-01,
309,1.00000e+00,
310,9.20000e-01,
311,1.36000e+00,
312,1.28000e+00,
313,1.68000e+00,
314,1.64000e+00,
315,2.04000e+00,
316,1.96000e+00,
317,2.32000e+00,
318,2.24000e+00,
319,2.60000e+00,
320,2.56000e+00,
321,2.84000e+00,
322,2.76000e+00,
323,3.04000e+00,
324,2.96000e+00,
325,3.20000e+00,
326,3.12000e+00,
327,3.28000e+00,
328,3.20000e+00,
329,3.36000e+00,
330,3.36000e+00,
331,3.24000e+00,
332,3.36000e+00,
333,3.24000e+00,
334,3.32000e+00,
335,3.16000e+00,
336,3.24000e+00,
337,3.04000e+00,
338,3.12000e+00,
339,2.88000e+00,
340,2.96000e+00,
341,2.68000e+00,
342,2.76000e+00,
343,2.40000e+00,
344,2.48000e+00,
345,2.12000e+00,
346,2.20000e+00,
347,1.80000e+00,
348,1.92000e+00,
349,1.48000e+00,
350,1.56000e+00,
351,1.16000e+00,
352,1.20000e+00,
353,7.60000e-01,
354,8.00000e-01,
355,3.60000e-01,
356,4.40000e-01,
357,-4.00000e-02,
358,4.00000e-02,
359,-4.00000e-01,
360,-3.60000e-01,
361,-8.00000e-01,
362,-7.20000e-01,
363,-1.16000e+00,
364,-1.12000e+00,
365,-1.52000e+00,
366,-1.48000e+00,
367,-1.88000e+00,
368,-1.80000e+00,
369,-2.16000e+00,
370,-2.12000e+00,
371,-2.48000e+00,
372,-2.40000e+00,
373,-2.72000e+00,
374,-2.64000e+00,
375,-2.92000e+00,
376,-2.84000e+00,
377,-3.08000e+00,
378,-3.00000e+00,
379,-3.20000e+00,
380,-3.12000e+00,
381,-3.24000e+00,
382,-3.20000e+00,
383,-3.28000e+00,
384,-3.28000e+00,
385,-3.20000e+00,
386,-3.28000e+00,
387,-3.12000e+00,
388,-3.20000e+00,
389,-3.00000e+00,
390,-3.08000e+00,
391,-2.88000e+00,
392,-2.92000e+00,
393,-2.68000e+00,
394,-2.76000e+00,
395,-2.44000e+00,
396,-2.52000e+00,
397,-2.20000e+00,
398,-2.24000e+00,
399,-1.84000e+00,
400,-1.92000e+00,
401,-1.56000e+00,
402,-1.60000e+00,
403,-1.20000e+00,
404,-1.24000e+00,
405,-8.40000e-01,
406,-8.40000e-01,
407,-4.40000e-01,
408,-4.80000e-01,
409,-4.00000e-02,
410,-8.00000e-02,
411,3.60000e-01,
412,3.20000e-01,
413,7.60000e-01,
414,6.80000e-01,
415,1.12000e+00,
416,1.04000e+00,
417,1.52000e+00,
418,1.44000e+00,
419,1.84000e+00,
420,1.76000e+00,
421,2.16000e+00,
422,2.08000e+00,
423,2.44000e+00,
424,2.36000e+00,
425,2.72000e+00,
426,2.64000e+00,
427,2.92000e+00,
428,2.84000e+00,
429,3.08000e+00,
430,3.00000e+00,
431,3.24000e+00,
432,3.12000e+00,
433,3.32000e+00,
434,3.24000e+00,
435,3.36000e+00,
436,3.36000e+00,
437,3.24000e+00,
438,3.36000e+00,
439,3.20000e+00,
440,3.28000e+00,
441,3.12000e+00,
442,3.20000e+00,
443,2.96000e+00,
444,3.04000e+00,
445,2.80000e+00,
446,2.88000e+00,
447,2.60000e+00,
448,2.64000e+00,
449,2.28000e+00,
450,2.36000e+00,
451,2.00000e+00,
452,2.08000e+00,
453,1.72000e+00,
454,1.76000e+00,
455,1.36000e+00,
456,1.40000e+00,
457,9.60000e-01,
458,1.04000e+00,
459,6.00000e-01,
460,6.40000e-01,
461,2.40000e-01,
462,2.80000e-01,
463,-1.60000e-01,
464,-1.20000e-01,
465,-5.60000e-01,
466,-4.80000e-01,
467,-9.20000e-01,
468,-8.80000e-01,
469,-1.32000e+00,
470,-1.24000e+00,
471,-1.64000e+00,
472,-1.60000e+00,
473,-1.96000e+00,
474,-1.92000e+00,
475,-2.28000e+00,
476,-2.24000e+00,
477,-2.56000e+00,
478,-2.52000e+00,
479,-2.80000e+00,
480,-2.72000e+00,
481,-2.96000e+00,
482,-2.92000e+00,
483,-3.12000e+00,
484,-3.04000e+00,
485,-3.24000e+00,
486,-3.16000e+00,
487,-3.28000e+00,
488,-3.20000e+00,
489,-3.32000e+00,
490,-3.20000e+00,
491,-3.32000e+00,
492,-3.28000e+00,
493,-3.12000e+00,
494,-3.20000e+00,
495,-2.96000e+00,
496,-3.04000e+00,
497,-2.84000e+00,
498,-2.88000e+00,
499,-2.60000e+00,
500,-2.68000e+00,
501,-2.36000e+00,
502,-2.44000e+00,
503,-2.08000e+00,
504,-2.12000e+00,
505,-1.76000e+00,
506,-1.80000e+00,
507,-1.44000e+00,
508,-1.48000e+00,
509,-1.08000e+00,
510,-1.12000e+00,
511,-6.80000e-01,
512,-7.20000e-01,
513,-2.80000e-01,
514,-3.20000e-01,
515,8.00000e-02,
516,8.00000e-02,
517,5.20000e-01,
518,4.80000e-01,
519,8.80000e-01,
520,8.40000e-01,
521,1.24000e+00,
522,1.24000e+00,
523,1.64000e+00,
524,1.56000e+00,
525,1.96000e+00,
526,1.88000e+00,
527,2.28000e+00,
528,2.20000e+00,
529,2.52000e+00,
530,2.48000e+00,
531,2.76000e+00,
532,2.72000e+00,
533,3.00000e+00,
534,2.92000e+00,
535,3.16000e+00,
536,3.04000e+00,
537,3.28000e+00,
538,3.16000e+00,
539,3.32000e+00,
540,3.24000e+00,
541,3.36000e+00,
542,3.36000e+00,
543,3.24000e+00,
544,3.36000e+00,
545,3.20000e+00,
546,3.28000e+00,
547,3.08000e+00,
548,3.16000e+00,
549,2.92000e+00,
550,3.00000e+00,
551,2.72000e+00,
552,2.76000e+00,
553,2.52000e+00,
554,2.56000e+00,
555,2.20000e+00,
556,2.28000e+00,
557,1.92000e+00,
558,1.96000e+00,
559,1.60000e+00,
560,1.64000e+00,
561,1.24000e+00,
562,1.28000e+00,
563,8.40000e-01,
564,9.20000e-01,
565,4.80000e-01,
566,5.20000e-01,
567,8.00000e-02,
568,1.20000e-01,
569,-3.20000e-01,
570,-2.80000e-01,
571,-6.80000e-01,
572,-6.40000e-01,
573,-1.08000e+00,
574,-1.04000e+00,
575,-1.44000e+00,
576,-1.40000e+00,
577,-1.76000e+00,
578,-1.72000e+00,
579,-2.08000e+00,
580,-2.08000e+00,
581,-2.40000e+00,
582,-2.32000e+00,
583,-2.64000e+00,
584,-2.60000e+00,
585,-2.88000e+00,
586,-2.80000e+00,
587,-3.04000e+00,
588,-2.96000e+00,
589,-3.16000e+00,
590,-3.12000e+00,
591,-3.24000e+00,
592,-3.16000e+00,
593,-3.28000e+00,
594,-3.32000e+00,
595,-3.20000e+00,
596,-3.28000e+00,
597,-3.16000e+00,
598,-3.24000e+00,
599,-3.08000e+00,
600,-3.16000e+00,
601,-2.92000e+00,
602,-3.00000e+00,
603,-2.72000e+00,
604,-2.80000e+00,
605,-2.52000e+00,
606,-2.56000e+00,
607,-2.28000e+00,
608,-2.28000e+00,
609,-1.96000e+00,
610,-2.00000e+00,
611,-1.64000e+00,
612,-1.68000e+00,
613,-1.28000e+00,
614,-1.36000e+00,
615,-9.20000e-01,
616,-9.60000e-01,
617,-5.20000e-01,
618,-5.60000e-01,
619,-1.60000e-01,
620,-2.00000e-01,
621,2.40000e-01,
622,2.40000e-01,
623,6.40000e-01,
624,6.00000e-01,
625,1.04000e+00,
626,9.60000e-01,
627,1.40000e+00,
628,1.36000e+00,
629,1.76000e+00,
630,1.68000e+00,
631,2.08000e+00,
632,2.00000e+00,
633,2.36000e+00,
634,2.28000e+00,
635,2.60000e+00,
636,2.52000e+00,
637,2.88000e+00,
638,2.80000e+00,
639,3.04000e+00,
640,2.96000e+00,
641,3.20000e+00,
642,3.12000e+00,
643,3.28000e+00,
644,3.20000e+00,
645,3.36000e+00,
646,3.36000e+00,
647,3.24000e+00,
648,3.36000e+00,
649,3.24000e+00,
650,3.32000e+00,
651,3.16000e+00,
652,3.24000e+00,
653,3.04000e+00,
654,3.12000e+00,
655,2.84000e+00,
656,2.96000e+00,
657,2.64000e+00,
658,2.72000e+00,
659,2.40000e+00,
660,2.44000e+00,
661,2.12000e+00,
662,2.20000e+00,
663,1.80000e+00,
664,1.88000e+00,
665,1.48000e+00,
666,1.52000e+00,
667,1.08000e+00,
668,1.16000e+00,
669,7.20000e-01,
670,8.00000e-01,
671,3.60000e-01,
672,3.60000e-01,
673,-8.00000e-02,
674,0.00000e+00,
675,-4.40000e-01,
676,-4.00000e-01,
677,-8.40000e-01,
678,-8.00000e-01,
679,-1.24000e+00,
680,-1.16000e+00,
681,-1.56000e+00,
682,-1.56000e+00,
683,-1.88000e+00,
684,-1.88000e+00,
685,-2.20000e+00,
686,-2.16000e+00,
687,-2.52000e+00,
688,-2.44000e+00,
689,-2.76000e+00,
690,-2.68000e+00,
691,-2.96000e+00,
692,-2.92000e+00,
693,-3.12000e+00,
694,-3.04000e+00,
695,-3.20000e+00,
696,-3.12000e+00,
697,-3.28000e+00,
698,-3.20000e+00,
699,-3.32000e+00,
700,-3.32000e+00,
701,-3.20000e+00,
702,-3.28000e+00,
703,-3.12000e+00,
704,-3.20000e+00,
705,-3.00000e+00,
706,-3.08000e+00,
707,-2.88000e+00,
708,-2.92000e+00,
709,-2.68000e+00,
710,-2.76000e+00,
711,-2.44000e+00,
712,-2.48000e+00,
713,-2.16000e+00,
714,-2.24000e+00,
715,-1.84000e+00,
716,-1.88000e+00,
717,-1.48000e+00,
718,-1.56000e+00,
719,-1.16000e+00,
720,-1.20000e+00,
721,-7.60000e-01,
722,-8.00000e-01,
723,-3.60000e-01,
724,-4.40000e-01,
725,0.00000e+00,
726,-8.00000e-02,
727,4.00000e-01,
728,3.60000e-01,
729,8.00000e-01,
730,7.20000e-01,
731,1.16000e+00,
732,1.08000e+00,
733,1.52000e+00,
734,1.48000e+00,
735,1.88000e+00,
736,1.80000e+00,
737,2.20000e+00,
738,2.12000e+00,
739,2.48000e+00,
740,2.44000e+00,
741,2.76000e+00,
742,2.68000e+00,
743,2.96000e+00,
744,2.84000e+00,
745,3.12000e+00,
746,3.04000e+00,
747,3.24000e+00,
748,3.16000e+00,
749,3.32000e+00,
750,3.24000e+00,
751,3.36000e+00,
752,3.36000e+00,
753,3.24000e+00,
754,3.32000e+00,
755,3.20000e+00,
756,3.28000e+00,
757,3.12000e+00,
758,3.20000e+00,
759,2.96000e+00,
760,3.04000e+00,
761,2.80000e+00,
762,2.88000e+00,
763,2.52000e+00,
764,2.60000e+00,
765,2.28000e+00,
766,2.36000e+00,
767,2.00000e+00,
768,2.08000e+00,
769,1.68000e+00,
770,1.76000e+00,
771,1.32000e+00,
772,1.36000e+00,
773,9.60000e-01,
774,1.00000e+00,
775,5.60000e-01,
776,6.40000e-01,
777,2.00000e-01,
778,2.40000e-01,
779,-2.00000e-01,
780,-1.60000e-01,
781,-6.00000e-01,
782,-5.20000e-01,
783,-9.60000e-01,
784,-9.60000e-01,
785,-1.36000e+00,
786,-1.28000e+00,
787,-1.72000e+00,
788,-1.64000e+00,
789,-2.00000e+00,
790,-1.96000e+00,
791,-2.36000e+00,
792,-2.28000e+00,
793,-2.60000e+00,
794,-2.52000e+00,
795,-2.84000e+00,
796,-2.76000e+00,
797,-3.00000e+00,
798,-2.92000e+00,
799,-3.16000e+00,
800,-3.08000e+00,
801,-3.24000e+00,
802,-3.16000e+00,
803,-3.28000e+00,
804,-3.20000e+00,
805,-3.28000e+00,
806,-3.28000e+00,
807,-3.16000e+00,
808,-3.24000e+00,
809,-3.08000e+00,
810,-3.16000e+00,
811,-2.96000e+00,
812,-3.04000e+00,
813,-2.80000e+00,
814,-2.84000e+00,
815,-2.56000e+00,
816,-2.64000e+00,
817,-2.32000e+00,
818,-2.40000e+00,
819,-2.04000e+00,
820,-2.08000e+00,
821,-1.72000e+00,
822,-1.76000e+00,
823,-1.36000e+00,
824,-1.44000e+00,
825,-1.04000e+00,
826,-1.08000e+00,
827,-6.40000e-01,
828,-6.80000e-01,
829,-2.40000e-01,
830,-2.80000e-01,
831,1.60000e-01,
832,8.00000e-02,
833,5.60000e-01,
834,4.80000e-01,
835,9.20000e-01,
836,8.80000e-01,
837,1.32000e+00,
838,1.24000e+00,
839,1.68000e+00,
840,1.60000e+00,
841,2.00000e+00,
842,1.92000e+00,
843,2.28000e+00,
844,2.20000e+00,
845,2.56000e+00,
846,2.48000e+00,
847,2.80000e+00,
848,2.72000e+00,
849,3.00000e+00,
850,2.92000e+00,
851,3.16000e+00,
852,3.08000e+00,
853,3.28000e+00,
854,3.20000e+00,
855,3.36000e+00,
856,3.24000e+00,
857,3.36000e+00,
858,3.36000e+00,
859,3.24000e+00,
860,3.32000e+00,
861,3.16000e+00,
862,3.28000e+00,
863,3.04000e+00,
864,3.12000e+00,
865,2.88000e+00,
866,2.92000e+00,
867,2.68000e+00,
868,2.80000e+00,
869,2.48000e+00,
870,2.52000e+00,
871,2.16000e+00,
872,2.24000e+00,
873,1.88000e+00,
874,1.96000e+00,
875,1.56000e+00,
876,1.64000e+00,
877,1.16000e+00,
878,1.24000e+00,
879,8.00000e-01,
880,8.80000e-01,
881,4.40000e-01,
882,5.20000e-01,
883,4.00000e-02,
884,8.00000e-02,
885,-3.60000e-01,
886,-3.20000e-01,
887,-7.20000e-01,
888,-6.80000e-01,
889,-1.12000e+00,
890,-1.08000e+00,
891,-1.48000e+00,
892,-1.40000e+00,
893,-1.80000e+00,
894,-1.76000e+00,
895,-2.12000e+00,
896,-2.08000e+00,
897,-2.40000e+00,
898,-2.36000e+00,
899,-2.68000e+00,
900,-2.60000e+00,
901,-2.88000e+00,
902,-2.80000e+00,
903,-3.04000e+00,
904,-3.00000e+00,
905,-3.16000e+00,
906,-3.08000e+00,
907,-3.24000e+00,
908,-3.20000e+00,
909,-3.32000e+00,
910,-3.20000e+00,
911,-3.32000e+00,
912,-3.28000e+00,
913,-3.16000e+00,
914,-3.24000e+00,
915,-3.04000e+00,
916,-3.12000e+00,
917,-2.92000e+00,
918,-3.00000e+00,
919,-2.72000e+00,
920,-2.80000e+00,
921,-2.48000e+00,
922,-2.56000e+00,
923,-2.24000e+00,
924,-2.28000e+00,
925,-1.92000e+00,
926,-1.96000e+00,
927,-1.60000e+00,
928,-1.64000e+00,
929,-1.24000e+00,
930,-1.28000e+00,
931,-8.40000e-01,
932,-9.20000e-01,
933,-4.80000e-01,
934,-5.60000e-01,
935,-1.20000e-01,
936,-1.60000e-01,
937,2.80000e-01,
938,2.40000e-01,
939,7.20000e-01,
940,6.40000e-01,
941,1.04000e+00,
942,1.00000e+00,
943,1.40000e+00,
944,1.40000e+00,
945,1.80000e+00,
946,1.72000e+00,
947,2.12000e+00,
948,2.04000e+00,
949,2.40000e+00,
950,2.32000e+00,
951,2.64000e+00,
952,2.60000e+00,
953,2.88000e+00,
954,2.80000e+00,
955,3.08000e+00,
956,3.00000e+00,
957,3.20000e+00,
958,3.12000e+00,
959,3.32000e+00,
960,3.20000e+00,
961,3.36000e+00,
962,3.36000e+00,
963,3.24000e+00,
964,3.36000e+00,
965,3.20000e+00,
966,3.32000e+00,
967,3.12000e+00,
968,3.20000e+00,
969,3.00000e+00,
970,3.08000e+00,
971,2.80000e+00,
972,2.92000e+00,
973,2.60000e+00,
974,2.68000e+00,
975,2.40000e+00,
976,2.44000e+00,
977,2.08000e+00,
978,2.16000e+00,
979,1.76000e+00,
980,1.84000e+00,
981,1.44000e+00,
982,1.48000e+00,
983,1.04000e+00,
984,1.12000e+00,
985,6.80000e-01,
986,7.60000e-01,
987,3.20000e-01,
988,3.20000e-01,
989,-1.20000e-01,
990,-4.00000e-02,
991,-4.80000e-01,
992,-4.40000e-01,
993,-8.40000e-01,
994,-8.40000e-01,
995,-1.20000e+00,
996,-1.20000e+00,
997,-1.60000e+00,
998,-1.52000e+00,
999,-1.92000e+00,
1000,-1.88000e+00,
1001,-2.24000e+00,
1002,-2.20000e+00,
1003,-2.52000e+00,
1004,-2.44000e+00,
1005,-2.76000e+00,
1006,-2.68000e+00,
1007,-2.96000e+00,
1008,-2.88000e+00,
1009,-3.08000e+00,
1010,-3.00000e+00,
1011,-3.20000e+00,
1012,-3.12000e+00,
1013,-3.28000e+00,
1014,-3.28000e+00,
1015,-3.20000e+00,
1016,-3.32000e+00,
1017,-3.20000e+00,
1018,-3.28000e+00,
1019,-3.16000e+00,
1020,-3.20000e+00,
1021,-3.00000e+00,
1022,-3.08000e+00,
1023,-2.84000e+00,
1024,-2.92000e+00,
1025,-2.64000e+00,
1026,-2.72000e+00,
1027,-2.40000e+00,
1028,-2.48000e+00,
1029,-2.12000e+00,
1030,-2.20000e+00,
1031,-1.80000e+00,
1032,-1.88000e+00,
1033,-1.48000e+00,
1034,-1.52000e+00,
1035,-1.12000e+00,
1036,-1.20000e+00,
1037,-7.20000e-01,
1038,-7.60000e-01,
1039,-3.20000e-01,
1040,-4.00000e-01,
1041,4.00000e-02,
1042,0.00000e+00,
1043,4.40000e-01,
1044,4.00000e-01,
1045,8.40000e-01,
1046,7.60000e-01,
1047,1.20000e+00,
1048,1.12000e+00,
1049,1.60000e+00,
1050,1.52000e+00,
1051,1.92000e+00,
1052,1.84000e+00,
1053,2.24000e+00,
1054,2.16000e+00,
1055,2.48000e+00,
1056,2.40000e+00,
1057,2.72000e+00,
1058,2.68000e+00,
1059,2.96000e+00,
1060,2.88000e+00,
1061,3.12000e+00,
1062,3.04000e+00,
1063,3.24000e+00,
1064,3.16000e+00,
1065,3.32000e+00,
1066,3.24000e+00,
1067,3.36000e+00,
1068,3.36000e+00,
1069,3.24000e+00,
1070,3.36000e+00,
1071,3.20000e+00,
1072,3.28000e+00,
1073,3.08000e+00,
1074,3.16000e+00,
1075,2.96000e+00,
1076,3.00000e+00,
1077,2.76000e+00,
1078,2.84000e+00,
1079,2.52000e+00,
1080,2.60000e+00,
1081,2.24000e+00,
1082,2.32000e+00,
1083,1.96000e+00,
1084,2.04000e+00,
1085,1.64000e+00,
1086,1.72000e+00,
1087,1.28000e+00,
1088,1.32000e+00,
1089,8.80000e-01,
1090,9.60000e-01,
1091,5.20000e-01,
1092,5.60000e-01,
1093,1.20000e-01,
1094,1.60000e-01,
1095,-2.80000e-01,
1096,-2.00000e-01,
1097,-6.40000e-01,
1098,-5.60000e-01,
1099,-1.00000e+00,
1100,-9.60000e-01,
1101,-1.40000e+00,
1102,-1.36000e+00,
1103,-1.76000e+00,
1104,-1.68000e+00,
1105,-2.04000e+00,
1106,-2.00000e+00,
1107,-2.36000e+00,
1108,-2.32000e+00,
1109,-2.64000e+00,
1110,-2.56000e+00,
1111,-2.84000e+00,
1112,-2.80000e+00,
1113,-3.04000e+00,
1114,-2.96000e+00,
1115,-3.16000e+00,
1116,-3.08000e+00,
1117,-3.24000e+00,
1118,-3.20000e+00,
1119,-3.32000e+00,
1120,-3.32000e+00,
1121,-3.20000e+00,
1122,-3.28000e+00,
1123,-3.16000e+00,
1124,-3.24000e+00,
1125,-3.12000e+00,
1126,-3.16000e+00,
1127,-2.96000e+00,
1128,-3.04000e+00,
1129,-2.76000e+00,
1130,-2.84000e+00,
1131,-2.56000e+00,
1132,-2.64000e+00,
1133,-2.32000e+00,
1134,-2.36000e+00,
1135,-2.04000e+00,
1136,-2.04000e+00,
1137,-1.68000e+00,
