DataAnalysis/Johnson_noise/2017_johnson_noise/data_MUIC_nop_anan/NewFile28.csv

X,CH1,Start,Increment,
Sequence,Volt,-3.60000e-03,1.00000e-05
0,2.20000e+00,
1,1.76000e+00,
2,1.80000e+00,
3,1.32000e+00,
4,1.36000e+00,
5,8.80000e-01,
6,9.60000e-01,
7,4.80000e-01,
8,4.80000e-01,
9,4.00000e-02,
10,4.00000e-02,
11,-4.80000e-01,
12,-4.00000e-01,
13,-8.80000e-01,
14,-8.80000e-01,
15,-1.36000e+00,
16,-1.28000e+00,
17,-1.76000e+00,
18,-1.68000e+00,
19,-2.12000e+00,
20,-2.12000e+00,
21,-2.48000e+00,
22,-2.44000e+00,
23,-2.84000e+00,
24,-2.76000e+00,
25,-3.08000e+00,
26,-3.04000e+00,
27,-3.32000e+00,
28,-3.28000e+00,
29,-3.52000e+00,
30,-3.44000e+00,
31,-3.56000e+00,
32,-3.56000e+00,
33,-3.68000e+00,
34,-3.60000e+00,
35,-3.64000e+00,
36,-3.68000e+00,
37,-3.56000e+00,
38,-3.64000e+00,
39,-3.44000e+00,
40,-3.52000e+00,
41,-3.28000e+00,
42,-3.32000e+00,
43,-3.00000e+00,
44,-3.08000e+00,
45,-2.76000e+00,
46,-2.84000e+00,
47,-2.48000e+00,
48,-2.52000e+00,
49,-2.12000e+00,
50,-2.12000e+00,
51,-1.72000e+00,
52,-1.76000e+00,
53,-1.32000e+00,
54,-1.36000e+00,
55,-8.80000e-01,
56,-9.20000e-01,
57,-4.00000e-01,
58,-4.80000e-01,
59,4.00000e-02,
60,-4.00000e-02,
61,5.20000e-01,
62,4.40000e-01,
63,9.60000e-01,
64,8.80000e-01,
65,1.36000e+00,
66,1.36000e+00,
67,1.80000e+00,
68,1.76000e+00,
69,2.20000e+00,
70,2.12000e+00,
71,2.52000e+00,
72,2.48000e+00,
73,2.88000e+00,
74,2.80000e+00,
75,3.12000e+00,
76,3.04000e+00,
77,3.32000e+00,
78,3.24000e+00,
79,3.48000e+00,
80,3.40000e+00,
81,3.60000e+00,
82,3.52000e+00,
83,3.68000e+00,
84,3.68000e+00,
85,3.56000e+00,
86,3.68000e+00,
87,3.52000e+00,
88,3.60000e+00,
89,3.40000e+00,
90,3.52000e+00,
91,3.24000e+00,
92,3.36000e+00,
93,3.08000e+00,
94,3.16000e+00,
95,2.80000e+00,
96,2.84000e+00,
97,2.44000e+00,
98,2.52000e+00,
99,2.12000e+00,
100,2.20000e+00,
101,1.72000e+00,
102,1.80000e+00,
103,1.32000e+00,
104,1.36000e+00,
105,9.20000e-01,
106,9.60000e-01,
107,4.80000e-01,
108,5.20000e-01,
109,0.00000e+00,
110,4.00000e-02,
111,-4.80000e-01,
112,-4.00000e-01,
113,-8.80000e-01,
114,-8.80000e-01,
115,-1.36000e+00,
116,-1.28000e+00,
117,-1.76000e+00,
118,-1.72000e+00,
119,-2.12000e+00,
120,-2.12000e+00,
121,-2.52000e+00,
122,-2.44000e+00,
123,-2.84000e+00,
124,-2.76000e+00,
125,-3.08000e+00,
126,-3.04000e+00,
127,-3.28000e+00,
128,-3.28000e+00,
129,-3.48000e+00,
130,-3.44000e+00,
131,-3.60000e+00,
132,-3.56000e+00,
133,-3.68000e+00,
134,-3.60000e+00,
135,-3.72000e+00,
136,-3.68000e+00,
137,-3.56000e+00,
138,-3.60000e+00,
139,-3.44000e+00,
140,-3.52000e+00,
141,-3.28000e+00,
142,-3.32000e+00,
143,-3.04000e+00,
144,-3.12000e+00,
145,-2.76000e+00,
146,-2.84000e+00,
147,-2.48000e+00,
148,-2.52000e+00,
149,-2.12000e+00,
150,-2.16000e+00,
151,-1.72000e+00,
152,-1.80000e+00,
153,-1.32000e+00,
154,-1.32000e+00,
155,-8.80000e-01,
156,-9.20000e-01,
157,-4.00000e-01,
158,-4.80000e-01,
159,4.00000e-02,
160,0.00000e+00,
161,5.20000e-01,
162,4.80000e-01,
163,9.60000e-01,
164,8.80000e-01,
165,1.36000e+00,
166,1.32000e+00,
167,1.80000e+00,
168,1.72000e+00,
169,2.20000e+00,
170,2.12000e+00,
171,2.52000e+00,
172,2.48000e+00,
173,2.88000e+00,
174,2.80000e+00,
175,3.12000e+00,
176,3.04000e+00,
177,3.36000e+00,
178,3.28000e+00,
179,3.52000e+00,
180,3.40000e+00,
181,3.60000e+00,
182,3.52000e+00,
183,3.68000e+00,
184,3.68000e+00,
185,3.56000e+00,
186,3.64000e+00,
187,3.52000e+00,
188,3.60000e+00,
189,3.44000e+00,
190,3.52000e+00,
191,3.24000e+00,
192,3.32000e+00,
193,3.04000e+00,
194,3.08000e+00,
195,2.80000e+00,
196,2.84000e+00,
197,2.44000e+00,
198,2.52000e+00,
199,2.12000e+00,
200,2.20000e+00,
201,1.76000e+00,
202,1.84000e+00,
203,1.36000e+00,
204,1.40000e+00,
205,8.80000e-01,
206,9.60000e-01,
207,4.80000e-01,
208,5.20000e-01,
209,-4.00000e-02,
210,4.00000e-02,
211,-4.40000e-01,
212,-4.40000e-01,
213,-9.20000e-01,
214,-8.80000e-01,
215,-1.32000e+00,
216,-1.28000e+00,
217,-1.76000e+00,
218,-1.68000e+00,
219,-2.12000e+00,
220,-2.12000e+00,
221,-2.48000e+00,
222,-2.44000e+00,
223,-2.80000e+00,
224,-2.76000e+00,
225,-3.08000e+00,
226,-3.00000e+00,
227,-3.32000e+00,
228,-3.28000e+00,
229,-3.48000e+00,
230,-3.44000e+00,
231,-3.64000e+00,
232,-3.56000e+00,
233,-3.68000e+00,
234,-3.60000e+00,
235,-3.68000e+00,
236,-3.68000e+00,
237,-3.56000e+00,
238,-3.64000e+00,
239,-3.44000e+00,
240,-3.48000e+00,
241,-3.28000e+00,
242,-3.32000e+00,
243,-3.04000e+00,
244,-3.12000e+00,
245,-2.76000e+00,
246,-2.84000e+00,
247,-2.48000e+00,
248,-2.52000e+00,
249,-2.12000e+00,
250,-2.16000e+00,
251,-1.72000e+00,
252,-1.76000e+00,
253,-1.32000e+00,
254,-1.36000e+00,
255,-8.40000e-01,
256,-9.20000e-01,
257,-4.00000e-01,
258,-4.80000e-01,
259,4.00000e-02,
260,-4.00000e-02,
261,4.80000e-01,
262,4.80000e-01,
263,9.60000e-01,
264,8.80000e-01,
265,1.36000e+00,
266,1.36000e+00,
267,1.80000e+00,
268,1.76000e+00,
269,2.16000e+00,
270,2.12000e+00,
271,2.52000e+00,
272,2.48000e+00,
273,2.84000e+00,
274,2.80000e+00,
275,3.12000e+00,
276,3.04000e+00,
277,3.32000e+00,
278,3.24000e+00,
279,3.48000e+00,
280,3.40000e+00,
281,3.60000e+00,
282,3.52000e+00,
283,3.68000e+00,
284,3.56000e+00,
285,3.68000e+00,
286,3.68000e+00,
287,3.52000e+00,
288,3.60000e+00,
289,3.40000e+00,
290,3.48000e+00,
291,3.24000e+00,
292,3.32000e+00,
293,3.04000e+00,
294,3.12000e+00,
295,2.76000e+00,
296,2.84000e+00,
297,2.48000e+00,
298,2.52000e+00,
299,2.12000e+00,
300,2.20000e+00,
301,1.76000e+00,
302,1.80000e+00,
303,1.32000e+00,
304,1.36000e+00,
305,8.80000e-01,
306,9.60000e-01,
307,4.80000e-01,
308,5.20000e-01,
309,0.00000e+00,
310,4.00000e-02,
311,-4.40000e-01,
312,-4.00000e-01,
313,-8.80000e-01,
314,-8.40000e-01,
315,-1.36000e+00,
316,-1.28000e+00,
317,-1.76000e+00,
318,-1.68000e+00,
319,-2.12000e+00,
320,-2.12000e+00,
321,-2.52000e+00,
322,-2.44000e+00,
323,-2.84000e+00,
324,-2.76000e+00,
325,-3.08000e+00,
326,-3.04000e+00,
327,-3.32000e+00,
328,-3.28000e+00,
329,-3.52000e+00,
330,-3.44000e+00,
331,-3.64000e+00,
332,-3.56000e+00,
333,-3.68000e+00,
334,-3.60000e+00,
335,-3.72000e+00,
336,-3.68000e+00,
337,-3.56000e+00,
338,-3.64000e+00,
339,-3.44000e+00,
340,-3.52000e+00,
341,-3.28000e+00,
342,-3.32000e+00,
343,-3.04000e+00,
344,-3.08000e+00,
345,-2.76000e+00,
346,-2.84000e+00,
347,-2.48000e+00,
348,-2.56000e+00,
349,-2.12000e+00,
350,-2.16000e+00,
351,-1.72000e+00,
352,-1.76000e+00,
353,-1.32000e+00,
354,-1.36000e+00,
355,-8.80000e-01,
356,-9.20000e-01,
357,-4.00000e-01,
358,-4.80000e-01,
359,4.00000e-02,
360,-4.00000e-02,
361,4.80000e-01,
362,4.40000e-01,
363,9.60000e-01,
364,8.80000e-01,
365,1.36000e+00,
366,1.32000e+00,
367,1.80000e+00,
368,1.72000e+00,
369,2.20000e+00,
370,2.12000e+00,
371,2.52000e+00,
372,2.48000e+00,
373,2.84000e+00,
374,2.80000e+00,
375,3.12000e+00,
376,3.04000e+00,
377,3.32000e+00,
378,3.24000e+00,
379,3.52000e+00,
380,3.44000e+00,
381,3.60000e+00,
382,3.52000e+00,
383,3.68000e+00,
384,3.68000e+00,
385,3.56000e+00,
386,3.68000e+00,
387,3.52000e+00,
388,3.60000e+00,
389,3.44000e+00,
390,3.52000e+00,
391,3.24000e+00,
392,3.36000e+00,
393,3.04000e+00,
394,3.12000e+00,
395,2.76000e+00,
396,2.84000e+00,
397,2.44000e+00,
398,2.52000e+00,
399,2.12000e+00,
400,2.20000e+00,
401,1.76000e+00,
402,1.80000e+00,
403,1.36000e+00,
404,1.36000e+00,
405,8.80000e-01,
406,9.60000e-01,
407,4.40000e-01,
408,5.20000e-01,
409,-4.00000e-02,
410,4.00000e-02,
411,-4.80000e-01,
412,-4.00000e-01,
413,-8.80000e-01,
414,-8.80000e-01,
415,-1.36000e+00,
416,-1.28000e+00,
417,-1.76000e+00,
418,-1.68000e+00,
419,-2.12000e+00,
420,-2.12000e+00,
421,-2.52000e+00,
422,-2.44000e+00,
423,-2.84000e+00,
424,-2.76000e+00,
425,-3.08000e+00,
426,-3.04000e+00,
427,-3.32000e+00,
428,-3.28000e+00,
429,-3.48000e+00,
430,-3.44000e+00,
431,-3.60000e+00,
432,-3.52000e+00,
433,-3.68000e+00,
434,-3.60000e+00,
435,-3.68000e+00,
436,-3.68000e+00,
437,-3.56000e+00,
438,-3.64000e+00,
439,-3.44000e+00,
440,-3.52000e+00,
441,-3.28000e+00,
442,-3.32000e+00,
443,-3.04000e+00,
444,-3.12000e+00,
445,-2.80000e+00,
446,-2.84000e+00,
447,-2.48000e+00,
448,-2.52000e+00,
449,-2.12000e+00,
450,-2.16000e+00,
451,-1.72000e+00,
452,-1.76000e+00,
453,-1.32000e+00,
454,-1.36000e+00,
455,-8.80000e-01,
456,-9.20000e-01,
457,-4.40000e-01,
458,-4.80000e-01,
459,4.00000e-02,
460,0.00000e+00,
461,5.20000e-01,
462,4.40000e-01,
463,9.60000e-01,
464,8.80000e-01,
465,1.36000e+00,
466,1.32000e+00,
467,1.80000e+00,
468,1.72000e+00,
469,2.16000e+00,
470,2.08000e+00,
471,2.52000e+00,
472,2.44000e+00,
473,2.88000e+00,
474,2.76000e+00,
475,3.12000e+00,
476,3.04000e+00,
477,3.32000e+00,
478,3.24000e+00,
479,3.48000e+00,
480,3.40000e+00,
481,3.60000e+00,
482,3.52000e+00,
483,3.68000e+00,
484,3.56000e+00,
485,3.68000e+00,
486,3.68000e+00,
487,3.52000e+00,
488,3.60000e+00,
489,3.44000e+00,
490,3.52000e+00,
491,3.24000e+00,
492,3.32000e+00,
493,3.04000e+00,
494,3.12000e+00,
495,2.80000e+00,
496,2.88000e+00,
497,2.48000e+00,
498,2.52000e+00,
499,2.12000e+00,
500,2.20000e+00,
501,1.72000e+00,
502,1.80000e+00,
503,1.36000e+00,
504,1.36000e+00,
505,8.80000e-01,
506,9.60000e-01,
507,4.40000e-01,
508,5.20000e-01,
509,0.00000e+00,
510,4.00000e-02,
511,-4.80000e-01,
512,-4.00000e-01,
513,-8.80000e-01,
514,-8.80000e-01,
515,-1.36000e+00,
516,-1.28000e+00,
517,-1.76000e+00,
518,-1.68000e+00,
519,-2.12000e+00,
520,-2.12000e+00,
521,-2.52000e+00,
522,-2.48000e+00,
523,-2.84000e+00,
524,-2.76000e+00,
525,-3.08000e+00,
526,-3.04000e+00,
527,-3.32000e+00,
528,-3.24000e+00,
529,-3.52000e+00,
530,-3.44000e+00,
531,-3.64000e+00,
532,-3.56000e+00,
533,-3.68000e+00,
534,-3.60000e+00,
535,-3.68000e+00,
536,-3.68000e+00,
537,-3.56000e+00,
538,-3.64000e+00,
539,-3.44000e+00,
540,-3.52000e+00,
541,-3.28000e+00,
542,-3.36000e+00,
543,-3.04000e+00,
544,-3.12000e+00,
545,-2.80000e+00,
546,-2.84000e+00,
547,-2.48000e+00,
548,-2.52000e+00,
549,-2.12000e+00,
550,-2.16000e+00,
551,-1.72000e+00,
552,-1.76000e+00,
553,-1.32000e+00,
554,-1.36000e+00,
555,-8.80000e-01,
556,-8.80000e-01,
557,-4.00000e-01,
558,-4.80000e-01,
559,4.00000e-02,
560,-4.00000e-02,
561,4.80000e-01,
562,4.80000e-01,
563,9.60000e-01,
564,8.80000e-01,
565,1.36000e+00,
566,1.32000e+00,
567,1.80000e+00,
568,1.72000e+00,
569,2.20000e+00,
570,2.12000e+00,
571,2.52000e+00,
572,2.48000e+00,
573,2.88000e+00,
574,2.80000e+00,
575,3.12000e+00,
576,3.04000e+00,
577,3.32000e+00,
578,3.24000e+00,
579,3.52000e+00,
580,3.44000e+00,
581,3.60000e+00,
582,3.52000e+00,
583,3.68000e+00,
584,3.68000e+00,
585,3.56000e+00,
586,3.68000e+00,
587,3.52000e+00,
588,3.60000e+00,
589,3.44000e+00,
590,3.52000e+00,
591,3.24000e+00,
592,3.36000e+00,
593,3.04000e+00,
594,3.12000e+00,
595,2.76000e+00,
596,2.80000e+00,
597,2.44000e+00,
598,2.52000e+00,
599,2.12000e+00,
600,2.20000e+00,
601,1.76000e+00,
602,1.80000e+00,
603,1.32000e+00,
604,1.36000e+00,
605,8.80000e-01,
606,9.60000e-01,
607,4.40000e-01,
608,5.20000e-01,
609,0.00000e+00,
610,4.00000e-02,
611,-4.80000e-01,
612,-4.00000e-01,
613,-8.80000e-01,
614,-8.80000e-01,
615,-1.36000e+00,
616,-1.32000e+00,
617,-1.76000e+00,
618,-1.72000e+00,
619,-2.12000e+00,
620,-2.12000e+00,
621,-2.52000e+00,
622,-2.44000e+00,
623,-2.84000e+00,
624,-2.76000e+00,
625,-3.08000e+00,
626,-3.04000e+00,
627,-3.36000e+00,
628,-3.28000e+00,
629,-3.52000e+00,
630,-3.44000e+00,
631,-3.64000e+00,
632,-3.56000e+00,
633,-3.68000e+00,
634,-3.60000e+00,
635,-3.68000e+00,
636,-3.68000e+00,
637,-3.56000e+00,
638,-3.64000e+00,
639,-3.44000e+00,
640,-3.48000e+00,
641,-3.28000e+00,
642,-3.32000e+00,
643,-3.00000e+00,
644,-3.08000e+00,
645,-2.76000e+00,
646,-2.84000e+00,
647,-2.48000e+00,
648,-2.48000e+00,
649,-2.12000e+00,
650,-2.12000e+00,
651,-1.72000e+00,
652,-1.76000e+00,
653,-1.28000e+00,
654,-1.36000e+00,
655,-8.40000e-01,
656,-8.80000e-01,
657,-4.00000e-01,
658,-4.80000e-01,
659,4.00000e-02,
660,-4.00000e-02,
661,4.80000e-01,
662,4.40000e-01,
663,9.20000e-01,
664,8.80000e-01,
665,1.36000e+00,
666,1.32000e+00,
667,1.84000e+00,
668,1.76000e+00,
669,2.16000e+00,
670,2.08000e+00,
671,2.52000e+00,
672,2.48000e+00,
673,2.84000e+00,
674,2.76000e+00,
675,3.12000e+00,
676,3.04000e+00,
677,3.32000e+00,
678,3.24000e+00,
679,3.48000e+00,
680,3.40000e+00,
681,3.60000e+00,
682,3.52000e+00,
683,3.68000e+00,
684,3.68000e+00,
685,3.56000e+00,
686,3.68000e+00,
687,3.52000e+00,
688,3.60000e+00,
689,3.40000e+00,
690,3.48000e+00,
691,3.24000e+00,
692,3.32000e+00,
693,3.08000e+00,
694,3.16000e+00,
695,2.76000e+00,
696,2.84000e+00,
697,2.44000e+00,
698,2.48000e+00,
699,2.12000e+00,
700,2.20000e+00,
701,1.72000e+00,
702,1.80000e+00,
703,1.28000e+00,
704,1.32000e+00,
705,8.80000e-01,
706,9.60000e-01,
707,4.80000e-01,
708,5.20000e-01,
709,0.00000e+00,
710,0.00000e+00,
711,-4.80000e-01,
712,-4.00000e-01,
713,-8.80000e-01,
714,-8.80000e-01,
715,-1.36000e+00,
716,-1.28000e+00,
717,-1.76000e+00,
718,-1.72000e+00,
719,-2.12000e+00,
720,-2.12000e+00,
721,-2.52000e+00,
722,-2.44000e+00,
723,-2.84000e+00,
724,-2.80000e+00,
725,-3.08000e+00,
726,-3.04000e+00,
727,-3.32000e+00,
728,-3.28000e+00,
729,-3.52000e+00,
730,-3.44000e+00,
731,-3.64000e+00,
732,-3.56000e+00,
733,-3.68000e+00,
734,-3.60000e+00,
735,-3.72000e+00,
736,-3.68000e+00,
737,-3.56000e+00,
738,-3.64000e+00,
739,-3.44000e+00,
740,-3.52000e+00,
741,-3.28000e+00,
742,-3.32000e+00,
743,-3.04000e+00,
744,-3.12000e+00,
745,-2.76000e+00,
746,-2.84000e+00,
747,-2.48000e+00,
748,-2.52000e+00,
749,-2.12000e+00,
750,-2.12000e+00,
751,-1.68000e+00,
752,-1.76000e+00,
753,-1.36000e+00,
754,-1.40000e+00,
755,-8.40000e-01,
756,-8.80000e-01,
757,-3.60000e-01,
758,-4.40000e-01,
759,0.00000e+00,
760,-8.00000e-02,
761,5.20000e-01,
762,4.80000e-01,
763,9.60000e-01,
764,8.80000e-01,
765,1.36000e+00,
766,1.32000e+00,
767,1.80000e+00,
768,1.72000e+00,
769,2.20000e+00,
770,2.12000e+00,
771,2.52000e+00,
772,2.48000e+00,
773,2.84000e+00,
774,2.76000e+00,
775,3.12000e+00,
776,3.04000e+00,
777,3.32000e+00,
778,3.28000e+00,
779,3.48000e+00,
780,3.40000e+00,
781,3.60000e+00,
782,3.52000e+00,
783,3.68000e+00,
784,3.68000e+00,
785,3.56000e+00,
786,3.68000e+00,
787,3.52000e+00,
788,3.60000e+00,
789,3.44000e+00,
790,3.52000e+00,
791,3.24000e+00,
792,3.32000e+00,
793,3.04000e+00,
794,3.12000e+00,
795,2.80000e+00,
796,2.84000e+00,
797,2.44000e+00,
798,2.52000e+00,
799,2.12000e+00,
800,2.16000e+00,
801,1.72000e+00,
802,1.76000e+00,
803,1.36000e+00,
804,1.40000e+00,
805,8.80000e-01,
806,9.60000e-01,
807,4.40000e-01,
808,4.80000e-01,
809,0.00000e+00,
810,4.00000e-02,
811,-4.80000e-01,
812,-4.00000e-01,
813,-8.80000e-01,
814,-8.80000e-01,
815,-1.36000e+00,
816,-1.28000e+00,
817,-1.76000e+00,
818,-1.68000e+00,
819,-2.12000e+00,
820,-2.08000e+00,
821,-2.52000e+00,
822,-2.48000e+00,
823,-2.84000e+00,
824,-2.76000e+00,
825,-3.08000e+00,
826,-3.00000e+00,
827,-3.28000e+00,
828,-3.28000e+00,
829,-3.52000e+00,
830,-3.44000e+00,
831,-3.64000e+00,
832,-3.56000e+00,
833,-3.68000e+00,
834,-3.60000e+00,
835,-3.68000e+00,
836,-3.68000e+00,
837,-3.56000e+00,
838,-3.64000e+00,
839,-3.44000e+00,
840,-3.52000e+00,
841,-3.28000e+00,
842,-3.32000e+00,
843,-3.04000e+00,
844,-3.08000e+00,
845,-2.76000e+00,
846,-2.84000e+00,
847,-2.44000e+00,
848,-2.52000e+00,
849,-2.12000e+00,
850,-2.16000e+00,
851,-1.72000e+00,
852,-1.76000e+00,
853,-1.28000e+00,
854,-1.36000e+00,
855,-8.40000e-01,
856,-9.20000e-01,
857,-4.40000e-01,
858,-4.40000e-01,
859,4.00000e-02,
860,-4.00000e-02,
861,5.20000e-01,
862,4.80000e-01,
863,9.60000e-01,
864,8.80000e-01,
865,1.40000e+00,
866,1.36000e+00,
867,1.80000e+00,
868,1.76000e+00,
869,2.20000e+00,
870,2.12000e+00,
871,2.52000e+00,
872,2.44000e+00,
873,2.88000e+00,
874,2.80000e+00,
875,3.08000e+00,
876,3.00000e+00,
877,3.32000e+00,
878,3.24000e+00,
879,3.52000e+00,
880,3.44000e+00,
881,3.60000e+00,
882,3.52000e+00,
883,3.64000e+00,
884,3.56000e+00,
885,3.68000e+00,
886,3.68000e+00,
887,3.52000e+00,
888,3.60000e+00,
889,3.40000e+00,
890,3.48000e+00,
891,3.24000e+00,
892,3.32000e+00,
893,3.04000e+00,
894,3.12000e+00,
895,2.80000e+00,
896,2.88000e+00,
897,2.44000e+00,
898,2.52000e+00,
899,2.12000e+00,
900,2.20000e+00,
901,1.72000e+00,
902,1.80000e+00,
903,1.32000e+00,
904,1.36000e+00,
905,8.80000e-01,
906,9.60000e-01,
907,4.40000e-01,
908,5.20000e-01,
909,0.00000e+00,
910,4.00000e-02,
911,-4.80000e-01,
912,-4.00000e-01,
913,-8.80000e-01,
914,-8.80000e-01,
915,-1.36000e+00,
916,-1.28000e+00,
917,-1.76000e+00,
918,-1.68000e+00,
919,-2.16000e+00,
920,-2.12000e+00,
921,-2.52000e+00,
922,-2.44000e+00,
923,-2.84000e+00,
924,-2.76000e+00,
925,-3.08000e+00,
926,-3.00000e+00,
927,-3.36000e+00,
928,-3.28000e+00,
929,-3.52000e+00,
930,-3.44000e+00,
931,-3.64000e+00,
932,-3.56000e+00,
933,-3.68000e+00,
934,-3.60000e+00,
935,-3.72000e+00,
936,-3.68000e+00,
937,-3.56000e+00,
938,-3.64000e+00,
939,-3.44000e+00,
940,-3.52000e+00,
941,-3.28000e+00,
942,-3.32000e+00,
943,-3.04000e+00,
944,-3.12000e+00,
945,-2.76000e+00,
946,-2.84000e+00,
947,-2.48000e+00,
948,-2.52000e+00,
949,-2.12000e+00,
950,-2.16000e+00,
951,-1.72000e+00,
952,-1.80000e+00,
953,-1.32000e+00,
954,-1.36000e+00,
955,-8.40000e-01,
956,-8.80000e-01,
957,-4.00000e-01,
958,-4.40000e-01,
959,4.00000e-02,
960,-4.00000e-02,
961,5.20000e-01,
962,4.40000e-01,
963,9.60000e-01,
964,8.80000e-01,
965,1.36000e+00,
966,1.36000e+00,
967,1.80000e+00,
968,1.72000e+00,
969,2.20000e+00,
970,2.12000e+00,
971,2.52000e+00,
972,2.44000e+00,
973,2.88000e+00,
974,2.80000e+00,
975,3.12000e+00,
976,3.04000e+00,
977,3.32000e+00,
978,3.24000e+00,
979,3.52000e+00,
980,3.44000e+00,
981,3.60000e+00,
982,3.52000e+00,
983,3.68000e+00,
984,3.68000e+00,
985,3.56000e+00,
986,3.68000e+00,
987,3.52000e+00,
988,3.60000e+00,
989,3.40000e+00,
990,3.48000e+00,
991,3.24000e+00,
992,3.32000e+00,
993,3.04000e+00,
994,3.12000e+00,
995,2.76000e+00,
996,2.84000e+00,
997,2.48000e+00,
998,2.52000e+00,
999,2.12000e+00,
1000,2.20000e+00,
1001,1.72000e+00,
1002,1.80000e+00,
1003,1.32000e+00,
1004,1.36000e+00,
1005,8.80000e-01,
1006,9.60000e-01,
1007,4.80000e-01,
1008,5.20000e-01,
1009,0.00000e+00,
1010,4.00000e-02,
1011,-4.80000e-01,
1012,-4.00000e-01,
1013,-9.20000e-01,
1014,-8.40000e-01,
1015,-1.36000e+00,
1016,-1.28000e+00,
1017,-1.76000e+00,
1018,-1.72000e+00,
1019,-2.16000e+00,
1020,-2.12000e+00,
1021,-2.52000e+00,
1022,-2.44000e+00,
1023,-2.84000e+00,
1024,-2.76000e+00,
1025,-3.08000e+00,
1026,-3.00000e+00,
1027,-3.32000e+00,
1028,-3.28000e+00,
1029,-3.52000e+00,
1030,-3.44000e+00,
1031,-3.64000e+00,
1032,-3.56000e+00,
1033,-3.68000e+00,
1034,-3.60000e+00,
1035,-3.68000e+00,
1036,-3.68000e+00,
1037,-3.56000e+00,
1038,-3.64000e+00,
1039,-3.44000e+00,
1040,-3.52000e+00,
1041,-3.28000e+00,
1042,-3.32000e+00,
1043,-3.04000e+00,
1044,-3.12000e+00,
1045,-2.76000e+00,
1046,-2.80000e+00,
1047,-2.48000e+00,
1048,-2.56000e+00,
1049,-2.12000e+00,
1050,-2.16000e+00,
1051,-1.72000e+00,
1052,-1.80000e+00,
1053,-1.32000e+00,
1054,-1.36000e+00,
1055,-8.80000e-01,
1056,-9.20000e-01,
1057,-4.00000e-01,
1058,-4.80000e-01,
1059,4.00000e-02,
1060,0.00000e+00,
1061,4.80000e-01,
1062,4.40000e-01,
1063,9.60000e-01,
1064,9.20000e-01,
1065,1.36000e+00,
1066,1.32000e+00,
1067,1.80000e+00,
1068,1.76000e+00,
1069,2.20000e+00,
1070,2.12000e+00,
1071,2.52000e+00,
1072,2.44000e+00,
1073,2.84000e+00,
1074,2.80000e+00,
1075,3.12000e+00,
1076,3.04000e+00,
1077,3.32000e+00,
1078,3.24000e+00,
1079,3.48000e+00,
1080,3.40000e+00,
1081,3.60000e+00,
1082,3.52000e+00,
1083,3.68000e+00,
1084,3.56000e+00,
1085,3.68000e+00,
1086,3.68000e+00,
1087,3.52000e+00,
1088,3.60000e+00,
1089,3.40000e+00,
1090,3.48000e+00,
1091,3.24000e+00,
1092,3.32000e+00,
1093,3.04000e+00,
1094,3.12000e+00,
1095,2.76000e+00,
1096,2.84000e+00,
1097,2.48000e+00,
1098,2.52000e+00,
1099,2.12000e+00,
1100,2.16000e+00,
1101,1.76000e+00,
1102,1.80000e+00,
1103,1.32000e+00,
1104,1.36000e+00,
1105,8.80000e-01,
1106,9.60000e-01,
1107,4.40000e-01,
1108,4.80000e-01,
1109,0.00000e+00,
1110,4.00000e-02,
1111,-4.80000e-01,
1112,-4.00000e-01,
1113,-8.80000e-01,
1114,-8.80000e-01,
1115,-1.36000e+00,
1116,-1.32000e+00,
1117,-1.76000e+00,
1118,-1.72000e+00,
1119,-2.16000e+00,
1120,-2.12000e+00,
1121,-2.52000e+00,
1122,-2.48000e+00,
1123,-2.84000e+00,
1124,-2.76000e+00,
1125,-3.08000e+00,
1126,-3.08000e+00,
1127,-3.32000e+00,
1128,-3.28000e+00,
1129,-3.52000e+00,
1130,-3.44000e+00,
1131,-3.60000e+00,
1132,-3.56000e+00,
1133,-3.68000e+00,
1134,-3.60000e+00,
1135,-3.72000e+00,
1136,-3.68000e+00,
